
DiceLock 9.0.0.1

 TEST COMPONENTS:
 ----------------
 DiceLock:           DiceLockIVIndexed class
 Operation Mode:     CFB_Mode class
 Block Cipher:       Camellia256 class
 Key Modifier:       DecreaseBase0IndexModifier_6_0_0_1 class
   Index bit length: 256
 Random tests:       RandomTestSuite class
                     FrequencyTest class
                     BlockFrequencyTest class
                     CumulativeSumForwardTest class
                     LongestRunOfOnesTest class
                     RunsTest class
 Random alpha:       0.001

 VECTOR TEST: Test vector 8 - Plaintext lengths from 1 byte to 16 bytes with byte value 0xYY and symmetric key and IV all byte value 0x00


##### INDIVIDUAL TESTS #####

Number tests: 128


Test: 0
Symmetric key bit length: 256
IV bit length:            128
Plaintext bit length:     8
Symmetric key:            0000000000000000000000000000000000000000000000000000000000000000
IV:                       00000000000000000000000000000000
Plaintext:                00
Ciphertext:               396154111adefc500cf6e5c99038bc1793b05d70003a503bde74c0bc6ada426239
Reciphers for ciphertext: 0
Decipheredtext:           00
RESULT CIPHER-DECIPHER: -----OK-----


Test: 1
Symmetric key bit length: 256
IV bit length:            128
Plaintext bit length:     8
Symmetric key:            0000000000000000000000000000000000000000000000000000000000000000
IV:                       00000000000000000000000000000000
Plaintext:                01
Ciphertext:               396154111adefc500cf6e5c99038bc1793b05d70003a503bde74c0bc6ada426238
Reciphers for ciphertext: 0
Decipheredtext:           01
RESULT CIPHER-DECIPHER: -----OK-----


Test: 2
Symmetric key bit length: 256
IV bit length:            128
Plaintext bit length:     8
Symmetric key:            0000000000000000000000000000000000000000000000000000000000000000
IV:                       00000000000000000000000000000000
Plaintext:                02
Ciphertext:               396154111adefc500cf6e5c99038bc1793b05d70003a503bde74c0bc6ada42623b
Reciphers for ciphertext: 0
Decipheredtext:           02
RESULT CIPHER-DECIPHER: -----OK-----


Test: 3
Symmetric key bit length: 256
IV bit length:            128
Plaintext bit length:     8
Symmetric key:            0000000000000000000000000000000000000000000000000000000000000000
IV:                       00000000000000000000000000000000
Plaintext:                03
Ciphertext:               396154111adefc500cf6e5c99038bc1793b05d70003a503bde74c0bc6ada42623a
Reciphers for ciphertext: 0
Decipheredtext:           03
RESULT CIPHER-DECIPHER: -----OK-----


Test: 4
Symmetric key bit length: 256
IV bit length:            128
Plaintext bit length:     8
Symmetric key:            0000000000000000000000000000000000000000000000000000000000000000
IV:                       00000000000000000000000000000000
Plaintext:                04
Ciphertext:               396154111adefc500cf6e5c99038bc1793b05d70003a503bde74c0bc6ada42623d
Reciphers for ciphertext: 0
Decipheredtext:           04
RESULT CIPHER-DECIPHER: -----OK-----


Test: 5
Symmetric key bit length: 256
IV bit length:            128
Plaintext bit length:     8
Symmetric key:            0000000000000000000000000000000000000000000000000000000000000000
IV:                       00000000000000000000000000000000
Plaintext:                05
Ciphertext:               396154111adefc500cf6e5c99038bc1793b05d70003a503bde74c0bc6ada42623c
Reciphers for ciphertext: 0
Decipheredtext:           05
RESULT CIPHER-DECIPHER: -----OK-----


Test: 6
Symmetric key bit length: 256
IV bit length:            128
Plaintext bit length:     8
Symmetric key:            0000000000000000000000000000000000000000000000000000000000000000
IV:                       00000000000000000000000000000000
Plaintext:                06
Ciphertext:               396154111adefc500cf6e5c99038bc1793b05d70003a503bde74c0bc6ada42623f
Reciphers for ciphertext: 0
Decipheredtext:           06
RESULT CIPHER-DECIPHER: -----OK-----


Test: 7
Symmetric key bit length: 256
IV bit length:            128
Plaintext bit length:     8
Symmetric key:            0000000000000000000000000000000000000000000000000000000000000000
IV:                       00000000000000000000000000000000
Plaintext:                07
Ciphertext:               396154111adefc500cf6e5c99038bc1793b05d70003a503bde74c0bc6ada42623e
Reciphers for ciphertext: 0
Decipheredtext:           07
RESULT CIPHER-DECIPHER: -----OK-----


Test: 8
Symmetric key bit length: 256
IV bit length:            128
Plaintext bit length:     16
Symmetric key:            0000000000000000000000000000000000000000000000000000000000000000
IV:                       00000000000000000000000000000000
Plaintext:                0808
Ciphertext:               396154111adefc500cf6e5c99038bc1793b05d70003a503bde74c0bc6ada42623169
Reciphers for ciphertext: 0
Decipheredtext:           0808
RESULT CIPHER-DECIPHER: -----OK-----


Test: 9
Symmetric key bit length: 256
IV bit length:            128
Plaintext bit length:     16
Symmetric key:            0000000000000000000000000000000000000000000000000000000000000000
IV:                       00000000000000000000000000000000
Plaintext:                0909
Ciphertext:               396154111adefc500cf6e5c99038bc1793b05d70003a503bde74c0bc6ada42623068
Reciphers for ciphertext: 0
Decipheredtext:           0909
RESULT CIPHER-DECIPHER: -----OK-----


Test: 10
Symmetric key bit length: 256
IV bit length:            128
Plaintext bit length:     16
Symmetric key:            0000000000000000000000000000000000000000000000000000000000000000
IV:                       00000000000000000000000000000000
Plaintext:                0a0a
Ciphertext:               396154111adefc500cf6e5c99038bc1793b05d70003a503bde74c0bc6ada4262336b
Reciphers for ciphertext: 0
Decipheredtext:           0a0a
RESULT CIPHER-DECIPHER: -----OK-----


Test: 11
Symmetric key bit length: 256
IV bit length:            128
Plaintext bit length:     16
Symmetric key:            0000000000000000000000000000000000000000000000000000000000000000
IV:                       00000000000000000000000000000000
Plaintext:                0b0b
Ciphertext:               396154111adefc500cf6e5c99038bc1793b05d70003a503bde74c0bc6ada4262326a
Reciphers for ciphertext: 0
Decipheredtext:           0b0b
RESULT CIPHER-DECIPHER: -----OK-----


Test: 12
Symmetric key bit length: 256
IV bit length:            128
Plaintext bit length:     16
Symmetric key:            0000000000000000000000000000000000000000000000000000000000000000
IV:                       00000000000000000000000000000000
Plaintext:                0c0c
Ciphertext:               396154111adefc500cf6e5c99038bc1793b05d70003a503bde74c0bc6ada4262356d
Reciphers for ciphertext: 0
Decipheredtext:           0c0c
RESULT CIPHER-DECIPHER: -----OK-----


Test: 13
Symmetric key bit length: 256
IV bit length:            128
Plaintext bit length:     16
Symmetric key:            0000000000000000000000000000000000000000000000000000000000000000
IV:                       00000000000000000000000000000000
Plaintext:                0d0d
Ciphertext:               396154111adefc500cf6e5c99038bc1793b05d70003a503bde74c0bc6ada4262346c
Reciphers for ciphertext: 0
Decipheredtext:           0d0d
RESULT CIPHER-DECIPHER: -----OK-----


Test: 14
Symmetric key bit length: 256
IV bit length:            128
Plaintext bit length:     16
Symmetric key:            0000000000000000000000000000000000000000000000000000000000000000
IV:                       00000000000000000000000000000000
Plaintext:                0e0e
Ciphertext:               396154111adefc500cf6e5c99038bc1793b05d70003a503bde74c0bc6ada4262376f
Reciphers for ciphertext: 0
Decipheredtext:           0e0e
RESULT CIPHER-DECIPHER: -----OK-----


Test: 15
Symmetric key bit length: 256
IV bit length:            128
Plaintext bit length:     16
Symmetric key:            0000000000000000000000000000000000000000000000000000000000000000
IV:                       00000000000000000000000000000000
Plaintext:                0f0f
Ciphertext:               396154111adefc500cf6e5c99038bc1793b05d70003a503bde74c0bc6ada4262366e
Reciphers for ciphertext: 0
Decipheredtext:           0f0f
RESULT CIPHER-DECIPHER: -----OK-----


Test: 16
Symmetric key bit length: 256
IV bit length:            128
Plaintext bit length:     24
Symmetric key:            0000000000000000000000000000000000000000000000000000000000000000
IV:                       00000000000000000000000000000000
Plaintext:                101010
Ciphertext:               396154111adefc500cf6e5c99038bc1793b05d70003a503bde74c0bc6ada4262297144
Reciphers for ciphertext: 0
Decipheredtext:           101010
RESULT CIPHER-DECIPHER: -----OK-----


Test: 17
Symmetric key bit length: 256
IV bit length:            128
Plaintext bit length:     24
Symmetric key:            0000000000000000000000000000000000000000000000000000000000000000
IV:                       00000000000000000000000000000000
Plaintext:                111111
Ciphertext:               396154111adefc500cf6e5c99038bc1793b05d70003a503bde74c0bc6ada4262287045
Reciphers for ciphertext: 0
Decipheredtext:           111111
RESULT CIPHER-DECIPHER: -----OK-----


Test: 18
Symmetric key bit length: 256
IV bit length:            128
Plaintext bit length:     24
Symmetric key:            0000000000000000000000000000000000000000000000000000000000000000
IV:                       00000000000000000000000000000000
Plaintext:                121212
Ciphertext:               396154111adefc500cf6e5c99038bc1793b05d70003a503bde74c0bc6ada42622b7346
Reciphers for ciphertext: 0
Decipheredtext:           121212
RESULT CIPHER-DECIPHER: -----OK-----


Test: 19
Symmetric key bit length: 256
IV bit length:            128
Plaintext bit length:     24
Symmetric key:            0000000000000000000000000000000000000000000000000000000000000000
IV:                       00000000000000000000000000000000
Plaintext:                131313
Ciphertext:               396154111adefc500cf6e5c99038bc1793b05d70003a503bde74c0bc6ada42622a7247
Reciphers for ciphertext: 0
Decipheredtext:           131313
RESULT CIPHER-DECIPHER: -----OK-----


Test: 20
Symmetric key bit length: 256
IV bit length:            128
Plaintext bit length:     24
Symmetric key:            0000000000000000000000000000000000000000000000000000000000000000
IV:                       00000000000000000000000000000000
Plaintext:                141414
Ciphertext:               396154111adefc500cf6e5c99038bc1793b05d70003a503bde74c0bc6ada42622d7540
Reciphers for ciphertext: 0
Decipheredtext:           141414
RESULT CIPHER-DECIPHER: -----OK-----


Test: 21
Symmetric key bit length: 256
IV bit length:            128
Plaintext bit length:     24
Symmetric key:            0000000000000000000000000000000000000000000000000000000000000000
IV:                       00000000000000000000000000000000
Plaintext:                151515
Ciphertext:               396154111adefc500cf6e5c99038bc1793b05d70003a503bde74c0bc6ada42622c7441
Reciphers for ciphertext: 0
Decipheredtext:           151515
RESULT CIPHER-DECIPHER: -----OK-----


Test: 22
Symmetric key bit length: 256
IV bit length:            128
Plaintext bit length:     24
Symmetric key:            0000000000000000000000000000000000000000000000000000000000000000
IV:                       00000000000000000000000000000000
Plaintext:                161616
Ciphertext:               396154111adefc500cf6e5c99038bc1793b05d70003a503bde74c0bc6ada42622f7742
Reciphers for ciphertext: 0
Decipheredtext:           161616
RESULT CIPHER-DECIPHER: -----OK-----


Test: 23
Symmetric key bit length: 256
IV bit length:            128
Plaintext bit length:     24
Symmetric key:            0000000000000000000000000000000000000000000000000000000000000000
IV:                       00000000000000000000000000000000
Plaintext:                171717
Ciphertext:               396154111adefc500cf6e5c99038bc1793b05d70003a503bde74c0bc6ada42622e7643
Reciphers for ciphertext: 0
Decipheredtext:           171717
RESULT CIPHER-DECIPHER: -----OK-----


Test: 24
Symmetric key bit length: 256
IV bit length:            128
Plaintext bit length:     32
Symmetric key:            0000000000000000000000000000000000000000000000000000000000000000
IV:                       00000000000000000000000000000000
Plaintext:                18181818
Ciphertext:               396154111adefc500cf6e5c99038bc1793b05d70003a503bde74c0bc6ada426221794c09
Reciphers for ciphertext: 0
Decipheredtext:           18181818
RESULT CIPHER-DECIPHER: -----OK-----


Test: 25
Symmetric key bit length: 256
IV bit length:            128
Plaintext bit length:     32
Symmetric key:            0000000000000000000000000000000000000000000000000000000000000000
IV:                       00000000000000000000000000000000
Plaintext:                19191919
Ciphertext:               396154111adefc500cf6e5c99038bc1793b05d70003a503bde74c0bc6ada426220784d08
Reciphers for ciphertext: 0
Decipheredtext:           19191919
RESULT CIPHER-DECIPHER: -----OK-----


Test: 26
Symmetric key bit length: 256
IV bit length:            128
Plaintext bit length:     32
Symmetric key:            0000000000000000000000000000000000000000000000000000000000000000
IV:                       00000000000000000000000000000000
Plaintext:                1a1a1a1a
Ciphertext:               396154111adefc500cf6e5c99038bc1793b05d70003a503bde74c0bc6ada4262237b4e0b
Reciphers for ciphertext: 0
Decipheredtext:           1a1a1a1a
RESULT CIPHER-DECIPHER: -----OK-----


Test: 27
Symmetric key bit length: 256
IV bit length:            128
Plaintext bit length:     32
Symmetric key:            0000000000000000000000000000000000000000000000000000000000000000
IV:                       00000000000000000000000000000000
Plaintext:                1b1b1b1b
Ciphertext:               396154111adefc500cf6e5c99038bc1793b05d70003a503bde74c0bc6ada4262227a4f0a
Reciphers for ciphertext: 0
Decipheredtext:           1b1b1b1b
RESULT CIPHER-DECIPHER: -----OK-----


Test: 28
Symmetric key bit length: 256
IV bit length:            128
Plaintext bit length:     32
Symmetric key:            0000000000000000000000000000000000000000000000000000000000000000
IV:                       00000000000000000000000000000000
Plaintext:                1c1c1c1c
Ciphertext:               396154111adefc500cf6e5c99038bc1793b05d70003a503bde74c0bc6ada4262257d480d
Reciphers for ciphertext: 0
Decipheredtext:           1c1c1c1c
RESULT CIPHER-DECIPHER: -----OK-----


Test: 29
Symmetric key bit length: 256
IV bit length:            128
Plaintext bit length:     32
Symmetric key:            0000000000000000000000000000000000000000000000000000000000000000
IV:                       00000000000000000000000000000000
Plaintext:                1d1d1d1d
Ciphertext:               396154111adefc500cf6e5c99038bc1793b05d70003a503bde74c0bc6ada4262247c490c
Reciphers for ciphertext: 0
Decipheredtext:           1d1d1d1d
RESULT CIPHER-DECIPHER: -----OK-----


Test: 30
Symmetric key bit length: 256
IV bit length:            128
Plaintext bit length:     32
Symmetric key:            0000000000000000000000000000000000000000000000000000000000000000
IV:                       00000000000000000000000000000000
Plaintext:                1e1e1e1e
Ciphertext:               396154111adefc500cf6e5c99038bc1793b05d70003a503bde74c0bc6ada4262277f4a0f
Reciphers for ciphertext: 0
Decipheredtext:           1e1e1e1e
RESULT CIPHER-DECIPHER: -----OK-----


Test: 31
Symmetric key bit length: 256
IV bit length:            128
Plaintext bit length:     32
Symmetric key:            0000000000000000000000000000000000000000000000000000000000000000
IV:                       00000000000000000000000000000000
Plaintext:                1f1f1f1f
Ciphertext:               396154111adefc500cf6e5c99038bc1793b05d70003a503bde74c0bc6ada4262267e4b0e
Reciphers for ciphertext: 0
Decipheredtext:           1f1f1f1f
RESULT CIPHER-DECIPHER: -----OK-----


Test: 32
Symmetric key bit length: 256
IV bit length:            128
Plaintext bit length:     40
Symmetric key:            0000000000000000000000000000000000000000000000000000000000000000
IV:                       00000000000000000000000000000000
Plaintext:                2020202020
Ciphertext:               396154111adefc500cf6e5c99038bc1793b05d70003a503bde74c0bc6ada4262194174313a
Reciphers for ciphertext: 0
Decipheredtext:           2020202020
RESULT CIPHER-DECIPHER: -----OK-----


Test: 33
Symmetric key bit length: 256
IV bit length:            128
Plaintext bit length:     40
Symmetric key:            0000000000000000000000000000000000000000000000000000000000000000
IV:                       00000000000000000000000000000000
Plaintext:                2121212121
Ciphertext:               396154111adefc500cf6e5c99038bc1793b05d70003a503bde74c0bc6ada4262184075303b
Reciphers for ciphertext: 0
Decipheredtext:           2121212121
RESULT CIPHER-DECIPHER: -----OK-----


Test: 34
Symmetric key bit length: 256
IV bit length:            128
Plaintext bit length:     40
Symmetric key:            0000000000000000000000000000000000000000000000000000000000000000
IV:                       00000000000000000000000000000000
Plaintext:                2222222222
Ciphertext:               396154111adefc500cf6e5c99038bc1793b05d70003a503bde74c0bc6ada42621b43763338
Reciphers for ciphertext: 0
Decipheredtext:           2222222222
RESULT CIPHER-DECIPHER: -----OK-----


Test: 35
Symmetric key bit length: 256
IV bit length:            128
Plaintext bit length:     40
Symmetric key:            0000000000000000000000000000000000000000000000000000000000000000
IV:                       00000000000000000000000000000000
Plaintext:                2323232323
Ciphertext:               396154111adefc500cf6e5c99038bc1793b05d70003a503bde74c0bc6ada42621a42773239
Reciphers for ciphertext: 0
Decipheredtext:           2323232323
RESULT CIPHER-DECIPHER: -----OK-----


Test: 36
Symmetric key bit length: 256
IV bit length:            128
Plaintext bit length:     40
Symmetric key:            0000000000000000000000000000000000000000000000000000000000000000
IV:                       00000000000000000000000000000000
Plaintext:                2424242424
Ciphertext:               396154111adefc500cf6e5c99038bc1793b05d70003a503bde74c0bc6ada42621d4570353e
Reciphers for ciphertext: 0
Decipheredtext:           2424242424
RESULT CIPHER-DECIPHER: -----OK-----


Test: 37
Symmetric key bit length: 256
IV bit length:            128
Plaintext bit length:     40
Symmetric key:            0000000000000000000000000000000000000000000000000000000000000000
IV:                       00000000000000000000000000000000
Plaintext:                2525252525
Ciphertext:               396154111adefc500cf6e5c99038bc1793b05d70003a503bde74c0bc6ada42621c4471343f
Reciphers for ciphertext: 0
Decipheredtext:           2525252525
RESULT CIPHER-DECIPHER: -----OK-----


Test: 38
Symmetric key bit length: 256
IV bit length:            128
Plaintext bit length:     40
Symmetric key:            0000000000000000000000000000000000000000000000000000000000000000
IV:                       00000000000000000000000000000000
Plaintext:                2626262626
Ciphertext:               396154111adefc500cf6e5c99038bc1793b05d70003a503bde74c0bc6ada42621f4772373c
Reciphers for ciphertext: 0
Decipheredtext:           2626262626
RESULT CIPHER-DECIPHER: -----OK-----


Test: 39
Symmetric key bit length: 256
IV bit length:            128
Plaintext bit length:     40
Symmetric key:            0000000000000000000000000000000000000000000000000000000000000000
IV:                       00000000000000000000000000000000
Plaintext:                2727272727
Ciphertext:               396154111adefc500cf6e5c99038bc1793b05d70003a503bde74c0bc6ada42621e4673363d
Reciphers for ciphertext: 0
Decipheredtext:           2727272727
RESULT CIPHER-DECIPHER: -----OK-----


Test: 40
Symmetric key bit length: 256
IV bit length:            128
Plaintext bit length:     48
Symmetric key:            0000000000000000000000000000000000000000000000000000000000000000
IV:                       00000000000000000000000000000000
Plaintext:                282828282828
Ciphertext:               396154111adefc500cf6e5c99038bc1793b05d70003a503bde74c0bc6ada426211497c3932f6
Reciphers for ciphertext: 0
Decipheredtext:           282828282828
RESULT CIPHER-DECIPHER: -----OK-----


Test: 41
Symmetric key bit length: 256
IV bit length:            128
Plaintext bit length:     48
Symmetric key:            0000000000000000000000000000000000000000000000000000000000000000
IV:                       00000000000000000000000000000000
Plaintext:                292929292929
Ciphertext:               396154111adefc500cf6e5c99038bc1793b05d70003a503bde74c0bc6ada426210487d3833f7
Reciphers for ciphertext: 0
Decipheredtext:           292929292929
RESULT CIPHER-DECIPHER: -----OK-----


Test: 42
Symmetric key bit length: 256
IV bit length:            128
Plaintext bit length:     48
Symmetric key:            0000000000000000000000000000000000000000000000000000000000000000
IV:                       00000000000000000000000000000000
Plaintext:                2a2a2a2a2a2a
Ciphertext:               396154111adefc500cf6e5c99038bc1793b05d70003a503bde74c0bc6ada4262134b7e3b30f4
Reciphers for ciphertext: 0
Decipheredtext:           2a2a2a2a2a2a
RESULT CIPHER-DECIPHER: -----OK-----


Test: 43
Symmetric key bit length: 256
IV bit length:            128
Plaintext bit length:     48
Symmetric key:            0000000000000000000000000000000000000000000000000000000000000000
IV:                       00000000000000000000000000000000
Plaintext:                2b2b2b2b2b2b
Ciphertext:               396154111adefc500cf6e5c99038bc1793b05d70003a503bde74c0bc6ada4262124a7f3a31f5
Reciphers for ciphertext: 0
Decipheredtext:           2b2b2b2b2b2b
RESULT CIPHER-DECIPHER: -----OK-----


Test: 44
Symmetric key bit length: 256
IV bit length:            128
Plaintext bit length:     48
Symmetric key:            0000000000000000000000000000000000000000000000000000000000000000
IV:                       00000000000000000000000000000000
Plaintext:                2c2c2c2c2c2c
Ciphertext:               396154111adefc500cf6e5c99038bc1793b05d70003a503bde74c0bc6ada4262154d783d36f2
Reciphers for ciphertext: 0
Decipheredtext:           2c2c2c2c2c2c
RESULT CIPHER-DECIPHER: -----OK-----


Test: 45
Symmetric key bit length: 256
IV bit length:            128
Plaintext bit length:     48
Symmetric key:            0000000000000000000000000000000000000000000000000000000000000000
IV:                       00000000000000000000000000000000
Plaintext:                2d2d2d2d2d2d
Ciphertext:               396154111adefc500cf6e5c99038bc1793b05d70003a503bde74c0bc6ada4262144c793c37f3
Reciphers for ciphertext: 0
Decipheredtext:           2d2d2d2d2d2d
RESULT CIPHER-DECIPHER: -----OK-----


Test: 46
Symmetric key bit length: 256
IV bit length:            128
Plaintext bit length:     48
Symmetric key:            0000000000000000000000000000000000000000000000000000000000000000
IV:                       00000000000000000000000000000000
Plaintext:                2e2e2e2e2e2e
Ciphertext:               396154111adefc500cf6e5c99038bc1793b05d70003a503bde74c0bc6ada4262174f7a3f34f0
Reciphers for ciphertext: 0
Decipheredtext:           2e2e2e2e2e2e
RESULT CIPHER-DECIPHER: -----OK-----


Test: 47
Symmetric key bit length: 256
IV bit length:            128
Plaintext bit length:     48
Symmetric key:            0000000000000000000000000000000000000000000000000000000000000000
IV:                       00000000000000000000000000000000
Plaintext:                2f2f2f2f2f2f
Ciphertext:               396154111adefc500cf6e5c99038bc1793b05d70003a503bde74c0bc6ada4262164e7b3e35f1
Reciphers for ciphertext: 0
Decipheredtext:           2f2f2f2f2f2f
RESULT CIPHER-DECIPHER: -----OK-----


Test: 48
Symmetric key bit length: 256
IV bit length:            128
Plaintext bit length:     56
Symmetric key:            0000000000000000000000000000000000000000000000000000000000000000
IV:                       00000000000000000000000000000000
Plaintext:                30303030303030
Ciphertext:               396154111adefc500cf6e5c99038bc1793b05d70003a503bde74c0bc6ada4262095164212aeecc
Reciphers for ciphertext: 0
Decipheredtext:           30303030303030
RESULT CIPHER-DECIPHER: -----OK-----


Test: 49
Symmetric key bit length: 256
IV bit length:            128
Plaintext bit length:     56
Symmetric key:            0000000000000000000000000000000000000000000000000000000000000000
IV:                       00000000000000000000000000000000
Plaintext:                31313131313131
Ciphertext:               396154111adefc500cf6e5c99038bc1793b05d70003a503bde74c0bc6ada4262085065202befcd
Reciphers for ciphertext: 0
Decipheredtext:           31313131313131
RESULT CIPHER-DECIPHER: -----OK-----


Test: 50
Symmetric key bit length: 256
IV bit length:            128
Plaintext bit length:     56
Symmetric key:            0000000000000000000000000000000000000000000000000000000000000000
IV:                       00000000000000000000000000000000
Plaintext:                32323232323232
Ciphertext:               396154111adefc500cf6e5c99038bc1793b05d70003a503bde74c0bc6ada42620b53662328ecce
Reciphers for ciphertext: 0
Decipheredtext:           32323232323232
RESULT CIPHER-DECIPHER: -----OK-----


Test: 51
Symmetric key bit length: 256
IV bit length:            128
Plaintext bit length:     56
Symmetric key:            0000000000000000000000000000000000000000000000000000000000000000
IV:                       00000000000000000000000000000000
Plaintext:                33333333333333
Ciphertext:               396154111adefc500cf6e5c99038bc1793b05d70003a503bde74c0bc6ada42620a52672229edcf
Reciphers for ciphertext: 0
Decipheredtext:           33333333333333
RESULT CIPHER-DECIPHER: -----OK-----


Test: 52
Symmetric key bit length: 256
IV bit length:            128
Plaintext bit length:     56
Symmetric key:            0000000000000000000000000000000000000000000000000000000000000000
IV:                       00000000000000000000000000000000
Plaintext:                34343434343434
Ciphertext:               396154111adefc500cf6e5c99038bc1793b05d70003a503bde74c0bc6ada42620d5560252eeac8
Reciphers for ciphertext: 0
Decipheredtext:           34343434343434
RESULT CIPHER-DECIPHER: -----OK-----


Test: 53
Symmetric key bit length: 256
IV bit length:            128
Plaintext bit length:     56
Symmetric key:            0000000000000000000000000000000000000000000000000000000000000000
IV:                       00000000000000000000000000000000
Plaintext:                35353535353535
Ciphertext:               396154111adefc500cf6e5c99038bc1793b05d70003a503bde74c0bc6ada42620c5461242febc9
Reciphers for ciphertext: 0
Decipheredtext:           35353535353535
RESULT CIPHER-DECIPHER: -----OK-----


Test: 54
Symmetric key bit length: 256
IV bit length:            128
Plaintext bit length:     56
Symmetric key:            0000000000000000000000000000000000000000000000000000000000000000
IV:                       00000000000000000000000000000000
Plaintext:                36363636363636
Ciphertext:               396154111adefc500cf6e5c99038bc1793b05d70003a503bde74c0bc6ada42620f5762272ce8ca
Reciphers for ciphertext: 0
Decipheredtext:           36363636363636
RESULT CIPHER-DECIPHER: -----OK-----


Test: 55
Symmetric key bit length: 256
IV bit length:            128
Plaintext bit length:     56
Symmetric key:            0000000000000000000000000000000000000000000000000000000000000000
IV:                       00000000000000000000000000000000
Plaintext:                37373737373737
Ciphertext:               396154111adefc500cf6e5c99038bc1793b05d70003a503bde74c0bc6ada42620e5663262de9cb
Reciphers for ciphertext: 0
Decipheredtext:           37373737373737
RESULT CIPHER-DECIPHER: -----OK-----


Test: 56
Symmetric key bit length: 256
IV bit length:            128
Plaintext bit length:     64
Symmetric key:            0000000000000000000000000000000000000000000000000000000000000000
IV:                       00000000000000000000000000000000
Plaintext:                3838383838383838
Ciphertext:               396154111adefc500cf6e5c99038bc1793b05d70003a503bde74c0bc6ada426201596c2922e6c468
Reciphers for ciphertext: 0
Decipheredtext:           3838383838383838
RESULT CIPHER-DECIPHER: -----OK-----


Test: 57
Symmetric key bit length: 256
IV bit length:            128
Plaintext bit length:     64
Symmetric key:            0000000000000000000000000000000000000000000000000000000000000000
IV:                       00000000000000000000000000000000
Plaintext:                3939393939393939
Ciphertext:               396154111adefc500cf6e5c99038bc1793b05d70003a503bde74c0bc6ada426200586d2823e7c569
Reciphers for ciphertext: 0
Decipheredtext:           3939393939393939
RESULT CIPHER-DECIPHER: -----OK-----


Test: 58
Symmetric key bit length: 256
IV bit length:            128
Plaintext bit length:     64
Symmetric key:            0000000000000000000000000000000000000000000000000000000000000000
IV:                       00000000000000000000000000000000
Plaintext:                3a3a3a3a3a3a3a3a
Ciphertext:               396154111adefc500cf6e5c99038bc1793b05d70003a503bde74c0bc6ada4262035b6e2b20e4c66a
Reciphers for ciphertext: 0
Decipheredtext:           3a3a3a3a3a3a3a3a
RESULT CIPHER-DECIPHER: -----OK-----


Test: 59
Symmetric key bit length: 256
IV bit length:            128
Plaintext bit length:     64
Symmetric key:            0000000000000000000000000000000000000000000000000000000000000000
IV:                       00000000000000000000000000000000
Plaintext:                3b3b3b3b3b3b3b3b
Ciphertext:               396154111adefc500cf6e5c99038bc1793b05d70003a503bde74c0bc6ada4262025a6f2a21e5c76b
Reciphers for ciphertext: 0
Decipheredtext:           3b3b3b3b3b3b3b3b
RESULT CIPHER-DECIPHER: -----OK-----


Test: 60
Symmetric key bit length: 256
IV bit length:            128
Plaintext bit length:     64
Symmetric key:            0000000000000000000000000000000000000000000000000000000000000000
IV:                       00000000000000000000000000000000
Plaintext:                3c3c3c3c3c3c3c3c
Ciphertext:               396154111adefc500cf6e5c99038bc1793b05d70003a503bde74c0bc6ada4262055d682d26e2c06c
Reciphers for ciphertext: 0
Decipheredtext:           3c3c3c3c3c3c3c3c
RESULT CIPHER-DECIPHER: -----OK-----


Test: 61
Symmetric key bit length: 256
IV bit length:            128
Plaintext bit length:     64
Symmetric key:            0000000000000000000000000000000000000000000000000000000000000000
IV:                       00000000000000000000000000000000
Plaintext:                3d3d3d3d3d3d3d3d
Ciphertext:               396154111adefc500cf6e5c99038bc1793b05d70003a503bde74c0bc6ada4262045c692c27e3c16d
Reciphers for ciphertext: 0
Decipheredtext:           3d3d3d3d3d3d3d3d
RESULT CIPHER-DECIPHER: -----OK-----


Test: 62
Symmetric key bit length: 256
IV bit length:            128
Plaintext bit length:     64
Symmetric key:            0000000000000000000000000000000000000000000000000000000000000000
IV:                       00000000000000000000000000000000
Plaintext:                3e3e3e3e3e3e3e3e
Ciphertext:               396154111adefc500cf6e5c99038bc1793b05d70003a503bde74c0bc6ada4262075f6a2f24e0c26e
Reciphers for ciphertext: 0
Decipheredtext:           3e3e3e3e3e3e3e3e
RESULT CIPHER-DECIPHER: -----OK-----


Test: 63
Symmetric key bit length: 256
IV bit length:            128
Plaintext bit length:     64
Symmetric key:            0000000000000000000000000000000000000000000000000000000000000000
IV:                       00000000000000000000000000000000
Plaintext:                3f3f3f3f3f3f3f3f
Ciphertext:               396154111adefc500cf6e5c99038bc1793b05d70003a503bde74c0bc6ada4262065e6b2e25e1c36f
Reciphers for ciphertext: 0
Decipheredtext:           3f3f3f3f3f3f3f3f
RESULT CIPHER-DECIPHER: -----OK-----


Test: 64
Symmetric key bit length: 256
IV bit length:            128
Plaintext bit length:     72
Symmetric key:            0000000000000000000000000000000000000000000000000000000000000000
IV:                       00000000000000000000000000000000
Plaintext:                404040404040404040
Ciphertext:               396154111adefc500cf6e5c99038bc1793b05d70003a503bde74c0bc6ada4262792114515a9ebc104c
Reciphers for ciphertext: 0
Decipheredtext:           404040404040404040
RESULT CIPHER-DECIPHER: -----OK-----


Test: 65
Symmetric key bit length: 256
IV bit length:            128
Plaintext bit length:     72
Symmetric key:            0000000000000000000000000000000000000000000000000000000000000000
IV:                       00000000000000000000000000000000
Plaintext:                414141414141414141
Ciphertext:               396154111adefc500cf6e5c99038bc1793b05d70003a503bde74c0bc6ada4262782015505b9fbd114d
Reciphers for ciphertext: 0
Decipheredtext:           414141414141414141
RESULT CIPHER-DECIPHER: -----OK-----


Test: 66
Symmetric key bit length: 256
IV bit length:            128
Plaintext bit length:     72
Symmetric key:            0000000000000000000000000000000000000000000000000000000000000000
IV:                       00000000000000000000000000000000
Plaintext:                424242424242424242
Ciphertext:               396154111adefc500cf6e5c99038bc1793b05d70003a503bde74c0bc6ada42627b231653589cbe124e
Reciphers for ciphertext: 0
Decipheredtext:           424242424242424242
RESULT CIPHER-DECIPHER: -----OK-----


Test: 67
Symmetric key bit length: 256
IV bit length:            128
Plaintext bit length:     72
Symmetric key:            0000000000000000000000000000000000000000000000000000000000000000
IV:                       00000000000000000000000000000000
Plaintext:                434343434343434343
Ciphertext:               396154111adefc500cf6e5c99038bc1793b05d70003a503bde74c0bc6ada42627a221752599dbf134f
Reciphers for ciphertext: 0
Decipheredtext:           434343434343434343
RESULT CIPHER-DECIPHER: -----OK-----


Test: 68
Symmetric key bit length: 256
IV bit length:            128
Plaintext bit length:     72
Symmetric key:            0000000000000000000000000000000000000000000000000000000000000000
IV:                       00000000000000000000000000000000
Plaintext:                444444444444444444
Ciphertext:               396154111adefc500cf6e5c99038bc1793b05d70003a503bde74c0bc6ada42627d2510555e9ab81448
Reciphers for ciphertext: 0
Decipheredtext:           444444444444444444
RESULT CIPHER-DECIPHER: -----OK-----


Test: 69
Symmetric key bit length: 256
IV bit length:            128
Plaintext bit length:     72
Symmetric key:            0000000000000000000000000000000000000000000000000000000000000000
IV:                       00000000000000000000000000000000
Plaintext:                454545454545454545
Ciphertext:               396154111adefc500cf6e5c99038bc1793b05d70003a503bde74c0bc6ada42627c2411545f9bb91549
Reciphers for ciphertext: 0
Decipheredtext:           454545454545454545
RESULT CIPHER-DECIPHER: -----OK-----


Test: 70
Symmetric key bit length: 256
IV bit length:            128
Plaintext bit length:     72
Symmetric key:            0000000000000000000000000000000000000000000000000000000000000000
IV:                       00000000000000000000000000000000
Plaintext:                464646464646464646
Ciphertext:               396154111adefc500cf6e5c99038bc1793b05d70003a503bde74c0bc6ada42627f2712575c98ba164a
Reciphers for ciphertext: 0
Decipheredtext:           464646464646464646
RESULT CIPHER-DECIPHER: -----OK-----


Test: 71
Symmetric key bit length: 256
IV bit length:            128
Plaintext bit length:     72
Symmetric key:            0000000000000000000000000000000000000000000000000000000000000000
IV:                       00000000000000000000000000000000
Plaintext:                474747474747474747
Ciphertext:               396154111adefc500cf6e5c99038bc1793b05d70003a503bde74c0bc6ada42627e2613565d99bb174b
Reciphers for ciphertext: 0
Decipheredtext:           474747474747474747
RESULT CIPHER-DECIPHER: -----OK-----


Test: 72
Symmetric key bit length: 256
IV bit length:            128
Plaintext bit length:     80
Symmetric key:            0000000000000000000000000000000000000000000000000000000000000000
IV:                       00000000000000000000000000000000
Plaintext:                48484848484848484848
Ciphertext:               396154111adefc500cf6e5c99038bc1793b05d70003a503bde74c0bc6ada426271291c595296b41844be
Reciphers for ciphertext: 0
Decipheredtext:           48484848484848484848
RESULT CIPHER-DECIPHER: -----OK-----


Test: 73
Symmetric key bit length: 256
IV bit length:            128
Plaintext bit length:     80
Symmetric key:            0000000000000000000000000000000000000000000000000000000000000000
IV:                       00000000000000000000000000000000
Plaintext:                49494949494949494949
Ciphertext:               396154111adefc500cf6e5c99038bc1793b05d70003a503bde74c0bc6ada426270281d585397b51945bf
Reciphers for ciphertext: 0
Decipheredtext:           49494949494949494949
RESULT CIPHER-DECIPHER: -----OK-----


Test: 74
Symmetric key bit length: 256
IV bit length:            128
Plaintext bit length:     80
Symmetric key:            0000000000000000000000000000000000000000000000000000000000000000
IV:                       00000000000000000000000000000000
Plaintext:                4a4a4a4a4a4a4a4a4a4a
Ciphertext:               396154111adefc500cf6e5c99038bc1793b05d70003a503bde74c0bc6ada4262732b1e5b5094b61a46bc
Reciphers for ciphertext: 0
Decipheredtext:           4a4a4a4a4a4a4a4a4a4a
RESULT CIPHER-DECIPHER: -----OK-----


Test: 75
Symmetric key bit length: 256
IV bit length:            128
Plaintext bit length:     80
Symmetric key:            0000000000000000000000000000000000000000000000000000000000000000
IV:                       00000000000000000000000000000000
Plaintext:                4b4b4b4b4b4b4b4b4b4b
Ciphertext:               396154111adefc500cf6e5c99038bc1793b05d70003a503bde74c0bc6ada4262722a1f5a5195b71b47bd
Reciphers for ciphertext: 0
Decipheredtext:           4b4b4b4b4b4b4b4b4b4b
RESULT CIPHER-DECIPHER: -----OK-----


Test: 76
Symmetric key bit length: 256
IV bit length:            128
Plaintext bit length:     80
Symmetric key:            0000000000000000000000000000000000000000000000000000000000000000
IV:                       00000000000000000000000000000000
Plaintext:                4c4c4c4c4c4c4c4c4c4c
Ciphertext:               396154111adefc500cf6e5c99038bc1793b05d70003a503bde74c0bc6ada4262752d185d5692b01c40ba
Reciphers for ciphertext: 0
Decipheredtext:           4c4c4c4c4c4c4c4c4c4c
RESULT CIPHER-DECIPHER: -----OK-----


Test: 77
Symmetric key bit length: 256
IV bit length:            128
Plaintext bit length:     80
Symmetric key:            0000000000000000000000000000000000000000000000000000000000000000
IV:                       00000000000000000000000000000000
Plaintext:                4d4d4d4d4d4d4d4d4d4d
Ciphertext:               396154111adefc500cf6e5c99038bc1793b05d70003a503bde74c0bc6ada4262742c195c5793b11d41bb
Reciphers for ciphertext: 0
Decipheredtext:           4d4d4d4d4d4d4d4d4d4d
RESULT CIPHER-DECIPHER: -----OK-----


Test: 78
Symmetric key bit length: 256
IV bit length:            128
Plaintext bit length:     80
Symmetric key:            0000000000000000000000000000000000000000000000000000000000000000
IV:                       00000000000000000000000000000000
Plaintext:                4e4e4e4e4e4e4e4e4e4e
Ciphertext:               396154111adefc500cf6e5c99038bc1793b05d70003a503bde74c0bc6ada4262772f1a5f5490b21e42b8
Reciphers for ciphertext: 0
Decipheredtext:           4e4e4e4e4e4e4e4e4e4e
RESULT CIPHER-DECIPHER: -----OK-----


Test: 79
Symmetric key bit length: 256
IV bit length:            128
Plaintext bit length:     80
Symmetric key:            0000000000000000000000000000000000000000000000000000000000000000
IV:                       00000000000000000000000000000000
Plaintext:                4f4f4f4f4f4f4f4f4f4f
Ciphertext:               396154111adefc500cf6e5c99038bc1793b05d70003a503bde74c0bc6ada4262762e1b5e5591b31f43b9
Reciphers for ciphertext: 0
Decipheredtext:           4f4f4f4f4f4f4f4f4f4f
RESULT CIPHER-DECIPHER: -----OK-----


Test: 80
Symmetric key bit length: 256
IV bit length:            128
Plaintext bit length:     88
Symmetric key:            0000000000000000000000000000000000000000000000000000000000000000
IV:                       00000000000000000000000000000000
Plaintext:                5050505050505050505050
Ciphertext:               396154111adefc500cf6e5c99038bc1793b05d70003a503bde74c0bc6ada4262693104414a8eac005ca6b5
Reciphers for ciphertext: 0
Decipheredtext:           5050505050505050505050
RESULT CIPHER-DECIPHER: -----OK-----


Test: 81
Symmetric key bit length: 256
IV bit length:            128
Plaintext bit length:     88
Symmetric key:            0000000000000000000000000000000000000000000000000000000000000000
IV:                       00000000000000000000000000000000
Plaintext:                5151515151515151515151
Ciphertext:               396154111adefc500cf6e5c99038bc1793b05d70003a503bde74c0bc6ada4262683005404b8fad015da7b4
Reciphers for ciphertext: 0
Decipheredtext:           5151515151515151515151
RESULT CIPHER-DECIPHER: -----OK-----


Test: 82
Symmetric key bit length: 256
IV bit length:            128
Plaintext bit length:     88
Symmetric key:            0000000000000000000000000000000000000000000000000000000000000000
IV:                       00000000000000000000000000000000
Plaintext:                5252525252525252525252
Ciphertext:               396154111adefc500cf6e5c99038bc1793b05d70003a503bde74c0bc6ada42626b330643488cae025ea4b7
Reciphers for ciphertext: 0
Decipheredtext:           5252525252525252525252
RESULT CIPHER-DECIPHER: -----OK-----


Test: 83
Symmetric key bit length: 256
IV bit length:            128
Plaintext bit length:     88
Symmetric key:            0000000000000000000000000000000000000000000000000000000000000000
IV:                       00000000000000000000000000000000
Plaintext:                5353535353535353535353
Ciphertext:               396154111adefc500cf6e5c99038bc1793b05d70003a503bde74c0bc6ada42626a320742498daf035fa5b6
Reciphers for ciphertext: 0
Decipheredtext:           5353535353535353535353
RESULT CIPHER-DECIPHER: -----OK-----


Test: 84
Symmetric key bit length: 256
IV bit length:            128
Plaintext bit length:     88
Symmetric key:            0000000000000000000000000000000000000000000000000000000000000000
IV:                       00000000000000000000000000000000
Plaintext:                5454545454545454545454
Ciphertext:               396154111adefc500cf6e5c99038bc1793b05d70003a503bde74c0bc6ada42626d3500454e8aa80458a2b1
Reciphers for ciphertext: 0
Decipheredtext:           5454545454545454545454
RESULT CIPHER-DECIPHER: -----OK-----


Test: 85
Symmetric key bit length: 256
IV bit length:            128
Plaintext bit length:     88
Symmetric key:            0000000000000000000000000000000000000000000000000000000000000000
IV:                       00000000000000000000000000000000
Plaintext:                5555555555555555555555
Ciphertext:               396154111adefc500cf6e5c99038bc1793b05d70003a503bde74c0bc6ada42626c3401444f8ba90559a3b0
Reciphers for ciphertext: 0
Decipheredtext:           5555555555555555555555
RESULT CIPHER-DECIPHER: -----OK-----


Test: 86
Symmetric key bit length: 256
IV bit length:            128
Plaintext bit length:     88
Symmetric key:            0000000000000000000000000000000000000000000000000000000000000000
IV:                       00000000000000000000000000000000
Plaintext:                5656565656565656565656
Ciphertext:               396154111adefc500cf6e5c99038bc1793b05d70003a503bde74c0bc6ada42626f3702474c88aa065aa0b3
Reciphers for ciphertext: 0
Decipheredtext:           5656565656565656565656
RESULT CIPHER-DECIPHER: -----OK-----


Test: 87
Symmetric key bit length: 256
IV bit length:            128
Plaintext bit length:     88
Symmetric key:            0000000000000000000000000000000000000000000000000000000000000000
IV:                       00000000000000000000000000000000
Plaintext:                5757575757575757575757
Ciphertext:               396154111adefc500cf6e5c99038bc1793b05d70003a503bde74c0bc6ada42626e3603464d89ab075ba1b2
Reciphers for ciphertext: 0
Decipheredtext:           5757575757575757575757
RESULT CIPHER-DECIPHER: -----OK-----


Test: 88
Symmetric key bit length: 256
IV bit length:            128
Plaintext bit length:     96
Symmetric key:            0000000000000000000000000000000000000000000000000000000000000000
IV:                       00000000000000000000000000000000
Plaintext:                585858585858585858585858
Ciphertext:               396154111adefc500cf6e5c99038bc1793b05d70003a503bde74c0bc6ada426261390c494286a40854aebd91
Reciphers for ciphertext: 0
Decipheredtext:           585858585858585858585858
RESULT CIPHER-DECIPHER: -----OK-----


Test: 89
Symmetric key bit length: 256
IV bit length:            128
Plaintext bit length:     96
Symmetric key:            0000000000000000000000000000000000000000000000000000000000000000
IV:                       00000000000000000000000000000000
Plaintext:                595959595959595959595959
Ciphertext:               396154111adefc500cf6e5c99038bc1793b05d70003a503bde74c0bc6ada426260380d484387a50955afbc90
Reciphers for ciphertext: 0
Decipheredtext:           595959595959595959595959
RESULT CIPHER-DECIPHER: -----OK-----


Test: 90
Symmetric key bit length: 256
IV bit length:            128
Plaintext bit length:     96
Symmetric key:            0000000000000000000000000000000000000000000000000000000000000000
IV:                       00000000000000000000000000000000
Plaintext:                5a5a5a5a5a5a5a5a5a5a5a5a
Ciphertext:               396154111adefc500cf6e5c99038bc1793b05d70003a503bde74c0bc6ada4262633b0e4b4084a60a56acbf93
Reciphers for ciphertext: 0
Decipheredtext:           5a5a5a5a5a5a5a5a5a5a5a5a
RESULT CIPHER-DECIPHER: -----OK-----


Test: 91
Symmetric key bit length: 256
IV bit length:            128
Plaintext bit length:     96
Symmetric key:            0000000000000000000000000000000000000000000000000000000000000000
IV:                       00000000000000000000000000000000
Plaintext:                5b5b5b5b5b5b5b5b5b5b5b5b
Ciphertext:               396154111adefc500cf6e5c99038bc1793b05d70003a503bde74c0bc6ada4262623a0f4a4185a70b57adbe92
Reciphers for ciphertext: 0
Decipheredtext:           5b5b5b5b5b5b5b5b5b5b5b5b
RESULT CIPHER-DECIPHER: -----OK-----


Test: 92
Symmetric key bit length: 256
IV bit length:            128
Plaintext bit length:     96
Symmetric key:            0000000000000000000000000000000000000000000000000000000000000000
IV:                       00000000000000000000000000000000
Plaintext:                5c5c5c5c5c5c5c5c5c5c5c5c
Ciphertext:               396154111adefc500cf6e5c99038bc1793b05d70003a503bde74c0bc6ada4262653d084d4682a00c50aab995
Reciphers for ciphertext: 0
Decipheredtext:           5c5c5c5c5c5c5c5c5c5c5c5c
RESULT CIPHER-DECIPHER: -----OK-----


Test: 93
Symmetric key bit length: 256
IV bit length:            128
Plaintext bit length:     96
Symmetric key:            0000000000000000000000000000000000000000000000000000000000000000
IV:                       00000000000000000000000000000000
Plaintext:                5d5d5d5d5d5d5d5d5d5d5d5d
Ciphertext:               396154111adefc500cf6e5c99038bc1793b05d70003a503bde74c0bc6ada4262643c094c4783a10d51abb894
Reciphers for ciphertext: 0
Decipheredtext:           5d5d5d5d5d5d5d5d5d5d5d5d
RESULT CIPHER-DECIPHER: -----OK-----


Test: 94
Symmetric key bit length: 256
IV bit length:            128
Plaintext bit length:     96
Symmetric key:            0000000000000000000000000000000000000000000000000000000000000000
IV:                       00000000000000000000000000000000
Plaintext:                5e5e5e5e5e5e5e5e5e5e5e5e
Ciphertext:               396154111adefc500cf6e5c99038bc1793b05d70003a503bde74c0bc6ada4262673f0a4f4480a20e52a8bb97
Reciphers for ciphertext: 0
Decipheredtext:           5e5e5e5e5e5e5e5e5e5e5e5e
RESULT CIPHER-DECIPHER: -----OK-----


Test: 95
Symmetric key bit length: 256
IV bit length:            128
Plaintext bit length:     96
Symmetric key:            0000000000000000000000000000000000000000000000000000000000000000
IV:                       00000000000000000000000000000000
Plaintext:                5f5f5f5f5f5f5f5f5f5f5f5f
Ciphertext:               396154111adefc500cf6e5c99038bc1793b05d70003a503bde74c0bc6ada4262663e0b4e4581a30f53a9ba96
Reciphers for ciphertext: 0
Decipheredtext:           5f5f5f5f5f5f5f5f5f5f5f5f
RESULT CIPHER-DECIPHER: -----OK-----


Test: 96
Symmetric key bit length: 256
IV bit length:            128
Plaintext bit length:     104
Symmetric key:            0000000000000000000000000000000000000000000000000000000000000000
IV:                       00000000000000000000000000000000
Plaintext:                60606060606060606060606060
Ciphertext:               396154111adefc500cf6e5c99038bc1793b05d70003a503bde74c0bc6ada4262590134717abe9c306c9685a9f0
Reciphers for ciphertext: 0
Decipheredtext:           60606060606060606060606060
RESULT CIPHER-DECIPHER: -----OK-----


Test: 97
Symmetric key bit length: 256
IV bit length:            128
Plaintext bit length:     104
Symmetric key:            0000000000000000000000000000000000000000000000000000000000000000
IV:                       00000000000000000000000000000000
Plaintext:                61616161616161616161616161
Ciphertext:               396154111adefc500cf6e5c99038bc1793b05d70003a503bde74c0bc6ada4262580035707bbf9d316d9784a8f1
Reciphers for ciphertext: 0
Decipheredtext:           61616161616161616161616161
RESULT CIPHER-DECIPHER: -----OK-----


Test: 98
Symmetric key bit length: 256
IV bit length:            128
Plaintext bit length:     104
Symmetric key:            0000000000000000000000000000000000000000000000000000000000000000
IV:                       00000000000000000000000000000000
Plaintext:                62626262626262626262626262
Ciphertext:               396154111adefc500cf6e5c99038bc1793b05d70003a503bde74c0bc6ada42625b03367378bc9e326e9487abf2
Reciphers for ciphertext: 0
Decipheredtext:           62626262626262626262626262
RESULT CIPHER-DECIPHER: -----OK-----


Test: 99
Symmetric key bit length: 256
IV bit length:            128
Plaintext bit length:     104
Symmetric key:            0000000000000000000000000000000000000000000000000000000000000000
IV:                       00000000000000000000000000000000
Plaintext:                63636363636363636363636363
Ciphertext:               396154111adefc500cf6e5c99038bc1793b05d70003a503bde74c0bc6ada42625a02377279bd9f336f9586aaf3
Reciphers for ciphertext: 0
Decipheredtext:           63636363636363636363636363
RESULT CIPHER-DECIPHER: -----OK-----


Test: 100
Symmetric key bit length: 256
IV bit length:            128
Plaintext bit length:     104
Symmetric key:            0000000000000000000000000000000000000000000000000000000000000000
IV:                       00000000000000000000000000000000
Plaintext:                64646464646464646464646464
Ciphertext:               396154111adefc500cf6e5c99038bc1793b05d70003a503bde74c0bc6ada42625d0530757eba9834689281adf4
Reciphers for ciphertext: 0
Decipheredtext:           64646464646464646464646464
RESULT CIPHER-DECIPHER: -----OK-----


Test: 101
Symmetric key bit length: 256
IV bit length:            128
Plaintext bit length:     104
Symmetric key:            0000000000000000000000000000000000000000000000000000000000000000
IV:                       00000000000000000000000000000000
Plaintext:                65656565656565656565656565
Ciphertext:               396154111adefc500cf6e5c99038bc1793b05d70003a503bde74c0bc6ada42625c0431747fbb9935699380acf5
Reciphers for ciphertext: 0
Decipheredtext:           65656565656565656565656565
RESULT CIPHER-DECIPHER: -----OK-----


Test: 102
Symmetric key bit length: 256
IV bit length:            128
Plaintext bit length:     104
Symmetric key:            0000000000000000000000000000000000000000000000000000000000000000
IV:                       00000000000000000000000000000000
Plaintext:                66666666666666666666666666
Ciphertext:               396154111adefc500cf6e5c99038bc1793b05d70003a503bde74c0bc6ada42625f0732777cb89a366a9083aff6
Reciphers for ciphertext: 0
Decipheredtext:           66666666666666666666666666
RESULT CIPHER-DECIPHER: -----OK-----


Test: 103
Symmetric key bit length: 256
IV bit length:            128
Plaintext bit length:     104
Symmetric key:            0000000000000000000000000000000000000000000000000000000000000000
IV:                       00000000000000000000000000000000
Plaintext:                67676767676767676767676767
Ciphertext:               396154111adefc500cf6e5c99038bc1793b05d70003a503bde74c0bc6ada42625e0633767db99b376b9182aef7
Reciphers for ciphertext: 0
Decipheredtext:           67676767676767676767676767
RESULT CIPHER-DECIPHER: -----OK-----


Test: 104
Symmetric key bit length: 256
IV bit length:            128
Plaintext bit length:     112
Symmetric key:            0000000000000000000000000000000000000000000000000000000000000000
IV:                       00000000000000000000000000000000
Plaintext:                6868686868686868686868686868
Ciphertext:               396154111adefc500cf6e5c99038bc1793b05d70003a503bde74c0bc6ada426251093c7972b69438649e8da1f850
Reciphers for ciphertext: 0
Decipheredtext:           6868686868686868686868686868
RESULT CIPHER-DECIPHER: -----OK-----


Test: 105
Symmetric key bit length: 256
IV bit length:            128
Plaintext bit length:     112
Symmetric key:            0000000000000000000000000000000000000000000000000000000000000000
IV:                       00000000000000000000000000000000
Plaintext:                6969696969696969696969696969
Ciphertext:               396154111adefc500cf6e5c99038bc1793b05d70003a503bde74c0bc6ada426250083d7873b79539659f8ca0f951
Reciphers for ciphertext: 0
Decipheredtext:           6969696969696969696969696969
RESULT CIPHER-DECIPHER: -----OK-----


Test: 106
Symmetric key bit length: 256
IV bit length:            128
Plaintext bit length:     112
Symmetric key:            0000000000000000000000000000000000000000000000000000000000000000
IV:                       00000000000000000000000000000000
Plaintext:                6a6a6a6a6a6a6a6a6a6a6a6a6a6a
Ciphertext:               396154111adefc500cf6e5c99038bc1793b05d70003a503bde74c0bc6ada4262530b3e7b70b4963a669c8fa3fa52
Reciphers for ciphertext: 0
Decipheredtext:           6a6a6a6a6a6a6a6a6a6a6a6a6a6a
RESULT CIPHER-DECIPHER: -----OK-----


Test: 107
Symmetric key bit length: 256
IV bit length:            128
Plaintext bit length:     112
Symmetric key:            0000000000000000000000000000000000000000000000000000000000000000
IV:                       00000000000000000000000000000000
Plaintext:                6b6b6b6b6b6b6b6b6b6b6b6b6b6b
Ciphertext:               396154111adefc500cf6e5c99038bc1793b05d70003a503bde74c0bc6ada4262520a3f7a71b5973b679d8ea2fb53
Reciphers for ciphertext: 0
Decipheredtext:           6b6b6b6b6b6b6b6b6b6b6b6b6b6b
RESULT CIPHER-DECIPHER: -----OK-----


Test: 108
Symmetric key bit length: 256
IV bit length:            128
Plaintext bit length:     112
Symmetric key:            0000000000000000000000000000000000000000000000000000000000000000
IV:                       00000000000000000000000000000000
Plaintext:                6c6c6c6c6c6c6c6c6c6c6c6c6c6c
Ciphertext:               396154111adefc500cf6e5c99038bc1793b05d70003a503bde74c0bc6ada4262550d387d76b2903c609a89a5fc54
Reciphers for ciphertext: 0
Decipheredtext:           6c6c6c6c6c6c6c6c6c6c6c6c6c6c
RESULT CIPHER-DECIPHER: -----OK-----


Test: 109
Symmetric key bit length: 256
IV bit length:            128
Plaintext bit length:     112
Symmetric key:            0000000000000000000000000000000000000000000000000000000000000000
IV:                       00000000000000000000000000000000
Plaintext:                6d6d6d6d6d6d6d6d6d6d6d6d6d6d
Ciphertext:               396154111adefc500cf6e5c99038bc1793b05d70003a503bde74c0bc6ada4262540c397c77b3913d619b88a4fd55
Reciphers for ciphertext: 0
Decipheredtext:           6d6d6d6d6d6d6d6d6d6d6d6d6d6d
RESULT CIPHER-DECIPHER: -----OK-----


Test: 110
Symmetric key bit length: 256
IV bit length:            128
Plaintext bit length:     112
Symmetric key:            0000000000000000000000000000000000000000000000000000000000000000
IV:                       00000000000000000000000000000000
Plaintext:                6e6e6e6e6e6e6e6e6e6e6e6e6e6e
Ciphertext:               396154111adefc500cf6e5c99038bc1793b05d70003a503bde74c0bc6ada4262570f3a7f74b0923e62988ba7fe56
Reciphers for ciphertext: 0
Decipheredtext:           6e6e6e6e6e6e6e6e6e6e6e6e6e6e
RESULT CIPHER-DECIPHER: -----OK-----


Test: 111
Symmetric key bit length: 256
IV bit length:            128
Plaintext bit length:     112
Symmetric key:            0000000000000000000000000000000000000000000000000000000000000000
IV:                       00000000000000000000000000000000
Plaintext:                6f6f6f6f6f6f6f6f6f6f6f6f6f6f
Ciphertext:               396154111adefc500cf6e5c99038bc1793b05d70003a503bde74c0bc6ada4262560e3b7e75b1933f63998aa6ff57
Reciphers for ciphertext: 0
Decipheredtext:           6f6f6f6f6f6f6f6f6f6f6f6f6f6f
RESULT CIPHER-DECIPHER: -----OK-----


Test: 112
Symmetric key bit length: 256
IV bit length:            128
Plaintext bit length:     120
Symmetric key:            0000000000000000000000000000000000000000000000000000000000000000
IV:                       00000000000000000000000000000000
Plaintext:                707070707070707070707070707070
Ciphertext:               396154111adefc500cf6e5c99038bc1793b05d70003a503bde74c0bc6ada4262491124616aae8c207c8695b9e048cc
Reciphers for ciphertext: 0
Decipheredtext:           707070707070707070707070707070
RESULT CIPHER-DECIPHER: -----OK-----


Test: 113
Symmetric key bit length: 256
IV bit length:            128
Plaintext bit length:     120
Symmetric key:            0000000000000000000000000000000000000000000000000000000000000000
IV:                       00000000000000000000000000000000
Plaintext:                717171717171717171717171717171
Ciphertext:               396154111adefc500cf6e5c99038bc1793b05d70003a503bde74c0bc6ada4262481025606baf8d217d8794b8e149cd
Reciphers for ciphertext: 0
Decipheredtext:           717171717171717171717171717171
RESULT CIPHER-DECIPHER: -----OK-----


Test: 114
Symmetric key bit length: 256
IV bit length:            128
Plaintext bit length:     120
Symmetric key:            0000000000000000000000000000000000000000000000000000000000000000
IV:                       00000000000000000000000000000000
Plaintext:                727272727272727272727272727272
Ciphertext:               396154111adefc500cf6e5c99038bc1793b05d70003a503bde74c0bc6ada42624b13266368ac8e227e8497bbe24ace
Reciphers for ciphertext: 0
Decipheredtext:           727272727272727272727272727272
RESULT CIPHER-DECIPHER: -----OK-----


Test: 115
Symmetric key bit length: 256
IV bit length:            128
Plaintext bit length:     120
Symmetric key:            0000000000000000000000000000000000000000000000000000000000000000
IV:                       00000000000000000000000000000000
Plaintext:                737373737373737373737373737373
Ciphertext:               396154111adefc500cf6e5c99038bc1793b05d70003a503bde74c0bc6ada42624a12276269ad8f237f8596bae34bcf
Reciphers for ciphertext: 0
Decipheredtext:           737373737373737373737373737373
RESULT CIPHER-DECIPHER: -----OK-----


Test: 116
Symmetric key bit length: 256
IV bit length:            128
Plaintext bit length:     120
Symmetric key:            0000000000000000000000000000000000000000000000000000000000000000
IV:                       00000000000000000000000000000000
Plaintext:                747474747474747474747474747474
Ciphertext:               396154111adefc500cf6e5c99038bc1793b05d70003a503bde74c0bc6ada42624d1520656eaa8824788291bde44cc8
Reciphers for ciphertext: 0
Decipheredtext:           747474747474747474747474747474
RESULT CIPHER-DECIPHER: -----OK-----


Test: 117
Symmetric key bit length: 256
IV bit length:            128
Plaintext bit length:     120
Symmetric key:            0000000000000000000000000000000000000000000000000000000000000000
IV:                       00000000000000000000000000000000
Plaintext:                757575757575757575757575757575
Ciphertext:               396154111adefc500cf6e5c99038bc1793b05d70003a503bde74c0bc6ada42624c1421646fab8925798390bce54dc9
Reciphers for ciphertext: 0
Decipheredtext:           757575757575757575757575757575
RESULT CIPHER-DECIPHER: -----OK-----


Test: 118
Symmetric key bit length: 256
IV bit length:            128
Plaintext bit length:     120
Symmetric key:            0000000000000000000000000000000000000000000000000000000000000000
IV:                       00000000000000000000000000000000
Plaintext:                767676767676767676767676767676
Ciphertext:               396154111adefc500cf6e5c99038bc1793b05d70003a503bde74c0bc6ada42624f1722676ca88a267a8093bfe64eca
Reciphers for ciphertext: 0
Decipheredtext:           767676767676767676767676767676
RESULT CIPHER-DECIPHER: -----OK-----


Test: 119
Symmetric key bit length: 256
IV bit length:            128
Plaintext bit length:     120
Symmetric key:            0000000000000000000000000000000000000000000000000000000000000000
IV:                       00000000000000000000000000000000
Plaintext:                777777777777777777777777777777
Ciphertext:               396154111adefc500cf6e5c99038bc1793b05d70003a503bde74c0bc6ada42624e1623666da98b277b8192bee74fcb
Reciphers for ciphertext: 0
Decipheredtext:           777777777777777777777777777777
RESULT CIPHER-DECIPHER: -----OK-----


Test: 120
Symmetric key bit length: 256
IV bit length:            128
Plaintext bit length:     128
Symmetric key:            0000000000000000000000000000000000000000000000000000000000000000
IV:                       00000000000000000000000000000000
Plaintext:                78787878787878787878787878787878
Ciphertext:               396154111adefc500cf6e5c99038bc1793b05d70003a503bde74c0bc6ada426241192c6962a68428748e9db1e840c46f
Reciphers for ciphertext: 0
Decipheredtext:           78787878787878787878787878787878
RESULT CIPHER-DECIPHER: -----OK-----


Test: 121
Symmetric key bit length: 256
IV bit length:            128
Plaintext bit length:     128
Symmetric key:            0000000000000000000000000000000000000000000000000000000000000000
IV:                       00000000000000000000000000000000
Plaintext:                79797979797979797979797979797979
Ciphertext:               396154111adefc500cf6e5c99038bc1793b05d70003a503bde74c0bc6ada426240182d6863a78529758f9cb0e941c56e
Reciphers for ciphertext: 0
Decipheredtext:           79797979797979797979797979797979
RESULT CIPHER-DECIPHER: -----OK-----


Test: 122
Symmetric key bit length: 256
IV bit length:            128
Plaintext bit length:     128
Symmetric key:            0000000000000000000000000000000000000000000000000000000000000000
IV:                       00000000000000000000000000000000
Plaintext:                7a7a7a7a7a7a7a7a7a7a7a7a7a7a7a7a
Ciphertext:               396154111adefc500cf6e5c99038bc1793b05d70003a503bde74c0bc6ada4262431b2e6b60a4862a768c9fb3ea42c66d
Reciphers for ciphertext: 0
Decipheredtext:           7a7a7a7a7a7a7a7a7a7a7a7a7a7a7a7a
RESULT CIPHER-DECIPHER: -----OK-----


Test: 123
Symmetric key bit length: 256
IV bit length:            128
Plaintext bit length:     128
Symmetric key:            0000000000000000000000000000000000000000000000000000000000000000
IV:                       00000000000000000000000000000000
Plaintext:                7b7b7b7b7b7b7b7b7b7b7b7b7b7b7b7b
Ciphertext:               396154111adefc500cf6e5c99038bc1793b05d70003a503bde74c0bc6ada4262421a2f6a61a5872b778d9eb2eb43c76c
Reciphers for ciphertext: 0
Decipheredtext:           7b7b7b7b7b7b7b7b7b7b7b7b7b7b7b7b
RESULT CIPHER-DECIPHER: -----OK-----


Test: 124
Symmetric key bit length: 256
IV bit length:            128
Plaintext bit length:     128
Symmetric key:            0000000000000000000000000000000000000000000000000000000000000000
IV:                       00000000000000000000000000000000
Plaintext:                7c7c7c7c7c7c7c7c7c7c7c7c7c7c7c7c
Ciphertext:               396154111adefc500cf6e5c99038bc1793b05d70003a503bde74c0bc6ada4262451d286d66a2802c708a99b5ec44c06b
Reciphers for ciphertext: 0
Decipheredtext:           7c7c7c7c7c7c7c7c7c7c7c7c7c7c7c7c
RESULT CIPHER-DECIPHER: -----OK-----


Test: 125
Symmetric key bit length: 256
IV bit length:            128
Plaintext bit length:     128
Symmetric key:            0000000000000000000000000000000000000000000000000000000000000000
IV:                       00000000000000000000000000000000
Plaintext:                7d7d7d7d7d7d7d7d7d7d7d7d7d7d7d7d
Ciphertext:               396154111adefc500cf6e5c99038bc1793b05d70003a503bde74c0bc6ada4262441c296c67a3812d718b98b4ed45c16a
Reciphers for ciphertext: 0
Decipheredtext:           7d7d7d7d7d7d7d7d7d7d7d7d7d7d7d7d
RESULT CIPHER-DECIPHER: -----OK-----


Test: 126
Symmetric key bit length: 256
IV bit length:            128
Plaintext bit length:     128
Symmetric key:            0000000000000000000000000000000000000000000000000000000000000000
IV:                       00000000000000000000000000000000
Plaintext:                7e7e7e7e7e7e7e7e7e7e7e7e7e7e7e7e
Ciphertext:               396154111adefc500cf6e5c99038bc1793b05d70003a503bde74c0bc6ada4262471f2a6f64a0822e72889bb7ee46c269
Reciphers for ciphertext: 0
Decipheredtext:           7e7e7e7e7e7e7e7e7e7e7e7e7e7e7e7e
RESULT CIPHER-DECIPHER: -----OK-----


Test: 127
Symmetric key bit length: 256
IV bit length:            128
Plaintext bit length:     128
Symmetric key:            0000000000000000000000000000000000000000000000000000000000000000
IV:                       00000000000000000000000000000000
Plaintext:                7f7f7f7f7f7f7f7f7f7f7f7f7f7f7f7f
Ciphertext:               396154111adefc500cf6e5c99038bc1793b05d70003a503bde74c0bc6ada4262461e2b6e65a1832f73899ab6ef47c368
Reciphers for ciphertext: 0
Decipheredtext:           7f7f7f7f7f7f7f7f7f7f7f7f7f7f7f7f
RESULT CIPHER-DECIPHER: -----OK-----


 DATA SHA1 (hexadecimal): 01e6fd0ed05d7081532e071ac42c7972c278fb77

