
DiceLock 9.0.0.1

 TEST COMPONENTS:
 ----------------
 DiceLock:           DiceLockIVIndexed class
 Operation Mode:     CFB_Mode class
 Block Cipher:       Serpent192 class
 Key Modifier:       IncreaseBase0IndexModifier_6_0_0_1 class
   Index bit length: 192
 Random tests:       RandomTestSuite class
                     FrequencyTest class
                     BlockFrequencyTest class
                     CumulativeSumForwardTest class
                     LongestRunOfOnesTest class
                     RunsTest class
 Random alpha:       0.001

 VECTOR TEST: Test vector 1 - Changing IV, shifting 1 bit set


##### INDIVIDUAL TESTS #####

Number tests: 128


Test: 0
Symmetric key bit length: 192
IV bit length:            128
Plaintext bit length:     128
Symmetric key:            000000000000000000000000000000000000000000000000
IV:                       80000000000000000000000000000000
Plaintext:                00000000000000000000000000000000
Ciphertext:               b10b271ba25257e1294f2b51f076d0d96428d0675b5fef4db10b271ba25257e1294f2b51f076d0d9
Reciphers for ciphertext: 0
Decipheredtext:           00000000000000000000000000000000
RESULT CIPHER-DECIPHER: -----OK-----


Test: 1
Symmetric key bit length: 192
IV bit length:            128
Plaintext bit length:     128
Symmetric key:            000000000000000000000000000000000000000000000000
IV:                       40000000000000000000000000000000
Plaintext:                00000000000000000000000000000000
Ciphertext:               d522a3b8d6d89d4d2a124fdd88f36896a2cad5d4b9c0d71fd522a3b8d6d89d4d2a124fdd88f36896
Reciphers for ciphertext: 0
Decipheredtext:           00000000000000000000000000000000
RESULT CIPHER-DECIPHER: -----OK-----


Test: 2
Symmetric key bit length: 192
IV bit length:            128
Plaintext bit length:     128
Symmetric key:            000000000000000000000000000000000000000000000000
IV:                       20000000000000000000000000000000
Plaintext:                00000000000000000000000000000000
Ciphertext:               6faefee5f5255d5465c1befa672af1d32641d150d41a81576faefee5f5255d5465c1befa672af1d3
Reciphers for ciphertext: 0
Decipheredtext:           00000000000000000000000000000000
RESULT CIPHER-DECIPHER: -----OK-----


Test: 3
Symmetric key bit length: 192
IV bit length:            128
Plaintext bit length:     128
Symmetric key:            000000000000000000000000000000000000000000000000
IV:                       10000000000000000000000000000000
Plaintext:                00000000000000000000000000000000
Ciphertext:               409e1d63bc71eb0d6f7eceaa03025897baad1ed4dcb195e9409e1d63bc71eb0d6f7eceaa03025897
Reciphers for ciphertext: 0
Decipheredtext:           00000000000000000000000000000000
RESULT CIPHER-DECIPHER: -----OK-----


Test: 4
Symmetric key bit length: 192
IV bit length:            128
Plaintext bit length:     128
Symmetric key:            000000000000000000000000000000000000000000000000
IV:                       08000000000000000000000000000000
Plaintext:                00000000000000000000000000000000
Ciphertext:               8a7e9feb4300a2a265f4a14e52011be1e3775e5a565607ef8a7e9feb4300a2a265f4a14e52011be1
Reciphers for ciphertext: 0
Decipheredtext:           00000000000000000000000000000000
RESULT CIPHER-DECIPHER: -----OK-----


Test: 5
Symmetric key bit length: 192
IV bit length:            128
Plaintext bit length:     128
Symmetric key:            000000000000000000000000000000000000000000000000
IV:                       04000000000000000000000000000000
Plaintext:                00000000000000000000000000000000
Ciphertext:               c1b3fb68eef9e0eb6d3df001e57eac9b06c4213cd15802e6c1b3fb68eef9e0eb6d3df001e57eac9b
Reciphers for ciphertext: 0
Decipheredtext:           00000000000000000000000000000000
RESULT CIPHER-DECIPHER: -----OK-----


Test: 6
Symmetric key bit length: 192
IV bit length:            128
Plaintext bit length:     128
Symmetric key:            000000000000000000000000000000000000000000000000
IV:                       02000000000000000000000000000000
Plaintext:                00000000000000000000000000000000
Ciphertext:               9dcaabb7839129739d1c6f5501624e441e3a7547de7bc4719dcaabb7839129739d1c6f5501624e44
Reciphers for ciphertext: 0
Decipheredtext:           00000000000000000000000000000000
RESULT CIPHER-DECIPHER: -----OK-----


Test: 7
Symmetric key bit length: 192
IV bit length:            128
Plaintext bit length:     128
Symmetric key:            000000000000000000000000000000000000000000000000
IV:                       01000000000000000000000000000000
Plaintext:                00000000000000000000000000000000
Ciphertext:               47402e1c09e0c315b13cab5a5aa17e496a204d4e3b26417947402e1c09e0c315b13cab5a5aa17e49
Reciphers for ciphertext: 0
Decipheredtext:           00000000000000000000000000000000
RESULT CIPHER-DECIPHER: -----OK-----


Test: 8
Symmetric key bit length: 192
IV bit length:            128
Plaintext bit length:     128
Symmetric key:            000000000000000000000000000000000000000000000000
IV:                       00800000000000000000000000000000
Plaintext:                00000000000000000000000000000000
Ciphertext:               cde5ff61bb5659952a8c5cfedacf06a377e99b183b69579fcde5ff61bb5659952a8c5cfedacf06a3
Reciphers for ciphertext: 0
Decipheredtext:           00000000000000000000000000000000
RESULT CIPHER-DECIPHER: -----OK-----


Test: 9
Symmetric key bit length: 192
IV bit length:            128
Plaintext bit length:     128
Symmetric key:            000000000000000000000000000000000000000000000000
IV:                       00400000000000000000000000000000
Plaintext:                00000000000000000000000000000000
Ciphertext:               b26502ac2100f53bed68f245456315485004868fbb6ca454b26502ac2100f53bed68f24545631548
Reciphers for ciphertext: 0
Decipheredtext:           00000000000000000000000000000000
RESULT CIPHER-DECIPHER: -----OK-----


Test: 10
Symmetric key bit length: 192
IV bit length:            128
Plaintext bit length:     128
Symmetric key:            000000000000000000000000000000000000000000000000
IV:                       00200000000000000000000000000000
Plaintext:                00000000000000000000000000000000
Ciphertext:               b607bf21517dbec46d95758fff5a073bdc2bd2ef67eb9f31b607bf21517dbec46d95758fff5a073b
Reciphers for ciphertext: 0
Decipheredtext:           00000000000000000000000000000000
RESULT CIPHER-DECIPHER: -----OK-----


Test: 11
Symmetric key bit length: 192
IV bit length:            128
Plaintext bit length:     128
Symmetric key:            000000000000000000000000000000000000000000000000
IV:                       00100000000000000000000000000000
Plaintext:                00000000000000000000000000000000
Ciphertext:               d5d07ee9ba4512d2985453a0ae16aa8e8e2b5f5b2534dc9ab87ec5d8c48d23d3dd329f56d1f3ea08
Reciphers for ciphertext: 1
Decipheredtext:           00000000000000000000000000000000
RESULT CIPHER-DECIPHER: -----OK-----


Test: 12
Symmetric key bit length: 192
IV bit length:            128
Plaintext bit length:     128
Symmetric key:            000000000000000000000000000000000000000000000000
IV:                       00080000000000000000000000000000
Plaintext:                00000000000000000000000000000000
Ciphertext:               139b2bf2f5f28c014a6c2f9aea71faaf2240e18b62f5b18f139b2bf2f5f28c014a6c2f9aea71faaf
Reciphers for ciphertext: 0
Decipheredtext:           00000000000000000000000000000000
RESULT CIPHER-DECIPHER: -----OK-----


Test: 13
Symmetric key bit length: 192
IV bit length:            128
Plaintext bit length:     128
Symmetric key:            000000000000000000000000000000000000000000000000
IV:                       00040000000000000000000000000000
Plaintext:                00000000000000000000000000000000
Ciphertext:               4c35a2015688b03192dd599a3fddb893c2388381359301ba4c35a2015688b03192dd599a3fddb893
Reciphers for ciphertext: 0
Decipheredtext:           00000000000000000000000000000000
RESULT CIPHER-DECIPHER: -----OK-----


Test: 14
Symmetric key bit length: 192
IV bit length:            128
Plaintext bit length:     128
Symmetric key:            000000000000000000000000000000000000000000000000
IV:                       00020000000000000000000000000000
Plaintext:                00000000000000000000000000000000
Ciphertext:               24def3618142e83ba5124d914edb23ee0e96a8accb9798c724def3618142e83ba5124d914edb23ee
Reciphers for ciphertext: 0
Decipheredtext:           00000000000000000000000000000000
RESULT CIPHER-DECIPHER: -----OK-----


Test: 15
Symmetric key bit length: 192
IV bit length:            128
Plaintext bit length:     128
Symmetric key:            000000000000000000000000000000000000000000000000
IV:                       00010000000000000000000000000000
Plaintext:                00000000000000000000000000000000
Ciphertext:               4ba48c16fa165c322614a94b0f236ee7db2b3eb4ec00c59c4ba48c16fa165c322614a94b0f236ee7
Reciphers for ciphertext: 0
Decipheredtext:           00000000000000000000000000000000
RESULT CIPHER-DECIPHER: -----OK-----


Test: 16
Symmetric key bit length: 192
IV bit length:            128
Plaintext bit length:     128
Symmetric key:            000000000000000000000000000000000000000000000000
IV:                       00008000000000000000000000000000
Plaintext:                00000000000000000000000000000000
Ciphertext:               241d642123ee51ac09e02026228c1414c27a89404a74e9bad141ca01ae6107ed3c3c4c0b5706b3e7
Reciphers for ciphertext: 1
Decipheredtext:           00000000000000000000000000000000
RESULT CIPHER-DECIPHER: -----OK-----


Test: 17
Symmetric key bit length: 192
IV bit length:            128
Plaintext bit length:     128
Symmetric key:            000000000000000000000000000000000000000000000000
IV:                       00004000000000000000000000000000
Plaintext:                00000000000000000000000000000000
Ciphertext:               35604c5d7589b042c9a2e2550b439d317a3d7447a96a03e135604c5d7589b042c9a2e2550b439d31
Reciphers for ciphertext: 0
Decipheredtext:           00000000000000000000000000000000
RESULT CIPHER-DECIPHER: -----OK-----


Test: 18
Symmetric key bit length: 192
IV bit length:            128
Plaintext bit length:     128
Symmetric key:            000000000000000000000000000000000000000000000000
IV:                       00002000000000000000000000000000
Plaintext:                00000000000000000000000000000000
Ciphertext:               a921c70d25df86916bafcb0d99834d771fc04fe27d0050a5a921c70d25df86916bafcb0d99834d77
Reciphers for ciphertext: 0
Decipheredtext:           00000000000000000000000000000000
RESULT CIPHER-DECIPHER: -----OK-----


Test: 19
Symmetric key bit length: 192
IV bit length:            128
Plaintext bit length:     128
Symmetric key:            000000000000000000000000000000000000000000000000
IV:                       00001000000000000000000000000000
Plaintext:                00000000000000000000000000000000
Ciphertext:               ffc85ec27dbcedfd7f7265878967ca81344b2dde154c2f64ffc85ec27dbcedfd7f7265878967ca81
Reciphers for ciphertext: 0
Decipheredtext:           00000000000000000000000000000000
RESULT CIPHER-DECIPHER: -----OK-----


Test: 20
Symmetric key bit length: 192
IV bit length:            128
Plaintext bit length:     128
Symmetric key:            000000000000000000000000000000000000000000000000
IV:                       00000800000000000000000000000000
Plaintext:                00000000000000000000000000000000
Ciphertext:               2281b03c4aad92683b10418afd19fcbe9ececc04eb1d84df2281b03c4aad92683b10418afd19fcbe
Reciphers for ciphertext: 0
Decipheredtext:           00000000000000000000000000000000
RESULT CIPHER-DECIPHER: -----OK-----


Test: 21
Symmetric key bit length: 192
IV bit length:            128
Plaintext bit length:     128
Symmetric key:            000000000000000000000000000000000000000000000000
IV:                       00000400000000000000000000000000
Plaintext:                00000000000000000000000000000000
Ciphertext:               5df5f94a1760883ca1e80ba88fe02dcc4c945128417bd5c55df5f94a1760883ca1e80ba88fe02dcc
Reciphers for ciphertext: 0
Decipheredtext:           00000000000000000000000000000000
RESULT CIPHER-DECIPHER: -----OK-----


Test: 22
Symmetric key bit length: 192
IV bit length:            128
Plaintext bit length:     128
Symmetric key:            000000000000000000000000000000000000000000000000
IV:                       00000200000000000000000000000000
Plaintext:                00000000000000000000000000000000
Ciphertext:               fb2a57edd5cf3d2d38ec0f185ae33549f32bbc50ad522682fb2a57edd5cf3d2d38ec0f185ae33549
Reciphers for ciphertext: 0
Decipheredtext:           00000000000000000000000000000000
RESULT CIPHER-DECIPHER: -----OK-----


Test: 23
Symmetric key bit length: 192
IV bit length:            128
Plaintext bit length:     128
Symmetric key:            000000000000000000000000000000000000000000000000
IV:                       00000100000000000000000000000000
Plaintext:                00000000000000000000000000000000
Ciphertext:               0fa7045d04878611ba1ee1b89ae48fd7e80d67eb7a3033310fa7045d04878611ba1ee1b89ae48fd7
Reciphers for ciphertext: 0
Decipheredtext:           00000000000000000000000000000000
RESULT CIPHER-DECIPHER: -----OK-----


Test: 24
Symmetric key bit length: 192
IV bit length:            128
Plaintext bit length:     128
Symmetric key:            000000000000000000000000000000000000000000000000
IV:                       00000080000000000000000000000000
Plaintext:                00000000000000000000000000000000
Ciphertext:               d4bccb77a50cba2a5d3e19c39b10a95d788e00bedcc79e13d4bccb77a50cba2a5d3e19c39b10a95d
Reciphers for ciphertext: 0
Decipheredtext:           00000000000000000000000000000000
RESULT CIPHER-DECIPHER: -----OK-----


Test: 25
Symmetric key bit length: 192
IV bit length:            128
Plaintext bit length:     128
Symmetric key:            000000000000000000000000000000000000000000000000
IV:                       00000040000000000000000000000000
Plaintext:                00000000000000000000000000000000
Ciphertext:               0c673c63c42f40cc9c547e8ffec646bc957d677fa0e3c78f0c673c63c42f40cc9c547e8ffec646bc
Reciphers for ciphertext: 0
Decipheredtext:           00000000000000000000000000000000
RESULT CIPHER-DECIPHER: -----OK-----


Test: 26
Symmetric key bit length: 192
IV bit length:            128
Plaintext bit length:     128
Symmetric key:            000000000000000000000000000000000000000000000000
IV:                       00000020000000000000000000000000
Plaintext:                00000000000000000000000000000000
Ciphertext:               914cf9c7744a56d5d5e4beabff1aa160feb09ed57945aa90914cf9c7744a56d5d5e4beabff1aa160
Reciphers for ciphertext: 0
Decipheredtext:           00000000000000000000000000000000
RESULT CIPHER-DECIPHER: -----OK-----


Test: 27
Symmetric key bit length: 192
IV bit length:            128
Plaintext bit length:     128
Symmetric key:            000000000000000000000000000000000000000000000000
IV:                       00000010000000000000000000000000
Plaintext:                00000000000000000000000000000000
Ciphertext:               073e2f69a01ef426c14ade8f0a30dd8489a6c23ca8b92f7f073e2f69a01ef426c14ade8f0a30dd84
Reciphers for ciphertext: 0
Decipheredtext:           00000000000000000000000000000000
RESULT CIPHER-DECIPHER: -----OK-----


Test: 28
Symmetric key bit length: 192
IV bit length:            128
Plaintext bit length:     128
Symmetric key:            000000000000000000000000000000000000000000000000
IV:                       00000008000000000000000000000000
Plaintext:                00000000000000000000000000000000
Ciphertext:               5f0cf0ae5a8bc4d1fb37cf8f2f063437f9e5b406a88af9c15f0cf0ae5a8bc4d1fb37cf8f2f063437
Reciphers for ciphertext: 0
Decipheredtext:           00000000000000000000000000000000
RESULT CIPHER-DECIPHER: -----OK-----


Test: 29
Symmetric key bit length: 192
IV bit length:            128
Plaintext bit length:     128
Symmetric key:            000000000000000000000000000000000000000000000000
IV:                       00000004000000000000000000000000
Plaintext:                00000000000000000000000000000000
Ciphertext:               c3e16559538c35da71d6a9f5c79144ead32b5d5ffd7654e4c3e16559538c35da71d6a9f5c79144ea
Reciphers for ciphertext: 0
Decipheredtext:           00000000000000000000000000000000
RESULT CIPHER-DECIPHER: -----OK-----


Test: 30
Symmetric key bit length: 192
IV bit length:            128
Plaintext bit length:     128
Symmetric key:            000000000000000000000000000000000000000000000000
IV:                       00000002000000000000000000000000
Plaintext:                00000000000000000000000000000000
Ciphertext:               3a154b0a7eab802c082a4a96cc9968d40bb7ccfd902013573a154b0a7eab802c082a4a96cc9968d4
Reciphers for ciphertext: 0
Decipheredtext:           00000000000000000000000000000000
RESULT CIPHER-DECIPHER: -----OK-----


Test: 31
Symmetric key bit length: 192
IV bit length:            128
Plaintext bit length:     128
Symmetric key:            000000000000000000000000000000000000000000000000
IV:                       00000001000000000000000000000000
Plaintext:                00000000000000000000000000000000
Ciphertext:               205f88404d8c02bcc7c68a064c74a545744f60ed68997c4c205f88404d8c02bcc7c68a064c74a545
Reciphers for ciphertext: 0
Decipheredtext:           00000000000000000000000000000000
RESULT CIPHER-DECIPHER: -----OK-----


Test: 32
Symmetric key bit length: 192
IV bit length:            128
Plaintext bit length:     128
Symmetric key:            000000000000000000000000000000000000000000000000
IV:                       00000000800000000000000000000000
Plaintext:                00000000000000000000000000000000
Ciphertext:               26d5c66ef07bff1f9f2789205ef6f54f2ccb373c608a877ec82b3d93aa665002148baed2670d6a15
Reciphers for ciphertext: 1
Decipheredtext:           00000000000000000000000000000000
RESULT CIPHER-DECIPHER: -----OK-----


Test: 33
Symmetric key bit length: 192
IV bit length:            128
Plaintext bit length:     128
Symmetric key:            000000000000000000000000000000000000000000000000
IV:                       00000000400000000000000000000000
Plaintext:                00000000000000000000000000000000
Ciphertext:               7adfdd145251206f5eef7206f718c8b046b526603f944ccd7adfdd145251206f5eef7206f718c8b0
Reciphers for ciphertext: 0
Decipheredtext:           00000000000000000000000000000000
RESULT CIPHER-DECIPHER: -----OK-----


Test: 34
Symmetric key bit length: 192
IV bit length:            128
Plaintext bit length:     128
Symmetric key:            000000000000000000000000000000000000000000000000
IV:                       00000000200000000000000000000000
Plaintext:                00000000000000000000000000000000
Ciphertext:               971a2283f2d786efceed19ca000f4d2ab43372ec5c439ea0971a2283f2d786efceed19ca000f4d2a
Reciphers for ciphertext: 0
Decipheredtext:           00000000000000000000000000000000
RESULT CIPHER-DECIPHER: -----OK-----


Test: 35
Symmetric key bit length: 192
IV bit length:            128
Plaintext bit length:     128
Symmetric key:            000000000000000000000000000000000000000000000000
IV:                       00000000100000000000000000000000
Plaintext:                00000000000000000000000000000000
Ciphertext:               59ed88f7ee96e19469c0d5604da0e6f969cf14f7cc75efad59ed88f7ee96e19469c0d5604da0e6f9
Reciphers for ciphertext: 0
Decipheredtext:           00000000000000000000000000000000
RESULT CIPHER-DECIPHER: -----OK-----


Test: 36
Symmetric key bit length: 192
IV bit length:            128
Plaintext bit length:     128
Symmetric key:            000000000000000000000000000000000000000000000000
IV:                       00000000080000000000000000000000
Plaintext:                00000000000000000000000000000000
Ciphertext:               d970cba6992074c2f5bea1952ee82b606f6e7b9a43466403d970cba6992074c2f5bea1952ee82b60
Reciphers for ciphertext: 0
Decipheredtext:           00000000000000000000000000000000
RESULT CIPHER-DECIPHER: -----OK-----


Test: 37
Symmetric key bit length: 192
IV bit length:            128
Plaintext bit length:     128
Symmetric key:            000000000000000000000000000000000000000000000000
IV:                       00000000040000000000000000000000
Plaintext:                00000000000000000000000000000000
Ciphertext:               6de2a3c48a416d9b679112fe54133fb57f5345a7900c35056de2a3c48a416d9b679112fe54133fb5
Reciphers for ciphertext: 0
Decipheredtext:           00000000000000000000000000000000
RESULT CIPHER-DECIPHER: -----OK-----


Test: 38
Symmetric key bit length: 192
IV bit length:            128
Plaintext bit length:     128
Symmetric key:            000000000000000000000000000000000000000000000000
IV:                       00000000020000000000000000000000
Plaintext:                00000000000000000000000000000000
Ciphertext:               a85b4fcf07c08c7d99fab5ffc1f7680f7585671ad4aa5803a85b4fcf07c08c7d99fab5ffc1f7680f
Reciphers for ciphertext: 0
Decipheredtext:           00000000000000000000000000000000
RESULT CIPHER-DECIPHER: -----OK-----


Test: 39
Symmetric key bit length: 192
IV bit length:            128
Plaintext bit length:     128
Symmetric key:            000000000000000000000000000000000000000000000000
IV:                       00000000010000000000000000000000
Plaintext:                00000000000000000000000000000000
Ciphertext:               c4d174f3a6489b334a612ddf4c01903b3b2fa189ec5e022ac4d174f3a6489b334a612ddf4c01903b
Reciphers for ciphertext: 0
Decipheredtext:           00000000000000000000000000000000
RESULT CIPHER-DECIPHER: -----OK-----


Test: 40
Symmetric key bit length: 192
IV bit length:            128
Plaintext bit length:     128
Symmetric key:            000000000000000000000000000000000000000000000000
IV:                       00000000008000000000000000000000
Plaintext:                00000000000000000000000000000000
Ciphertext:               f428ce9715b50860eb9dac15b475803de8bdbcd0d443e758f428ce9715b50860eb9dac15b475803d
Reciphers for ciphertext: 0
Decipheredtext:           00000000000000000000000000000000
RESULT CIPHER-DECIPHER: -----OK-----


Test: 41
Symmetric key bit length: 192
IV bit length:            128
Plaintext bit length:     128
Symmetric key:            000000000000000000000000000000000000000000000000
IV:                       00000000004000000000000000000000
Plaintext:                00000000000000000000000000000000
Ciphertext:               15a4c8c2ec76338fd7f4ccbc22335a670022d7856437eb0e15a4c8c2ec76338fd7f4ccbc22335a67
Reciphers for ciphertext: 0
Decipheredtext:           00000000000000000000000000000000
RESULT CIPHER-DECIPHER: -----OK-----


Test: 42
Symmetric key bit length: 192
IV bit length:            128
Plaintext bit length:     128
Symmetric key:            000000000000000000000000000000000000000000000000
IV:                       00000000002000000000000000000000
Plaintext:                00000000000000000000000000000000
Ciphertext:               78782ca4652234a2b363d8da766ccdb8851a430e0d4fbd4578782ca4652234a2b363d8da766ccdb8
Reciphers for ciphertext: 0
Decipheredtext:           00000000000000000000000000000000
RESULT CIPHER-DECIPHER: -----OK-----


Test: 43
Symmetric key bit length: 192
IV bit length:            128
Plaintext bit length:     128
Symmetric key:            000000000000000000000000000000000000000000000000
IV:                       00000000001000000000000000000000
Plaintext:                00000000000000000000000000000000
Ciphertext:               b9ac015cc263572caee0e34683b3f6e008c133eb6f889b5bb9ac015cc263572caee0e34683b3f6e0
Reciphers for ciphertext: 0
Decipheredtext:           00000000000000000000000000000000
RESULT CIPHER-DECIPHER: -----OK-----


Test: 44
Symmetric key bit length: 192
IV bit length:            128
Plaintext bit length:     128
Symmetric key:            000000000000000000000000000000000000000000000000
IV:                       00000000000800000000000000000000
Plaintext:                00000000000000000000000000000000
Ciphertext:               7990673b85f6a31660293f4b7295e296ceea9141c3b77e897990673b85f6a31660293f4b7295e296
Reciphers for ciphertext: 0
Decipheredtext:           00000000000000000000000000000000
RESULT CIPHER-DECIPHER: -----OK-----


Test: 45
Symmetric key bit length: 192
IV bit length:            128
Plaintext bit length:     128
Symmetric key:            000000000000000000000000000000000000000000000000
IV:                       00000000000400000000000000000000
Plaintext:                00000000000000000000000000000000
Ciphertext:               32210034b38a6810f1623bdc777a5e30b11daf6d4facc6d232210034b38a6810f1623bdc777a5e30
Reciphers for ciphertext: 0
Decipheredtext:           00000000000000000000000000000000
RESULT CIPHER-DECIPHER: -----OK-----


Test: 46
Symmetric key bit length: 192
IV bit length:            128
Plaintext bit length:     128
Symmetric key:            000000000000000000000000000000000000000000000000
IV:                       00000000000200000000000000000000
Plaintext:                00000000000000000000000000000000
Ciphertext:               189b8ec3470085b3da97e82ca8964e320334bb50a7561fdf189b8ec3470085b3da97e82ca8964e32
Reciphers for ciphertext: 0
Decipheredtext:           00000000000000000000000000000000
RESULT CIPHER-DECIPHER: -----OK-----


Test: 47
Symmetric key bit length: 192
IV bit length:            128
Plaintext bit length:     128
Symmetric key:            000000000000000000000000000000000000000000000000
IV:                       00000000000100000000000000000000
Plaintext:                00000000000000000000000000000000
Ciphertext:               1e5c3b6e60715a4ee2397d86128feb23a301bbe1a6e9597f1e5c3b6e60715a4ee2397d86128feb23
Reciphers for ciphertext: 0
Decipheredtext:           00000000000000000000000000000000
RESULT CIPHER-DECIPHER: -----OK-----


Test: 48
Symmetric key bit length: 192
IV bit length:            128
Plaintext bit length:     128
Symmetric key:            000000000000000000000000000000000000000000000000
IV:                       00000000000080000000000000000000
Plaintext:                00000000000000000000000000000000
Ciphertext:               209e0c925c6eba5ee377b3fd99dc74eced40d82281a1bc08209e0c925c6eba5ee377b3fd99dc74ec
Reciphers for ciphertext: 0
Decipheredtext:           00000000000000000000000000000000
RESULT CIPHER-DECIPHER: -----OK-----


Test: 49
Symmetric key bit length: 192
IV bit length:            128
Plaintext bit length:     128
Symmetric key:            000000000000000000000000000000000000000000000000
IV:                       00000000000040000000000000000000
Plaintext:                00000000000000000000000000000000
Ciphertext:               d6d11ea627c1fe32e1ff75f69f2ef912519de0ac7808df2ad6d11ea627c1fe32e1ff75f69f2ef912
Reciphers for ciphertext: 0
Decipheredtext:           00000000000000000000000000000000
RESULT CIPHER-DECIPHER: -----OK-----


Test: 50
Symmetric key bit length: 192
IV bit length:            128
Plaintext bit length:     128
Symmetric key:            000000000000000000000000000000000000000000000000
IV:                       00000000000020000000000000000000
Plaintext:                00000000000000000000000000000000
Ciphertext:               330fa8dafe4a31dd83168f9a81c6bff80e0a6cc751f3f684330fa8dafe4a31dd83168f9a81c6bff8
Reciphers for ciphertext: 0
Decipheredtext:           00000000000000000000000000000000
RESULT CIPHER-DECIPHER: -----OK-----


Test: 51
Symmetric key bit length: 192
IV bit length:            128
Plaintext bit length:     128
Symmetric key:            000000000000000000000000000000000000000000000000
IV:                       00000000000010000000000000000000
Plaintext:                00000000000000000000000000000000
Ciphertext:               733b41f6263c4669ae05eba3592455288d2a54367712959a733b41f6263c4669ae05eba359245528
Reciphers for ciphertext: 0
Decipheredtext:           00000000000000000000000000000000
RESULT CIPHER-DECIPHER: -----OK-----


Test: 52
Symmetric key bit length: 192
IV bit length:            128
Plaintext bit length:     128
Symmetric key:            000000000000000000000000000000000000000000000000
IV:                       00000000000008000000000000000000
Plaintext:                00000000000000000000000000000000
Ciphertext:               462d605055949e84e16ffcc1d8ce18e0baee2fce70d68821462d605055949e84e16ffcc1d8ce18e0
Reciphers for ciphertext: 0
Decipheredtext:           00000000000000000000000000000000
RESULT CIPHER-DECIPHER: -----OK-----


Test: 53
Symmetric key bit length: 192
IV bit length:            128
Plaintext bit length:     128
Symmetric key:            000000000000000000000000000000000000000000000000
IV:                       00000000000004000000000000000000
Plaintext:                00000000000000000000000000000000
Ciphertext:               eba12bd6b1bf6e263037e89a34b1468afc4cb9b74364ebe8eba12bd6b1bf6e263037e89a34b1468a
Reciphers for ciphertext: 0
Decipheredtext:           00000000000000000000000000000000
RESULT CIPHER-DECIPHER: -----OK-----


Test: 54
Symmetric key bit length: 192
IV bit length:            128
Plaintext bit length:     128
Symmetric key:            000000000000000000000000000000000000000000000000
IV:                       00000000000002000000000000000000
Plaintext:                00000000000000000000000000000000
Ciphertext:               cfb0119561a328e22fdaac332097a0ae39c78d7226615327cfb0119561a328e22fdaac332097a0ae
Reciphers for ciphertext: 0
Decipheredtext:           00000000000000000000000000000000
RESULT CIPHER-DECIPHER: -----OK-----


Test: 55
Symmetric key bit length: 192
IV bit length:            128
Plaintext bit length:     128
Symmetric key:            000000000000000000000000000000000000000000000000
IV:                       00000000000001000000000000000000
Plaintext:                00000000000000000000000000000000
Ciphertext:               65477c9404927a19a24dcb813012cd6b65e42306c80a81c565477c9404927a19a24dcb813012cd6b
Reciphers for ciphertext: 0
Decipheredtext:           00000000000000000000000000000000
RESULT CIPHER-DECIPHER: -----OK-----


Test: 56
Symmetric key bit length: 192
IV bit length:            128
Plaintext bit length:     128
Symmetric key:            000000000000000000000000000000000000000000000000
IV:                       00000000000000800000000000000000
Plaintext:                00000000000000000000000000000000
Ciphertext:               71c538be7c7c25ac9c9bf433c439a81cab3b342f41bda2c071c538be7c7c25ac9c9bf433c439a81c
Reciphers for ciphertext: 0
Decipheredtext:           00000000000000000000000000000000
RESULT CIPHER-DECIPHER: -----OK-----


Test: 57
Symmetric key bit length: 192
IV bit length:            128
Plaintext bit length:     128
Symmetric key:            000000000000000000000000000000000000000000000000
IV:                       00000000000000400000000000000000
Plaintext:                00000000000000000000000000000000
Ciphertext:               43ff9632b748a0e5bb93c80b7a72d1e61345514ccc3cd3d243ff9632b748a0e5bb93c80b7a72d1e6
Reciphers for ciphertext: 0
Decipheredtext:           00000000000000000000000000000000
RESULT CIPHER-DECIPHER: -----OK-----


Test: 58
Symmetric key bit length: 192
IV bit length:            128
Plaintext bit length:     128
Symmetric key:            000000000000000000000000000000000000000000000000
IV:                       00000000000000200000000000000000
Plaintext:                00000000000000000000000000000000
Ciphertext:               958934c3731793b6501508488515386b4c438eeb9d9dd8c1958934c3731793b6501508488515386b
Reciphers for ciphertext: 0
Decipheredtext:           00000000000000000000000000000000
RESULT CIPHER-DECIPHER: -----OK-----


Test: 59
Symmetric key bit length: 192
IV bit length:            128
Plaintext bit length:     128
Symmetric key:            000000000000000000000000000000000000000000000000
IV:                       00000000000000100000000000000000
Plaintext:                00000000000000000000000000000000
Ciphertext:               74e629f351506259f0e5ba56161959415f9a1e71fa6b11ae74e629f351506259f0e5ba5616195941
Reciphers for ciphertext: 0
Decipheredtext:           00000000000000000000000000000000
RESULT CIPHER-DECIPHER: -----OK-----


Test: 60
Symmetric key bit length: 192
IV bit length:            128
Plaintext bit length:     128
Symmetric key:            000000000000000000000000000000000000000000000000
IV:                       00000000000000080000000000000000
Plaintext:                00000000000000000000000000000000
Ciphertext:               c12671b5543b37ee8045e21738b48456f2a47a97ca732319c12671b5543b37ee8045e21738b48456
Reciphers for ciphertext: 0
Decipheredtext:           00000000000000000000000000000000
RESULT CIPHER-DECIPHER: -----OK-----


Test: 61
Symmetric key bit length: 192
IV bit length:            128
Plaintext bit length:     128
Symmetric key:            000000000000000000000000000000000000000000000000
IV:                       00000000000000040000000000000000
Plaintext:                00000000000000000000000000000000
Ciphertext:               efeb1397a75a6d11b76c5aa522c01dd3b08fc643b4b779e2efeb1397a75a6d11b76c5aa522c01dd3
Reciphers for ciphertext: 0
Decipheredtext:           00000000000000000000000000000000
RESULT CIPHER-DECIPHER: -----OK-----


Test: 62
Symmetric key bit length: 192
IV bit length:            128
Plaintext bit length:     128
Symmetric key:            000000000000000000000000000000000000000000000000
IV:                       00000000000000020000000000000000
Plaintext:                00000000000000000000000000000000
Ciphertext:               40fcf95ce176d4c0614d49836af9b7b9720b46e550ca7a2e40fcf95ce176d4c0614d49836af9b7b9
Reciphers for ciphertext: 0
Decipheredtext:           00000000000000000000000000000000
RESULT CIPHER-DECIPHER: -----OK-----


Test: 63
Symmetric key bit length: 192
IV bit length:            128
Plaintext bit length:     128
Symmetric key:            000000000000000000000000000000000000000000000000
IV:                       00000000000000010000000000000000
Plaintext:                00000000000000000000000000000000
Ciphertext:               800532e2359c581ab7375a0023e5619fa52a2b16e6370f40800532e2359c581ab7375a0023e5619f
Reciphers for ciphertext: 0
Decipheredtext:           00000000000000000000000000000000
RESULT CIPHER-DECIPHER: -----OK-----


Test: 64
Symmetric key bit length: 192
IV bit length:            128
Plaintext bit length:     128
Symmetric key:            000000000000000000000000000000000000000000000000
IV:                       00000000000000008000000000000000
Plaintext:                00000000000000000000000000000000
Ciphertext:               02f4ee73fff08f688c534b8db1cf192f48365d0beecd8c1402f4ee73fff08f688c534b8db1cf192f
Reciphers for ciphertext: 0
Decipheredtext:           00000000000000000000000000000000
RESULT CIPHER-DECIPHER: -----OK-----


Test: 65
Symmetric key bit length: 192
IV bit length:            128
Plaintext bit length:     128
Symmetric key:            000000000000000000000000000000000000000000000000
IV:                       00000000000000004000000000000000
Plaintext:                00000000000000000000000000000000
Ciphertext:               703e4282110f7d27a6571abd98152d2bbbfd67df119f2e1e703e4282110f7d27a6571abd98152d2b
Reciphers for ciphertext: 0
Decipheredtext:           00000000000000000000000000000000
RESULT CIPHER-DECIPHER: -----OK-----


Test: 66
Symmetric key bit length: 192
IV bit length:            128
Plaintext bit length:     128
Symmetric key:            000000000000000000000000000000000000000000000000
IV:                       00000000000000002000000000000000
Plaintext:                00000000000000000000000000000000
Ciphertext:               f93b8b96d84d6457c2def803789e58fb9369ac5a08919238f93b8b96d84d6457c2def803789e58fb
Reciphers for ciphertext: 0
Decipheredtext:           00000000000000000000000000000000
RESULT CIPHER-DECIPHER: -----OK-----


Test: 67
Symmetric key bit length: 192
IV bit length:            128
Plaintext bit length:     128
Symmetric key:            000000000000000000000000000000000000000000000000
IV:                       00000000000000001000000000000000
Plaintext:                00000000000000000000000000000000
Ciphertext:               3291f29dc7a8fa6bfbab3080d46c8f4e2af44acbd89ffe073291f29dc7a8fa6bfbab3080d46c8f4e
Reciphers for ciphertext: 0
Decipheredtext:           00000000000000000000000000000000
RESULT CIPHER-DECIPHER: -----OK-----


Test: 68
Symmetric key bit length: 192
IV bit length:            128
Plaintext bit length:     128
Symmetric key:            000000000000000000000000000000000000000000000000
IV:                       00000000000000000800000000000000
Plaintext:                00000000000000000000000000000000
Ciphertext:               48a880f8db4317311f7fc7c534734c594fa7e30de751629148a880f8db4317311f7fc7c534734c59
Reciphers for ciphertext: 0
Decipheredtext:           00000000000000000000000000000000
RESULT CIPHER-DECIPHER: -----OK-----


Test: 69
Symmetric key bit length: 192
IV bit length:            128
Plaintext bit length:     128
Symmetric key:            000000000000000000000000000000000000000000000000
IV:                       00000000000000000400000000000000
Plaintext:                00000000000000000000000000000000
Ciphertext:               056ee1a0611b70d8b476a926a260908bc866806771adb3b6056ee1a0611b70d8b476a926a260908b
Reciphers for ciphertext: 0
Decipheredtext:           00000000000000000000000000000000
RESULT CIPHER-DECIPHER: -----OK-----


Test: 70
Symmetric key bit length: 192
IV bit length:            128
Plaintext bit length:     128
Symmetric key:            000000000000000000000000000000000000000000000000
IV:                       00000000000000000200000000000000
Plaintext:                00000000000000000000000000000000
Ciphertext:               0b22b4f0679776283a545ea4827f5d9d2b0b06eaa8a75a690b22b4f0679776283a545ea4827f5d9d
Reciphers for ciphertext: 0
Decipheredtext:           00000000000000000000000000000000
RESULT CIPHER-DECIPHER: -----OK-----


Test: 71
Symmetric key bit length: 192
IV bit length:            128
Plaintext bit length:     128
Symmetric key:            000000000000000000000000000000000000000000000000
IV:                       00000000000000000100000000000000
Plaintext:                00000000000000000000000000000000
Ciphertext:               b4983ccdb7953ea334fdb51232dd607f06f4b8c87397c5d7b4983ccdb7953ea334fdb51232dd607f
Reciphers for ciphertext: 0
Decipheredtext:           00000000000000000000000000000000
RESULT CIPHER-DECIPHER: -----OK-----


Test: 72
Symmetric key bit length: 192
IV bit length:            128
Plaintext bit length:     128
Symmetric key:            000000000000000000000000000000000000000000000000
IV:                       00000000000000000080000000000000
Plaintext:                00000000000000000000000000000000
Ciphertext:               84c360cdb59408fbff6c1d98b633a1674a50f954680c1edd84c360cdb59408fbff6c1d98b633a167
Reciphers for ciphertext: 0
Decipheredtext:           00000000000000000000000000000000
RESULT CIPHER-DECIPHER: -----OK-----


Test: 73
Symmetric key bit length: 192
IV bit length:            128
Plaintext bit length:     128
Symmetric key:            000000000000000000000000000000000000000000000000
IV:                       00000000000000000040000000000000
Plaintext:                00000000000000000000000000000000
Ciphertext:               99370507d1c662282477ee90fa4e72b933d59dc1a1bc945399370507d1c662282477ee90fa4e72b9
Reciphers for ciphertext: 0
Decipheredtext:           00000000000000000000000000000000
RESULT CIPHER-DECIPHER: -----OK-----


Test: 74
Symmetric key bit length: 192
IV bit length:            128
Plaintext bit length:     128
Symmetric key:            000000000000000000000000000000000000000000000000
IV:                       00000000000000000020000000000000
Plaintext:                00000000000000000000000000000000
Ciphertext:               71f8ee3b5575730281c6826d80b4c46c45ca8d4cab6d619571f8ee3b5575730281c6826d80b4c46c
Reciphers for ciphertext: 0
Decipheredtext:           00000000000000000000000000000000
RESULT CIPHER-DECIPHER: -----OK-----


Test: 75
Symmetric key bit length: 192
IV bit length:            128
Plaintext bit length:     128
Symmetric key:            000000000000000000000000000000000000000000000000
IV:                       00000000000000000010000000000000
Plaintext:                00000000000000000000000000000000
Ciphertext:               33a80e4a9d495bfe8f76e07a1ea05ed0f82a4c21a6259ee933a80e4a9d495bfe8f76e07a1ea05ed0
Reciphers for ciphertext: 0
Decipheredtext:           00000000000000000000000000000000
RESULT CIPHER-DECIPHER: -----OK-----


Test: 76
Symmetric key bit length: 192
IV bit length:            128
Plaintext bit length:     128
Symmetric key:            000000000000000000000000000000000000000000000000
IV:                       00000000000000000008000000000000
Plaintext:                00000000000000000000000000000000
Ciphertext:               3db3dbf045c4023b584e8568d25952eba7a41dde035221cc3db3dbf045c4023b584e8568d25952eb
Reciphers for ciphertext: 0
Decipheredtext:           00000000000000000000000000000000
RESULT CIPHER-DECIPHER: -----OK-----


Test: 77
Symmetric key bit length: 192
IV bit length:            128
Plaintext bit length:     128
Symmetric key:            000000000000000000000000000000000000000000000000
IV:                       00000000000000000004000000000000
Plaintext:                00000000000000000000000000000000
Ciphertext:               a6a9058c51ceb88f05e6cb97a492372733bbbb844f838018f358f127ae9e5dfd8dd9b1a5141de61b
Reciphers for ciphertext: 1
Decipheredtext:           00000000000000000000000000000000
RESULT CIPHER-DECIPHER: -----OK-----


Test: 78
Symmetric key bit length: 192
IV bit length:            128
Plaintext bit length:     128
Symmetric key:            000000000000000000000000000000000000000000000000
IV:                       00000000000000000002000000000000
Plaintext:                00000000000000000000000000000000
Ciphertext:               1e977f546daae78f553861f420e89e6236cc00e99f6bff571e977f546daae78f553861f420e89e62
Reciphers for ciphertext: 0
Decipheredtext:           00000000000000000000000000000000
RESULT CIPHER-DECIPHER: -----OK-----


Test: 79
Symmetric key bit length: 192
IV bit length:            128
Plaintext bit length:     128
Symmetric key:            000000000000000000000000000000000000000000000000
IV:                       00000000000000000001000000000000
Plaintext:                00000000000000000000000000000000
Ciphertext:               9f47bea3e662ca502341f727ecf64ff02ad67f85a6fd10e49f47bea3e662ca502341f727ecf64ff0
Reciphers for ciphertext: 0
Decipheredtext:           00000000000000000000000000000000
RESULT CIPHER-DECIPHER: -----OK-----


Test: 80
Symmetric key bit length: 192
IV bit length:            128
Plaintext bit length:     128
Symmetric key:            000000000000000000000000000000000000000000000000
IV:                       00000000000000000000800000000000
Plaintext:                00000000000000000000000000000000
Ciphertext:               723c52ca0635fc08c4818a8d386bf2ca374752f457306127723c52ca0635fc08c4818a8d386bf2ca
Reciphers for ciphertext: 0
Decipheredtext:           00000000000000000000000000000000
RESULT CIPHER-DECIPHER: -----OK-----


Test: 81
Symmetric key bit length: 192
IV bit length:            128
Plaintext bit length:     128
Symmetric key:            000000000000000000000000000000000000000000000000
IV:                       00000000000000000000400000000000
Plaintext:                00000000000000000000000000000000
Ciphertext:               562ad986fc63064fed5b8e77a575a079dedd4692b7d48fee562ad986fc63064fed5b8e77a575a079
Reciphers for ciphertext: 0
Decipheredtext:           00000000000000000000000000000000
RESULT CIPHER-DECIPHER: -----OK-----


Test: 82
Symmetric key bit length: 192
IV bit length:            128
Plaintext bit length:     128
Symmetric key:            000000000000000000000000000000000000000000000000
IV:                       00000000000000000000200000000000
Plaintext:                00000000000000000000000000000000
Ciphertext:               3209896941454c0d59e17df9e99ee590a15711058a70030f3209896941454c0d59e17df9e99ee590
Reciphers for ciphertext: 0
Decipheredtext:           00000000000000000000000000000000
RESULT CIPHER-DECIPHER: -----OK-----


Test: 83
Symmetric key bit length: 192
IV bit length:            128
Plaintext bit length:     128
Symmetric key:            000000000000000000000000000000000000000000000000
IV:                       00000000000000000000100000000000
Plaintext:                00000000000000000000000000000000
Ciphertext:               afa1d3a3a7c49544ecd0f005fe4adf304c20ce9dafa15841afa1d3a3a7c49544ecd0f005fe4adf30
Reciphers for ciphertext: 0
Decipheredtext:           00000000000000000000000000000000
RESULT CIPHER-DECIPHER: -----OK-----


Test: 84
Symmetric key bit length: 192
IV bit length:            128
Plaintext bit length:     128
Symmetric key:            000000000000000000000000000000000000000000000000
IV:                       00000000000000000000080000000000
Plaintext:                00000000000000000000000000000000
Ciphertext:               d0c15dbaa5f877a191e7ed56d1546dbfbf943d1aa221a0afd0c15dbaa5f877a191e7ed56d1546dbf
Reciphers for ciphertext: 0
Decipheredtext:           00000000000000000000000000000000
RESULT CIPHER-DECIPHER: -----OK-----


Test: 85
Symmetric key bit length: 192
IV bit length:            128
Plaintext bit length:     128
Symmetric key:            000000000000000000000000000000000000000000000000
IV:                       00000000000000000000040000000000
Plaintext:                00000000000000000000000000000000
Ciphertext:               467e0e629df57e2af5fd7a53b286222c3e52a80a20e85f63467e0e629df57e2af5fd7a53b286222c
Reciphers for ciphertext: 0
Decipheredtext:           00000000000000000000000000000000
RESULT CIPHER-DECIPHER: -----OK-----


Test: 86
Symmetric key bit length: 192
IV bit length:            128
Plaintext bit length:     128
Symmetric key:            000000000000000000000000000000000000000000000000
IV:                       00000000000000000000020000000000
Plaintext:                00000000000000000000000000000000
Ciphertext:               8097e51df87b86a1756436f5ec835f5415190c1efedc26238097e51df87b86a1756436f5ec835f54
Reciphers for ciphertext: 0
Decipheredtext:           00000000000000000000000000000000
RESULT CIPHER-DECIPHER: -----OK-----


Test: 87
Symmetric key bit length: 192
IV bit length:            128
Plaintext bit length:     128
Symmetric key:            000000000000000000000000000000000000000000000000
IV:                       00000000000000000000010000000000
Plaintext:                00000000000000000000000000000000
Ciphertext:               bc06ed199ac6a8be027a5b57e348765e5f6fdeba389e2572bc06ed199ac6a8be027a5b57e348765e
Reciphers for ciphertext: 0
Decipheredtext:           00000000000000000000000000000000
RESULT CIPHER-DECIPHER: -----OK-----


Test: 88
Symmetric key bit length: 192
IV bit length:            128
Plaintext bit length:     128
Symmetric key:            000000000000000000000000000000000000000000000000
IV:                       00000000000000000000008000000000
Plaintext:                00000000000000000000000000000000
Ciphertext:               f77d868cf760b9143a89809510ccb0990a81219b745c5a9ff77d868cf760b9143a89809510ccb099
Reciphers for ciphertext: 0
Decipheredtext:           00000000000000000000000000000000
RESULT CIPHER-DECIPHER: -----OK-----


Test: 89
Symmetric key bit length: 192
IV bit length:            128
Plaintext bit length:     128
Symmetric key:            000000000000000000000000000000000000000000000000
IV:                       00000000000000000000004000000000
Plaintext:                00000000000000000000000000000000
Ciphertext:               6ac27194ccb8b8c5a9ef91c460babc4f280077abed1567a06ac27194ccb8b8c5a9ef91c460babc4f
Reciphers for ciphertext: 0
Decipheredtext:           00000000000000000000000000000000
RESULT CIPHER-DECIPHER: -----OK-----


Test: 90
Symmetric key bit length: 192
IV bit length:            128
Plaintext bit length:     128
Symmetric key:            000000000000000000000000000000000000000000000000
IV:                       00000000000000000000002000000000
Plaintext:                00000000000000000000000000000000
Ciphertext:               90ecb7adf91e1664d96ddfa84f3e3b7a07362f3e97366f7890ecb7adf91e1664d96ddfa84f3e3b7a
Reciphers for ciphertext: 0
Decipheredtext:           00000000000000000000000000000000
RESULT CIPHER-DECIPHER: -----OK-----


Test: 91
Symmetric key bit length: 192
IV bit length:            128
Plaintext bit length:     128
Symmetric key:            000000000000000000000000000000000000000000000000
IV:                       00000000000000000000001000000000
Plaintext:                00000000000000000000000000000000
Ciphertext:               c9344eaead5b2d403df0b0e23edda5db7fb3529195616e92c9344eaead5b2d403df0b0e23edda5db
Reciphers for ciphertext: 0
Decipheredtext:           00000000000000000000000000000000
RESULT CIPHER-DECIPHER: -----OK-----


Test: 92
Symmetric key bit length: 192
IV bit length:            128
Plaintext bit length:     128
Symmetric key:            000000000000000000000000000000000000000000000000
IV:                       00000000000000000000000800000000
Plaintext:                00000000000000000000000000000000
Ciphertext:               7b1e6b2e84a5fa629825f60885f73423f403f021bb1376617b1e6b2e84a5fa629825f60885f73423
Reciphers for ciphertext: 0
Decipheredtext:           00000000000000000000000000000000
RESULT CIPHER-DECIPHER: -----OK-----


Test: 93
Symmetric key bit length: 192
IV bit length:            128
Plaintext bit length:     128
Symmetric key:            000000000000000000000000000000000000000000000000
IV:                       00000000000000000000000400000000
Plaintext:                00000000000000000000000000000000
Ciphertext:               730f3bab94156e5835bd741bb8d85ef167aca5b8f946f9fa730f3bab94156e5835bd741bb8d85ef1
Reciphers for ciphertext: 0
Decipheredtext:           00000000000000000000000000000000
RESULT CIPHER-DECIPHER: -----OK-----


Test: 94
Symmetric key bit length: 192
IV bit length:            128
Plaintext bit length:     128
Symmetric key:            000000000000000000000000000000000000000000000000
IV:                       00000000000000000000000200000000
Plaintext:                00000000000000000000000000000000
Ciphertext:               6685abc072c2dc93354a623446ee54a68a30732b9e41b5386685abc072c2dc93354a623446ee54a6
Reciphers for ciphertext: 0
Decipheredtext:           00000000000000000000000000000000
RESULT CIPHER-DECIPHER: -----OK-----


Test: 95
Symmetric key bit length: 192
IV bit length:            128
Plaintext bit length:     128
Symmetric key:            000000000000000000000000000000000000000000000000
IV:                       00000000000000000000000100000000
Plaintext:                00000000000000000000000000000000
Ciphertext:               c350186035a00e5802ceda6ae90615e735be957f8daf537ec350186035a00e5802ceda6ae90615e7
Reciphers for ciphertext: 0
Decipheredtext:           00000000000000000000000000000000
RESULT CIPHER-DECIPHER: -----OK-----


Test: 96
Symmetric key bit length: 192
IV bit length:            128
Plaintext bit length:     128
Symmetric key:            000000000000000000000000000000000000000000000000
IV:                       00000000000000000000000080000000
Plaintext:                00000000000000000000000000000000
Ciphertext:               38f0bee5d234428ab287939be63bd400a60bd7ae7b32063f38f0bee5d234428ab287939be63bd400
Reciphers for ciphertext: 0
Decipheredtext:           00000000000000000000000000000000
RESULT CIPHER-DECIPHER: -----OK-----


Test: 97
Symmetric key bit length: 192
IV bit length:            128
Plaintext bit length:     128
Symmetric key:            000000000000000000000000000000000000000000000000
IV:                       00000000000000000000000040000000
Plaintext:                00000000000000000000000000000000
Ciphertext:               59c13cf6b6608aa743a57e580a8d82bbc4fa4f291b6f99ff59c13cf6b6608aa743a57e580a8d82bb
Reciphers for ciphertext: 0
Decipheredtext:           00000000000000000000000000000000
RESULT CIPHER-DECIPHER: -----OK-----


Test: 98
Symmetric key bit length: 192
IV bit length:            128
Plaintext bit length:     128
Symmetric key:            000000000000000000000000000000000000000000000000
IV:                       00000000000000000000000020000000
Plaintext:                00000000000000000000000000000000
Ciphertext:               60e6f6290fc3e9dc2c656bfacb3873426a2eddf79b3d0e6a60e6f6290fc3e9dc2c656bfacb387342
Reciphers for ciphertext: 0
Decipheredtext:           00000000000000000000000000000000
RESULT CIPHER-DECIPHER: -----OK-----


Test: 99
Symmetric key bit length: 192
IV bit length:            128
Plaintext bit length:     128
Symmetric key:            000000000000000000000000000000000000000000000000
IV:                       00000000000000000000000010000000
Plaintext:                00000000000000000000000000000000
Ciphertext:               dd49442c7ab7443bd7e41b4b848662d22c43c15379e10104dd49442c7ab7443bd7e41b4b848662d2
Reciphers for ciphertext: 0
Decipheredtext:           00000000000000000000000000000000
RESULT CIPHER-DECIPHER: -----OK-----


Test: 100
Symmetric key bit length: 192
IV bit length:            128
Plaintext bit length:     128
Symmetric key:            000000000000000000000000000000000000000000000000
IV:                       00000000000000000000000008000000
Plaintext:                00000000000000000000000000000000
Ciphertext:               3a18f3904cd710c501784b44b7bed928e5399f13b9580bad3a18f3904cd710c501784b44b7bed928
Reciphers for ciphertext: 0
Decipheredtext:           00000000000000000000000000000000
RESULT CIPHER-DECIPHER: -----OK-----


Test: 101
Symmetric key bit length: 192
IV bit length:            128
Plaintext bit length:     128
Symmetric key:            000000000000000000000000000000000000000000000000
IV:                       00000000000000000000000004000000
Plaintext:                00000000000000000000000000000000
Ciphertext:               8afb4f1591681cfd0ff331f5e749899d344f3f2f88e853dc8afb4f1591681cfd0ff331f5e749899d
Reciphers for ciphertext: 0
Decipheredtext:           00000000000000000000000000000000
RESULT CIPHER-DECIPHER: -----OK-----


Test: 102
Symmetric key bit length: 192
IV bit length:            128
Plaintext bit length:     128
Symmetric key:            000000000000000000000000000000000000000000000000
IV:                       00000000000000000000000002000000
Plaintext:                00000000000000000000000000000000
Ciphertext:               24093cf425ca447b76edbfc957a529b3d443e80096a7665a24093cf425ca447b76edbfc957a529b3
Reciphers for ciphertext: 0
Decipheredtext:           00000000000000000000000000000000
RESULT CIPHER-DECIPHER: -----OK-----


Test: 103
Symmetric key bit length: 192
IV bit length:            128
Plaintext bit length:     128
Symmetric key:            000000000000000000000000000000000000000000000000
IV:                       00000000000000000000000001000000
Plaintext:                00000000000000000000000000000000
Ciphertext:               f5734b1089880f05e728cb07b4b509196866505a1c798226f5734b1089880f05e728cb07b4b50919
Reciphers for ciphertext: 0
Decipheredtext:           00000000000000000000000000000000
RESULT CIPHER-DECIPHER: -----OK-----


Test: 104
Symmetric key bit length: 192
IV bit length:            128
Plaintext bit length:     128
Symmetric key:            000000000000000000000000000000000000000000000000
IV:                       00000000000000000000000000800000
Plaintext:                00000000000000000000000000000000
Ciphertext:               e53a9ff4cdf0c76a9e5d3031e8b151da47050eeeb5828cd1e53a9ff4cdf0c76a9e5d3031e8b151da
Reciphers for ciphertext: 0
Decipheredtext:           00000000000000000000000000000000
RESULT CIPHER-DECIPHER: -----OK-----


Test: 105
Symmetric key bit length: 192
IV bit length:            128
Plaintext bit length:     128
Symmetric key:            000000000000000000000000000000000000000000000000
IV:                       00000000000000000000000000400000
Plaintext:                00000000000000000000000000000000
Ciphertext:               a59d4bfa111ac6f33624aac45518094aeb76d7663e80cbbfa59d4bfa111ac6f33624aac45518094a
Reciphers for ciphertext: 0
Decipheredtext:           00000000000000000000000000000000
RESULT CIPHER-DECIPHER: -----OK-----


Test: 106
Symmetric key bit length: 192
IV bit length:            128
Plaintext bit length:     128
Symmetric key:            000000000000000000000000000000000000000000000000
IV:                       00000000000000000000000000200000
Plaintext:                00000000000000000000000000000000
Ciphertext:               46949a5758b3b4184f684358915083db6aa88d7f9fc9740546949a5758b3b4184f684358915083db
Reciphers for ciphertext: 0
Decipheredtext:           00000000000000000000000000000000
RESULT CIPHER-DECIPHER: -----OK-----


Test: 107
Symmetric key bit length: 192
IV bit length:            128
Plaintext bit length:     128
Symmetric key:            000000000000000000000000000000000000000000000000
IV:                       00000000000000000000000000100000
Plaintext:                00000000000000000000000000000000
Ciphertext:               4b3dd9621bedd5f7f54f53606737a113e12eb196ce6035b24b3dd9621bedd5f7f54f53606737a113
Reciphers for ciphertext: 0
Decipheredtext:           00000000000000000000000000000000
RESULT CIPHER-DECIPHER: -----OK-----


Test: 108
Symmetric key bit length: 192
IV bit length:            128
Plaintext bit length:     128
Symmetric key:            000000000000000000000000000000000000000000000000
IV:                       00000000000000000000000000080000
Plaintext:                00000000000000000000000000000000
Ciphertext:               958e939d24b0d7c9b1c237891d3b61c299f9c6830a6132e9958e939d24b0d7c9b1c237891d3b61c2
Reciphers for ciphertext: 0
Decipheredtext:           00000000000000000000000000000000
RESULT CIPHER-DECIPHER: -----OK-----


Test: 109
Symmetric key bit length: 192
IV bit length:            128
Plaintext bit length:     128
Symmetric key:            000000000000000000000000000000000000000000000000
IV:                       00000000000000000000000000040000
Plaintext:                00000000000000000000000000000000
Ciphertext:               6930b05005417f71db709b617888b43fd7d88322062c6be46930b05005417f71db709b617888b43f
Reciphers for ciphertext: 0
Decipheredtext:           00000000000000000000000000000000
RESULT CIPHER-DECIPHER: -----OK-----


Test: 110
Symmetric key bit length: 192
IV bit length:            128
Plaintext bit length:     128
Symmetric key:            000000000000000000000000000000000000000000000000
IV:                       00000000000000000000000000020000
Plaintext:                00000000000000000000000000000000
Ciphertext:               ebc7f36e81c8abece7aacd8e5dbd8905451ecdabdc054f61ebc7f36e81c8abece7aacd8e5dbd8905
Reciphers for ciphertext: 0
Decipheredtext:           00000000000000000000000000000000
RESULT CIPHER-DECIPHER: -----OK-----


Test: 111
Symmetric key bit length: 192
IV bit length:            128
Plaintext bit length:     128
Symmetric key:            000000000000000000000000000000000000000000000000
IV:                       00000000000000000000000000010000
Plaintext:                00000000000000000000000000000000
Ciphertext:               a8cc6bba06b7aa9806819d7830c0c95a4e11d3e9b4246595a8cc6bba06b7aa9806819d7830c0c95a
Reciphers for ciphertext: 0
Decipheredtext:           00000000000000000000000000000000
RESULT CIPHER-DECIPHER: -----OK-----


Test: 112
Symmetric key bit length: 192
IV bit length:            128
Plaintext bit length:     128
Symmetric key:            000000000000000000000000000000000000000000000000
IV:                       00000000000000000000000000008000
Plaintext:                00000000000000000000000000000000
Ciphertext:               6921097106f0f151bf767e897e6bd64b24acc0f54d4fe4d86921097106f0f151bf767e897e6bd64b
Reciphers for ciphertext: 0
Decipheredtext:           00000000000000000000000000000000
RESULT CIPHER-DECIPHER: -----OK-----


Test: 113
Symmetric key bit length: 192
IV bit length:            128
Plaintext bit length:     128
Symmetric key:            000000000000000000000000000000000000000000000000
IV:                       00000000000000000000000000004000
Plaintext:                00000000000000000000000000000000
Ciphertext:               bce445f2d14016520d49faa088c5724ae92d73b9895c3722bce445f2d14016520d49faa088c5724a
Reciphers for ciphertext: 0
Decipheredtext:           00000000000000000000000000000000
RESULT CIPHER-DECIPHER: -----OK-----


Test: 114
Symmetric key bit length: 192
IV bit length:            128
Plaintext bit length:     128
Symmetric key:            000000000000000000000000000000000000000000000000
IV:                       00000000000000000000000000002000
Plaintext:                00000000000000000000000000000000
Ciphertext:               1cebadbafac634b929a1d7c1cc5d203285d950f7096e424a1cebadbafac634b929a1d7c1cc5d2032
Reciphers for ciphertext: 0
Decipheredtext:           00000000000000000000000000000000
RESULT CIPHER-DECIPHER: -----OK-----


Test: 115
Symmetric key bit length: 192
IV bit length:            128
Plaintext bit length:     128
Symmetric key:            000000000000000000000000000000000000000000000000
IV:                       00000000000000000000000000001000
Plaintext:                00000000000000000000000000000000
Ciphertext:               58461087da47ecd75993f9f64c9af774c74252b0a9c9c01458461087da47ecd75993f9f64c9af774
Reciphers for ciphertext: 0
Decipheredtext:           00000000000000000000000000000000
RESULT CIPHER-DECIPHER: -----OK-----


Test: 116
Symmetric key bit length: 192
IV bit length:            128
Plaintext bit length:     128
Symmetric key:            000000000000000000000000000000000000000000000000
IV:                       00000000000000000000000000000800
Plaintext:                00000000000000000000000000000000
Ciphertext:               8de6083068111cd9b07b17a58b42102894f1a82cde190a178de6083068111cd9b07b17a58b421028
Reciphers for ciphertext: 0
Decipheredtext:           00000000000000000000000000000000
RESULT CIPHER-DECIPHER: -----OK-----


Test: 117
Symmetric key bit length: 192
IV bit length:            128
Plaintext bit length:     128
Symmetric key:            000000000000000000000000000000000000000000000000
IV:                       00000000000000000000000000000400
Plaintext:                00000000000000000000000000000000
Ciphertext:               8fd00a5dd8e6f93ebb73d3ae05c26338f60973ef572ef92a8fd00a5dd8e6f93ebb73d3ae05c26338
Reciphers for ciphertext: 0
Decipheredtext:           00000000000000000000000000000000
RESULT CIPHER-DECIPHER: -----OK-----


Test: 118
Symmetric key bit length: 192
IV bit length:            128
Plaintext bit length:     128
Symmetric key:            000000000000000000000000000000000000000000000000
IV:                       00000000000000000000000000000200
Plaintext:                00000000000000000000000000000000
Ciphertext:               7b4dc0232880d9d7edfb4d89a07a20dd34eb2d55358ce0ce7b4dc0232880d9d7edfb4d89a07a20dd
Reciphers for ciphertext: 0
Decipheredtext:           00000000000000000000000000000000
RESULT CIPHER-DECIPHER: -----OK-----


Test: 119
Symmetric key bit length: 192
IV bit length:            128
Plaintext bit length:     128
Symmetric key:            000000000000000000000000000000000000000000000000
IV:                       00000000000000000000000000000100
Plaintext:                00000000000000000000000000000000
Ciphertext:               4fb7e947a58b192186cce9aaecc9eaa6129ef6c0d4881e634fb7e947a58b192186cce9aaecc9eaa6
Reciphers for ciphertext: 0
Decipheredtext:           00000000000000000000000000000000
RESULT CIPHER-DECIPHER: -----OK-----


Test: 120
Symmetric key bit length: 192
IV bit length:            128
Plaintext bit length:     128
Symmetric key:            000000000000000000000000000000000000000000000000
IV:                       00000000000000000000000000000080
Plaintext:                00000000000000000000000000000000
Ciphertext:               bb8a615964c174450d7e68ad32f4f523dc50b67b6fc42c9cbb8a615964c174450d7e68ad32f4f523
Reciphers for ciphertext: 0
Decipheredtext:           00000000000000000000000000000000
RESULT CIPHER-DECIPHER: -----OK-----


Test: 121
Symmetric key bit length: 192
IV bit length:            128
Plaintext bit length:     128
Symmetric key:            000000000000000000000000000000000000000000000000
IV:                       00000000000000000000000000000040
Plaintext:                00000000000000000000000000000000
Ciphertext:               e37cf906ae4c30a4a4e9f6364989cd569264ff574d3e4bf4e37cf906ae4c30a4a4e9f6364989cd56
Reciphers for ciphertext: 0
Decipheredtext:           00000000000000000000000000000000
RESULT CIPHER-DECIPHER: -----OK-----


Test: 122
Symmetric key bit length: 192
IV bit length:            128
Plaintext bit length:     128
Symmetric key:            000000000000000000000000000000000000000000000000
IV:                       00000000000000000000000000000020
Plaintext:                00000000000000000000000000000000
Ciphertext:               7b223c8e3fc51b77f4f91a464fd904b6ee0aedd9da0e46247b223c8e3fc51b77f4f91a464fd904b6
Reciphers for ciphertext: 0
Decipheredtext:           00000000000000000000000000000000
RESULT CIPHER-DECIPHER: -----OK-----


Test: 123
Symmetric key bit length: 192
IV bit length:            128
Plaintext bit length:     128
Symmetric key:            000000000000000000000000000000000000000000000000
IV:                       00000000000000000000000000000010
Plaintext:                00000000000000000000000000000000
Ciphertext:               02263d1d95636d0d63806875c42a85bb50a423f55a6b0b3302263d1d95636d0d63806875c42a85bb
Reciphers for ciphertext: 0
Decipheredtext:           00000000000000000000000000000000
RESULT CIPHER-DECIPHER: -----OK-----


Test: 124
Symmetric key bit length: 192
IV bit length:            128
Plaintext bit length:     128
Symmetric key:            000000000000000000000000000000000000000000000000
IV:                       00000000000000000000000000000008
Plaintext:                00000000000000000000000000000000
Ciphertext:               9c25b3aacdc23f99982c8dd96c209c313d3bc430e4d5d8929c25b3aacdc23f99982c8dd96c209c31
Reciphers for ciphertext: 0
Decipheredtext:           00000000000000000000000000000000
RESULT CIPHER-DECIPHER: -----OK-----


Test: 125
Symmetric key bit length: 192
IV bit length:            128
Plaintext bit length:     128
Symmetric key:            000000000000000000000000000000000000000000000000
IV:                       00000000000000000000000000000004
Plaintext:                00000000000000000000000000000000
Ciphertext:               f7e9ad85347a957d3b1e4556595971d288d8c63770bc69ecf7e9ad85347a957d3b1e4556595971d2
Reciphers for ciphertext: 0
Decipheredtext:           00000000000000000000000000000000
RESULT CIPHER-DECIPHER: -----OK-----


Test: 126
Symmetric key bit length: 192
IV bit length:            128
Plaintext bit length:     128
Symmetric key:            000000000000000000000000000000000000000000000000
IV:                       00000000000000000000000000000002
Plaintext:                00000000000000000000000000000000
Ciphertext:               bad13d578b19df90632a7f7c927d25d431418677849ab91bbad13d578b19df90632a7f7c927d25d4
Reciphers for ciphertext: 0
Decipheredtext:           00000000000000000000000000000000
RESULT CIPHER-DECIPHER: -----OK-----


Test: 127
Symmetric key bit length: 192
IV bit length:            128
Plaintext bit length:     128
Symmetric key:            000000000000000000000000000000000000000000000000
IV:                       00000000000000000000000000000001
Plaintext:                00000000000000000000000000000000
Ciphertext:               79cd7df51ac0dc8296f1f3e8dbf610768bc3309ef595ae7b79cd7df51ac0dc8296f1f3e8dbf61076
Reciphers for ciphertext: 0
Decipheredtext:           00000000000000000000000000000000
RESULT CIPHER-DECIPHER: -----OK-----


 DATA SHA1 (hexadecimal): 83f0942fee6dce65a28c840be6254166805d55a4

