
DiceLock 9.0.0.1

 TEST COMPONENTS:
 ----------------
 DiceLock:           DiceLockDigested class
 Base Stream Cipher: ARC4_Discarding class
 Hash algorithms:     0 - Sha1 class
                      1 - Sha224 class
                      2 - Sha256 class
                      3 - Sha384 class
                      4 - Sha512 class
                      5 - Sha512_224 class
                      6 - Sha512_256 class
                      7 - Ripemd128 class
                      8 - Ripemd160 class
                      9 - Ripemd256 class
                     10 - Ripemd320 class
                     11 - MD2 class
                     12 - MD4 class
                     13 - MD5 class
 Key Modifier:       DecreaseKeyModifier_6_0_0_1 class
 Random tests:       RandomTestSuite class
                     FrequencyTest class
                     BlockFrequencyTest class
                     CumulativeSumForwardTest class
                     LongestRunOfOnesTest class
                     RunsTest class
 Random alpha:       0.001

 VECTOR TEST: Test vector 5 - Symmetric key all byte value 0xXX and plaintext all byte value 0xYYTest vector 6 - Plaintext lengths from 1 byte to 16 bytes with byte value 0xYY and symmetric key all byte value 0x00


##### INDIVIDUAL TESTS #####

Number tests: 128


Test: 0
Hash algorithm: 3
Symmetric key bit length: 128
Plaintext bit length:     128
Symmetric key:            00000000000000000000000000000000
Plaintext:                00000000000000000000000000000000
Ciphertext:               1e6e1e6d0bba59898a42594cce7e4ce4933e5f9b0f47b7b8cea5632cfdcf59c2c1ea333076d2553f6258be18c564af2cd0fc93fbb1d60f5653698d55f9eecfe9
Reciphers for ciphertext: 0
Decipheredtext:           00000000000000000000000000000000
RESULT CIPHER-DECIPHER: -----OK-----


Test: 1
Hash algorithm: 11
Symmetric key bit length: 128
Plaintext bit length:     128
Symmetric key:            01010101010101010101010101010101
Plaintext:                01010101010101010101010101010101
Ciphertext:               5c21aa7d28f7428d460e3f62b0608590406318f4aad916277bc57522129832a4
Reciphers for ciphertext: 0
Decipheredtext:           01010101010101010101010101010101
RESULT CIPHER-DECIPHER: -----OK-----


Test: 2
Hash algorithm: 6
Symmetric key bit length: 128
Plaintext bit length:     128
Symmetric key:            02020202020202020202020202020202
Plaintext:                02020202020202020202020202020202
Ciphertext:               430cb34c3f6b78e1cc41eae8d7dbebe258e8cf9e0839d30860b8f884e5d230dbaebbb4b006bbb6fcb4e99d6a791d2a85
Reciphers for ciphertext: 0
Decipheredtext:           02020202020202020202020202020202
RESULT CIPHER-DECIPHER: -----OK-----


Test: 3
Hash algorithm: 7
Symmetric key bit length: 128
Plaintext bit length:     128
Symmetric key:            03030303030303030303030303030303
Plaintext:                03030303030303030303030303030303
Ciphertext:               580a2b149e2d48f4d0fd08d46bb32f1b23dfb501bd8e94414420712dad4e6497
Reciphers for ciphertext: 0
Decipheredtext:           03030303030303030303030303030303
RESULT CIPHER-DECIPHER: -----OK-----


Test: 4
Hash algorithm: 1
Symmetric key bit length: 128
Plaintext bit length:     128
Symmetric key:            04040404040404040404040404040404
Plaintext:                04040404040404040404040404040404
Ciphertext:               b5479552ad50bc5d46bb362219f36e098b2f33f8e0d95e07ea978909bfa1975de4e91b36ade34eb5d8d6760a
Reciphers for ciphertext: 0
Decipheredtext:           04040404040404040404040404040404
RESULT CIPHER-DECIPHER: -----OK-----


Test: 5
Hash algorithm: 3
Symmetric key bit length: 128
Plaintext bit length:     128
Symmetric key:            05050505050505050505050505050505
Plaintext:                05050505050505050505050505050505
Ciphertext:               9ea90b8b533456ddda84f88cd528a808fb34071bdb04966e468517eafeced795f803ee3a04d2c29fa292bdc289c47d28202f76346ed5443d948a186dfdb89898
Reciphers for ciphertext: 0
Decipheredtext:           05050505050505050505050505050505
RESULT CIPHER-DECIPHER: -----OK-----


Test: 6
Hash algorithm: 11
Symmetric key bit length: 128
Plaintext bit length:     128
Symmetric key:            06060606060606060606060606060606
Plaintext:                06060606060606060606060606060606
Ciphertext:               0e9279d6ebd82294321623f3644b5282a8d1ae6c0f683d868bc91f1e6c11529a
Reciphers for ciphertext: 0
Decipheredtext:           06060606060606060606060606060606
RESULT CIPHER-DECIPHER: -----OK-----


Test: 7
Hash algorithm: 0
Symmetric key bit length: 128
Plaintext bit length:     128
Symmetric key:            07070707070707070707070707070707
Plaintext:                07070707070707070707070707070707
Ciphertext:               ffc7cc62568fa8f46650fb522dac69cf9c19f837ba1f689a14fc56ea71c7d8e568c0d252
Reciphers for ciphertext: 0
Decipheredtext:           07070707070707070707070707070707
RESULT CIPHER-DECIPHER: -----OK-----


Test: 8
Hash algorithm: 9
Symmetric key bit length: 128
Plaintext bit length:     128
Symmetric key:            08080808080808080808080808080808
Plaintext:                08080808080808080808080808080808
Ciphertext:               411bd0254bc68291e083272ba21fae30a621dbb34a4b7e3d5ff4ffe54e9f21d76a2ef22b24eb6404344ae89508417d18
Reciphers for ciphertext: 0
Decipheredtext:           08080808080808080808080808080808
RESULT CIPHER-DECIPHER: -----OK-----


Test: 9
Hash algorithm: 10
Symmetric key bit length: 128
Plaintext bit length:     128
Symmetric key:            09090909090909090909090909090909
Plaintext:                09090909090909090909090909090909
Ciphertext:               2c28bf312ade8bfb4fa86a52808e009d9eae44cf3c9430d6f9561587ba5e1b51e14e370de347e6a818ccf3469e687658a2e6b7f13c9d86f0
Reciphers for ciphertext: 0
Decipheredtext:           09090909090909090909090909090909
RESULT CIPHER-DECIPHER: -----OK-----


Test: 10
Hash algorithm: 1
Symmetric key bit length: 128
Plaintext bit length:     128
Symmetric key:            0a0a0a0a0a0a0a0a0a0a0a0a0a0a0a0a
Plaintext:                0a0a0a0a0a0a0a0a0a0a0a0a0a0a0a0a
Ciphertext:               8908d5630397a8eeb21871b368af9773c80d8ae7dcfd2c6c9f543a619610ac745ff7c4a5447f2b4cea5cded0
Reciphers for ciphertext: 0
Decipheredtext:           0a0a0a0a0a0a0a0a0a0a0a0a0a0a0a0a
RESULT CIPHER-DECIPHER: -----OK-----


Test: 11
Hash algorithm: 2
Symmetric key bit length: 128
Plaintext bit length:     128
Symmetric key:            0b0b0b0b0b0b0b0b0b0b0b0b0b0b0b0b
Plaintext:                0b0b0b0b0b0b0b0b0b0b0b0b0b0b0b0b
Ciphertext:               8494f2c11d6aca479072dc5c79fb278ea9e09a414744f04e051c2ab12a461380aff72a14de5d5fd54f9e2b0f89384aab
Reciphers for ciphertext: 0
Decipheredtext:           0b0b0b0b0b0b0b0b0b0b0b0b0b0b0b0b
RESULT CIPHER-DECIPHER: -----OK-----


Test: 12
Hash algorithm: 5
Symmetric key bit length: 128
Plaintext bit length:     128
Symmetric key:            0c0c0c0c0c0c0c0c0c0c0c0c0c0c0c0c
Plaintext:                0c0c0c0c0c0c0c0c0c0c0c0c0c0c0c0c
Ciphertext:               88f85bc885deafececb71685e88cc41c036ba823a5c76a410cc79a885d53d1dc82b53a67b5e35cae58cf0886
Reciphers for ciphertext: 0
Decipheredtext:           0c0c0c0c0c0c0c0c0c0c0c0c0c0c0c0c
RESULT CIPHER-DECIPHER: -----OK-----


Test: 13
Hash algorithm: 3
Symmetric key bit length: 128
Plaintext bit length:     128
Symmetric key:            0d0d0d0d0d0d0d0d0d0d0d0d0d0d0d0d
Plaintext:                0d0d0d0d0d0d0d0d0d0d0d0d0d0d0d0d
Ciphertext:               d6f78100b0d5178fe9ae725b85e3b9fb0ea534229eae8b3bfa271b7e30ccb153f369cea4bba0086da3e94554bec536c537d9c4af90f0a44956d8fd513f297625
Reciphers for ciphertext: 0
Decipheredtext:           0d0d0d0d0d0d0d0d0d0d0d0d0d0d0d0d
RESULT CIPHER-DECIPHER: -----OK-----


Test: 14
Hash algorithm: 5
Symmetric key bit length: 128
Plaintext bit length:     128
Symmetric key:            0e0e0e0e0e0e0e0e0e0e0e0e0e0e0e0e
Plaintext:                0e0e0e0e0e0e0e0e0e0e0e0e0e0e0e0e
Ciphertext:               8532475d51ebfa0ec09adee1b4e99b49fd8d4bedf178873e6a247bfcbf81d9aa8783d442a74b2a16964b5696
Reciphers for ciphertext: 0
Decipheredtext:           0e0e0e0e0e0e0e0e0e0e0e0e0e0e0e0e
RESULT CIPHER-DECIPHER: -----OK-----


Test: 15
Hash algorithm: 8
Symmetric key bit length: 128
Plaintext bit length:     128
Symmetric key:            0f0f0f0f0f0f0f0f0f0f0f0f0f0f0f0f
Plaintext:                0f0f0f0f0f0f0f0f0f0f0f0f0f0f0f0f
Ciphertext:               8372df1c5fc12afe47d9a06dea658b78f49ba1db38a8b847d8d2fc768d8bd4ad1b9a99eb
Reciphers for ciphertext: 0
Decipheredtext:           0f0f0f0f0f0f0f0f0f0f0f0f0f0f0f0f
RESULT CIPHER-DECIPHER: -----OK-----


Test: 16
Hash algorithm: 6
Symmetric key bit length: 128
Plaintext bit length:     128
Symmetric key:            10101010101010101010101010101010
Plaintext:                10101010101010101010101010101010
Ciphertext:               04f2eee5edacbaa0ff14cd6a225fe6fb71665bc49b6d8260eea31a610204ac88556915d0d1a8bddaf13670ad5f97a288
Reciphers for ciphertext: 0
Decipheredtext:           10101010101010101010101010101010
RESULT CIPHER-DECIPHER: -----OK-----


Test: 17
Hash algorithm: 11
Symmetric key bit length: 128
Plaintext bit length:     128
Symmetric key:            11111111111111111111111111111111
Plaintext:                11111111111111111111111111111111
Ciphertext:               0d7e396365cde76e57514fbb7bc296f299f282be440aa8c072348b3266374c65
Reciphers for ciphertext: 1
Decipheredtext:           11111111111111111111111111111111
RESULT CIPHER-DECIPHER: -----OK-----


Test: 18
Hash algorithm: 5
Symmetric key bit length: 128
Plaintext bit length:     128
Symmetric key:            12121212121212121212121212121212
Plaintext:                12121212121212121212121212121212
Ciphertext:               2563ea3b1204bc6f0d81b745a445b11d658b3957d189aabfd78d2ab4fffe7ec05a6429be611233f0de1ad214
Reciphers for ciphertext: 0
Decipheredtext:           12121212121212121212121212121212
RESULT CIPHER-DECIPHER: -----OK-----


Test: 19
Hash algorithm: 0
Symmetric key bit length: 128
Plaintext bit length:     128
Symmetric key:            13131313131313131313131313131313
Plaintext:                13131313131313131313131313131313
Ciphertext:               581bb7cad5c5f31a55a0931f279a7ec2ef7981bfdead24859293ccf40bf8cd1f6ab760cd
Reciphers for ciphertext: 0
Decipheredtext:           13131313131313131313131313131313
RESULT CIPHER-DECIPHER: -----OK-----


Test: 20
Hash algorithm: 3
Symmetric key bit length: 128
Plaintext bit length:     128
Symmetric key:            14141414141414141414141414141414
Plaintext:                14141414141414141414141414141414
Ciphertext:               d069373b48b46cbe8151258e697c7d3f6607260485cc5a137d3bac6b7c311550ee93846a49f29f2929c9fb4879f8e0a69a5e674adedf370b02b9b7ba6757cdf2
Reciphers for ciphertext: 0
Decipheredtext:           14141414141414141414141414141414
RESULT CIPHER-DECIPHER: -----OK-----


Test: 21
Hash algorithm: 9
Symmetric key bit length: 128
Plaintext bit length:     128
Symmetric key:            15151515151515151515151515151515
Plaintext:                15151515151515151515151515151515
Ciphertext:               54bf08f17e73270e84f59705dd182b73d15076dcdc76d07d5f15ef1a9355f1bba7102e7b64f0fd5aec6edb221b695ea5
Reciphers for ciphertext: 0
Decipheredtext:           15151515151515151515151515151515
RESULT CIPHER-DECIPHER: -----OK-----


Test: 22
Hash algorithm: 8
Symmetric key bit length: 128
Plaintext bit length:     128
Symmetric key:            16161616161616161616161616161616
Plaintext:                16161616161616161616161616161616
Ciphertext:               c4edf79279a4ef1497ebd5e3cfe7dfd662f7933d507cee4c8a99a873557e2432b5b3a3c0
Reciphers for ciphertext: 0
Decipheredtext:           16161616161616161616161616161616
RESULT CIPHER-DECIPHER: -----OK-----


Test: 23
Hash algorithm: 7
Symmetric key bit length: 128
Plaintext bit length:     128
Symmetric key:            17171717171717171717171717171717
Plaintext:                17171717171717171717171717171717
Ciphertext:               5d8d0380686e6886593a6f3241c674c6544f31505e44c9637270d0faf4e86038
Reciphers for ciphertext: 0
Decipheredtext:           17171717171717171717171717171717
RESULT CIPHER-DECIPHER: -----OK-----


Test: 24
Hash algorithm: 12
Symmetric key bit length: 128
Plaintext bit length:     128
Symmetric key:            18181818181818181818181818181818
Plaintext:                18181818181818181818181818181818
Ciphertext:               1257cf09fa5596d730f2c9a06d0abc642343cd52ff562fadb116d60180cf5867
Reciphers for ciphertext: 0
Decipheredtext:           18181818181818181818181818181818
RESULT CIPHER-DECIPHER: -----OK-----


Test: 25
Hash algorithm: 10
Symmetric key bit length: 128
Plaintext bit length:     128
Symmetric key:            19191919191919191919191919191919
Plaintext:                19191919191919191919191919191919
Ciphertext:               0e1609a9ffc921cbf43a5f19f4d91832cf4723596d9b1a4f3b7baa391fad922d3ea5fa9039ab277102a99c90e4e07e45dbb7d8b54620aa2a
Reciphers for ciphertext: 0
Decipheredtext:           19191919191919191919191919191919
RESULT CIPHER-DECIPHER: -----OK-----


Test: 26
Hash algorithm: 4
Symmetric key bit length: 128
Plaintext bit length:     128
Symmetric key:            1a1a1a1a1a1a1a1a1a1a1a1a1a1a1a1a
Plaintext:                1a1a1a1a1a1a1a1a1a1a1a1a1a1a1a1a
Ciphertext:               76027ceee4238ced840a1ad15af0c0e36a9e4f1fc761070d956a2e56a1355f2ac6a22d47e2edfd948d10d413777a68885fe6a56006d52860a9b82251ad7d9d28d6b4bb0d22844c03c5788d5bd7e09ca7
Reciphers for ciphertext: 0
Decipheredtext:           1a1a1a1a1a1a1a1a1a1a1a1a1a1a1a1a
RESULT CIPHER-DECIPHER: -----OK-----


Test: 27
Hash algorithm: 9
Symmetric key bit length: 128
Plaintext bit length:     128
Symmetric key:            1b1b1b1b1b1b1b1b1b1b1b1b1b1b1b1b
Plaintext:                1b1b1b1b1b1b1b1b1b1b1b1b1b1b1b1b
Ciphertext:               f414ed451471fa957717b60f416a57a64a4265a46c6e1c5d694b79628224e5c777ef2918a04140460d9375e47acf06a6
Reciphers for ciphertext: 0
Decipheredtext:           1b1b1b1b1b1b1b1b1b1b1b1b1b1b1b1b
RESULT CIPHER-DECIPHER: -----OK-----


Test: 28
Hash algorithm: 4
Symmetric key bit length: 128
Plaintext bit length:     128
Symmetric key:            1c1c1c1c1c1c1c1c1c1c1c1c1c1c1c1c
Plaintext:                1c1c1c1c1c1c1c1c1c1c1c1c1c1c1c1c
Ciphertext:               57aaf7cd0ce90a586aaee1e6e33e8b23abef115720360f0bfc2197859371e2fc3317ade5d9650622c7365138ba483697dcd66ad5ea4c7fcd885b9796d5cc2f4eeb061f0b1b59a8de553f912e2a20ac98
Reciphers for ciphertext: 0
Decipheredtext:           1c1c1c1c1c1c1c1c1c1c1c1c1c1c1c1c
RESULT CIPHER-DECIPHER: -----OK-----


Test: 29
Hash algorithm: 2
Symmetric key bit length: 128
Plaintext bit length:     128
Symmetric key:            1d1d1d1d1d1d1d1d1d1d1d1d1d1d1d1d
Plaintext:                1d1d1d1d1d1d1d1d1d1d1d1d1d1d1d1d
Ciphertext:               f35da715794406958a71e41bbdb2a1cc640aebcfe9e8955500631eb4c6829a0962f4e1c8d9ce302cc2c048e384acc22e
Reciphers for ciphertext: 0
Decipheredtext:           1d1d1d1d1d1d1d1d1d1d1d1d1d1d1d1d
RESULT CIPHER-DECIPHER: -----OK-----


Test: 30
Hash algorithm: 7
Symmetric key bit length: 128
Plaintext bit length:     128
Symmetric key:            1e1e1e1e1e1e1e1e1e1e1e1e1e1e1e1e
Plaintext:                1e1e1e1e1e1e1e1e1e1e1e1e1e1e1e1e
Ciphertext:               02113e8ef88d73576fb00eaf3a744838294d1e4f074edc6598c213ccfb1e05ae
Reciphers for ciphertext: 0
Decipheredtext:           1e1e1e1e1e1e1e1e1e1e1e1e1e1e1e1e
RESULT CIPHER-DECIPHER: -----OK-----


Test: 31
Hash algorithm: 7
Symmetric key bit length: 128
Plaintext bit length:     128
Symmetric key:            1f1f1f1f1f1f1f1f1f1f1f1f1f1f1f1f
Plaintext:                1f1f1f1f1f1f1f1f1f1f1f1f1f1f1f1f
Ciphertext:               3c413f63b7fed19abb5ad44a1f235999202972d7a89f8214193f571d5ac764ce
Reciphers for ciphertext: 0
Decipheredtext:           1f1f1f1f1f1f1f1f1f1f1f1f1f1f1f1f
RESULT CIPHER-DECIPHER: -----OK-----


Test: 32
Hash algorithm: 3
Symmetric key bit length: 128
Plaintext bit length:     128
Symmetric key:            20202020202020202020202020202020
Plaintext:                20202020202020202020202020202020
Ciphertext:               da5fe676ad7930bedc8fa6d862fd55d3591c67778293b588fa613ca5ab2ff63738ea2de13e44d0f7af890fc3db11bae34dbb5bfb9701ed6675c1fa58de8f8256
Reciphers for ciphertext: 0
Decipheredtext:           20202020202020202020202020202020
RESULT CIPHER-DECIPHER: -----OK-----


Test: 33
Hash algorithm: 0
Symmetric key bit length: 128
Plaintext bit length:     128
Symmetric key:            21212121212121212121212121212121
Plaintext:                21212121212121212121212121212121
Ciphertext:               a867e58b84cebf605c6567ab80c02087b0f318ca7f2bc4905c40af110c967755d6beca4e
Reciphers for ciphertext: 0
Decipheredtext:           21212121212121212121212121212121
RESULT CIPHER-DECIPHER: -----OK-----


Test: 34
Hash algorithm: 7
Symmetric key bit length: 128
Plaintext bit length:     128
Symmetric key:            22222222222222222222222222222222
Plaintext:                22222222222222222222222222222222
Ciphertext:               802438b460738ad556bf32943287f1d3b6a993fb197f80a475304d21b38830c0
Reciphers for ciphertext: 0
Decipheredtext:           22222222222222222222222222222222
RESULT CIPHER-DECIPHER: -----OK-----


Test: 35
Hash algorithm: 1
Symmetric key bit length: 128
Plaintext bit length:     128
Symmetric key:            23232323232323232323232323232323
Plaintext:                23232323232323232323232323232323
Ciphertext:               54c2437ecd0ab4230f06033f2de0156e95528f5c1f7d25fd623110bd7df2b6c33863723a4e3c1d7d2d51de27
Reciphers for ciphertext: 0
Decipheredtext:           23232323232323232323232323232323
RESULT CIPHER-DECIPHER: -----OK-----


Test: 36
Hash algorithm: 4
Symmetric key bit length: 128
Plaintext bit length:     128
Symmetric key:            24242424242424242424242424242424
Plaintext:                24242424242424242424242424242424
Ciphertext:               d2bfc485e48f5164b7fecddfae32cd7b375584c96053932a2a6786284765e72f713265b83050f76a575bc5293338d229bfc63655053190243f9bc766a1a26e2d5cbac568b2687f108f6c77d615d98608
Reciphers for ciphertext: 0
Decipheredtext:           24242424242424242424242424242424
RESULT CIPHER-DECIPHER: -----OK-----


Test: 37
Hash algorithm: 11
Symmetric key bit length: 128
Plaintext bit length:     128
Symmetric key:            25252525252525252525252525252525
Plaintext:                25252525252525252525252525252525
Ciphertext:               a35e0fd36c78c996ebf97843e46e034cfcc0e5c1d56746cb247c91d9406a74c6
Reciphers for ciphertext: 0
Decipheredtext:           25252525252525252525252525252525
RESULT CIPHER-DECIPHER: -----OK-----


Test: 38
Hash algorithm: 12
Symmetric key bit length: 128
Plaintext bit length:     128
Symmetric key:            26262626262626262626262626262626
Plaintext:                26262626262626262626262626262626
Ciphertext:               993194fcbdb2c866aec4e39f381c07e785824ab822f411e08d5e287842c609c7
Reciphers for ciphertext: 0
Decipheredtext:           26262626262626262626262626262626
RESULT CIPHER-DECIPHER: -----OK-----


Test: 39
Hash algorithm: 11
Symmetric key bit length: 128
Plaintext bit length:     128
Symmetric key:            27272727272727272727272727272727
Plaintext:                27272727272727272727272727272727
Ciphertext:               d7da9954ee1c430207b34651661b1db2f08d56eee9864869be1194221153e04f
Reciphers for ciphertext: 0
Decipheredtext:           27272727272727272727272727272727
RESULT CIPHER-DECIPHER: -----OK-----


Test: 40
Hash algorithm: 4
Symmetric key bit length: 128
Plaintext bit length:     128
Symmetric key:            28282828282828282828282828282828
Plaintext:                28282828282828282828282828282828
Ciphertext:               8d146448a389fdd899067a40ec277019c8dd415991400ed7e2c3fc97025c2aeabc0f7848cf194ea3b8c03c7f1820165b27e1df305d2b87d576412b3512775c9edd558d38fae7cb45db504adaa2558e4c
Reciphers for ciphertext: 0
Decipheredtext:           28282828282828282828282828282828
RESULT CIPHER-DECIPHER: -----OK-----


Test: 41
Hash algorithm: 8
Symmetric key bit length: 128
Plaintext bit length:     128
Symmetric key:            29292929292929292929292929292929
Plaintext:                29292929292929292929292929292929
Ciphertext:               cfad8c3a97d6b746c8995db641ba0d126e2a91dd5a700d6b671fd7c1c8a2411060068931
Reciphers for ciphertext: 0
Decipheredtext:           29292929292929292929292929292929
RESULT CIPHER-DECIPHER: -----OK-----


Test: 42
Hash algorithm: 2
Symmetric key bit length: 128
Plaintext bit length:     128
Symmetric key:            2a2a2a2a2a2a2a2a2a2a2a2a2a2a2a2a
Plaintext:                2a2a2a2a2a2a2a2a2a2a2a2a2a2a2a2a
Ciphertext:               52943ff03ee3ed5a90b7898a4113ee3fb2a64f90eecb931ff4d56360179b45d906343bd907d3e6137db6801f174564bc
Reciphers for ciphertext: 0
Decipheredtext:           2a2a2a2a2a2a2a2a2a2a2a2a2a2a2a2a
RESULT CIPHER-DECIPHER: -----OK-----


Test: 43
Hash algorithm: 4
Symmetric key bit length: 128
Plaintext bit length:     128
Symmetric key:            2b2b2b2b2b2b2b2b2b2b2b2b2b2b2b2b
Plaintext:                2b2b2b2b2b2b2b2b2b2b2b2b2b2b2b2b
Ciphertext:               89a31e77a4675f8a31d96fa94d31b66ddd87d8b630737814801f5a70fff61c33acff9abcac5aaf13182b965b0dabeca018c23ff836c07c00404131ea27d2dd6a58d0bfd81eb1070c589764516b74b864
Reciphers for ciphertext: 0
Decipheredtext:           2b2b2b2b2b2b2b2b2b2b2b2b2b2b2b2b
RESULT CIPHER-DECIPHER: -----OK-----


Test: 44
Hash algorithm: 0
Symmetric key bit length: 128
Plaintext bit length:     128
Symmetric key:            2c2c2c2c2c2c2c2c2c2c2c2c2c2c2c2c
Plaintext:                2c2c2c2c2c2c2c2c2c2c2c2c2c2c2c2c
Ciphertext:               b8ea8e7de6e46a93a33b57d60e5130124f6ba412f0c7daab70f0c566bb928a79c790b66d
Reciphers for ciphertext: 0
Decipheredtext:           2c2c2c2c2c2c2c2c2c2c2c2c2c2c2c2c
RESULT CIPHER-DECIPHER: -----OK-----


Test: 45
Hash algorithm: 10
Symmetric key bit length: 128
Plaintext bit length:     128
Symmetric key:            2d2d2d2d2d2d2d2d2d2d2d2d2d2d2d2d
Plaintext:                2d2d2d2d2d2d2d2d2d2d2d2d2d2d2d2d
Ciphertext:               34b59351a5f854a600ac42bf7e79b86ce3e618b276b4bdd46ddd3ddee16e95b64af7baad17e7027e39b24d76caf6da7bba55f89270e583b2
Reciphers for ciphertext: 0
Decipheredtext:           2d2d2d2d2d2d2d2d2d2d2d2d2d2d2d2d
RESULT CIPHER-DECIPHER: -----OK-----


Test: 46
Hash algorithm: 1
Symmetric key bit length: 128
Plaintext bit length:     128
Symmetric key:            2e2e2e2e2e2e2e2e2e2e2e2e2e2e2e2e
Plaintext:                2e2e2e2e2e2e2e2e2e2e2e2e2e2e2e2e
Ciphertext:               4845aa7e21fba0607c7e20f512939ea393967e3aa3f4f63553391f05323db71d65221c6368a6aa0787c85920
Reciphers for ciphertext: 0
Decipheredtext:           2e2e2e2e2e2e2e2e2e2e2e2e2e2e2e2e
RESULT CIPHER-DECIPHER: -----OK-----


Test: 47
Hash algorithm: 4
Symmetric key bit length: 128
Plaintext bit length:     128
Symmetric key:            2f2f2f2f2f2f2f2f2f2f2f2f2f2f2f2f
Plaintext:                2f2f2f2f2f2f2f2f2f2f2f2f2f2f2f2f
Ciphertext:               2ce90927891d280d33b388d73a3d55612c6a69499b78a982bc4c8d34a744a47550dec4542c0158b6432d4f5ba1028bb85225044b444f219a3055f964a436702b1ee40e9d73d150ca643ea7151306cc29
Reciphers for ciphertext: 0
Decipheredtext:           2f2f2f2f2f2f2f2f2f2f2f2f2f2f2f2f
RESULT CIPHER-DECIPHER: -----OK-----


Test: 48
Hash algorithm: 13
Symmetric key bit length: 128
Plaintext bit length:     128
Symmetric key:            30303030303030303030303030303030
Plaintext:                30303030303030303030303030303030
Ciphertext:               426300022cb424b843a2f78e52137d02446eb2327a145cb5d4f434150287ec67
Reciphers for ciphertext: 0
Decipheredtext:           30303030303030303030303030303030
RESULT CIPHER-DECIPHER: -----OK-----


Test: 49
Hash algorithm: 11
Symmetric key bit length: 128
Plaintext bit length:     128
Symmetric key:            31313131313131313131313131313131
Plaintext:                31313131313131313131313131313131
Ciphertext:               183121bb70e62b42c38c4cb6be9f5ded7e4e6ad6d558ad54ad9b34b13adda799
Reciphers for ciphertext: 0
Decipheredtext:           31313131313131313131313131313131
RESULT CIPHER-DECIPHER: -----OK-----


Test: 50
Hash algorithm: 4
Symmetric key bit length: 128
Plaintext bit length:     128
Symmetric key:            32323232323232323232323232323232
Plaintext:                32323232323232323232323232323232
Ciphertext:               a0834ad61671f0abc8b169914debb69c9d01f4a42117d6c80ee906b2e07262e0d2e50fef2e1bf519e666d593b197bd830e22ca391d877d01ac61923cc5c5237cc9a646eb81b4ece34964d91a61ca3d0c
Reciphers for ciphertext: 0
Decipheredtext:           32323232323232323232323232323232
RESULT CIPHER-DECIPHER: -----OK-----


Test: 51
Hash algorithm: 9
Symmetric key bit length: 128
Plaintext bit length:     128
Symmetric key:            33333333333333333333333333333333
Plaintext:                33333333333333333333333333333333
Ciphertext:               fe00c4574c08300a0ed02599b250b5543c2dfa6236b31b4b62e49dfa29fb66aad3a06d70beb999f802982eb0cbdd2e6c
Reciphers for ciphertext: 0
Decipheredtext:           33333333333333333333333333333333
RESULT CIPHER-DECIPHER: -----OK-----


Test: 52
Hash algorithm: 12
Symmetric key bit length: 128
Plaintext bit length:     128
Symmetric key:            34343434343434343434343434343434
Plaintext:                34343434343434343434343434343434
Ciphertext:               9352031574b3c5f1d5cf6209586f757e91d7f37e8068900cd80c0ef8e9079b07
Reciphers for ciphertext: 0
Decipheredtext:           34343434343434343434343434343434
RESULT CIPHER-DECIPHER: -----OK-----


Test: 53
Hash algorithm: 2
Symmetric key bit length: 128
Plaintext bit length:     128
Symmetric key:            35353535353535353535353535353535
Plaintext:                35353535353535353535353535353535
Ciphertext:               e3a36dadede508e0dbedae92797e79819b41e3f43727c91ade903eb7a64adac82d0e1135e00e5ec8fe918d0828232069
Reciphers for ciphertext: 0
Decipheredtext:           35353535353535353535353535353535
RESULT CIPHER-DECIPHER: -----OK-----


Test: 54
Hash algorithm: 6
Symmetric key bit length: 128
Plaintext bit length:     128
Symmetric key:            36363636363636363636363636363636
Plaintext:                36363636363636363636363636363636
Ciphertext:               133d163fb7fc6096ee09a814cc237857cbe3923777f5b7a50341ac620cafd8f9461d090d247782400af13fddec8cd5d9
Reciphers for ciphertext: 0
Decipheredtext:           36363636363636363636363636363636
RESULT CIPHER-DECIPHER: -----OK-----


Test: 55
Hash algorithm: 12
Symmetric key bit length: 128
Plaintext bit length:     128
Symmetric key:            37373737373737373737373737373737
Plaintext:                37373737373737373737373737373737
Ciphertext:               c4ba228854032abeaab0e40534fd248dff64b2f27deeca31816e9ab863fc1683
Reciphers for ciphertext: 0
Decipheredtext:           37373737373737373737373737373737
RESULT CIPHER-DECIPHER: -----OK-----


Test: 56
Hash algorithm: 1
Symmetric key bit length: 128
Plaintext bit length:     128
Symmetric key:            38383838383838383838383838383838
Plaintext:                38383838383838383838383838383838
Ciphertext:               447e0dd968c110940b5ab8763a37b92f426a06734c297190432d5fa46f2080c6ad2126920d366692b50d2354
Reciphers for ciphertext: 0
Decipheredtext:           38383838383838383838383838383838
RESULT CIPHER-DECIPHER: -----OK-----


Test: 57
Hash algorithm: 12
Symmetric key bit length: 128
Plaintext bit length:     128
Symmetric key:            39393939393939393939393939393939
Plaintext:                39393939393939393939393939393939
Ciphertext:               b951a9d2bdfcbd6d050542fed11ff1b3052280564f5f7dd339deaa4f88342118
Reciphers for ciphertext: 0
Decipheredtext:           39393939393939393939393939393939
RESULT CIPHER-DECIPHER: -----OK-----


Test: 58
Hash algorithm: 11
Symmetric key bit length: 128
Plaintext bit length:     128
Symmetric key:            3a3a3a3a3a3a3a3a3a3a3a3a3a3a3a3a
Plaintext:                3a3a3a3a3a3a3a3a3a3a3a3a3a3a3a3a
Ciphertext:               542839199a4b4c1b74a6cb3ac58f9e15bca81af179836c9592de62d13309a4ce
Reciphers for ciphertext: 0
Decipheredtext:           3a3a3a3a3a3a3a3a3a3a3a3a3a3a3a3a
RESULT CIPHER-DECIPHER: -----OK-----


Test: 59
Hash algorithm: 5
Symmetric key bit length: 128
Plaintext bit length:     128
Symmetric key:            3b3b3b3b3b3b3b3b3b3b3b3b3b3b3b3b
Plaintext:                3b3b3b3b3b3b3b3b3b3b3b3b3b3b3b3b
Ciphertext:               074f9bc04d51ecca28a35b2631d51ccb3717ec4bd1f8365a58d469bf124963a8b59a0a9f6f40b3925e0586d9
Reciphers for ciphertext: 0
Decipheredtext:           3b3b3b3b3b3b3b3b3b3b3b3b3b3b3b3b
RESULT CIPHER-DECIPHER: -----OK-----


Test: 60
Hash algorithm: 0
Symmetric key bit length: 128
Plaintext bit length:     128
Symmetric key:            3c3c3c3c3c3c3c3c3c3c3c3c3c3c3c3c
Plaintext:                3c3c3c3c3c3c3c3c3c3c3c3c3c3c3c3c
Ciphertext:               3095226824c1c70becf71f2c423e7f434b4a607fc0e4555a0c0dbb65402be38aec867d66
Reciphers for ciphertext: 0
Decipheredtext:           3c3c3c3c3c3c3c3c3c3c3c3c3c3c3c3c
RESULT CIPHER-DECIPHER: -----OK-----


Test: 61
Hash algorithm: 10
Symmetric key bit length: 128
Plaintext bit length:     128
Symmetric key:            3d3d3d3d3d3d3d3d3d3d3d3d3d3d3d3d
Plaintext:                3d3d3d3d3d3d3d3d3d3d3d3d3d3d3d3d
Ciphertext:               172b323b45857d1ea9830d4733c33800029dca379809b70f34def88da10ceab8dfc23fd28501651ca408b42a7c77483afcfd988b4eb7229d
Reciphers for ciphertext: 0
Decipheredtext:           3d3d3d3d3d3d3d3d3d3d3d3d3d3d3d3d
RESULT CIPHER-DECIPHER: -----OK-----


Test: 62
Hash algorithm: 11
Symmetric key bit length: 128
Plaintext bit length:     128
Symmetric key:            3e3e3e3e3e3e3e3e3e3e3e3e3e3e3e3e
Plaintext:                3e3e3e3e3e3e3e3e3e3e3e3e3e3e3e3e
Ciphertext:               0a80e2e70f4c91541ecb393021e9202d8f05d7668e7909e313122af1714e948d
Reciphers for ciphertext: 0
Decipheredtext:           3e3e3e3e3e3e3e3e3e3e3e3e3e3e3e3e
RESULT CIPHER-DECIPHER: -----OK-----


Test: 63
Hash algorithm: 10
Symmetric key bit length: 128
Plaintext bit length:     128
Symmetric key:            3f3f3f3f3f3f3f3f3f3f3f3f3f3f3f3f
Plaintext:                3f3f3f3f3f3f3f3f3f3f3f3f3f3f3f3f
Ciphertext:               da09875c7092b4f8e2be010327d2d5a9ee3142d509cb8b3bd70f83463cfeb25c59ff9ba33bf512eaa55cc00d9b4c21862710b3241c418852
Reciphers for ciphertext: 0
Decipheredtext:           3f3f3f3f3f3f3f3f3f3f3f3f3f3f3f3f
RESULT CIPHER-DECIPHER: -----OK-----


Test: 64
Hash algorithm: 8
Symmetric key bit length: 128
Plaintext bit length:     128
Symmetric key:            40404040404040404040404040404040
Plaintext:                40404040404040404040404040404040
Ciphertext:               a28d372270e81a9083c87841897d88ec658a92167cb7841b3f0ed418aba9e554d1c527f7
Reciphers for ciphertext: 0
Decipheredtext:           40404040404040404040404040404040
RESULT CIPHER-DECIPHER: -----OK-----


Test: 65
Hash algorithm: 4
Symmetric key bit length: 128
Plaintext bit length:     128
Symmetric key:            41414141414141414141414141414141
Plaintext:                41414141414141414141414141414141
Ciphertext:               1d3ec3e71e30ebe8ddd239686100d5d67e3ade537fd48ab944d4b918d05d78839735aa9d3e9f8931f092c3c24fa8ae5e01599bbe831caed110ade531772c92a08cda9f725e2b0911293e7ad852448c05
Reciphers for ciphertext: 0
Decipheredtext:           41414141414141414141414141414141
RESULT CIPHER-DECIPHER: -----OK-----


Test: 66
Hash algorithm: 10
Symmetric key bit length: 128
Plaintext bit length:     128
Symmetric key:            42424242424242424242424242424242
Plaintext:                42424242424242424242424242424242
Ciphertext:               16054a3191090ccc681f56bef7dd75a7917957670206e9d89cc38c40fc21697d8b93eca9a6ec28574216b37c60166c26aa70bd348e2c43f2
Reciphers for ciphertext: 0
Decipheredtext:           42424242424242424242424242424242
RESULT CIPHER-DECIPHER: -----OK-----


Test: 67
Hash algorithm: 2
Symmetric key bit length: 128
Plaintext bit length:     128
Symmetric key:            43434343434343434343434343434343
Plaintext:                43434343434343434343434343434343
Ciphertext:               51b564e24a4eb49b8d6736e711736c3dfa16a5fd8fad50f880033d6db2f5d5274780add42d2ceb34f86e9232ea4a6a7b
Reciphers for ciphertext: 0
Decipheredtext:           43434343434343434343434343434343
RESULT CIPHER-DECIPHER: -----OK-----


Test: 68
Hash algorithm: 13
Symmetric key bit length: 128
Plaintext bit length:     128
Symmetric key:            44444444444444444444444444444444
Plaintext:                44444444444444444444444444444444
Ciphertext:               20647abb14b33cb946dbc2455250dd666568f9d086a82d1db6b916aef5d9c7fb
Reciphers for ciphertext: 0
Decipheredtext:           44444444444444444444444444444444
RESULT CIPHER-DECIPHER: -----OK-----


Test: 69
Hash algorithm: 11
Symmetric key bit length: 128
Plaintext bit length:     128
Symmetric key:            45454545454545454545454545454545
Plaintext:                45454545454545454545454545454545
Ciphertext:               4521adcb4292f77c084df9917b979a3ddc615a35d5280f450144d8cb8c53e8c6
Reciphers for ciphertext: 0
Decipheredtext:           45454545454545454545454545454545
RESULT CIPHER-DECIPHER: -----OK-----


Test: 70
Hash algorithm: 13
Symmetric key bit length: 128
Plaintext bit length:     128
Symmetric key:            46464646464646464646464646464646
Plaintext:                46464646464646464646464646464646
Ciphertext:               e364f2c0a8a8a9aa59aeb8f0a567cb456177d4ee2a8d9de5548d2d470b81dd4e
Reciphers for ciphertext: 0
Decipheredtext:           46464646464646464646464646464646
RESULT CIPHER-DECIPHER: -----OK-----


Test: 71
Hash algorithm: 6
Symmetric key bit length: 128
Plaintext bit length:     128
Symmetric key:            47474747474747474747474747474747
Plaintext:                47474747474747474747474747474747
Ciphertext:               67df23b1daea4b5cc851a73c7bea9dee7a2f4d9c851da9434c6c9941e39686fdc447320fb9aaf7c75e2e72b1402397b5
Reciphers for ciphertext: 0
Decipheredtext:           47474747474747474747474747474747
RESULT CIPHER-DECIPHER: -----OK-----


Test: 72
Hash algorithm: 13
Symmetric key bit length: 128
Plaintext bit length:     128
Symmetric key:            48484848484848484848484848484848
Plaintext:                48484848484848484848484848484848
Ciphertext:               47a187a9e8ecc0bed482918f9834fc279c6ca09dfb48461206db5bc92e716a5d
Reciphers for ciphertext: 0
Decipheredtext:           48484848484848484848484848484848
RESULT CIPHER-DECIPHER: -----OK-----


Test: 73
Hash algorithm: 6
Symmetric key bit length: 128
Plaintext bit length:     128
Symmetric key:            49494949494949494949494949494949
Plaintext:                49494949494949494949494949494949
Ciphertext:               89952f497b1e51c361ad4bc809a01a361d9473750fbeb177e7d1b35eb86ef705c6f9f2144ed466d6c862c63ac50c984b
Reciphers for ciphertext: 0
Decipheredtext:           49494949494949494949494949494949
RESULT CIPHER-DECIPHER: -----OK-----


Test: 74
Hash algorithm: 8
Symmetric key bit length: 128
Plaintext bit length:     128
Symmetric key:            4a4a4a4a4a4a4a4a4a4a4a4a4a4a4a4a
Plaintext:                4a4a4a4a4a4a4a4a4a4a4a4a4a4a4a4a
Ciphertext:               a65b6df03f7416a10f408dd5a07cd5580552b697eced44be489b8706d20fa6a073de47e0
Reciphers for ciphertext: 0
Decipheredtext:           4a4a4a4a4a4a4a4a4a4a4a4a4a4a4a4a
RESULT CIPHER-DECIPHER: -----OK-----


Test: 75
Hash algorithm: 5
Symmetric key bit length: 128
Plaintext bit length:     128
Symmetric key:            4b4b4b4b4b4b4b4b4b4b4b4b4b4b4b4b
Plaintext:                4b4b4b4b4b4b4b4b4b4b4b4b4b4b4b4b
Ciphertext:               56dad2d3f799a37472743424c11b303fa2fb6ffef74fede12b34210da68b707c96b929920f8bdde9b99e12ba
Reciphers for ciphertext: 0
Decipheredtext:           4b4b4b4b4b4b4b4b4b4b4b4b4b4b4b4b
RESULT CIPHER-DECIPHER: -----OK-----


Test: 76
Hash algorithm: 6
Symmetric key bit length: 128
Plaintext bit length:     128
Symmetric key:            4c4c4c4c4c4c4c4c4c4c4c4c4c4c4c4c
Plaintext:                4c4c4c4c4c4c4c4c4c4c4c4c4c4c4c4c
Ciphertext:               d5318c318b8c6be02591a0c7183deec5d5bd4ce7b92e9d83aefda8e7524f130f70aa8206ed5f1421d8b32fefbd6e2e8b
Reciphers for ciphertext: 0
Decipheredtext:           4c4c4c4c4c4c4c4c4c4c4c4c4c4c4c4c
RESULT CIPHER-DECIPHER: -----OK-----


Test: 77
Hash algorithm: 11
Symmetric key bit length: 128
Plaintext bit length:     128
Symmetric key:            4d4d4d4d4d4d4d4d4d4d4d4d4d4d4d4d
Plaintext:                4d4d4d4d4d4d4d4d4d4d4d4d4d4d4d4d
Ciphertext:               bc657b5233a46dca1b994d2626c5082f9c643e5c9dfb1a486bbcb06675079cef
Reciphers for ciphertext: 0
Decipheredtext:           4d4d4d4d4d4d4d4d4d4d4d4d4d4d4d4d
RESULT CIPHER-DECIPHER: -----OK-----


Test: 78
Hash algorithm: 13
Symmetric key bit length: 128
Plaintext bit length:     128
Symmetric key:            4e4e4e4e4e4e4e4e4e4e4e4e4e4e4e4e
Plaintext:                4e4e4e4e4e4e4e4e4e4e4e4e4e4e4e4e
Ciphertext:               a58950c53b09fa22aa577b77badbbf20d78751c9eb525d4a3052701666aa674b
Reciphers for ciphertext: 0
Decipheredtext:           4e4e4e4e4e4e4e4e4e4e4e4e4e4e4e4e
RESULT CIPHER-DECIPHER: -----OK-----


Test: 79
Hash algorithm: 6
Symmetric key bit length: 128
Plaintext bit length:     128
Symmetric key:            4f4f4f4f4f4f4f4f4f4f4f4f4f4f4f4f
Plaintext:                4f4f4f4f4f4f4f4f4f4f4f4f4f4f4f4f
Ciphertext:               dd667a13a9c24f65d1a85cd1848213b10eb75cd143f1e02f59b82eedce279e21623b8d23109ac5c0863ba6d1bac957d5
Reciphers for ciphertext: 0
Decipheredtext:           4f4f4f4f4f4f4f4f4f4f4f4f4f4f4f4f
RESULT CIPHER-DECIPHER: -----OK-----


Test: 80
Hash algorithm: 12
Symmetric key bit length: 128
Plaintext bit length:     128
Symmetric key:            50505050505050505050505050505050
Plaintext:                50505050505050505050505050505050
Ciphertext:               1ffdb88075a2ab6e65d423d72d0cf0100c18a543a9a41ea6ccce02665524b6ac
Reciphers for ciphertext: 0
Decipheredtext:           50505050505050505050505050505050
RESULT CIPHER-DECIPHER: -----OK-----


Test: 81
Hash algorithm: 0
Symmetric key bit length: 128
Plaintext bit length:     128
Symmetric key:            51515151515151515151515151515151
Plaintext:                51515151515151515151515151515151
Ciphertext:               f81a4fd76b7eddcf47a33b76fbbae7336f82ec34a8b810e74d11281769a79c9473cfd7af
Reciphers for ciphertext: 0
Decipheredtext:           51515151515151515151515151515151
RESULT CIPHER-DECIPHER: -----OK-----


Test: 82
Hash algorithm: 1
Symmetric key bit length: 128
Plaintext bit length:     128
Symmetric key:            52525252525252525252525252525252
Plaintext:                52525252525252525252525252525252
Ciphertext:               8bf1501f6250025f3a96167a89ed77d6cfe9e53079f9bdd00ce0dd9b271779f228cc45d1485270258f25c2cc
Reciphers for ciphertext: 0
Decipheredtext:           52525252525252525252525252525252
RESULT CIPHER-DECIPHER: -----OK-----


Test: 83
Hash algorithm: 2
Symmetric key bit length: 128
Plaintext bit length:     128
Symmetric key:            53535353535353535353535353535353
Plaintext:                53535353535353535353535353535353
Ciphertext:               b7232bd26762570856b55df9dcf8dff6f8304b6d01e3ba0c5091162db0f96a2de823925c97cf85968a59317167bd059f
Reciphers for ciphertext: 0
Decipheredtext:           53535353535353535353535353535353
RESULT CIPHER-DECIPHER: -----OK-----


Test: 84
Hash algorithm: 8
Symmetric key bit length: 128
Plaintext bit length:     128
Symmetric key:            54545454545454545454545454545454
Plaintext:                54545454545454545454545454545454
Ciphertext:               4e65da664fa77073638f535645f952f6e2f5a65963628eabb4a1b06297ead3756564f2ce
Reciphers for ciphertext: 0
Decipheredtext:           54545454545454545454545454545454
RESULT CIPHER-DECIPHER: -----OK-----


Test: 85
Hash algorithm: 8
Symmetric key bit length: 128
Plaintext bit length:     128
Symmetric key:            55555555555555555555555555555555
Plaintext:                55555555555555555555555555555555
Ciphertext:               4ef88144ec5a6f696ba5994b0a96b100aad8fb48eab1f3fee50cb189b310c88ab52dcc16
Reciphers for ciphertext: 0
Decipheredtext:           55555555555555555555555555555555
RESULT CIPHER-DECIPHER: -----OK-----


Test: 86
Hash algorithm: 13
Symmetric key bit length: 128
Plaintext bit length:     128
Symmetric key:            56565656565656565656565656565656
Plaintext:                56565656565656565656565656565656
Ciphertext:               4c7798cb31a5d4685dccc82aeba1b09937f666245dd48804ad2ceab9745a2cd4
Reciphers for ciphertext: 0
Decipheredtext:           56565656565656565656565656565656
RESULT CIPHER-DECIPHER: -----OK-----


Test: 87
Hash algorithm: 13
Symmetric key bit length: 128
Plaintext bit length:     128
Symmetric key:            57575757575757575757575757575757
Plaintext:                57575757575757575757575757575757
Ciphertext:               be3d9da99faa0667b646d3e3637fd189f07e96e66d70311769a230a9ba21848a
Reciphers for ciphertext: 0
Decipheredtext:           57575757575757575757575757575757
RESULT CIPHER-DECIPHER: -----OK-----


Test: 88
Hash algorithm: 11
Symmetric key bit length: 128
Plaintext bit length:     128
Symmetric key:            58585858585858585858585858585858
Plaintext:                58585858585858585858585858585858
Ciphertext:               b3e9443be2b0d5255a6e63e31520855246c1cc98376880def16aaa8982030450
Reciphers for ciphertext: 0
Decipheredtext:           58585858585858585858585858585858
RESULT CIPHER-DECIPHER: -----OK-----


Test: 89
Hash algorithm: 9
Symmetric key bit length: 128
Plaintext bit length:     128
Symmetric key:            59595959595959595959595959595959
Plaintext:                59595959595959595959595959595959
Ciphertext:               1b5291fb97af735a35cc31a89808aeadd7deb3ed14bf5a0574001d55bf830d5db048dec1d1a0bb89dfc55d508d7ab589
Reciphers for ciphertext: 0
Decipheredtext:           59595959595959595959595959595959
RESULT CIPHER-DECIPHER: -----OK-----


Test: 90
Hash algorithm: 2
Symmetric key bit length: 128
Plaintext bit length:     128
Symmetric key:            5a5a5a5a5a5a5a5a5a5a5a5a5a5a5a5a
Plaintext:                5a5a5a5a5a5a5a5a5a5a5a5a5a5a5a5a
Ciphertext:               b64bcbaa64fc7a336d42a7c8d3c4cbbc91299453d502cdb2d5cf19d6a8a40964036af134b9bd45832b785b467589f18f
Reciphers for ciphertext: 0
Decipheredtext:           5a5a5a5a5a5a5a5a5a5a5a5a5a5a5a5a
RESULT CIPHER-DECIPHER: -----OK-----


Test: 91
Hash algorithm: 0
Symmetric key bit length: 128
Plaintext bit length:     128
Symmetric key:            5b5b5b5b5b5b5b5b5b5b5b5b5b5b5b5b
Plaintext:                5b5b5b5b5b5b5b5b5b5b5b5b5b5b5b5b
Ciphertext:               2aec19e1813a77c8b34e7049dd5adeb32ff7d4f17025b62091cd98d712481000f395acff
Reciphers for ciphertext: 0
Decipheredtext:           5b5b5b5b5b5b5b5b5b5b5b5b5b5b5b5b
RESULT CIPHER-DECIPHER: -----OK-----


Test: 92
Hash algorithm: 11
Symmetric key bit length: 128
Plaintext bit length:     128
Symmetric key:            5c5c5c5c5c5c5c5c5c5c5c5c5c5c5c5c
Plaintext:                5c5c5c5c5c5c5c5c5c5c5c5c5c5c5c5c
Ciphertext:               592f880797f607eac4c4c365e09c4af9ba63e1b5044804123d804fbdf821a5c1
Reciphers for ciphertext: 0
Decipheredtext:           5c5c5c5c5c5c5c5c5c5c5c5c5c5c5c5c
RESULT CIPHER-DECIPHER: -----OK-----


Test: 93
Hash algorithm: 9
Symmetric key bit length: 128
Plaintext bit length:     128
Symmetric key:            5d5d5d5d5d5d5d5d5d5d5d5d5d5d5d5d
Plaintext:                5d5d5d5d5d5d5d5d5d5d5d5d5d5d5d5d
Ciphertext:               a19bca4149a2b15fd4a559f4d36396893edd86ddcd97a6ac7ba710fc44d73d6d39818166e16b8b1c27d25252ee1ff393
Reciphers for ciphertext: 0
Decipheredtext:           5d5d5d5d5d5d5d5d5d5d5d5d5d5d5d5d
RESULT CIPHER-DECIPHER: -----OK-----


Test: 94
Hash algorithm: 0
Symmetric key bit length: 128
Plaintext bit length:     128
Symmetric key:            5e5e5e5e5e5e5e5e5e5e5e5e5e5e5e5e
Plaintext:                5e5e5e5e5e5e5e5e5e5e5e5e5e5e5e5e
Ciphertext:               243677372f6b87ae46f9d89d779deea4723afa23ac0f7e89c2cf524d589be5fdd8a8f973
Reciphers for ciphertext: 0
Decipheredtext:           5e5e5e5e5e5e5e5e5e5e5e5e5e5e5e5e
RESULT CIPHER-DECIPHER: -----OK-----


Test: 95
Hash algorithm: 7
Symmetric key bit length: 128
Plaintext bit length:     128
Symmetric key:            5f5f5f5f5f5f5f5f5f5f5f5f5f5f5f5f
Plaintext:                5f5f5f5f5f5f5f5f5f5f5f5f5f5f5f5f
Ciphertext:               f736448d155cfe8b7709df44b67728d5f5b53f03f40e7fbb7f79389c149dde6f
Reciphers for ciphertext: 0
Decipheredtext:           5f5f5f5f5f5f5f5f5f5f5f5f5f5f5f5f
RESULT CIPHER-DECIPHER: -----OK-----


Test: 96
Hash algorithm: 6
Symmetric key bit length: 128
Plaintext bit length:     128
Symmetric key:            60606060606060606060606060606060
Plaintext:                60606060606060606060606060606060
Ciphertext:               86453653f63b177daf74b8f570b602f19c5ee80bd8d767bceaf1ab89f1e41d204b77aa381a23e279fb19b0351e0f4aef
Reciphers for ciphertext: 0
Decipheredtext:           60606060606060606060606060606060
RESULT CIPHER-DECIPHER: -----OK-----


Test: 97
Hash algorithm: 8
Symmetric key bit length: 128
Plaintext bit length:     128
Symmetric key:            61616161616161616161616161616161
Plaintext:                61616161616161616161616161616161
Ciphertext:               e48917f45ad35e16bf6ed1a598ae796b6a002264ecb7ef467d73c388350d6395c39a18d4
Reciphers for ciphertext: 0
Decipheredtext:           61616161616161616161616161616161
RESULT CIPHER-DECIPHER: -----OK-----


Test: 98
Hash algorithm: 5
Symmetric key bit length: 128
Plaintext bit length:     128
Symmetric key:            62626262626262626262626262626262
Plaintext:                62626262626262626262626262626262
Ciphertext:               95f553231a5edf5a978c108df01b387b13cf8ab66c7341402b6ef6725a8c29d06cfeb630f7807f02bdb94170
Reciphers for ciphertext: 0
Decipheredtext:           62626262626262626262626262626262
RESULT CIPHER-DECIPHER: -----OK-----


Test: 99
Hash algorithm: 5
Symmetric key bit length: 128
Plaintext bit length:     128
Symmetric key:            63636363636363636363636363636363
Plaintext:                63636363636363636363636363636363
Ciphertext:               79110f4921fc7a78ddd6b12e238c946916b2891d4ba11494b624e40894b1b4c1312baf1e36a31ce29065bf92
Reciphers for ciphertext: 0
Decipheredtext:           63636363636363636363636363636363
RESULT CIPHER-DECIPHER: -----OK-----


Test: 100
Hash algorithm: 10
Symmetric key bit length: 128
Plaintext bit length:     128
Symmetric key:            64646464646464646464646464646464
Plaintext:                64646464646464646464646464646464
Ciphertext:               003b5470f5c8168191774731e0f049b19d17dc164686051337e78380a7c73fa29a4ac5fb9becdc14d3116c62913fa5291f596001a87a58bb
Reciphers for ciphertext: 0
Decipheredtext:           64646464646464646464646464646464
RESULT CIPHER-DECIPHER: -----OK-----


Test: 101
Hash algorithm: 8
Symmetric key bit length: 128
Plaintext bit length:     128
Symmetric key:            65656565656565656565656565656565
Plaintext:                65656565656565656565656565656565
Ciphertext:               a3f511dfc2517b750fd5e6aff2e4c13495913a94fa02db1c3bb46fbba7eeec0c9b583389
Reciphers for ciphertext: 0
Decipheredtext:           65656565656565656565656565656565
RESULT CIPHER-DECIPHER: -----OK-----


Test: 102
Hash algorithm: 6
Symmetric key bit length: 128
Plaintext bit length:     128
Symmetric key:            66666666666666666666666666666666
Plaintext:                66666666666666666666666666666666
Ciphertext:               20dc9578801a60b9037da045f098019f4da46bdbc8848c68bb2f6cabb9a00830c81cd3e17db56d22f756444ded06a1f8
Reciphers for ciphertext: 0
Decipheredtext:           66666666666666666666666666666666
RESULT CIPHER-DECIPHER: -----OK-----


Test: 103
Hash algorithm: 10
Symmetric key bit length: 128
Plaintext bit length:     128
Symmetric key:            67676767676767676767676767676767
Plaintext:                67676767676767676767676767676767
Ciphertext:               745d348901ac712f98bb3b167e6f482f3df156b2c54d59ac7d4ef157780876cc451c7ffd69b07b2cab319cbb23e00a900eaea836c75af708
Reciphers for ciphertext: 0
Decipheredtext:           67676767676767676767676767676767
RESULT CIPHER-DECIPHER: -----OK-----


Test: 104
Hash algorithm: 11
Symmetric key bit length: 128
Plaintext bit length:     128
Symmetric key:            68686868686868686868686868686868
Plaintext:                68686868686868686868686868686868
Ciphertext:               4b1b8e7a680c5175211293a5ce66e508354a3904a07ad778db70f572648f6ab4
Reciphers for ciphertext: 0
Decipheredtext:           68686868686868686868686868686868
RESULT CIPHER-DECIPHER: -----OK-----


Test: 105
Hash algorithm: 7
Symmetric key bit length: 128
Plaintext bit length:     128
Symmetric key:            69696969696969696969696969696969
Plaintext:                69696969696969696969696969696969
Ciphertext:               ad113fbd4d8ec37037b74d34e1ceb397928fb27f952592a9eea152176ac83874
Reciphers for ciphertext: 0
Decipheredtext:           69696969696969696969696969696969
RESULT CIPHER-DECIPHER: -----OK-----


Test: 106
Hash algorithm: 6
Symmetric key bit length: 128
Plaintext bit length:     128
Symmetric key:            6a6a6a6a6a6a6a6a6a6a6a6a6a6a6a6a
Plaintext:                6a6a6a6a6a6a6a6a6a6a6a6a6a6a6a6a
Ciphertext:               ac5dd27d1fdcff1d0f8f1a8163fc448dc9c34a47d1bc2a300596460c1f85e350bf5a17f83a0ed60b6dbe6866d6f75f56
Reciphers for ciphertext: 0
Decipheredtext:           6a6a6a6a6a6a6a6a6a6a6a6a6a6a6a6a
RESULT CIPHER-DECIPHER: -----OK-----


Test: 107
Hash algorithm: 7
Symmetric key bit length: 128
Plaintext bit length:     128
Symmetric key:            6b6b6b6b6b6b6b6b6b6b6b6b6b6b6b6b
Plaintext:                6b6b6b6b6b6b6b6b6b6b6b6b6b6b6b6b
Ciphertext:               d96bcbc590f3e70918a60c8ec9da7c9ffe834596859d128ca524fff09061e4eb
Reciphers for ciphertext: 0
Decipheredtext:           6b6b6b6b6b6b6b6b6b6b6b6b6b6b6b6b
RESULT CIPHER-DECIPHER: -----OK-----


Test: 108
Hash algorithm: 5
Symmetric key bit length: 128
Plaintext bit length:     128
Symmetric key:            6c6c6c6c6c6c6c6c6c6c6c6c6c6c6c6c
Plaintext:                6c6c6c6c6c6c6c6c6c6c6c6c6c6c6c6c
Ciphertext:               eb31cbd79214a29597cfef4d6a3fb801e940e34ac0bfadb7cd593afb4e2a44b2a59f94ffcb938241934d4886
Reciphers for ciphertext: 0
Decipheredtext:           6c6c6c6c6c6c6c6c6c6c6c6c6c6c6c6c
RESULT CIPHER-DECIPHER: -----OK-----


Test: 109
Hash algorithm: 12
Symmetric key bit length: 128
Plaintext bit length:     128
Symmetric key:            6d6d6d6d6d6d6d6d6d6d6d6d6d6d6d6d
Plaintext:                6d6d6d6d6d6d6d6d6d6d6d6d6d6d6d6d
Ciphertext:               36c20f27d68a97fdb6b3e629156265f99be57393d18e2a341c3b21fcc23face0
Reciphers for ciphertext: 0
Decipheredtext:           6d6d6d6d6d6d6d6d6d6d6d6d6d6d6d6d
RESULT CIPHER-DECIPHER: -----OK-----


Test: 110
Hash algorithm: 11
Symmetric key bit length: 128
Plaintext bit length:     128
Symmetric key:            6e6e6e6e6e6e6e6e6e6e6e6e6e6e6e6e
Plaintext:                6e6e6e6e6e6e6e6e6e6e6e6e6e6e6e6e
Ciphertext:               3c6ac53856952628dc69fdbd1bee530b113d19641c7454039aed74fad57e6908
Reciphers for ciphertext: 0
Decipheredtext:           6e6e6e6e6e6e6e6e6e6e6e6e6e6e6e6e
RESULT CIPHER-DECIPHER: -----OK-----


Test: 111
Hash algorithm: 8
Symmetric key bit length: 128
Plaintext bit length:     128
Symmetric key:            6f6f6f6f6f6f6f6f6f6f6f6f6f6f6f6f
Plaintext:                6f6f6f6f6f6f6f6f6f6f6f6f6f6f6f6f
Ciphertext:               7d554a574b69afe215b029b0143aeee52ba303aecc768b4153d28ebd77dcc2f4b7fc13c6
Reciphers for ciphertext: 0
Decipheredtext:           6f6f6f6f6f6f6f6f6f6f6f6f6f6f6f6f
RESULT CIPHER-DECIPHER: -----OK-----


Test: 112
Hash algorithm: 6
Symmetric key bit length: 128
Plaintext bit length:     128
Symmetric key:            70707070707070707070707070707070
Plaintext:                70707070707070707070707070707070
Ciphertext:               a6e7235df25142c716f2015a6707b20479e2cd8a5f8a5bb1d14c4b1a1fee6d1aca028d69d6ca8246f2b3a50035ae055a
Reciphers for ciphertext: 0
Decipheredtext:           70707070707070707070707070707070
RESULT CIPHER-DECIPHER: -----OK-----


Test: 113
Hash algorithm: 4
Symmetric key bit length: 128
Plaintext bit length:     128
Symmetric key:            71717171717171717171717171717171
Plaintext:                71717171717171717171717171717171
Ciphertext:               2aaa0b3a17267432a6f988081ff12f995584662357fca0f565b8e66aeda2aad96a71283152b28373a951104aba5177458e43c9da5b48e7325e506639d5b1101b25a4495b523838e1c0970356faeed9fd
Reciphers for ciphertext: 0
Decipheredtext:           71717171717171717171717171717171
RESULT CIPHER-DECIPHER: -----OK-----


Test: 114
Hash algorithm: 1
Symmetric key bit length: 128
Plaintext bit length:     128
Symmetric key:            72727272727272727272727272727272
Plaintext:                72727272727272727272727272727272
Ciphertext:               6326cd088a1761cc119e88dc3d6d85669339835798cc9c2a8802eca17d28817eead8966feedad3444df45a31
Reciphers for ciphertext: 0
Decipheredtext:           72727272727272727272727272727272
RESULT CIPHER-DECIPHER: -----OK-----


Test: 115
Hash algorithm: 4
Symmetric key bit length: 128
Plaintext bit length:     128
Symmetric key:            73737373737373737373737373737373
Plaintext:                73737373737373737373737373737373
Ciphertext:               6da0464b998defafeaca1158358d60c1762dad0fa0c77a16c0ad81f3015a79572b70d79462b464317a9c1db41cc22f8587424d5cdfa6bb982905a2281a0b9ee6337cd24de109d37234be5b65c230fa75
Reciphers for ciphertext: 0
Decipheredtext:           73737373737373737373737373737373
RESULT CIPHER-DECIPHER: -----OK-----


Test: 116
Hash algorithm: 9
Symmetric key bit length: 128
Plaintext bit length:     128
Symmetric key:            74747474747474747474747474747474
Plaintext:                74747474747474747474747474747474
Ciphertext:               a94fd62622f18aaf173173d9e264e857996e991cd2bd5147ffae5b0dc9ab865b0314e72328fd0381007de88629bc7068
Reciphers for ciphertext: 0
Decipheredtext:           74747474747474747474747474747474
RESULT CIPHER-DECIPHER: -----OK-----


Test: 117
Hash algorithm: 6
Symmetric key bit length: 128
Plaintext bit length:     128
Symmetric key:            75757575757575757575757575757575
Plaintext:                75757575757575757575757575757575
Ciphertext:               63a0e3bf2c787fae48931d672d398fb5352b221d831c371db2ba7a1a6f4aa5eb239aa2f139cba92aff171466d55566b0
Reciphers for ciphertext: 0
Decipheredtext:           75757575757575757575757575757575
RESULT CIPHER-DECIPHER: -----OK-----


Test: 118
Hash algorithm: 5
Symmetric key bit length: 128
Plaintext bit length:     128
Symmetric key:            76767676767676767676767676767676
Plaintext:                76767676767676767676767676767676
Ciphertext:               c3f3644c0f49f1d27d9973ce6ce78b0e61de92bdc7d2c18c17331fd394faaf1baeac335758a9038134a231e6
Reciphers for ciphertext: 0
Decipheredtext:           76767676767676767676767676767676
RESULT CIPHER-DECIPHER: -----OK-----


Test: 119
Hash algorithm: 2
Symmetric key bit length: 128
Plaintext bit length:     128
Symmetric key:            77777777777777777777777777777777
Plaintext:                77777777777777777777777777777777
Ciphertext:               833c4d07c4cba2799c802af44b81482ee929eeb15f295330c7376c9faac8309f647f961127e2ff7cb5bfeab08e9c63dd
Reciphers for ciphertext: 0
Decipheredtext:           77777777777777777777777777777777
RESULT CIPHER-DECIPHER: -----OK-----


Test: 120
Hash algorithm: 6
Symmetric key bit length: 128
Plaintext bit length:     128
Symmetric key:            78787878787878787878787878787878
Plaintext:                78787878787878787878787878787878
Ciphertext:               72e76b72bdfc046eacaf0caae4e077d2f9e57059be8a63976e5892abb83820f5e3a62133f6339d101a4405a429911338
Reciphers for ciphertext: 0
Decipheredtext:           78787878787878787878787878787878
RESULT CIPHER-DECIPHER: -----OK-----


Test: 121
Hash algorithm: 12
Symmetric key bit length: 128
Plaintext bit length:     128
Symmetric key:            79797979797979797979797979797979
Plaintext:                79797979797979797979797979797979
Ciphertext:               eea98d415e16671bba0a2e2049ee95a91a3da15df123602d3dff579a4687d0b0
Reciphers for ciphertext: 0
Decipheredtext:           79797979797979797979797979797979
RESULT CIPHER-DECIPHER: -----OK-----


Test: 122
Hash algorithm: 13
Symmetric key bit length: 128
Plaintext bit length:     128
Symmetric key:            7a7a7a7a7a7a7a7a7a7a7a7a7a7a7a7a
Plaintext:                7a7a7a7a7a7a7a7a7a7a7a7a7a7a7a7a
Ciphertext:               72ee3e893ea5031190a1bd82ac34189258a77d57a40185e2bbf610d5c97ec39a
Reciphers for ciphertext: 0
Decipheredtext:           7a7a7a7a7a7a7a7a7a7a7a7a7a7a7a7a
RESULT CIPHER-DECIPHER: -----OK-----


Test: 123
Hash algorithm: 5
Symmetric key bit length: 128
Plaintext bit length:     128
Symmetric key:            7b7b7b7b7b7b7b7b7b7b7b7b7b7b7b7b
Plaintext:                7b7b7b7b7b7b7b7b7b7b7b7b7b7b7b7b
Ciphertext:               817253ed5e0d97394a510924e09abd4afce2ab7b671a47e35b06ed10e9cf8eb9557e899df8ddb9e0884e8b13
Reciphers for ciphertext: 0
Decipheredtext:           7b7b7b7b7b7b7b7b7b7b7b7b7b7b7b7b
RESULT CIPHER-DECIPHER: -----OK-----


Test: 124
Hash algorithm: 4
Symmetric key bit length: 128
Plaintext bit length:     128
Symmetric key:            7c7c7c7c7c7c7c7c7c7c7c7c7c7c7c7c
Plaintext:                7c7c7c7c7c7c7c7c7c7c7c7c7c7c7c7c
Ciphertext:               59600119451853f52cfd608329692cf8d45c34931c35c1d4e2c18f5d60d38560ae698e60ec070c3d619b9db3cc95e46070203edef7741e1aba791af81bccc83d33ba4408b6aef0561eb9048dbe0c3951
Reciphers for ciphertext: 0
Decipheredtext:           7c7c7c7c7c7c7c7c7c7c7c7c7c7c7c7c
RESULT CIPHER-DECIPHER: -----OK-----


Test: 125
Hash algorithm: 8
Symmetric key bit length: 128
Plaintext bit length:     128
Symmetric key:            7d7d7d7d7d7d7d7d7d7d7d7d7d7d7d7d
Plaintext:                7d7d7d7d7d7d7d7d7d7d7d7d7d7d7d7d
Ciphertext:               35dfc12d223cb1b0cb7bc4fc8fdc472d0720beaf1e25660557e87d27368b3cb4b0f3d04e
Reciphers for ciphertext: 0
Decipheredtext:           7d7d7d7d7d7d7d7d7d7d7d7d7d7d7d7d
RESULT CIPHER-DECIPHER: -----OK-----


Test: 126
Hash algorithm: 13
Symmetric key bit length: 128
Plaintext bit length:     128
Symmetric key:            7e7e7e7e7e7e7e7e7e7e7e7e7e7e7e7e
Plaintext:                7e7e7e7e7e7e7e7e7e7e7e7e7e7e7e7e
Ciphertext:               8854aac5fab32082c622ef59c64ac46d9aaf7a72d00091775ee89a2a19ca3b4c
Reciphers for ciphertext: 0
Decipheredtext:           7e7e7e7e7e7e7e7e7e7e7e7e7e7e7e7e
RESULT CIPHER-DECIPHER: -----OK-----


Test: 127
Hash algorithm: 0
Symmetric key bit length: 128
Plaintext bit length:     128
Symmetric key:            7f7f7f7f7f7f7f7f7f7f7f7f7f7f7f7f
Plaintext:                7f7f7f7f7f7f7f7f7f7f7f7f7f7f7f7f
Ciphertext:               46d35019ace490c79112b198336442f229af2acf6cbb9d286cd73150f08510fc1ed9921e
Reciphers for ciphertext: 0
Decipheredtext:           7f7f7f7f7f7f7f7f7f7f7f7f7f7f7f7f
RESULT CIPHER-DECIPHER: -----OK-----


 DATA SHA1 (hexadecimal): aef5ad98b567db6994452e76e1a4550fe441bdc6

