
DiceLock 9.0.0.1

 TEST COMPONENTS:
 ----------------
 DiceLock:           DiceLockIVIndexed class
 Operation Mode:     CBC_Mode class
 Crypto pads:        0 - ANSI_X_923 class
                     1 - ISO_IEC_9797_1 class
                     2 - PKCS7 class
 Block Cipher:       Camellia256 class
 Key Modifier:       IncreaseBase0IndexModifier_6_0_0_1 class
   Index bit length: 256
 Random tests:       RandomTestSuite class
                     FrequencyTest class
                     BlockFrequencyTest class
                     CumulativeSumForwardTest class
                     LongestRunOfOnesTest class
                     RunsTest class
 Random alpha:       0.001

 VECTOR TEST: Test vector 2 - Changing plaintext, shifting 1 bit set


##### INDIVIDUAL TESTS #####

Number tests: 128


Test: 0
Crypto pad: 1
Symmetric key bit length: 256
IV bit length:            128
Plaintext bit length:     136
Symmetric key:            0000000000000000000000000000000000000000000000000000000000000000
IV:                       00000000000000000000000000000000
Plaintext:                0080000000000000000000000000000000
Ciphertext:               396154111adefc500cf6e5c99038bc1793b05d70003a503bde74c0bc6ada4262bc09de9f2be1b376af7d05bc2b328f8314b14839ea221880b2c64d1fe000b93db96546749654b2e397b072c8de82e39b
Reciphers for ciphertext: 0
Decipheredtext:           0080000000000000000000000000000000
RESULT CIPHER-DECIPHER: -----OK-----


Test: 1
Crypto pad: 2
Symmetric key bit length: 256
IV bit length:            128
Plaintext bit length:     136
Symmetric key:            0000000000000000000000000000000000000000000000000000000000000000
IV:                       00000000000000000000000000000000
Plaintext:                0040000000000000000000000000000000
Ciphertext:               396154111adefc500cf6e5c99038bc1793b05d70003a503bde74c0bc6ada42620cae546ff36fdf83c2fb66ce6d9971dfa5cfc075b342d5101aacc334e73058bb0731770ca52889eb12d98a7e1944fbe4
Reciphers for ciphertext: 0
Decipheredtext:           0040000000000000000000000000000000
RESULT CIPHER-DECIPHER: -----OK-----


Test: 2
Crypto pad: 2
Symmetric key bit length: 256
IV bit length:            128
Plaintext bit length:     136
Symmetric key:            0000000000000000000000000000000000000000000000000000000000000000
IV:                       00000000000000000000000000000000
Plaintext:                0020000000000000000000000000000000
Ciphertext:               396154111adefc500cf6e5c99038bc1793b05d70003a503bde74c0bc6ada42620cae546ff36fdf83c2fb66ce6d9971df477ea56b2ebad0f8ac5e1936866560ffdca2cb6680e24861d5fed4ab0a2d9e0f
Reciphers for ciphertext: 0
Decipheredtext:           0020000000000000000000000000000000
RESULT CIPHER-DECIPHER: -----OK-----


Test: 3
Crypto pad: 1
Symmetric key bit length: 256
IV bit length:            128
Plaintext bit length:     136
Symmetric key:            0000000000000000000000000000000000000000000000000000000000000000
IV:                       00000000000000000000000000000000
Plaintext:                0010000000000000000000000000000000
Ciphertext:               396154111adefc500cf6e5c99038bc1793b05d70003a503bde74c0bc6ada4262bc09de9f2be1b376af7d05bc2b328f83107e8598418404196ec59f63e45b7f6df179a32c53c13fc276d71a45aee0f13a
Reciphers for ciphertext: 0
Decipheredtext:           0010000000000000000000000000000000
RESULT CIPHER-DECIPHER: -----OK-----


Test: 4
Crypto pad: 1
Symmetric key bit length: 256
IV bit length:            128
Plaintext bit length:     136
Symmetric key:            0000000000000000000000000000000000000000000000000000000000000000
IV:                       00000000000000000000000000000000
Plaintext:                0008000000000000000000000000000000
Ciphertext:               396154111adefc500cf6e5c99038bc1793b05d70003a503bde74c0bc6ada4262bc09de9f2be1b376af7d05bc2b328f83ff6a891e7c1c074a68fec291928fdd8df4fd14acc27493e919947649c186bc88
Reciphers for ciphertext: 0
Decipheredtext:           0008000000000000000000000000000000
RESULT CIPHER-DECIPHER: -----OK-----


Test: 5
Crypto pad: 0
Symmetric key bit length: 256
IV bit length:            128
Plaintext bit length:     136
Symmetric key:            0000000000000000000000000000000000000000000000000000000000000000
IV:                       00000000000000000000000000000000
Plaintext:                0004000000000000000000000000000000
Ciphertext:               396154111adefc500cf6e5c99038bc1793b05d70003a503bde74c0bc6ada42627294bcf19e5446fb09989a0371b957d2f64c250a13f45d377adb7545b2b157a954e92aae0b99becb1ff1dc1e67df6a21
Reciphers for ciphertext: 0
Decipheredtext:           0004000000000000000000000000000000
RESULT CIPHER-DECIPHER: -----OK-----


Test: 6
Crypto pad: 0
Symmetric key bit length: 256
IV bit length:            128
Plaintext bit length:     136
Symmetric key:            0000000000000000000000000000000000000000000000000000000000000000
IV:                       00000000000000000000000000000000
Plaintext:                0002000000000000000000000000000000
Ciphertext:               396154111adefc500cf6e5c99038bc1793b05d70003a503bde74c0bc6ada42627294bcf19e5446fb09989a0371b957d2fad0f252086f11c830c65b63197cbc38a32b0d1cd7433c16b9767540c37be27c
Reciphers for ciphertext: 0
Decipheredtext:           0002000000000000000000000000000000
RESULT CIPHER-DECIPHER: -----OK-----


Test: 7
Crypto pad: 0
Symmetric key bit length: 256
IV bit length:            128
Plaintext bit length:     136
Symmetric key:            0000000000000000000000000000000000000000000000000000000000000000
IV:                       00000000000000000000000000000000
Plaintext:                0001000000000000000000000000000000
Ciphertext:               396154111adefc500cf6e5c99038bc1793b05d70003a503bde74c0bc6ada42627294bcf19e5446fb09989a0371b957d29dcb89b209441f02ad0d25c6ab8266298e75d6ce9ef456c5aeb9a097b892a23e
Reciphers for ciphertext: 0
Decipheredtext:           0001000000000000000000000000000000
RESULT CIPHER-DECIPHER: -----OK-----


Test: 8
Crypto pad: 2
Symmetric key bit length: 256
IV bit length:            128
Plaintext bit length:     136
Symmetric key:            0000000000000000000000000000000000000000000000000000000000000000
IV:                       00000000000000000000000000000000
Plaintext:                0000800000000000000000000000000000
Ciphertext:               396154111adefc500cf6e5c99038bc1793b05d70003a503bde74c0bc6ada42620cae546ff36fdf83c2fb66ce6d9971dfe62e4ed4e4f34edc563710d960e09d4cf5d0ef19361732f1ce541084c9216a94
Reciphers for ciphertext: 0
Decipheredtext:           0000800000000000000000000000000000
RESULT CIPHER-DECIPHER: -----OK-----


Test: 9
Crypto pad: 2
Symmetric key bit length: 256
IV bit length:            128
Plaintext bit length:     136
Symmetric key:            0000000000000000000000000000000000000000000000000000000000000000
IV:                       00000000000000000000000000000000
Plaintext:                0000400000000000000000000000000000
Ciphertext:               396154111adefc500cf6e5c99038bc1793b05d70003a503bde74c0bc6ada42620cae546ff36fdf83c2fb66ce6d9971df98a1b926ba06895c3f2e84ccbacbc356d635652d8c0d1ccd8b76f46566ba8038
Reciphers for ciphertext: 0
Decipheredtext:           0000400000000000000000000000000000
RESULT CIPHER-DECIPHER: -----OK-----


Test: 10
Crypto pad: 2
Symmetric key bit length: 256
IV bit length:            128
Plaintext bit length:     136
Symmetric key:            0000000000000000000000000000000000000000000000000000000000000000
IV:                       00000000000000000000000000000000
Plaintext:                0000200000000000000000000000000000
Ciphertext:               396154111adefc500cf6e5c99038bc1793b05d70003a503bde74c0bc6ada42620cae546ff36fdf83c2fb66ce6d9971df29be0be4db7f4d196718aea38f3b0bfd83300d9543b11c35db9a3c515a79dba0
Reciphers for ciphertext: 0
Decipheredtext:           0000200000000000000000000000000000
RESULT CIPHER-DECIPHER: -----OK-----


Test: 11
Crypto pad: 1
Symmetric key bit length: 256
IV bit length:            128
Plaintext bit length:     136
Symmetric key:            0000000000000000000000000000000000000000000000000000000000000000
IV:                       00000000000000000000000000000000
Plaintext:                0000100000000000000000000000000000
Ciphertext:               396154111adefc500cf6e5c99038bc1793b05d70003a503bde74c0bc6ada4262bc09de9f2be1b376af7d05bc2b328f83f670c4ebecba0b43e71f6d752bfd4854a3e58b18b7b1e67ba27b6984c1eb45a5
Reciphers for ciphertext: 0
Decipheredtext:           0000100000000000000000000000000000
RESULT CIPHER-DECIPHER: -----OK-----


Test: 12
Crypto pad: 0
Symmetric key bit length: 256
IV bit length:            128
Plaintext bit length:     136
Symmetric key:            0000000000000000000000000000000000000000000000000000000000000000
IV:                       00000000000000000000000000000000
Plaintext:                0000080000000000000000000000000000
Ciphertext:               396154111adefc500cf6e5c99038bc1793b05d70003a503bde74c0bc6ada42627294bcf19e5446fb09989a0371b957d27d7666b4484cdb7e3605468e093a787ca0a4a6f11215512d09baa68fecdb8e42
Reciphers for ciphertext: 0
Decipheredtext:           0000080000000000000000000000000000
RESULT CIPHER-DECIPHER: -----OK-----


Test: 13
Crypto pad: 0
Symmetric key bit length: 256
IV bit length:            128
Plaintext bit length:     136
Symmetric key:            0000000000000000000000000000000000000000000000000000000000000000
IV:                       00000000000000000000000000000000
Plaintext:                0000040000000000000000000000000000
Ciphertext:               396154111adefc500cf6e5c99038bc1793b05d70003a503bde74c0bc6ada42627294bcf19e5446fb09989a0371b957d2562d06b181c091da6c43642ae99460c64c3c59a396e0445ad0906abfecd515a1
Reciphers for ciphertext: 0
Decipheredtext:           0000040000000000000000000000000000
RESULT CIPHER-DECIPHER: -----OK-----


Test: 14
Crypto pad: 2
Symmetric key bit length: 256
IV bit length:            128
Plaintext bit length:     136
Symmetric key:            0000000000000000000000000000000000000000000000000000000000000000
IV:                       00000000000000000000000000000000
Plaintext:                0000020000000000000000000000000000
Ciphertext:               396154111adefc500cf6e5c99038bc1793b05d70003a503bde74c0bc6ada42620cae546ff36fdf83c2fb66ce6d9971dfab0efb5975e6186b7d76bc9672453488d7b72e04ebae0c43c4f7f3b2ca17d399
Reciphers for ciphertext: 0
Decipheredtext:           0000020000000000000000000000000000
RESULT CIPHER-DECIPHER: -----OK-----


Test: 15
Crypto pad: 1
Symmetric key bit length: 256
IV bit length:            128
Plaintext bit length:     136
Symmetric key:            0000000000000000000000000000000000000000000000000000000000000000
IV:                       00000000000000000000000000000000
Plaintext:                0000010000000000000000000000000000
Ciphertext:               396154111adefc500cf6e5c99038bc1793b05d70003a503bde74c0bc6ada4262bc09de9f2be1b376af7d05bc2b328f8310c0756538e7bff88d19ae2b1f7b859a1067ea7b014cb5312429e7aaa78e0e6d
Reciphers for ciphertext: 0
Decipheredtext:           0000010000000000000000000000000000
RESULT CIPHER-DECIPHER: -----OK-----


Test: 16
Crypto pad: 1
Symmetric key bit length: 256
IV bit length:            128
Plaintext bit length:     136
Symmetric key:            0000000000000000000000000000000000000000000000000000000000000000
IV:                       00000000000000000000000000000000
Plaintext:                0000008000000000000000000000000000
Ciphertext:               396154111adefc500cf6e5c99038bc1793b05d70003a503bde74c0bc6ada4262bc09de9f2be1b376af7d05bc2b328f83af7fcd5248f8c72f1695aa05dd1cade0886d99a25ebc743a2ea375ff6315036a
Reciphers for ciphertext: 0
Decipheredtext:           0000008000000000000000000000000000
RESULT CIPHER-DECIPHER: -----OK-----


Test: 17
Crypto pad: 0
Symmetric key bit length: 256
IV bit length:            128
Plaintext bit length:     136
Symmetric key:            0000000000000000000000000000000000000000000000000000000000000000
IV:                       00000000000000000000000000000000
Plaintext:                0000004000000000000000000000000000
Ciphertext:               396154111adefc500cf6e5c99038bc1793b05d70003a503bde74c0bc6ada42627294bcf19e5446fb09989a0371b957d29841e555655609a75d7be20b8a90ef1e3cbc4532503aa99cabdeb2dae914bf85
Reciphers for ciphertext: 0
Decipheredtext:           0000004000000000000000000000000000
RESULT CIPHER-DECIPHER: -----OK-----


Test: 18
Crypto pad: 1
Symmetric key bit length: 256
IV bit length:            128
Plaintext bit length:     136
Symmetric key:            0000000000000000000000000000000000000000000000000000000000000000
IV:                       00000000000000000000000000000000
Plaintext:                0000002000000000000000000000000000
Ciphertext:               396154111adefc500cf6e5c99038bc1793b05d70003a503bde74c0bc6ada4262bc09de9f2be1b376af7d05bc2b328f8327f9546e6a1b7464780000561783569cfc52cd62e48dd8c9570c5ab572d5802c
Reciphers for ciphertext: 0
Decipheredtext:           0000002000000000000000000000000000
RESULT CIPHER-DECIPHER: -----OK-----


Test: 19
Crypto pad: 0
Symmetric key bit length: 256
IV bit length:            128
Plaintext bit length:     136
Symmetric key:            0000000000000000000000000000000000000000000000000000000000000000
IV:                       00000000000000000000000000000000
Plaintext:                0000001000000000000000000000000000
Ciphertext:               396154111adefc500cf6e5c99038bc1793b05d70003a503bde74c0bc6ada42627294bcf19e5446fb09989a0371b957d28671d935d7a8354eecb7288803d42d7af2f4321c1d0cef19769d10d5a203297e
Reciphers for ciphertext: 0
Decipheredtext:           0000001000000000000000000000000000
RESULT CIPHER-DECIPHER: -----OK-----


Test: 20
Crypto pad: 2
Symmetric key bit length: 256
IV bit length:            128
Plaintext bit length:     136
Symmetric key:            0000000000000000000000000000000000000000000000000000000000000000
IV:                       00000000000000000000000000000000
Plaintext:                0000000800000000000000000000000000
Ciphertext:               396154111adefc500cf6e5c99038bc1793b05d70003a503bde74c0bc6ada42620cae546ff36fdf83c2fb66ce6d9971df0da44f508debc6f044394624fceb8ebe901f4128224bff6a80b965d9ffb9e856
Reciphers for ciphertext: 0
Decipheredtext:           0000000800000000000000000000000000
RESULT CIPHER-DECIPHER: -----OK-----


Test: 21
Crypto pad: 2
Symmetric key bit length: 256
IV bit length:            128
Plaintext bit length:     136
Symmetric key:            0000000000000000000000000000000000000000000000000000000000000000
IV:                       00000000000000000000000000000000
Plaintext:                0000000400000000000000000000000000
Ciphertext:               396154111adefc500cf6e5c99038bc1793b05d70003a503bde74c0bc6ada42620cae546ff36fdf83c2fb66ce6d9971dfab137369be6d93fbb18006bdb236ec09e8a6bff0799efa715048bf18c68e1243
Reciphers for ciphertext: 0
Decipheredtext:           0000000400000000000000000000000000
RESULT CIPHER-DECIPHER: -----OK-----


Test: 22
Crypto pad: 1
Symmetric key bit length: 256
IV bit length:            128
Plaintext bit length:     136
Symmetric key:            0000000000000000000000000000000000000000000000000000000000000000
IV:                       00000000000000000000000000000000
Plaintext:                0000000200000000000000000000000000
Ciphertext:               396154111adefc500cf6e5c99038bc1793b05d70003a503bde74c0bc6ada4262bc09de9f2be1b376af7d05bc2b328f83eb90c4e597a7e1779ffa260886e26f7532454072e28387e98d9db97754dfce8b
Reciphers for ciphertext: 0
Decipheredtext:           0000000200000000000000000000000000
RESULT CIPHER-DECIPHER: -----OK-----


Test: 23
Crypto pad: 2
Symmetric key bit length: 256
IV bit length:            128
Plaintext bit length:     136
Symmetric key:            0000000000000000000000000000000000000000000000000000000000000000
IV:                       00000000000000000000000000000000
Plaintext:                0000000100000000000000000000000000
Ciphertext:               396154111adefc500cf6e5c99038bc1793b05d70003a503bde74c0bc6ada42620cae546ff36fdf83c2fb66ce6d9971df618cf3588d5c128eaf252616230e08f7880167706dd161c44664efe85de9f559
Reciphers for ciphertext: 0
Decipheredtext:           0000000100000000000000000000000000
RESULT CIPHER-DECIPHER: -----OK-----


Test: 24
Crypto pad: 2
Symmetric key bit length: 256
IV bit length:            128
Plaintext bit length:     136
Symmetric key:            0000000000000000000000000000000000000000000000000000000000000000
IV:                       00000000000000000000000000000000
Plaintext:                0000000080000000000000000000000000
Ciphertext:               396154111adefc500cf6e5c99038bc1793b05d70003a503bde74c0bc6ada42620cae546ff36fdf83c2fb66ce6d9971df98dc4db49d197ab9152d12b9de2d73ca9925fbb63d0a5c6a14bfb8ec9a4955a2
Reciphers for ciphertext: 0
Decipheredtext:           0000000080000000000000000000000000
RESULT CIPHER-DECIPHER: -----OK-----


Test: 25
Crypto pad: 2
Symmetric key bit length: 256
IV bit length:            128
Plaintext bit length:     136
Symmetric key:            0000000000000000000000000000000000000000000000000000000000000000
IV:                       00000000000000000000000000000000
Plaintext:                0000000040000000000000000000000000
Ciphertext:               396154111adefc500cf6e5c99038bc1793b05d70003a503bde74c0bc6ada42620cae546ff36fdf83c2fb66ce6d9971df5bdde24b15702a35e1f140c57d20644331a2becde26fed767e5c3321e3461039
Reciphers for ciphertext: 0
Decipheredtext:           0000000040000000000000000000000000
RESULT CIPHER-DECIPHER: -----OK-----


Test: 26
Crypto pad: 1
Symmetric key bit length: 256
IV bit length:            128
Plaintext bit length:     136
Symmetric key:            0000000000000000000000000000000000000000000000000000000000000000
IV:                       00000000000000000000000000000000
Plaintext:                0000000020000000000000000000000000
Ciphertext:               396154111adefc500cf6e5c99038bc1793b05d70003a503bde74c0bc6ada4262bc09de9f2be1b376af7d05bc2b328f83cf755809882bed8ba2f9f1a4ed296a2b02faff6f6fe486598fbf3f4427b2b514
Reciphers for ciphertext: 0
Decipheredtext:           0000000020000000000000000000000000
RESULT CIPHER-DECIPHER: -----OK-----


Test: 27
Crypto pad: 1
Symmetric key bit length: 256
IV bit length:            128
Plaintext bit length:     136
Symmetric key:            0000000000000000000000000000000000000000000000000000000000000000
IV:                       00000000000000000000000000000000
Plaintext:                0000000010000000000000000000000000
Ciphertext:               396154111adefc500cf6e5c99038bc1793b05d70003a503bde74c0bc6ada4262bc09de9f2be1b376af7d05bc2b328f83f1a8dbb999538ae89d16f92a7f4d1df13ee5e8bb4e2f9d89665eaba0aecb5286
Reciphers for ciphertext: 0
Decipheredtext:           0000000010000000000000000000000000
RESULT CIPHER-DECIPHER: -----OK-----


Test: 28
Crypto pad: 2
Symmetric key bit length: 256
IV bit length:            128
Plaintext bit length:     136
Symmetric key:            0000000000000000000000000000000000000000000000000000000000000000
IV:                       00000000000000000000000000000000
Plaintext:                0000000008000000000000000000000000
Ciphertext:               396154111adefc500cf6e5c99038bc1793b05d70003a503bde74c0bc6ada42620cae546ff36fdf83c2fb66ce6d9971df775222fddaaecb81cf675c4e0b98179ef59563fc0ee827f447012d55b8ad2118
Reciphers for ciphertext: 0
Decipheredtext:           0000000008000000000000000000000000
RESULT CIPHER-DECIPHER: -----OK-----


Test: 29
Crypto pad: 2
Symmetric key bit length: 256
IV bit length:            128
Plaintext bit length:     136
Symmetric key:            0000000000000000000000000000000000000000000000000000000000000000
IV:                       00000000000000000000000000000000
Plaintext:                0000000004000000000000000000000000
Ciphertext:               396154111adefc500cf6e5c99038bc1793b05d70003a503bde74c0bc6ada42620cae546ff36fdf83c2fb66ce6d9971df12a648cadcd153c760a965826683119a6acfa67c29dd56ce9d38c6f2867dabca
Reciphers for ciphertext: 0
Decipheredtext:           0000000004000000000000000000000000
RESULT CIPHER-DECIPHER: -----OK-----


Test: 30
Crypto pad: 1
Symmetric key bit length: 256
IV bit length:            128
Plaintext bit length:     136
Symmetric key:            0000000000000000000000000000000000000000000000000000000000000000
IV:                       00000000000000000000000000000000
Plaintext:                0000000002000000000000000000000000
Ciphertext:               396154111adefc500cf6e5c99038bc1793b05d70003a503bde74c0bc6ada4262bc09de9f2be1b376af7d05bc2b328f830503fb10ab241e7cf45d8cdeee474335ef0dc8ce5bc5e0fb90ba767f5d3ca39b
Reciphers for ciphertext: 0
Decipheredtext:           0000000002000000000000000000000000
RESULT CIPHER-DECIPHER: -----OK-----


Test: 31
Crypto pad: 2
Symmetric key bit length: 256
IV bit length:            128
Plaintext bit length:     136
Symmetric key:            0000000000000000000000000000000000000000000000000000000000000000
IV:                       00000000000000000000000000000000
Plaintext:                0000000001000000000000000000000000
Ciphertext:               396154111adefc500cf6e5c99038bc1793b05d70003a503bde74c0bc6ada42620cae546ff36fdf83c2fb66ce6d9971df3d299c0070cbbd831b802690b8e7ca243845021fcaee7c31e95ee58f17d32dd2
Reciphers for ciphertext: 0
Decipheredtext:           0000000001000000000000000000000000
RESULT CIPHER-DECIPHER: -----OK-----


Test: 32
Crypto pad: 0
Symmetric key bit length: 256
IV bit length:            128
Plaintext bit length:     136
Symmetric key:            0000000000000000000000000000000000000000000000000000000000000000
IV:                       00000000000000000000000000000000
Plaintext:                0000000000800000000000000000000000
Ciphertext:               396154111adefc500cf6e5c99038bc1793b05d70003a503bde74c0bc6ada42627294bcf19e5446fb09989a0371b957d233105bd4d11d66753dc34d128befe3f4ca26ff3ab4283a1bc20dc7c72f8ddf1a
Reciphers for ciphertext: 0
Decipheredtext:           0000000000800000000000000000000000
RESULT CIPHER-DECIPHER: -----OK-----


Test: 33
Crypto pad: 2
Symmetric key bit length: 256
IV bit length:            128
Plaintext bit length:     136
Symmetric key:            0000000000000000000000000000000000000000000000000000000000000000
IV:                       00000000000000000000000000000000
Plaintext:                0000000000400000000000000000000000
Ciphertext:               396154111adefc500cf6e5c99038bc1793b05d70003a503bde74c0bc6ada42620cae546ff36fdf83c2fb66ce6d9971df5efce2b4b987c0f77d27b448368816829237f1acfb32ba2cb8fe9c925dac0604
Reciphers for ciphertext: 0
Decipheredtext:           0000000000400000000000000000000000
RESULT CIPHER-DECIPHER: -----OK-----


Test: 34
Crypto pad: 1
Symmetric key bit length: 256
IV bit length:            128
Plaintext bit length:     136
Symmetric key:            0000000000000000000000000000000000000000000000000000000000000000
IV:                       00000000000000000000000000000000
Plaintext:                0000000000200000000000000000000000
Ciphertext:               396154111adefc500cf6e5c99038bc1793b05d70003a503bde74c0bc6ada4262bc09de9f2be1b376af7d05bc2b328f837835449454128035d7f0ea99e327577baf0eca5e9dc2c35666c3bf294d1832fe
Reciphers for ciphertext: 0
Decipheredtext:           0000000000200000000000000000000000
RESULT CIPHER-DECIPHER: -----OK-----


Test: 35
Crypto pad: 0
Symmetric key bit length: 256
IV bit length:            128
Plaintext bit length:     136
Symmetric key:            0000000000000000000000000000000000000000000000000000000000000000
IV:                       00000000000000000000000000000000
Plaintext:                0000000000100000000000000000000000
Ciphertext:               396154111adefc500cf6e5c99038bc1793b05d70003a503bde74c0bc6ada42627294bcf19e5446fb09989a0371b957d227bedda0601be35122fb1d272d73ab3eb1044f79a1880ec6ea7671beda08d3c3
Reciphers for ciphertext: 0
Decipheredtext:           0000000000100000000000000000000000
RESULT CIPHER-DECIPHER: -----OK-----


Test: 36
Crypto pad: 0
Symmetric key bit length: 256
IV bit length:            128
Plaintext bit length:     136
Symmetric key:            0000000000000000000000000000000000000000000000000000000000000000
IV:                       00000000000000000000000000000000
Plaintext:                0000000000080000000000000000000000
Ciphertext:               396154111adefc500cf6e5c99038bc1793b05d70003a503bde74c0bc6ada42627294bcf19e5446fb09989a0371b957d254c3f99ff48e318cc515ede75800c4b34dc9484775f15c9a730ba93487c8740f
Reciphers for ciphertext: 0
Decipheredtext:           0000000000080000000000000000000000
RESULT CIPHER-DECIPHER: -----OK-----


Test: 37
Crypto pad: 1
Symmetric key bit length: 256
IV bit length:            128
Plaintext bit length:     136
Symmetric key:            0000000000000000000000000000000000000000000000000000000000000000
IV:                       00000000000000000000000000000000
Plaintext:                0000000000040000000000000000000000
Ciphertext:               396154111adefc500cf6e5c99038bc1793b05d70003a503bde74c0bc6ada4262bc09de9f2be1b376af7d05bc2b328f83c627c329f8e48299f6fdb23b9dbea0bb3a603783e08d187820b3c802d912991e
Reciphers for ciphertext: 0
Decipheredtext:           0000000000040000000000000000000000
RESULT CIPHER-DECIPHER: -----OK-----


Test: 38
Crypto pad: 1
Symmetric key bit length: 256
IV bit length:            128
Plaintext bit length:     136
Symmetric key:            0000000000000000000000000000000000000000000000000000000000000000
IV:                       00000000000000000000000000000000
Plaintext:                0000000000020000000000000000000000
Ciphertext:               396154111adefc500cf6e5c99038bc1793b05d70003a503bde74c0bc6ada4262bc09de9f2be1b376af7d05bc2b328f831b6578f9e23bd8c1845a02431c5f9aa3561c4c7604b06d911f67d5e9305fae95
Reciphers for ciphertext: 0
Decipheredtext:           0000000000020000000000000000000000
RESULT CIPHER-DECIPHER: -----OK-----


Test: 39
Crypto pad: 2
Symmetric key bit length: 256
IV bit length:            128
Plaintext bit length:     136
Symmetric key:            0000000000000000000000000000000000000000000000000000000000000000
IV:                       00000000000000000000000000000000
Plaintext:                0000000000010000000000000000000000
Ciphertext:               396154111adefc500cf6e5c99038bc1793b05d70003a503bde74c0bc6ada42620cae546ff36fdf83c2fb66ce6d9971df6db2fb8c0b9344d0547c0ff1292020c648e407b14c5e07f285b56b386bb902f5
Reciphers for ciphertext: 0
Decipheredtext:           0000000000010000000000000000000000
RESULT CIPHER-DECIPHER: -----OK-----


Test: 40
Crypto pad: 1
Symmetric key bit length: 256
IV bit length:            128
Plaintext bit length:     136
Symmetric key:            0000000000000000000000000000000000000000000000000000000000000000
IV:                       00000000000000000000000000000000
Plaintext:                0000000000008000000000000000000000
Ciphertext:               396154111adefc500cf6e5c99038bc1793b05d70003a503bde74c0bc6ada4262bc09de9f2be1b376af7d05bc2b328f834fad9b2c37c131493fbef53581fa4f83dfb49818653700e2a2828762bc452d9c
Reciphers for ciphertext: 0
Decipheredtext:           0000000000008000000000000000000000
RESULT CIPHER-DECIPHER: -----OK-----


Test: 41
Crypto pad: 1
Symmetric key bit length: 256
IV bit length:            128
Plaintext bit length:     136
Symmetric key:            0000000000000000000000000000000000000000000000000000000000000000
IV:                       00000000000000000000000000000000
Plaintext:                0000000000004000000000000000000000
Ciphertext:               396154111adefc500cf6e5c99038bc1793b05d70003a503bde74c0bc6ada4262bc09de9f2be1b376af7d05bc2b328f8347502a01e93d2c87bd5584f6afd3d99d99e07bd9f3ffbfa14ca700d99bdc9fad
Reciphers for ciphertext: 0
Decipheredtext:           0000000000004000000000000000000000
RESULT CIPHER-DECIPHER: -----OK-----


Test: 42
Crypto pad: 0
Symmetric key bit length: 256
IV bit length:            128
Plaintext bit length:     136
Symmetric key:            0000000000000000000000000000000000000000000000000000000000000000
IV:                       00000000000000000000000000000000
Plaintext:                0000000000002000000000000000000000
Ciphertext:               396154111adefc500cf6e5c99038bc1793b05d70003a503bde74c0bc6ada42627294bcf19e5446fb09989a0371b957d2056e1c6f651bfe50271b3b7a18e76d84368297047bab0a5c0ce81043f21b4ee6
Reciphers for ciphertext: 0
Decipheredtext:           0000000000002000000000000000000000
RESULT CIPHER-DECIPHER: -----OK-----


Test: 43
Crypto pad: 2
Symmetric key bit length: 256
IV bit length:            128
Plaintext bit length:     136
Symmetric key:            0000000000000000000000000000000000000000000000000000000000000000
IV:                       00000000000000000000000000000000
Plaintext:                0000000000001000000000000000000000
Ciphertext:               396154111adefc500cf6e5c99038bc1793b05d70003a503bde74c0bc6ada42620cae546ff36fdf83c2fb66ce6d9971df5632baf6627b3d96ad4e06fa6a561f559cf9a7656a8a27e600d347f2e6c43dcd
Reciphers for ciphertext: 0
Decipheredtext:           0000000000001000000000000000000000
RESULT CIPHER-DECIPHER: -----OK-----


Test: 44
Crypto pad: 0
Symmetric key bit length: 256
IV bit length:            128
Plaintext bit length:     136
Symmetric key:            0000000000000000000000000000000000000000000000000000000000000000
IV:                       00000000000000000000000000000000
Plaintext:                0000000000000800000000000000000000
Ciphertext:               396154111adefc500cf6e5c99038bc1793b05d70003a503bde74c0bc6ada42627294bcf19e5446fb09989a0371b957d2e29807caacdfa2d41a7d9e91fa7fd8eb24dfe9c66cd26dedb3713bc27454718c
Reciphers for ciphertext: 0
Decipheredtext:           0000000000000800000000000000000000
RESULT CIPHER-DECIPHER: -----OK-----


Test: 45
Crypto pad: 0
Symmetric key bit length: 256
IV bit length:            128
Plaintext bit length:     136
Symmetric key:            0000000000000000000000000000000000000000000000000000000000000000
IV:                       00000000000000000000000000000000
Plaintext:                0000000000000400000000000000000000
Ciphertext:               396154111adefc500cf6e5c99038bc1793b05d70003a503bde74c0bc6ada42627294bcf19e5446fb09989a0371b957d281dd44bb5d1822dee605f9e6ff01d7b30297281461ec27ae1c97fdab0700cfab
Reciphers for ciphertext: 0
Decipheredtext:           0000000000000400000000000000000000
RESULT CIPHER-DECIPHER: -----OK-----


Test: 46
Crypto pad: 0
Symmetric key bit length: 256
IV bit length:            128
Plaintext bit length:     136
Symmetric key:            0000000000000000000000000000000000000000000000000000000000000000
IV:                       00000000000000000000000000000000
Plaintext:                0000000000000200000000000000000000
Ciphertext:               396154111adefc500cf6e5c99038bc1793b05d70003a503bde74c0bc6ada42627294bcf19e5446fb09989a0371b957d25c3649925e47d7ff96482a8fbd9666fd17c26e00710a59d82d8167de5453b73f
Reciphers for ciphertext: 0
Decipheredtext:           0000000000000200000000000000000000
RESULT CIPHER-DECIPHER: -----OK-----


Test: 47
Crypto pad: 2
Symmetric key bit length: 256
IV bit length:            128
Plaintext bit length:     136
Symmetric key:            0000000000000000000000000000000000000000000000000000000000000000
IV:                       00000000000000000000000000000000
Plaintext:                0000000000000100000000000000000000
Ciphertext:               396154111adefc500cf6e5c99038bc1793b05d70003a503bde74c0bc6ada42620cae546ff36fdf83c2fb66ce6d9971df695415a836e66e737887845ec08a1adbfd83d35c4573b06031508a2b213f6b96
Reciphers for ciphertext: 0
Decipheredtext:           0000000000000100000000000000000000
RESULT CIPHER-DECIPHER: -----OK-----


Test: 48
Crypto pad: 1
Symmetric key bit length: 256
IV bit length:            128
Plaintext bit length:     136
Symmetric key:            0000000000000000000000000000000000000000000000000000000000000000
IV:                       00000000000000000000000000000000
Plaintext:                0000000000000080000000000000000000
Ciphertext:               396154111adefc500cf6e5c99038bc1793b05d70003a503bde74c0bc6ada4262bc09de9f2be1b376af7d05bc2b328f83f5416bce292d9e2cea5d1cc70bbaeed11ab371a3e2bfb49fdc6af686412e6dbe
Reciphers for ciphertext: 0
Decipheredtext:           0000000000000080000000000000000000
RESULT CIPHER-DECIPHER: -----OK-----


Test: 49
Crypto pad: 2
Symmetric key bit length: 256
IV bit length:            128
Plaintext bit length:     136
Symmetric key:            0000000000000000000000000000000000000000000000000000000000000000
IV:                       00000000000000000000000000000000
Plaintext:                0000000000000040000000000000000000
Ciphertext:               396154111adefc500cf6e5c99038bc1793b05d70003a503bde74c0bc6ada42620cae546ff36fdf83c2fb66ce6d9971df7aec4f1388fc29c47f7fed74adde8485fafbff1127caa698ae0a961587e45fb4
Reciphers for ciphertext: 0
Decipheredtext:           0000000000000040000000000000000000
RESULT CIPHER-DECIPHER: -----OK-----


Test: 50
Crypto pad: 1
Symmetric key bit length: 256
IV bit length:            128
Plaintext bit length:     136
Symmetric key:            0000000000000000000000000000000000000000000000000000000000000000
IV:                       00000000000000000000000000000000
Plaintext:                0000000000000020000000000000000000
Ciphertext:               396154111adefc500cf6e5c99038bc1793b05d70003a503bde74c0bc6ada4262bc09de9f2be1b376af7d05bc2b328f8382a9f1a6ce08bc4876e649d8a8ea7eb64be23b4d0c88db4df585d0f87a269679
Reciphers for ciphertext: 0
Decipheredtext:           0000000000000020000000000000000000
RESULT CIPHER-DECIPHER: -----OK-----


Test: 51
Crypto pad: 1
Symmetric key bit length: 256
IV bit length:            128
Plaintext bit length:     136
Symmetric key:            0000000000000000000000000000000000000000000000000000000000000000
IV:                       00000000000000000000000000000000
Plaintext:                0000000000000010000000000000000000
Ciphertext:               396154111adefc500cf6e5c99038bc1793b05d70003a503bde74c0bc6ada4262bc09de9f2be1b376af7d05bc2b328f83b6296c88adf1a792908b065eeb04bfc280472c6237dfa99cf329d21dab3d4cc0
Reciphers for ciphertext: 0
Decipheredtext:           0000000000000010000000000000000000
RESULT CIPHER-DECIPHER: -----OK-----


Test: 52
Crypto pad: 1
Symmetric key bit length: 256
IV bit length:            128
Plaintext bit length:     136
Symmetric key:            0000000000000000000000000000000000000000000000000000000000000000
IV:                       00000000000000000000000000000000
Plaintext:                0000000000000008000000000000000000
Ciphertext:               396154111adefc500cf6e5c99038bc1793b05d70003a503bde74c0bc6ada4262bc09de9f2be1b376af7d05bc2b328f83e766a39aecca40bdbfbe6ff3fa292913200c2bcfb623f23fea0371fe2d439b92
Reciphers for ciphertext: 0
Decipheredtext:           0000000000000008000000000000000000
RESULT CIPHER-DECIPHER: -----OK-----


Test: 53
Crypto pad: 2
Symmetric key bit length: 256
IV bit length:            128
Plaintext bit length:     136
Symmetric key:            0000000000000000000000000000000000000000000000000000000000000000
IV:                       00000000000000000000000000000000
Plaintext:                0000000000000004000000000000000000
Ciphertext:               396154111adefc500cf6e5c99038bc1793b05d70003a503bde74c0bc6ada42620cae546ff36fdf83c2fb66ce6d9971dfc6d081454ea00d83c23b5a62c84359e1d93cbd53e73c87dabcca74092f6262ed
Reciphers for ciphertext: 0
Decipheredtext:           0000000000000004000000000000000000
RESULT CIPHER-DECIPHER: -----OK-----


Test: 54
Crypto pad: 1
Symmetric key bit length: 256
IV bit length:            128
Plaintext bit length:     136
Symmetric key:            0000000000000000000000000000000000000000000000000000000000000000
IV:                       00000000000000000000000000000000
Plaintext:                0000000000000002000000000000000000
Ciphertext:               396154111adefc500cf6e5c99038bc1793b05d70003a503bde74c0bc6ada4262bc09de9f2be1b376af7d05bc2b328f8385d259a79cca80484504d1603f7a8f535a8589938b3fda2472df590228f292ae
Reciphers for ciphertext: 0
Decipheredtext:           0000000000000002000000000000000000
RESULT CIPHER-DECIPHER: -----OK-----


Test: 55
Crypto pad: 2
Symmetric key bit length: 256
IV bit length:            128
Plaintext bit length:     136
Symmetric key:            0000000000000000000000000000000000000000000000000000000000000000
IV:                       00000000000000000000000000000000
Plaintext:                0000000000000001000000000000000000
Ciphertext:               396154111adefc500cf6e5c99038bc1793b05d70003a503bde74c0bc6ada42620cae546ff36fdf83c2fb66ce6d9971dfd8291fa1c6dc250078824b2d0a20883fea3c9804097d1ca52ef015d288f387f8
Reciphers for ciphertext: 0
Decipheredtext:           0000000000000001000000000000000000
RESULT CIPHER-DECIPHER: -----OK-----


Test: 56
Crypto pad: 0
Symmetric key bit length: 256
IV bit length:            128
Plaintext bit length:     136
Symmetric key:            0000000000000000000000000000000000000000000000000000000000000000
IV:                       00000000000000000000000000000000
Plaintext:                0000000000000000800000000000000000
Ciphertext:               396154111adefc500cf6e5c99038bc1793b05d70003a503bde74c0bc6ada42627294bcf19e5446fb09989a0371b957d295387cb74c48ffbd1f8d64a6cc45e074ab441f9ce6a2af6f30a884015da9f7c3
Reciphers for ciphertext: 0
Decipheredtext:           0000000000000000800000000000000000
RESULT CIPHER-DECIPHER: -----OK-----


Test: 57
Crypto pad: 2
Symmetric key bit length: 256
IV bit length:            128
Plaintext bit length:     136
Symmetric key:            0000000000000000000000000000000000000000000000000000000000000000
IV:                       00000000000000000000000000000000
Plaintext:                0000000000000000400000000000000000
Ciphertext:               396154111adefc500cf6e5c99038bc1793b05d70003a503bde74c0bc6ada42620cae546ff36fdf83c2fb66ce6d9971dfa17f975f538f56cdf629b516011de8370ca2369994334b2d0231ecf453fbf709
Reciphers for ciphertext: 0
Decipheredtext:           0000000000000000400000000000000000
RESULT CIPHER-DECIPHER: -----OK-----


Test: 58
Crypto pad: 2
Symmetric key bit length: 256
IV bit length:            128
Plaintext bit length:     136
Symmetric key:            0000000000000000000000000000000000000000000000000000000000000000
IV:                       00000000000000000000000000000000
Plaintext:                0000000000000000200000000000000000
Ciphertext:               396154111adefc500cf6e5c99038bc1793b05d70003a503bde74c0bc6ada42620cae546ff36fdf83c2fb66ce6d9971dfb50b615a1654c6e1cb6ab33716c097fe2cb0d2fde611d8d1b7eff46fa7705ebf
Reciphers for ciphertext: 0
Decipheredtext:           0000000000000000200000000000000000
RESULT CIPHER-DECIPHER: -----OK-----


Test: 59
Crypto pad: 2
Symmetric key bit length: 256
IV bit length:            128
Plaintext bit length:     136
Symmetric key:            0000000000000000000000000000000000000000000000000000000000000000
IV:                       00000000000000000000000000000000
Plaintext:                0000000000000000100000000000000000
Ciphertext:               396154111adefc500cf6e5c99038bc1793b05d70003a503bde74c0bc6ada42620cae546ff36fdf83c2fb66ce6d9971df7bbb2cbb874df6c8b821da7fb0f9011b0f68fb99f0d4fae28ec6ea2ff8f00580
Reciphers for ciphertext: 0
Decipheredtext:           0000000000000000100000000000000000
RESULT CIPHER-DECIPHER: -----OK-----


Test: 60
Crypto pad: 2
Symmetric key bit length: 256
IV bit length:            128
Plaintext bit length:     136
Symmetric key:            0000000000000000000000000000000000000000000000000000000000000000
IV:                       00000000000000000000000000000000
Plaintext:                0000000000000000080000000000000000
Ciphertext:               396154111adefc500cf6e5c99038bc1793b05d70003a503bde74c0bc6ada42620cae546ff36fdf83c2fb66ce6d9971dfe9efe074d096a275e47cd2e6206df6a1cbcb069a83682aa1949c8317ae0be193
Reciphers for ciphertext: 0
Decipheredtext:           0000000000000000080000000000000000
RESULT CIPHER-DECIPHER: -----OK-----


Test: 61
Crypto pad: 1
Symmetric key bit length: 256
IV bit length:            128
Plaintext bit length:     136
Symmetric key:            0000000000000000000000000000000000000000000000000000000000000000
IV:                       00000000000000000000000000000000
Plaintext:                0000000000000000040000000000000000
Ciphertext:               396154111adefc500cf6e5c99038bc1793b05d70003a503bde74c0bc6ada4262bc09de9f2be1b376af7d05bc2b328f8388f2f8d5a836406ae8bbb98c65bbda55f8670d8c191780cda3878a985125ab42
Reciphers for ciphertext: 0
Decipheredtext:           0000000000000000040000000000000000
RESULT CIPHER-DECIPHER: -----OK-----


Test: 62
Crypto pad: 0
Symmetric key bit length: 256
IV bit length:            128
Plaintext bit length:     136
Symmetric key:            0000000000000000000000000000000000000000000000000000000000000000
IV:                       00000000000000000000000000000000
Plaintext:                0000000000000000020000000000000000
Ciphertext:               396154111adefc500cf6e5c99038bc1793b05d70003a503bde74c0bc6ada42627294bcf19e5446fb09989a0371b957d2f64620d8d87585a3ef038b9ad58f5ea06af6fc02fc3609d5f8d8f36eeac52580
Reciphers for ciphertext: 0
Decipheredtext:           0000000000000000020000000000000000
RESULT CIPHER-DECIPHER: -----OK-----


Test: 63
Crypto pad: 0
Symmetric key bit length: 256
IV bit length:            128
Plaintext bit length:     136
Symmetric key:            0000000000000000000000000000000000000000000000000000000000000000
IV:                       00000000000000000000000000000000
Plaintext:                0000000000000000010000000000000000
Ciphertext:               396154111adefc500cf6e5c99038bc1793b05d70003a503bde74c0bc6ada42627294bcf19e5446fb09989a0371b957d2694438ec141c8ed5f2f898b4554a298ffb27689c5b5f26d12486cafa3f1fbdd3
Reciphers for ciphertext: 0
Decipheredtext:           0000000000000000010000000000000000
RESULT CIPHER-DECIPHER: -----OK-----


Test: 64
Crypto pad: 0
Symmetric key bit length: 256
IV bit length:            128
Plaintext bit length:     136
Symmetric key:            0000000000000000000000000000000000000000000000000000000000000000
IV:                       00000000000000000000000000000000
Plaintext:                0000000000000000008000000000000000
Ciphertext:               396154111adefc500cf6e5c99038bc1793b05d70003a503bde74c0bc6ada42627294bcf19e5446fb09989a0371b957d23e6226ec7726a1ee5f5fa9b18cce8c44846793aacdf6ec9176978efc46c56870
Reciphers for ciphertext: 0
Decipheredtext:           0000000000000000008000000000000000
RESULT CIPHER-DECIPHER: -----OK-----


Test: 65
Crypto pad: 1
Symmetric key bit length: 256
IV bit length:            128
Plaintext bit length:     136
Symmetric key:            0000000000000000000000000000000000000000000000000000000000000000
IV:                       00000000000000000000000000000000
Plaintext:                0000000000000000004000000000000000
Ciphertext:               396154111adefc500cf6e5c99038bc1793b05d70003a503bde74c0bc6ada4262bc09de9f2be1b376af7d05bc2b328f838ab6949e79911647800b9e87362ab97a10e6aab8cfdae2b7709cc03aa2c88266
Reciphers for ciphertext: 0
Decipheredtext:           0000000000000000004000000000000000
RESULT CIPHER-DECIPHER: -----OK-----


Test: 66
Crypto pad: 1
Symmetric key bit length: 256
IV bit length:            128
Plaintext bit length:     136
Symmetric key:            0000000000000000000000000000000000000000000000000000000000000000
IV:                       00000000000000000000000000000000
Plaintext:                0000000000000000002000000000000000
Ciphertext:               396154111adefc500cf6e5c99038bc1793b05d70003a503bde74c0bc6ada4262bc09de9f2be1b376af7d05bc2b328f83093c5cf24edaf7f9f1c8a80de4ff50a99bb3eb83baf4dd96f715dff53b7b8515
Reciphers for ciphertext: 0
Decipheredtext:           0000000000000000002000000000000000
RESULT CIPHER-DECIPHER: -----OK-----


Test: 67
Crypto pad: 2
Symmetric key bit length: 256
IV bit length:            128
Plaintext bit length:     136
Symmetric key:            0000000000000000000000000000000000000000000000000000000000000000
IV:                       00000000000000000000000000000000
Plaintext:                0000000000000000001000000000000000
Ciphertext:               396154111adefc500cf6e5c99038bc1793b05d70003a503bde74c0bc6ada42620cae546ff36fdf83c2fb66ce6d9971df28a36e50061f19e240351ed0e378cbf42ef9107d6ac811d0699ee00b08b355fb
Reciphers for ciphertext: 0
Decipheredtext:           0000000000000000001000000000000000
RESULT CIPHER-DECIPHER: -----OK-----


Test: 68
Crypto pad: 2
Symmetric key bit length: 256
IV bit length:            128
Plaintext bit length:     136
Symmetric key:            0000000000000000000000000000000000000000000000000000000000000000
IV:                       00000000000000000000000000000000
Plaintext:                0000000000000000000800000000000000
Ciphertext:               396154111adefc500cf6e5c99038bc1793b05d70003a503bde74c0bc6ada42620cae546ff36fdf83c2fb66ce6d9971dfb93bb36cb88bf26ea79198652aa51d3c4e1624b184102c23b62c4c9372243b47
Reciphers for ciphertext: 0
Decipheredtext:           0000000000000000000800000000000000
RESULT CIPHER-DECIPHER: -----OK-----


Test: 69
Crypto pad: 0
Symmetric key bit length: 256
IV bit length:            128
Plaintext bit length:     136
Symmetric key:            0000000000000000000000000000000000000000000000000000000000000000
IV:                       00000000000000000000000000000000
Plaintext:                0000000000000000000400000000000000
Ciphertext:               396154111adefc500cf6e5c99038bc1793b05d70003a503bde74c0bc6ada42627294bcf19e5446fb09989a0371b957d2de4948083d044fac9bca6da8cd67b8a659c0c4fdc2e87651ef6d4bd5e4b389af
Reciphers for ciphertext: 0
Decipheredtext:           0000000000000000000400000000000000
RESULT CIPHER-DECIPHER: -----OK-----


Test: 70
Crypto pad: 0
Symmetric key bit length: 256
IV bit length:            128
Plaintext bit length:     136
Symmetric key:            0000000000000000000000000000000000000000000000000000000000000000
IV:                       00000000000000000000000000000000
Plaintext:                0000000000000000000200000000000000
Ciphertext:               396154111adefc500cf6e5c99038bc1793b05d70003a503bde74c0bc6ada42627294bcf19e5446fb09989a0371b957d26e778b5bda6ca118117e47470d080d3c96240747a455a4258d3a204a7dbf8184
Reciphers for ciphertext: 0
Decipheredtext:           0000000000000000000200000000000000
RESULT CIPHER-DECIPHER: -----OK-----


Test: 71
Crypto pad: 2
Symmetric key bit length: 256
IV bit length:            128
Plaintext bit length:     136
Symmetric key:            0000000000000000000000000000000000000000000000000000000000000000
IV:                       00000000000000000000000000000000
Plaintext:                0000000000000000000100000000000000
Ciphertext:               396154111adefc500cf6e5c99038bc1793b05d70003a503bde74c0bc6ada42620cae546ff36fdf83c2fb66ce6d9971df0a9107324da32b4281d032a3487ef8755ecf76f2dad36a66efbfe3663bc4b1fa
Reciphers for ciphertext: 0
Decipheredtext:           0000000000000000000100000000000000
RESULT CIPHER-DECIPHER: -----OK-----


Test: 72
Crypto pad: 0
Symmetric key bit length: 256
IV bit length:            128
Plaintext bit length:     136
Symmetric key:            0000000000000000000000000000000000000000000000000000000000000000
IV:                       00000000000000000000000000000000
Plaintext:                0000000000000000000080000000000000
Ciphertext:               396154111adefc500cf6e5c99038bc1793b05d70003a503bde74c0bc6ada42627294bcf19e5446fb09989a0371b957d218ed5635312d71abd123cce779d4d68a116b3ecb1ff669331994143ae5659d4f
Reciphers for ciphertext: 0
Decipheredtext:           0000000000000000000080000000000000
RESULT CIPHER-DECIPHER: -----OK-----


Test: 73
Crypto pad: 2
Symmetric key bit length: 256
IV bit length:            128
Plaintext bit length:     136
Symmetric key:            0000000000000000000000000000000000000000000000000000000000000000
IV:                       00000000000000000000000000000000
Plaintext:                0000000000000000000040000000000000
Ciphertext:               396154111adefc500cf6e5c99038bc1793b05d70003a503bde74c0bc6ada42620cae546ff36fdf83c2fb66ce6d9971df2e3c63f95c4bc1f944bab06dedc9aa8ed97a1490b84f9b9ef5123a562f8e69cd
Reciphers for ciphertext: 0
Decipheredtext:           0000000000000000000040000000000000
RESULT CIPHER-DECIPHER: -----OK-----


Test: 74
Crypto pad: 2
Symmetric key bit length: 256
IV bit length:            128
Plaintext bit length:     136
Symmetric key:            0000000000000000000000000000000000000000000000000000000000000000
IV:                       00000000000000000000000000000000
Plaintext:                0000000000000000000020000000000000
Ciphertext:               396154111adefc500cf6e5c99038bc1793b05d70003a503bde74c0bc6ada42620cae546ff36fdf83c2fb66ce6d9971dfaccc869ef07004c8c3c709083be7ba2f2915479c52d8cb44c52ffc49f681e055
Reciphers for ciphertext: 0
Decipheredtext:           0000000000000000000020000000000000
RESULT CIPHER-DECIPHER: -----OK-----


Test: 75
Crypto pad: 0
Symmetric key bit length: 256
IV bit length:            128
Plaintext bit length:     136
Symmetric key:            0000000000000000000000000000000000000000000000000000000000000000
IV:                       00000000000000000000000000000000
Plaintext:                0000000000000000000010000000000000
Ciphertext:               396154111adefc500cf6e5c99038bc1793b05d70003a503bde74c0bc6ada42627294bcf19e5446fb09989a0371b957d2df60b34fb1a59147cc1fb049c1578206ff5bb667505d56341de633f48e821bbe
Reciphers for ciphertext: 0
Decipheredtext:           0000000000000000000010000000000000
RESULT CIPHER-DECIPHER: -----OK-----


Test: 76
Crypto pad: 2
Symmetric key bit length: 256
IV bit length:            128
Plaintext bit length:     136
Symmetric key:            0000000000000000000000000000000000000000000000000000000000000000
IV:                       00000000000000000000000000000000
Plaintext:                0000000000000000000008000000000000
Ciphertext:               396154111adefc500cf6e5c99038bc1793b05d70003a503bde74c0bc6ada42620cae546ff36fdf83c2fb66ce6d9971df4228dc636c08e41021054aa0e1e2227ab905f9d78588f92bd3ebe67713355817
Reciphers for ciphertext: 0
Decipheredtext:           0000000000000000000008000000000000
RESULT CIPHER-DECIPHER: -----OK-----


Test: 77
Crypto pad: 0
Symmetric key bit length: 256
IV bit length:            128
Plaintext bit length:     136
Symmetric key:            0000000000000000000000000000000000000000000000000000000000000000
IV:                       00000000000000000000000000000000
Plaintext:                0000000000000000000004000000000000
Ciphertext:               396154111adefc500cf6e5c99038bc1793b05d70003a503bde74c0bc6ada42627294bcf19e5446fb09989a0371b957d27ce27f66efd735ffd6b3e1738c50495bdd2f45660fee8f0aa72d3ced26fff181
Reciphers for ciphertext: 0
Decipheredtext:           0000000000000000000004000000000000
RESULT CIPHER-DECIPHER: -----OK-----


Test: 78
Crypto pad: 1
Symmetric key bit length: 256
IV bit length:            128
Plaintext bit length:     136
Symmetric key:            0000000000000000000000000000000000000000000000000000000000000000
IV:                       00000000000000000000000000000000
Plaintext:                0000000000000000000002000000000000
Ciphertext:               396154111adefc500cf6e5c99038bc1793b05d70003a503bde74c0bc6ada4262bc09de9f2be1b376af7d05bc2b328f83f8e74b33a9cde351da0bbc06d69093d75ec0b8046a56a1c0e1260dc789b64e4c
Reciphers for ciphertext: 0
Decipheredtext:           0000000000000000000002000000000000
RESULT CIPHER-DECIPHER: -----OK-----


Test: 79
Crypto pad: 2
Symmetric key bit length: 256
IV bit length:            128
Plaintext bit length:     136
Symmetric key:            0000000000000000000000000000000000000000000000000000000000000000
IV:                       00000000000000000000000000000000
Plaintext:                0000000000000000000001000000000000
Ciphertext:               396154111adefc500cf6e5c99038bc1793b05d70003a503bde74c0bc6ada42620cae546ff36fdf83c2fb66ce6d9971dfae0d22a5b37b8dc5d81cc641eed334d0f9fe63398abdb77aee395e0f8a9e99a1
Reciphers for ciphertext: 0
Decipheredtext:           0000000000000000000001000000000000
RESULT CIPHER-DECIPHER: -----OK-----


Test: 80
Crypto pad: 2
Symmetric key bit length: 256
IV bit length:            128
Plaintext bit length:     136
Symmetric key:            0000000000000000000000000000000000000000000000000000000000000000
IV:                       00000000000000000000000000000000
Plaintext:                0000000000000000000000800000000000
Ciphertext:               396154111adefc500cf6e5c99038bc1793b05d70003a503bde74c0bc6ada42620cae546ff36fdf83c2fb66ce6d9971dfc181c6ca5e163743458b9167a0b6a16aa38f500f0561cd9d1a1b2b9754013296
Reciphers for ciphertext: 0
Decipheredtext:           0000000000000000000000800000000000
RESULT CIPHER-DECIPHER: -----OK-----


Test: 81
Crypto pad: 2
Symmetric key bit length: 256
IV bit length:            128
Plaintext bit length:     136
Symmetric key:            0000000000000000000000000000000000000000000000000000000000000000
IV:                       00000000000000000000000000000000
Plaintext:                0000000000000000000000400000000000
Ciphertext:               396154111adefc500cf6e5c99038bc1793b05d70003a503bde74c0bc6ada42620cae546ff36fdf83c2fb66ce6d9971df5171f4f6095e4b276cfba1f07223fbe611497ad68b6374a8e1f0ebd9b4df1329
Reciphers for ciphertext: 0
Decipheredtext:           0000000000000000000000400000000000
RESULT CIPHER-DECIPHER: -----OK-----


Test: 82
Crypto pad: 0
Symmetric key bit length: 256
IV bit length:            128
Plaintext bit length:     136
Symmetric key:            0000000000000000000000000000000000000000000000000000000000000000
IV:                       00000000000000000000000000000000
Plaintext:                0000000000000000000000200000000000
Ciphertext:               396154111adefc500cf6e5c99038bc1793b05d70003a503bde74c0bc6ada42627294bcf19e5446fb09989a0371b957d22732f4d3a8c9d1d8d493840d6e0b864f21289c6ae208d9828785f7ebb59b1044
Reciphers for ciphertext: 0
Decipheredtext:           0000000000000000000000200000000000
RESULT CIPHER-DECIPHER: -----OK-----


Test: 83
Crypto pad: 1
Symmetric key bit length: 256
IV bit length:            128
Plaintext bit length:     136
Symmetric key:            0000000000000000000000000000000000000000000000000000000000000000
IV:                       00000000000000000000000000000000
Plaintext:                0000000000000000000000100000000000
Ciphertext:               396154111adefc500cf6e5c99038bc1793b05d70003a503bde74c0bc6ada4262bc09de9f2be1b376af7d05bc2b328f833ef04e0059a061d973532ca5c1dfbe7bede2fcaf5d4901eeed50ae0d2a8c6c74
Reciphers for ciphertext: 0
Decipheredtext:           0000000000000000000000100000000000
RESULT CIPHER-DECIPHER: -----OK-----


Test: 84
Crypto pad: 2
Symmetric key bit length: 256
IV bit length:            128
Plaintext bit length:     136
Symmetric key:            0000000000000000000000000000000000000000000000000000000000000000
IV:                       00000000000000000000000000000000
Plaintext:                0000000000000000000000080000000000
Ciphertext:               396154111adefc500cf6e5c99038bc1793b05d70003a503bde74c0bc6ada42620cae546ff36fdf83c2fb66ce6d9971df6d9a8f23579e4978ebaa87b5adeb77e5c43947b77da356f9a6d4cd1c92b40358
Reciphers for ciphertext: 0
Decipheredtext:           0000000000000000000000080000000000
RESULT CIPHER-DECIPHER: -----OK-----


Test: 85
Crypto pad: 0
Symmetric key bit length: 256
IV bit length:            128
Plaintext bit length:     136
Symmetric key:            0000000000000000000000000000000000000000000000000000000000000000
IV:                       00000000000000000000000000000000
Plaintext:                0000000000000000000000040000000000
Ciphertext:               396154111adefc500cf6e5c99038bc1793b05d70003a503bde74c0bc6ada42627294bcf19e5446fb09989a0371b957d2bbd08873cc44ba4253c0c41feeb7f124dd7fec59340479274ad6a3418e16b835
Reciphers for ciphertext: 0
Decipheredtext:           0000000000000000000000040000000000
RESULT CIPHER-DECIPHER: -----OK-----


Test: 86
Crypto pad: 1
Symmetric key bit length: 256
IV bit length:            128
Plaintext bit length:     136
Symmetric key:            0000000000000000000000000000000000000000000000000000000000000000
IV:                       00000000000000000000000000000000
Plaintext:                0000000000000000000000020000000000
Ciphertext:               396154111adefc500cf6e5c99038bc1793b05d70003a503bde74c0bc6ada4262bc09de9f2be1b376af7d05bc2b328f8372e4b2437cbd283f3809ce686f6a591e721d04890843a3c929336d7e85c858da
Reciphers for ciphertext: 0
Decipheredtext:           0000000000000000000000020000000000
RESULT CIPHER-DECIPHER: -----OK-----


Test: 87
Crypto pad: 1
Symmetric key bit length: 256
IV bit length:            128
Plaintext bit length:     136
Symmetric key:            0000000000000000000000000000000000000000000000000000000000000000
IV:                       00000000000000000000000000000000
Plaintext:                0000000000000000000000010000000000
Ciphertext:               396154111adefc500cf6e5c99038bc1793b05d70003a503bde74c0bc6ada4262bc09de9f2be1b376af7d05bc2b328f836e5580514b92512b1bf4b1b987b9aa1bbee9f660d16cd8c5ad462e7ea02c39cc
Reciphers for ciphertext: 0
Decipheredtext:           0000000000000000000000010000000000
RESULT CIPHER-DECIPHER: -----OK-----


Test: 88
Crypto pad: 2
Symmetric key bit length: 256
IV bit length:            128
Plaintext bit length:     136
Symmetric key:            0000000000000000000000000000000000000000000000000000000000000000
IV:                       00000000000000000000000000000000
Plaintext:                0000000000000000000000008000000000
Ciphertext:               396154111adefc500cf6e5c99038bc1793b05d70003a503bde74c0bc6ada42620cae546ff36fdf83c2fb66ce6d9971df5ef5d0c5bcbdcb604d3a083b68ce0fa37de218fd75da8c49388bb23f5d8186bc
Reciphers for ciphertext: 0
Decipheredtext:           0000000000000000000000008000000000
RESULT CIPHER-DECIPHER: -----OK-----


Test: 89
Crypto pad: 0
Symmetric key bit length: 256
IV bit length:            128
Plaintext bit length:     136
Symmetric key:            0000000000000000000000000000000000000000000000000000000000000000
IV:                       00000000000000000000000000000000
Plaintext:                0000000000000000000000004000000000
Ciphertext:               396154111adefc500cf6e5c99038bc1793b05d70003a503bde74c0bc6ada42627294bcf19e5446fb09989a0371b957d29d991fdd723ad2182777a15ca0e0f6657edcda223e117d73f52d20ccad083351
Reciphers for ciphertext: 0
Decipheredtext:           0000000000000000000000004000000000
RESULT CIPHER-DECIPHER: -----OK-----


Test: 90
Crypto pad: 0
Symmetric key bit length: 256
IV bit length:            128
Plaintext bit length:     136
Symmetric key:            0000000000000000000000000000000000000000000000000000000000000000
IV:                       00000000000000000000000000000000
Plaintext:                0000000000000000000000002000000000
Ciphertext:               396154111adefc500cf6e5c99038bc1793b05d70003a503bde74c0bc6ada42627294bcf19e5446fb09989a0371b957d224440626efc8f86bea7de78085ab8a22941dd4d5fefd9e80364f0931835db298
Reciphers for ciphertext: 0
Decipheredtext:           0000000000000000000000002000000000
RESULT CIPHER-DECIPHER: -----OK-----


Test: 91
Crypto pad: 2
Symmetric key bit length: 256
IV bit length:            128
Plaintext bit length:     136
Symmetric key:            0000000000000000000000000000000000000000000000000000000000000000
IV:                       00000000000000000000000000000000
Plaintext:                0000000000000000000000001000000000
Ciphertext:               396154111adefc500cf6e5c99038bc1793b05d70003a503bde74c0bc6ada42620cae546ff36fdf83c2fb66ce6d9971df17c3630d62d13c1e826c0fccbd74a864239577a0802eee228b92fb57c51509ae
Reciphers for ciphertext: 0
Decipheredtext:           0000000000000000000000001000000000
RESULT CIPHER-DECIPHER: -----OK-----


Test: 92
Crypto pad: 1
Symmetric key bit length: 256
IV bit length:            128
Plaintext bit length:     136
Symmetric key:            0000000000000000000000000000000000000000000000000000000000000000
IV:                       00000000000000000000000000000000
Plaintext:                0000000000000000000000000800000000
Ciphertext:               396154111adefc500cf6e5c99038bc1793b05d70003a503bde74c0bc6ada4262bc09de9f2be1b376af7d05bc2b328f834cf5ab86a56ab134a7fe46cce3f9fce98c298e5504a310a0cabd358e817df671
Reciphers for ciphertext: 0
Decipheredtext:           0000000000000000000000000800000000
RESULT CIPHER-DECIPHER: -----OK-----


Test: 93
Crypto pad: 2
Symmetric key bit length: 256
IV bit length:            128
Plaintext bit length:     136
Symmetric key:            0000000000000000000000000000000000000000000000000000000000000000
IV:                       00000000000000000000000000000000
Plaintext:                0000000000000000000000000400000000
Ciphertext:               396154111adefc500cf6e5c99038bc1793b05d70003a503bde74c0bc6ada42620cae546ff36fdf83c2fb66ce6d9971df3e6b9c0388f6d9b8f458f3022190760795df7af600b9eb4f679a6043701de7eb
Reciphers for ciphertext: 0
Decipheredtext:           0000000000000000000000000400000000
RESULT CIPHER-DECIPHER: -----OK-----


Test: 94
Crypto pad: 2
Symmetric key bit length: 256
IV bit length:            128
Plaintext bit length:     136
Symmetric key:            0000000000000000000000000000000000000000000000000000000000000000
IV:                       00000000000000000000000000000000
Plaintext:                0000000000000000000000000200000000
Ciphertext:               396154111adefc500cf6e5c99038bc1793b05d70003a503bde74c0bc6ada42620cae546ff36fdf83c2fb66ce6d9971dfad9c926b8a5cd98eee88200617e599584ed1a27d7cb38e3c0be0f611ece6d8a6
Reciphers for ciphertext: 0
Decipheredtext:           0000000000000000000000000200000000
RESULT CIPHER-DECIPHER: -----OK-----


Test: 95
Crypto pad: 1
Symmetric key bit length: 256
IV bit length:            128
Plaintext bit length:     136
Symmetric key:            0000000000000000000000000000000000000000000000000000000000000000
IV:                       00000000000000000000000000000000
Plaintext:                0000000000000000000000000100000000
Ciphertext:               396154111adefc500cf6e5c99038bc1793b05d70003a503bde74c0bc6ada4262bc09de9f2be1b376af7d05bc2b328f83aff8aed5e075e02af720ca4bf0028b3ba6a35ab37245198c1637ec3b726b0bae
Reciphers for ciphertext: 0
Decipheredtext:           0000000000000000000000000100000000
RESULT CIPHER-DECIPHER: -----OK-----


Test: 96
Crypto pad: 1
Symmetric key bit length: 256
IV bit length:            128
Plaintext bit length:     136
Symmetric key:            0000000000000000000000000000000000000000000000000000000000000000
IV:                       00000000000000000000000000000000
Plaintext:                0000000000000000000000000080000000
Ciphertext:               396154111adefc500cf6e5c99038bc1793b05d70003a503bde74c0bc6ada4262bc09de9f2be1b376af7d05bc2b328f83d90eaff909202bb209bb3bb8c7f9a9543ffd31436d2af336d288ec8585c7e433
Reciphers for ciphertext: 0
Decipheredtext:           0000000000000000000000000080000000
RESULT CIPHER-DECIPHER: -----OK-----


Test: 97
Crypto pad: 2
Symmetric key bit length: 256
IV bit length:            128
Plaintext bit length:     136
Symmetric key:            0000000000000000000000000000000000000000000000000000000000000000
IV:                       00000000000000000000000000000000
Plaintext:                0000000000000000000000000040000000
Ciphertext:               396154111adefc500cf6e5c99038bc1793b05d70003a503bde74c0bc6ada42620cae546ff36fdf83c2fb66ce6d9971df2c709b00e6a22f00f64a7d8ee341853f79e211966b9a20fe66f5ea60d78bb0a6
Reciphers for ciphertext: 0
Decipheredtext:           0000000000000000000000000040000000
RESULT CIPHER-DECIPHER: -----OK-----


Test: 98
Crypto pad: 1
Symmetric key bit length: 256
IV bit length:            128
Plaintext bit length:     136
Symmetric key:            0000000000000000000000000000000000000000000000000000000000000000
IV:                       00000000000000000000000000000000
Plaintext:                0000000000000000000000000020000000
Ciphertext:               396154111adefc500cf6e5c99038bc1793b05d70003a503bde74c0bc6ada4262bc09de9f2be1b376af7d05bc2b328f83ccec598f0d9f0bf201b2f487136d54a43053df67d512e4358cd94408b2abc275
Reciphers for ciphertext: 0
Decipheredtext:           0000000000000000000000000020000000
RESULT CIPHER-DECIPHER: -----OK-----


Test: 99
Crypto pad: 2
Symmetric key bit length: 256
IV bit length:            128
Plaintext bit length:     136
Symmetric key:            0000000000000000000000000000000000000000000000000000000000000000
IV:                       00000000000000000000000000000000
Plaintext:                0000000000000000000000000010000000
Ciphertext:               396154111adefc500cf6e5c99038bc1793b05d70003a503bde74c0bc6ada42620cae546ff36fdf83c2fb66ce6d9971df73b2883a0a166aae1bf14e60a5195fa3487f053c024af7f0350739f4c7445426
Reciphers for ciphertext: 0
Decipheredtext:           0000000000000000000000000010000000
RESULT CIPHER-DECIPHER: -----OK-----


Test: 100
Crypto pad: 2
Symmetric key bit length: 256
IV bit length:            128
Plaintext bit length:     136
Symmetric key:            0000000000000000000000000000000000000000000000000000000000000000
IV:                       00000000000000000000000000000000
Plaintext:                0000000000000000000000000008000000
Ciphertext:               396154111adefc500cf6e5c99038bc1793b05d70003a503bde74c0bc6ada42620cae546ff36fdf83c2fb66ce6d9971dfe676867bd9ad5ef915143388496779d79aa199ef6e96bc4a3b2c8242fa38f12e
Reciphers for ciphertext: 0
Decipheredtext:           0000000000000000000000000008000000
RESULT CIPHER-DECIPHER: -----OK-----


Test: 101
Crypto pad: 2
Symmetric key bit length: 256
IV bit length:            128
Plaintext bit length:     136
Symmetric key:            0000000000000000000000000000000000000000000000000000000000000000
IV:                       00000000000000000000000000000000
Plaintext:                0000000000000000000000000004000000
Ciphertext:               396154111adefc500cf6e5c99038bc1793b05d70003a503bde74c0bc6ada42620cae546ff36fdf83c2fb66ce6d9971dfcdcb73d1bfcfd4be7f1daa9b1c6a40558d93538447ebf8d488bb20f83d8c0da9
Reciphers for ciphertext: 0
Decipheredtext:           0000000000000000000000000004000000
RESULT CIPHER-DECIPHER: -----OK-----


Test: 102
Crypto pad: 2
Symmetric key bit length: 256
IV bit length:            128
Plaintext bit length:     136
Symmetric key:            0000000000000000000000000000000000000000000000000000000000000000
IV:                       00000000000000000000000000000000
Plaintext:                0000000000000000000000000002000000
Ciphertext:               396154111adefc500cf6e5c99038bc1793b05d70003a503bde74c0bc6ada42620cae546ff36fdf83c2fb66ce6d9971df02a3a5c89daa24cd2c517f7a73286a89355d218922166ab004256d5b5bd6fa86
Reciphers for ciphertext: 0
Decipheredtext:           0000000000000000000000000002000000
RESULT CIPHER-DECIPHER: -----OK-----


Test: 103
Crypto pad: 0
Symmetric key bit length: 256
IV bit length:            128
Plaintext bit length:     136
Symmetric key:            0000000000000000000000000000000000000000000000000000000000000000
IV:                       00000000000000000000000000000000
Plaintext:                0000000000000000000000000001000000
Ciphertext:               396154111adefc500cf6e5c99038bc1793b05d70003a503bde74c0bc6ada42627294bcf19e5446fb09989a0371b957d2c0fa2ac9e92ee58c2dd12d6d43ab70357235a04e7461b7f430599c62d8357c74
Reciphers for ciphertext: 0
Decipheredtext:           0000000000000000000000000001000000
RESULT CIPHER-DECIPHER: -----OK-----


Test: 104
Crypto pad: 1
Symmetric key bit length: 256
IV bit length:            128
Plaintext bit length:     136
Symmetric key:            0000000000000000000000000000000000000000000000000000000000000000
IV:                       00000000000000000000000000000000
Plaintext:                0000000000000000000000000000800000
Ciphertext:               396154111adefc500cf6e5c99038bc1793b05d70003a503bde74c0bc6ada4262bc09de9f2be1b376af7d05bc2b328f83edc2cb1f7291353bdbf2385519e6ae165a594d6939713bec38363f1b5af8776b
Reciphers for ciphertext: 0
Decipheredtext:           0000000000000000000000000000800000
RESULT CIPHER-DECIPHER: -----OK-----


Test: 105
Crypto pad: 1
Symmetric key bit length: 256
IV bit length:            128
Plaintext bit length:     136
Symmetric key:            0000000000000000000000000000000000000000000000000000000000000000
IV:                       00000000000000000000000000000000
Plaintext:                0000000000000000000000000000400000
Ciphertext:               396154111adefc500cf6e5c99038bc1793b05d70003a503bde74c0bc6ada4262bc09de9f2be1b376af7d05bc2b328f83b4b62d16d197a98cd3b978812b9d98842832d217bbbb5c957206b1ed2776dc09
Reciphers for ciphertext: 0
Decipheredtext:           0000000000000000000000000000400000
RESULT CIPHER-DECIPHER: -----OK-----


Test: 106
Crypto pad: 2
Symmetric key bit length: 256
IV bit length:            128
Plaintext bit length:     136
Symmetric key:            0000000000000000000000000000000000000000000000000000000000000000
IV:                       00000000000000000000000000000000
Plaintext:                0000000000000000000000000000200000
Ciphertext:               396154111adefc500cf6e5c99038bc1793b05d70003a503bde74c0bc6ada42620cae546ff36fdf83c2fb66ce6d9971df5cdfc95a529a905101cea26bc1b891ed764d2d81752ecfdde23eb3f8b59a327b
Reciphers for ciphertext: 0
Decipheredtext:           0000000000000000000000000000200000
RESULT CIPHER-DECIPHER: -----OK-----


Test: 107
Crypto pad: 0
Symmetric key bit length: 256
IV bit length:            128
Plaintext bit length:     136
Symmetric key:            0000000000000000000000000000000000000000000000000000000000000000
IV:                       00000000000000000000000000000000
Plaintext:                0000000000000000000000000000100000
Ciphertext:               396154111adefc500cf6e5c99038bc1793b05d70003a503bde74c0bc6ada42627294bcf19e5446fb09989a0371b957d2cc7150cd3650b98363296c7c4ed368d118460fea51795d46c5374254c0937e79
Reciphers for ciphertext: 0
Decipheredtext:           0000000000000000000000000000100000
RESULT CIPHER-DECIPHER: -----OK-----


Test: 108
Crypto pad: 0
Symmetric key bit length: 256
IV bit length:            128
Plaintext bit length:     136
Symmetric key:            0000000000000000000000000000000000000000000000000000000000000000
IV:                       00000000000000000000000000000000
Plaintext:                0000000000000000000000000000080000
Ciphertext:               396154111adefc500cf6e5c99038bc1793b05d70003a503bde74c0bc6ada42627294bcf19e5446fb09989a0371b957d2cc57706b0c6526b8e25a5dbd32eacbdbdd9ecfe72513ed10716a39830cce43c4
Reciphers for ciphertext: 0
Decipheredtext:           0000000000000000000000000000080000
RESULT CIPHER-DECIPHER: -----OK-----


Test: 109
Crypto pad: 0
Symmetric key bit length: 256
IV bit length:            128
Plaintext bit length:     136
Symmetric key:            0000000000000000000000000000000000000000000000000000000000000000
IV:                       00000000000000000000000000000000
Plaintext:                0000000000000000000000000000040000
Ciphertext:               396154111adefc500cf6e5c99038bc1793b05d70003a503bde74c0bc6ada42627294bcf19e5446fb09989a0371b957d230d30456ad98b182d64c649648f6aec9f4b2e6bc94b887cb0a3a8c95ae8a12d5
Reciphers for ciphertext: 0
Decipheredtext:           0000000000000000000000000000040000
RESULT CIPHER-DECIPHER: -----OK-----


Test: 110
Crypto pad: 0
Symmetric key bit length: 256
IV bit length:            128
Plaintext bit length:     136
Symmetric key:            0000000000000000000000000000000000000000000000000000000000000000
IV:                       00000000000000000000000000000000
Plaintext:                0000000000000000000000000000020000
Ciphertext:               396154111adefc500cf6e5c99038bc1793b05d70003a503bde74c0bc6ada42627294bcf19e5446fb09989a0371b957d2d7e9da7f631938eb649a08af82fbd75fc8b85ad0c1e23b6fa4518e7c5f204614
Reciphers for ciphertext: 0
Decipheredtext:           0000000000000000000000000000020000
RESULT CIPHER-DECIPHER: -----OK-----


Test: 111
Crypto pad: 0
Symmetric key bit length: 256
IV bit length:            128
Plaintext bit length:     136
Symmetric key:            0000000000000000000000000000000000000000000000000000000000000000
IV:                       00000000000000000000000000000000
Plaintext:                0000000000000000000000000000010000
Ciphertext:               396154111adefc500cf6e5c99038bc1793b05d70003a503bde74c0bc6ada42627294bcf19e5446fb09989a0371b957d2b8da2af6600b07895b5d0ffaf49914697d9237c36b3abf790eead826c20d343a
Reciphers for ciphertext: 0
Decipheredtext:           0000000000000000000000000000010000
RESULT CIPHER-DECIPHER: -----OK-----


Test: 112
Crypto pad: 2
Symmetric key bit length: 256
IV bit length:            128
Plaintext bit length:     136
Symmetric key:            0000000000000000000000000000000000000000000000000000000000000000
IV:                       00000000000000000000000000000000
Plaintext:                0000000000000000000000000000008000
Ciphertext:               396154111adefc500cf6e5c99038bc1793b05d70003a503bde74c0bc6ada42620cae546ff36fdf83c2fb66ce6d9971df0f6f64f930ba6c178943322b981145998317d836d09530afa2c20c050275fd45
Reciphers for ciphertext: 0
Decipheredtext:           0000000000000000000000000000008000
RESULT CIPHER-DECIPHER: -----OK-----


Test: 113
Crypto pad: 1
Symmetric key bit length: 256
IV bit length:            128
Plaintext bit length:     136
Symmetric key:            0000000000000000000000000000000000000000000000000000000000000000
IV:                       00000000000000000000000000000000
Plaintext:                0000000000000000000000000000004000
Ciphertext:               396154111adefc500cf6e5c99038bc1793b05d70003a503bde74c0bc6ada4262bc09de9f2be1b376af7d05bc2b328f838b1f247802e47c91bee2aa34ecfd7a014e6fc48dd12288e76831faed0ee6e0cc
Reciphers for ciphertext: 0
Decipheredtext:           0000000000000000000000000000004000
RESULT CIPHER-DECIPHER: -----OK-----


Test: 114
Crypto pad: 1
Symmetric key bit length: 256
IV bit length:            128
Plaintext bit length:     136
Symmetric key:            0000000000000000000000000000000000000000000000000000000000000000
IV:                       00000000000000000000000000000000
Plaintext:                0000000000000000000000000000002000
Ciphertext:               396154111adefc500cf6e5c99038bc1793b05d70003a503bde74c0bc6ada4262bc09de9f2be1b376af7d05bc2b328f837a6985778d3a66e97f23e01f0d0e45e7ebbdfbf412e2c9c7f3fb87be714dc0ca
Reciphers for ciphertext: 0
Decipheredtext:           0000000000000000000000000000002000
RESULT CIPHER-DECIPHER: -----OK-----


Test: 115
Crypto pad: 1
Symmetric key bit length: 256
IV bit length:            128
Plaintext bit length:     136
Symmetric key:            0000000000000000000000000000000000000000000000000000000000000000
IV:                       00000000000000000000000000000000
Plaintext:                0000000000000000000000000000001000
Ciphertext:               396154111adefc500cf6e5c99038bc1793b05d70003a503bde74c0bc6ada4262bc09de9f2be1b376af7d05bc2b328f83ba664ac39855518dfdee10d1b3111faeca62b3ee54935d740c8cb62647262edf
Reciphers for ciphertext: 0
Decipheredtext:           0000000000000000000000000000001000
RESULT CIPHER-DECIPHER: -----OK-----


Test: 116
Crypto pad: 0
Symmetric key bit length: 256
IV bit length:            128
Plaintext bit length:     136
Symmetric key:            0000000000000000000000000000000000000000000000000000000000000000
IV:                       00000000000000000000000000000000
Plaintext:                0000000000000000000000000000000800
Ciphertext:               396154111adefc500cf6e5c99038bc1793b05d70003a503bde74c0bc6ada42627294bcf19e5446fb09989a0371b957d27c92854d801a1648f65ca81813ddbf833644eedfe87e05dc54954dca0ca6134d
Reciphers for ciphertext: 0
Decipheredtext:           0000000000000000000000000000000800
RESULT CIPHER-DECIPHER: -----OK-----


Test: 117
Crypto pad: 0
Symmetric key bit length: 256
IV bit length:            128
Plaintext bit length:     136
Symmetric key:            0000000000000000000000000000000000000000000000000000000000000000
IV:                       00000000000000000000000000000000
Plaintext:                0000000000000000000000000000000400
Ciphertext:               396154111adefc500cf6e5c99038bc1793b05d70003a503bde74c0bc6ada42627294bcf19e5446fb09989a0371b957d26a3f25aab7e92d9cf378e5d9c040f26b4a974240606578e9c09f846200bd03e0
Reciphers for ciphertext: 0
Decipheredtext:           0000000000000000000000000000000400
RESULT CIPHER-DECIPHER: -----OK-----


Test: 118
Crypto pad: 1
Symmetric key bit length: 256
IV bit length:            128
Plaintext bit length:     136
Symmetric key:            0000000000000000000000000000000000000000000000000000000000000000
IV:                       00000000000000000000000000000000
Plaintext:                0000000000000000000000000000000200
Ciphertext:               396154111adefc500cf6e5c99038bc1793b05d70003a503bde74c0bc6ada4262bc09de9f2be1b376af7d05bc2b328f833d4b2cde666761ba5dfb305178e667fb99c799238539d0a65914e6126d629d61
Reciphers for ciphertext: 0
Decipheredtext:           0000000000000000000000000000000200
RESULT CIPHER-DECIPHER: -----OK-----


Test: 119
Crypto pad: 0
Symmetric key bit length: 256
IV bit length:            128
Plaintext bit length:     136
Symmetric key:            0000000000000000000000000000000000000000000000000000000000000000
IV:                       00000000000000000000000000000000
Plaintext:                0000000000000000000000000000000100
Ciphertext:               396154111adefc500cf6e5c99038bc1793b05d70003a503bde74c0bc6ada42627294bcf19e5446fb09989a0371b957d29cdb269b5d293bc5db9c55b057d9b591783fe1c453494e789172861e2bbf4d5a
Reciphers for ciphertext: 0
Decipheredtext:           0000000000000000000000000000000100
RESULT CIPHER-DECIPHER: -----OK-----


Test: 120
Crypto pad: 2
Symmetric key bit length: 256
IV bit length:            128
Plaintext bit length:     136
Symmetric key:            0000000000000000000000000000000000000000000000000000000000000000
IV:                       00000000000000000000000000000000
Plaintext:                0000000000000000000000000000000080
Ciphertext:               396154111adefc500cf6e5c99038bc1793b05d70003a503bde74c0bc6ada42620cae546ff36fdf83c2fb66ce6d9971df396154111adefc500cf6e5c99038bc173a86b6023480f073871ef35c6f00d686
Reciphers for ciphertext: 0
Decipheredtext:           0000000000000000000000000000000080
RESULT CIPHER-DECIPHER: -----OK-----


Test: 121
Crypto pad: 0
Symmetric key bit length: 256
IV bit length:            128
Plaintext bit length:     136
Symmetric key:            0000000000000000000000000000000000000000000000000000000000000000
IV:                       00000000000000000000000000000000
Plaintext:                0000000000000000000000000000000040
Ciphertext:               396154111adefc500cf6e5c99038bc1793b05d70003a503bde74c0bc6ada42627294bcf19e5446fb09989a0371b957d2396154111adefc500cf6e5c99038bc17bbe0491e53ff582289b9a757cf2fac90
Reciphers for ciphertext: 0
Decipheredtext:           0000000000000000000000000000000040
RESULT CIPHER-DECIPHER: -----OK-----


Test: 122
Crypto pad: 1
Symmetric key bit length: 256
IV bit length:            128
Plaintext bit length:     136
Symmetric key:            0000000000000000000000000000000000000000000000000000000000000000
IV:                       00000000000000000000000000000000
Plaintext:                0000000000000000000000000000000020
Ciphertext:               396154111adefc500cf6e5c99038bc1793b05d70003a503bde74c0bc6ada4262bc09de9f2be1b376af7d05bc2b328f83396154111adefc500cf6e5c99038bc179408841d4f7bf36033e502f184f3a7a2
Reciphers for ciphertext: 0
Decipheredtext:           0000000000000000000000000000000020
RESULT CIPHER-DECIPHER: -----OK-----


Test: 123
Crypto pad: 2
Symmetric key bit length: 256
IV bit length:            128
Plaintext bit length:     136
Symmetric key:            0000000000000000000000000000000000000000000000000000000000000000
IV:                       00000000000000000000000000000000
Plaintext:                0000000000000000000000000000000010
Ciphertext:               396154111adefc500cf6e5c99038bc1793b05d70003a503bde74c0bc6ada42620cae546ff36fdf83c2fb66ce6d9971df396154111adefc500cf6e5c99038bc178c9bb3383051ba13a0332d0b30a9b737
Reciphers for ciphertext: 0
Decipheredtext:           0000000000000000000000000000000010
RESULT CIPHER-DECIPHER: -----OK-----


Test: 124
Crypto pad: 1
Symmetric key bit length: 256
IV bit length:            128
Plaintext bit length:     136
Symmetric key:            0000000000000000000000000000000000000000000000000000000000000000
IV:                       00000000000000000000000000000000
Plaintext:                0000000000000000000000000000000008
Ciphertext:               396154111adefc500cf6e5c99038bc1793b05d70003a503bde74c0bc6ada4262bc09de9f2be1b376af7d05bc2b328f83396154111adefc500cf6e5c99038bc17c65086c0c207373278d2f84e662d7b37
Reciphers for ciphertext: 0
Decipheredtext:           0000000000000000000000000000000008
RESULT CIPHER-DECIPHER: -----OK-----


Test: 125
Crypto pad: 1
Symmetric key bit length: 256
IV bit length:            128
Plaintext bit length:     136
Symmetric key:            0000000000000000000000000000000000000000000000000000000000000000
IV:                       00000000000000000000000000000000
Plaintext:                0000000000000000000000000000000004
Ciphertext:               396154111adefc500cf6e5c99038bc1793b05d70003a503bde74c0bc6ada4262bc09de9f2be1b376af7d05bc2b328f83396154111adefc500cf6e5c99038bc1742056c426af3f78651f18cf9877a34d7
Reciphers for ciphertext: 0
Decipheredtext:           0000000000000000000000000000000004
RESULT CIPHER-DECIPHER: -----OK-----


Test: 126
Crypto pad: 1
Symmetric key bit length: 256
IV bit length:            128
Plaintext bit length:     136
Symmetric key:            0000000000000000000000000000000000000000000000000000000000000000
IV:                       00000000000000000000000000000000
Plaintext:                0000000000000000000000000000000002
Ciphertext:               396154111adefc500cf6e5c99038bc1793b05d70003a503bde74c0bc6ada4262bc09de9f2be1b376af7d05bc2b328f83396154111adefc500cf6e5c99038bc17de3f5560268282fc7fbf2714f35e489b
Reciphers for ciphertext: 0
Decipheredtext:           0000000000000000000000000000000002
RESULT CIPHER-DECIPHER: -----OK-----


Test: 127
Crypto pad: 1
Symmetric key bit length: 256
IV bit length:            128
Plaintext bit length:     136
Symmetric key:            0000000000000000000000000000000000000000000000000000000000000000
IV:                       00000000000000000000000000000000
Plaintext:                0000000000000000000000000000000001
Ciphertext:               396154111adefc500cf6e5c99038bc1793b05d70003a503bde74c0bc6ada4262bc09de9f2be1b376af7d05bc2b328f83396154111adefc500cf6e5c99038bc175be43cc30c12ab2006e33ea53a2c8f98
Reciphers for ciphertext: 0
Decipheredtext:           0000000000000000000000000000000001
RESULT CIPHER-DECIPHER: -----OK-----


 DATA SHA1 (hexadecimal): 3127f6bb9d3253722ffbc8b7bc20374362a21bf5

