
DiceLock 9.0.0.1

 TEST COMPONENTS:
 ----------------
 DiceLock:           DiceLockIVIndexed class
 Operation Mode:     CBC_Mode class
 Crypto pads:        0 - ANSI_X_923 class
                     1 - ISO_IEC_9797_1 class
                     2 - PKCS7 class
 Block Cipher:       AES256 class
 Key Modifier:       IncreaseBase0IndexModifier_6_0_0_1 class
   Index bit length: 256
 Random tests:       RandomTestSuite class
                     FrequencyTest class
                     BlockFrequencyTest class
                     CumulativeSumForwardTest class
                     LongestRunOfOnesTest class
                     RunsTest class
 Random alpha:       0.001

 VECTOR TEST: Test vector 3 - Changing symmetric key, IV and plaintext, shifting 1 bit set


##### INDIVIDUAL TESTS #####

Number tests: 128


Test: 0
Crypto pad: 2
Symmetric key bit length: 256
IV bit length:            128
Plaintext bit length:     136
Symmetric key:            0000000000000000000000000000000080000000000000000000000000000000
IV:                       80000000000000000000000000000000
Plaintext:                0080000000000000000000000000000000
Ciphertext:               3c585664f231e4ff85809aa7f07bbe18eca731a9541450b2bddc76c4c2383a2db6de494ecebc0a5f46900cb377486f3123c1af6edd0fc6b789f7e3e6995ffbf8aaafe9a64f12499e12856a9456c0ad15
Reciphers for ciphertext: 0
Decipheredtext:           0080000000000000000000000000000000
RESULT CIPHER-DECIPHER: -----OK-----


Test: 1
Crypto pad: 1
Symmetric key bit length: 256
IV bit length:            128
Plaintext bit length:     136
Symmetric key:            0000000000000000000000000000000040000000000000000000000000000000
IV:                       40000000000000000000000000000000
Plaintext:                0040000000000000000000000000000000
Ciphertext:               1a65d37d66fa4d7e50ae7f9049d7eed3a0b7e72c40b2d257f1ca079a2114f6ad2a769ebce1073962a864a54656bb26cf36d2329ef77bb6b0278ff9d831e9ea629ca37e93ab05e9565b3aa9c76f3cd662
Reciphers for ciphertext: 0
Decipheredtext:           0040000000000000000000000000000000
RESULT CIPHER-DECIPHER: -----OK-----


Test: 2
Crypto pad: 1
Symmetric key bit length: 256
IV bit length:            128
Plaintext bit length:     136
Symmetric key:            0000000000000000000000000000000020000000000000000000000000000000
IV:                       20000000000000000000000000000000
Plaintext:                0020000000000000000000000000000000
Ciphertext:               4cd815eca5f68e44f3ef5a4a7b8c10268a75042d0075c9bb119a3e1ad7796a2e8b913aeedfc698485d2961cb9731ba818ff716d5a349ff4c6e8674d1ec2abdad709df0181996a5d74e0987c6c9302ae6
Reciphers for ciphertext: 0
Decipheredtext:           0020000000000000000000000000000000
RESULT CIPHER-DECIPHER: -----OK-----


Test: 3
Crypto pad: 1
Symmetric key bit length: 256
IV bit length:            128
Plaintext bit length:     136
Symmetric key:            0000000000000000000000000000000010000000000000000000000000000000
IV:                       10000000000000000000000000000000
Plaintext:                0010000000000000000000000000000000
Ciphertext:               10ab56b5219959deb1c2137055dcf3d680e3b3cfa21a1bb8c44269df5a499d394bdf3be88c70ddf85c3bdc96d8044b511c3f70e2481e2d404105206cf024fe87db371d834bbd17e03fd1f1845a8176c7
Reciphers for ciphertext: 0
Decipheredtext:           0010000000000000000000000000000000
RESULT CIPHER-DECIPHER: -----OK-----


Test: 4
Crypto pad: 2
Symmetric key bit length: 256
IV bit length:            128
Plaintext bit length:     136
Symmetric key:            0000000000000000000000000000000008000000000000000000000000000000
IV:                       08000000000000000000000000000000
Plaintext:                0008000000000000000000000000000000
Ciphertext:               fc54c21e38eebb6e9f4b3d3c673d06e15abe8dfded4eaa8ad17f96501ce5245cb2cc0c2e225f94ea292025349e4f1cd315f5f01b8d7dfe7d777b074761abf6b67428ea165c9f4c407bd080c906d731f4
Reciphers for ciphertext: 0
Decipheredtext:           0008000000000000000000000000000000
RESULT CIPHER-DECIPHER: -----OK-----


Test: 5
Crypto pad: 2
Symmetric key bit length: 256
IV bit length:            128
Plaintext bit length:     136
Symmetric key:            0000000000000000000000000000000004000000000000000000000000000000
IV:                       04000000000000000000000000000000
Plaintext:                0004000000000000000000000000000000
Ciphertext:               bd4f5b2544c25d3c459240cdb9fec1e6690690a8f96424092f9313297a0b5c511f1380210c6fdb0be60ece4f3c6fad76bde779d9c68b2a2877474180bac89fa161865cae55cdc5b21d6b6a2735042370
Reciphers for ciphertext: 0
Decipheredtext:           0004000000000000000000000000000000
RESULT CIPHER-DECIPHER: -----OK-----


Test: 6
Crypto pad: 0
Symmetric key bit length: 256
IV bit length:            128
Plaintext bit length:     136
Symmetric key:            0000000000000000000000000000000002000000000000000000000000000000
IV:                       02000000000000000000000000000000
Plaintext:                0002000000000000000000000000000000
Ciphertext:               925a5c0a31f51a38d290bb945c63b0574b39dace53e4904d98f0df21c7b5ac637784184d6255adf8c35fb9d8d9bdbf99c73c9a11bad3713c61d30e52d754bb8f64332dd6c75497f78ae685033ee71bec
Reciphers for ciphertext: 0
Decipheredtext:           0002000000000000000000000000000000
RESULT CIPHER-DECIPHER: -----OK-----


Test: 7
Crypto pad: 0
Symmetric key bit length: 256
IV bit length:            128
Plaintext bit length:     136
Symmetric key:            0000000000000000000000000000000001000000000000000000000000000000
IV:                       01000000000000000000000000000000
Plaintext:                0001000000000000000000000000000000
Ciphertext:               6ef50fdc35ed77a2691d029f0369f52ee117b03376ff79e6857f8f7761aea835f0ff294cdb1648640a68a6e321565b5a07117cb57712869abf86ed852aa6726081be6fe8e3818ab7cda5fe314db8f314
Reciphers for ciphertext: 0
Decipheredtext:           0001000000000000000000000000000000
RESULT CIPHER-DECIPHER: -----OK-----


Test: 8
Crypto pad: 2
Symmetric key bit length: 256
IV bit length:            128
Plaintext bit length:     136
Symmetric key:            0000000000000000000000000000000000800000000000000000000000000000
IV:                       00800000000000000000000000000000
Plaintext:                0000800000000000000000000000000000
Ciphertext:               4adb105f2b87e5bb211c8bab9860e092953bd19b97d17748d077eb040820d5ab7eb144661f7287a97ec93ad65b7747ad1cbb9678bc5eac5453abf9f7722b50d9ceb572a10b33f950575a144b8d27bce2
Reciphers for ciphertext: 0
Decipheredtext:           0000800000000000000000000000000000
RESULT CIPHER-DECIPHER: -----OK-----


Test: 9
Crypto pad: 0
Symmetric key bit length: 256
IV bit length:            128
Plaintext bit length:     136
Symmetric key:            0000000000000000000000000000000000400000000000000000000000000000
IV:                       00400000000000000000000000000000
Plaintext:                0000400000000000000000000000000000
Ciphertext:               e6857c36852264d8f51c583a57233ddb92ecc8f727c9a05024680e571dfb4ceb5fc09c4a616715e2faacacdc14b2f764bdafb89037cc7471d07fc1985719493af11761d205345d081ab72eec1423106d
Reciphers for ciphertext: 0
Decipheredtext:           0000400000000000000000000000000000
RESULT CIPHER-DECIPHER: -----OK-----


Test: 10
Crypto pad: 0
Symmetric key bit length: 256
IV bit length:            128
Plaintext bit length:     136
Symmetric key:            0000000000000000000000000000000000200000000000000000000000000000
IV:                       00200000000000000000000000000000
Plaintext:                0000200000000000000000000000000000
Ciphertext:               1cf63605564d012e75391cdff63277a43469a72fc467a657599d871e4f0802b0d8632e14a37b5eee83cc6001f654088fc53d7b6484cb4169e4e4519b1cd96224bfa83fdd1bdd35eecd4a0988db3482c0
Reciphers for ciphertext: 0
Decipheredtext:           0000200000000000000000000000000000
RESULT CIPHER-DECIPHER: -----OK-----


Test: 11
Crypto pad: 1
Symmetric key bit length: 256
IV bit length:            128
Plaintext bit length:     136
Symmetric key:            0000000000000000000000000000000000100000000000000000000000000000
IV:                       00100000000000000000000000000000
Plaintext:                0000100000000000000000000000000000
Ciphertext:               32befb509d5fda96a04f1bc9f0bb7bee18ace2fcc8b6a49f6ec30efcfd298ad1d31c2c825154191760bdf573573d87b50f91e1580646dc62db569d593bbf79ae03acbfc15403081655710f061097cb60
Reciphers for ciphertext: 0
Decipheredtext:           0000100000000000000000000000000000
RESULT CIPHER-DECIPHER: -----OK-----


Test: 12
Crypto pad: 2
Symmetric key bit length: 256
IV bit length:            128
Plaintext bit length:     136
Symmetric key:            0000000000000000000000000000000000080000000000000000000000000000
IV:                       00080000000000000000000000000000
Plaintext:                0000080000000000000000000000000000
Ciphertext:               a601234926fa40d5c003d027aed93d0172908338b9dafa001874c3ecb06fa60cbfdecc50dafa79c41b9cf0b0eca6609a436d28e7db7d5fee30ee9cb0779d4c0da0c77d4bce0d853cabd6e1895a4613cb
Reciphers for ciphertext: 0
Decipheredtext:           0000080000000000000000000000000000
RESULT CIPHER-DECIPHER: -----OK-----


Test: 13
Crypto pad: 0
Symmetric key bit length: 256
IV bit length:            128
Plaintext bit length:     136
Symmetric key:            0000000000000000000000000000000000040000000000000000000000000000
IV:                       00040000000000000000000000000000
Plaintext:                0000040000000000000000000000000000
Ciphertext:               fc985b02e12b7759f2d09560b571a04becfd3dba1572738929fc4f8ae5797fdf3e66232768ae29026f05667e9a3b2d177b9fb83eeabfa1abeefbbebfecbabe20530f557656b02a616b7b766b5f6c311b
Reciphers for ciphertext: 0
Decipheredtext:           0000040000000000000000000000000000
RESULT CIPHER-DECIPHER: -----OK-----


Test: 14
Crypto pad: 1
Symmetric key bit length: 256
IV bit length:            128
Plaintext bit length:     136
Symmetric key:            0000000000000000000000000000000000020000000000000000000000000000
IV:                       00020000000000000000000000000000
Plaintext:                0000020000000000000000000000000000
Ciphertext:               5b6a92e08d75a4a6d9f0c92b01bedbe3ff59638c4bd10c6e11a3fbf8de4d49fa10eeffa931f9844b2690f48c6e9cf4d4d9a561e80304bb3c3c44bbae8b6e4a624c8039472d4683af2e1e22ce61b37983
Reciphers for ciphertext: 0
Decipheredtext:           0000020000000000000000000000000000
RESULT CIPHER-DECIPHER: -----OK-----


Test: 15
Crypto pad: 1
Symmetric key bit length: 256
IV bit length:            128
Plaintext bit length:     136
Symmetric key:            0000000000000000000000000000000000010000000000000000000000000000
IV:                       00010000000000000000000000000000
Plaintext:                0000010000000000000000000000000000
Ciphertext:               c8c13db756617473d81bc467fc629d0fdb815e9f27edbe98533bd8619b8e38f4d96cf50f247e683d0fbe110657447690f05e444697f0f5142dfa832d46f4dd4bc8056a46f67526ea6c39150a532e7620
Reciphers for ciphertext: 0
Decipheredtext:           0000010000000000000000000000000000
RESULT CIPHER-DECIPHER: -----OK-----


Test: 16
Crypto pad: 2
Symmetric key bit length: 256
IV bit length:            128
Plaintext bit length:     136
Symmetric key:            0000000000000000000000000000000000008000000000000000000000000000
IV:                       00008000000000000000000000000000
Plaintext:                0000008000000000000000000000000000
Ciphertext:               18ad21f7ea13f2b127cca4bc948ecfdba80a1ca1c6f7540061b8113753a286b60fea53ee154a40effcf0de6d7ca20cab41f53a3b4a3b8f2ed4d4ddb13407066b87c0dcb814a32aec66727b691f47d7b8
Reciphers for ciphertext: 0
Decipheredtext:           0000008000000000000000000000000000
RESULT CIPHER-DECIPHER: -----OK-----


Test: 17
Crypto pad: 1
Symmetric key bit length: 256
IV bit length:            128
Plaintext bit length:     136
Symmetric key:            0000000000000000000000000000000000004000000000000000000000000000
IV:                       00004000000000000000000000000000
Plaintext:                0000004000000000000000000000000000
Ciphertext:               5ba9848a1719a737a3ffa09047ae81ffc1a84079ccabc4b275e8f41f435b31ee4fca2d174586239c969426a6fd9d8a0c3c2fd58fc92b04b49cfc0959d8534140c2eb63ab2b4be63def65558600c40901
Reciphers for ciphertext: 0
Decipheredtext:           0000004000000000000000000000000000
RESULT CIPHER-DECIPHER: -----OK-----


Test: 18
Crypto pad: 0
Symmetric key bit length: 256
IV bit length:            128
Plaintext bit length:     136
Symmetric key:            0000000000000000000000000000000000002000000000000000000000000000
IV:                       00002000000000000000000000000000
Plaintext:                0000002000000000000000000000000000
Ciphertext:               7b481f346529ae7800fa8450aae3f503e16c426a22f832d1d85d848355cfecb42abdf94cba6c3dce052915b0988ef5a6a1b3fecf1298668fc91a58c2fd9f9baad1b0945860f0326abf9747b2e5ea300d
Reciphers for ciphertext: 0
Decipheredtext:           0000002000000000000000000000000000
RESULT CIPHER-DECIPHER: -----OK-----


Test: 19
Crypto pad: 2
Symmetric key bit length: 256
IV bit length:            128
Plaintext bit length:     136
Symmetric key:            0000000000000000000000000000000000001000000000000000000000000000
IV:                       00001000000000000000000000000000
Plaintext:                0000001000000000000000000000000000
Ciphertext:               8c043cb3637c9e5643335efcc9200c228bd921148f721c786510013511b4469270fb49fb4b26d05d513402fb3478fd2142096c1eb0069a580ea28d7186b586267ed737d8b1bbff3d7dd5da8d23ea9c01
Reciphers for ciphertext: 0
Decipheredtext:           0000001000000000000000000000000000
RESULT CIPHER-DECIPHER: -----OK-----


Test: 20
Crypto pad: 1
Symmetric key bit length: 256
IV bit length:            128
Plaintext bit length:     136
Symmetric key:            0000000000000000000000000000000000000800000000000000000000000000
IV:                       00000800000000000000000000000000
Plaintext:                0000000800000000000000000000000000
Ciphertext:               39224483e92d1377f54f2d12d54567a463e5f54358bde3dd45fe801063ccb0000f9d8ca0dee986935ceabfd333b2761d40c9f51a73fe81668ed4fd9cbeddb837e41c99662e223a07ee79be4dec54144b
Reciphers for ciphertext: 0
Decipheredtext:           0000000800000000000000000000000000
RESULT CIPHER-DECIPHER: -----OK-----


Test: 21
Crypto pad: 1
Symmetric key bit length: 256
IV bit length:            128
Plaintext bit length:     136
Symmetric key:            0000000000000000000000000000000000000400000000000000000000000000
IV:                       00000400000000000000000000000000
Plaintext:                0000000400000000000000000000000000
Ciphertext:               f3451d6d34bcf3428c9096573e2b36b0477ebdb31364e5cdb6e8bf610db18c5a1013cee523053b0d6fbb92129bbc1870429f43ea1375bde0a092bed63e31daa00b620055e716c0e083eb3b89ef80c54d
Reciphers for ciphertext: 0
Decipheredtext:           0000000400000000000000000000000000
RESULT CIPHER-DECIPHER: -----OK-----


Test: 22
Crypto pad: 2
Symmetric key bit length: 256
IV bit length:            128
Plaintext bit length:     136
Symmetric key:            0000000000000000000000000000000000000200000000000000000000000000
IV:                       00000200000000000000000000000000
Plaintext:                0000000200000000000000000000000000
Ciphertext:               d19aefefeb8ab1942b218907b3c3d472ad43649d41fbe3d6a12cb2728d99e7b02984b28cbd3ebacc48a1e5af236f276405adfe4b599cf16494daff81017870e45bfb7eb93d1f3f91ff8742ccf54e5d74
Reciphers for ciphertext: 0
Decipheredtext:           0000000200000000000000000000000000
RESULT CIPHER-DECIPHER: -----OK-----


Test: 23
Crypto pad: 1
Symmetric key bit length: 256
IV bit length:            128
Plaintext bit length:     136
Symmetric key:            0000000000000000000000000000000000000100000000000000000000000000
IV:                       00000100000000000000000000000000
Plaintext:                0000000100000000000000000000000000
Ciphertext:               abce077485f1c3d57874f4dcc933c3729d425a9f8f0c0ca8c72dd6d329342d1d177cbb8650093817b2c556039eb8b8796b90a4c29e95c672206f4944e7f92ce9b30942f9c7759f6a845c8a53b2f7c843
Reciphers for ciphertext: 0
Decipheredtext:           0000000100000000000000000000000000
RESULT CIPHER-DECIPHER: -----OK-----


Test: 24
Crypto pad: 2
Symmetric key bit length: 256
IV bit length:            128
Plaintext bit length:     136
Symmetric key:            0000000000000000000000000000000000000080000000000000000000000000
IV:                       00000080000000000000000000000000
Plaintext:                0000000080000000000000000000000000
Ciphertext:               f013b4b0898400b6775a3119012ce19facef6cdd3c7d5ac01ea4db4c2863069662141cf3de4552807f9590b404b5f2a6d05b022b7935799735d1ad0c916bc16219476ff012e60f9e831859c6c6cfb321
Reciphers for ciphertext: 0
Decipheredtext:           0000000080000000000000000000000000
RESULT CIPHER-DECIPHER: -----OK-----


Test: 25
Crypto pad: 2
Symmetric key bit length: 256
IV bit length:            128
Plaintext bit length:     136
Symmetric key:            0000000000000000000000000000000000000040000000000000000000000000
IV:                       00000040000000000000000000000000
Plaintext:                0000000040000000000000000000000000
Ciphertext:               2e64eb869ab5570876ade8bd336b545fd8fb7190fdb9f636e4e58f63182c9e5be9b59636c85cf91a3454591131bbf34cb218833541c098c364e5fb2d259fc2380dae6be52272cb8404ef03b0667acfc7
Reciphers for ciphertext: 0
Decipheredtext:           0000000040000000000000000000000000
RESULT CIPHER-DECIPHER: -----OK-----


Test: 26
Crypto pad: 2
Symmetric key bit length: 256
IV bit length:            128
Plaintext bit length:     136
Symmetric key:            0000000000000000000000000000000000000020000000000000000000000000
IV:                       00000020000000000000000000000000
Plaintext:                0000000020000000000000000000000000
Ciphertext:               c287a7a38179bbfbe9b2bfb9ccc3daf1dc3bbd24631314996480364fc6129f4c63a4854c4300f93b9d9f097eee6f50d8111bf816b38aaebc4d518f4e0ab11b02318a34b555a1b02fa05300470905e615
Reciphers for ciphertext: 0
Decipheredtext:           0000000020000000000000000000000000
RESULT CIPHER-DECIPHER: -----OK-----


Test: 27
Crypto pad: 1
Symmetric key bit length: 256
IV bit length:            128
Plaintext bit length:     136
Symmetric key:            0000000000000000000000000000000000000010000000000000000000000000
IV:                       00000010000000000000000000000000
Plaintext:                0000000010000000000000000000000000
Ciphertext:               509bf3822977a458eb45a6d00b11c06da6b5da047af9c3b8dddd19c948f8a9ccb07496d58ca4806026f77689f38bbdaea0fafa3b45b73ca87f3ac721d89ddf394b6f4eca1126ced6bc5f9c52dbc869c4
Reciphers for ciphertext: 0
Decipheredtext:           0000000010000000000000000000000000
RESULT CIPHER-DECIPHER: -----OK-----


Test: 28
Crypto pad: 2
Symmetric key bit length: 256
IV bit length:            128
Plaintext bit length:     136
Symmetric key:            0000000000000000000000000000000000000008000000000000000000000000
IV:                       00000008000000000000000000000000
Plaintext:                0000000008000000000000000000000000
Ciphertext:               16964d10d2c37ff5814c55d83092dcafbf8d80c1b4852b5589dbd78852c4ac2e6dc44d5553c6b78e8f7c2d4de4c0644e22c460dcb18356591b84d55792b1de5d66c340c9c2980c2a3553a6c7d182ca7a
Reciphers for ciphertext: 0
Decipheredtext:           0000000008000000000000000000000000
RESULT CIPHER-DECIPHER: -----OK-----


Test: 29
Crypto pad: 2
Symmetric key bit length: 256
IV bit length:            128
Plaintext bit length:     136
Symmetric key:            0000000000000000000000000000000000000004000000000000000000000000
IV:                       00000004000000000000000000000000
Plaintext:                0000000004000000000000000000000000
Ciphertext:               88e51061336c4b8dd6fadee14e674028e946c224056cae2cdb0f4efb6b28b4ab8224bcbadc1b09ec66b9cb77c74a783f289c23d376d2ed80fbca3c1021805a11f4f2e9c88ff77533519e3d689bb13879
Reciphers for ciphertext: 0
Decipheredtext:           0000000004000000000000000000000000
RESULT CIPHER-DECIPHER: -----OK-----


Test: 30
Crypto pad: 1
Symmetric key bit length: 256
IV bit length:            128
Plaintext bit length:     136
Symmetric key:            0000000000000000000000000000000000000002000000000000000000000000
IV:                       00000002000000000000000000000000
Plaintext:                0000000002000000000000000000000000
Ciphertext:               54091bec540a4daeb0d16b4d3d73ca5173675ee4b4c784441b49830ac157c10282811994f11b2bf9fc78bbf903b5e196a66cf59ff534e92d84fb1160cf86c65cf55bbda7cc7d15bf673bb5b55cb58d59
Reciphers for ciphertext: 0
Decipheredtext:           0000000002000000000000000000000000
RESULT CIPHER-DECIPHER: -----OK-----


Test: 31
Crypto pad: 1
Symmetric key bit length: 256
IV bit length:            128
Plaintext bit length:     136
Symmetric key:            0000000000000000000000000000000000000001000000000000000000000000
IV:                       00000001000000000000000000000000
Plaintext:                0000000001000000000000000000000000
Ciphertext:               94b4b21a0dedc2b0733d6394ba91bda6dcd17c9add7ccdb4c67de2a3e6bd561852f97fe56161cee36ea83006196403ff0a4ddbf6ad3c4727bbc14b3297301d5483907128d23b980974638ead8769498c
Reciphers for ciphertext: 0
Decipheredtext:           0000000001000000000000000000000000
RESULT CIPHER-DECIPHER: -----OK-----


Test: 32
Crypto pad: 0
Symmetric key bit length: 256
IV bit length:            128
Plaintext bit length:     136
Symmetric key:            0000000000000000000000000000000000000000800000000000000000000000
IV:                       00000000800000000000000000000000
Plaintext:                0000000000800000000000000000000000
Ciphertext:               2043b52fe08bdb4d0225088a01c448fa532f39997ab9281a73d505f3537431e3dfe1b6d7579cb67bc1feaae455af7940aa3aab1f1139629684b91b51cb4abf47e18d7afba910f8471e0be18179506987
Reciphers for ciphertext: 0
Decipheredtext:           0000000000800000000000000000000000
RESULT CIPHER-DECIPHER: -----OK-----


Test: 33
Crypto pad: 0
Symmetric key bit length: 256
IV bit length:            128
Plaintext bit length:     136
Symmetric key:            0000000000000000000000000000000000000000400000000000000000000000
IV:                       00000000400000000000000000000000
Plaintext:                0000000000400000000000000000000000
Ciphertext:               e0d3ab614efaa11ce42be62827ae661bfc40a954bdd1a29c459e62eaf793bb9b3f2955d7889bdcb4cf2e706c213aa6488a91b070bd3be33bff298b8490338b28cadf289a15fd65d3e24f6176b10a7072
Reciphers for ciphertext: 0
Decipheredtext:           0000000000400000000000000000000000
RESULT CIPHER-DECIPHER: -----OK-----


Test: 34
Crypto pad: 0
Symmetric key bit length: 256
IV bit length:            128
Plaintext bit length:     136
Symmetric key:            0000000000000000000000000000000000000000200000000000000000000000
IV:                       00000000200000000000000000000000
Plaintext:                0000000000200000000000000000000000
Ciphertext:               9b76fde98fc35e1d8b1595871662e14527ebfd9b6aae1d10ea0e3b37b91470b1689f1cc2a9aca1f6d9412f54de6e6e7ca7c029dd886b76a2e469525eafa6e448118d4895a268b219e547cb78f6534447
Reciphers for ciphertext: 0
Decipheredtext:           0000000000200000000000000000000000
RESULT CIPHER-DECIPHER: -----OK-----


Test: 35
Crypto pad: 1
Symmetric key bit length: 256
IV bit length:            128
Plaintext bit length:     136
Symmetric key:            0000000000000000000000000000000000000000100000000000000000000000
IV:                       00000000100000000000000000000000
Plaintext:                0000000000100000000000000000000000
Ciphertext:               b31aad4f951478652edebd80ff193c1cbe7bf648d5952f681cdfa546107235a869c4099f0e2644086fa3afd19472aa93738fdeb40ccd3b89f25f7ba1b4a3fa77f9b2d75cf827ca04878891fee845d4f8
Reciphers for ciphertext: 0
Decipheredtext:           0000000000100000000000000000000000
RESULT CIPHER-DECIPHER: -----OK-----


Test: 36
Crypto pad: 0
Symmetric key bit length: 256
IV bit length:            128
Plaintext bit length:     136
Symmetric key:            0000000000000000000000000000000000000000080000000000000000000000
IV:                       00000000080000000000000000000000
Plaintext:                0000000000080000000000000000000000
Ciphertext:               d9146f7bd81278b9b57fdf2262b6a21ac86fc2c451183a3a46f808815d44ee0c3205bc88f330ac8a9e4a3a18d9066dfd444148d6fcd171bc66e41c265cb39a4816071629cb482441b5ab9004d184c28a
Reciphers for ciphertext: 0
Decipheredtext:           0000000000080000000000000000000000
RESULT CIPHER-DECIPHER: -----OK-----


Test: 37
Crypto pad: 0
Symmetric key bit length: 256
IV bit length:            128
Plaintext bit length:     136
Symmetric key:            0000000000000000000000000000000000000000040000000000000000000000
IV:                       00000000040000000000000000000000
Plaintext:                0000000000040000000000000000000000
Ciphertext:               e0c8d8b04bfb6bbe4da131b7cb6b55120eb13e4efeddaa1b8b9bb72418674835018bf8b08b411d8f779ccd22da87a3b985324b1495430cc760a9417a858dca5d3f94d291cf18162dc6630d9729c37b17
Reciphers for ciphertext: 0
Decipheredtext:           0000000000040000000000000000000000
RESULT CIPHER-DECIPHER: -----OK-----


Test: 38
Crypto pad: 1
Symmetric key bit length: 256
IV bit length:            128
Plaintext bit length:     136
Symmetric key:            0000000000000000000000000000000000000000020000000000000000000000
IV:                       00000000020000000000000000000000
Plaintext:                0000000000020000000000000000000000
Ciphertext:               f293aefc9eb66d9a5eb893920a0cf67e5416ae3f5b5eba579cbaa6c1a82e35e8c8f58cb4f3a7d754bfc7f3dd1a2571c517f5f4783f1097a58cdd2b20e5ee51b80f70bd66c36bb04fc366030545769cd1
Reciphers for ciphertext: 0
Decipheredtext:           0000000000020000000000000000000000
RESULT CIPHER-DECIPHER: -----OK-----


Test: 39
Crypto pad: 2
Symmetric key bit length: 256
IV bit length:            128
Plaintext bit length:     136
Symmetric key:            0000000000000000000000000000000000000000010000000000000000000000
IV:                       00000000010000000000000000000000
Plaintext:                0000000000010000000000000000000000
Ciphertext:               04e3dbc09241fed4b61020d5fa43be725d5d75e53b3ec02d15b099dd1299987cc431317f57a1df2ab727ce134c4fbb2d645077d50af60c38044ae71d88ee6a25cc125553255ab56ba451e9b7c091a1c2
Reciphers for ciphertext: 0
Decipheredtext:           0000000000010000000000000000000000
RESULT CIPHER-DECIPHER: -----OK-----


Test: 40
Crypto pad: 2
Symmetric key bit length: 256
IV bit length:            128
Plaintext bit length:     136
Symmetric key:            0000000000000000000000000000000000000000008000000000000000000000
IV:                       00000000008000000000000000000000
Plaintext:                0000000000008000000000000000000000
Ciphertext:               09a33af87c5e0ea7a4359b8b6d4f4a9cf34873ab1dce5aae376b34bc083dc2a4da02931e6c3ca3db2f6013f5bf0349559792a06e3055a8aebf6417748972be129c9290f3af6e311fd2556bdd97646992
Reciphers for ciphertext: 0
Decipheredtext:           0000000000008000000000000000000000
RESULT CIPHER-DECIPHER: -----OK-----


Test: 41
Crypto pad: 2
Symmetric key bit length: 256
IV bit length:            128
Plaintext bit length:     136
Symmetric key:            0000000000000000000000000000000000000000004000000000000000000000
IV:                       00000000004000000000000000000000
Plaintext:                0000000000004000000000000000000000
Ciphertext:               00efaa5ce429f01c256374dba4baa9a6aa11db72b253d8b82ab1645e078444a918dd06446cc5c912f93d96f97b519b63fac872cb5aade8477c2f495a3cf435434f054dee4875d49130c186b35664a297
Reciphers for ciphertext: 0
Decipheredtext:           0000000000004000000000000000000000
RESULT CIPHER-DECIPHER: -----OK-----


Test: 42
Crypto pad: 1
Symmetric key bit length: 256
IV bit length:            128
Plaintext bit length:     136
Symmetric key:            0000000000000000000000000000000000000000002000000000000000000000
IV:                       00000000002000000000000000000000
Plaintext:                0000000000002000000000000000000000
Ciphertext:               e4246d3bff09eb61728ec3a8b45f1bbbff42dedd656721bfec567c5df2fc6a107dc71cef2c3fb6445ac4f009f8f580f51ed6972c9adfdceaf0cd44b85b9ba7fe56f50f134339b6255c8389f23cc0fdc7
Reciphers for ciphertext: 0
Decipheredtext:           0000000000002000000000000000000000
RESULT CIPHER-DECIPHER: -----OK-----


Test: 43
Crypto pad: 0
Symmetric key bit length: 256
IV bit length:            128
Plaintext bit length:     136
Symmetric key:            0000000000000000000000000000000000000000001000000000000000000000
IV:                       00000000001000000000000000000000
Plaintext:                0000000000001000000000000000000000
Ciphertext:               2282196ab3156429b263dde56fcc96aeab09a51e8f70941d4c65424d5f436fec4e85aeacca22671e48b1cbd35f94592d160ecf990f70e24e20679f5d92067dd64d7b2223630772a2d719ca71a4094ad7
Reciphers for ciphertext: 0
Decipheredtext:           0000000000001000000000000000000000
RESULT CIPHER-DECIPHER: -----OK-----


Test: 44
Crypto pad: 0
Symmetric key bit length: 256
IV bit length:            128
Plaintext bit length:     136
Symmetric key:            0000000000000000000000000000000000000000000800000000000000000000
IV:                       00000000000800000000000000000000
Plaintext:                0000000000000800000000000000000000
Ciphertext:               8a95b00db77e9037a2aac3ae3771af62e29e155968447283d7ef3d407c82f32e9a54d3fb06338c2daed6360a51521a5fccaead39e40c5ed8ca8abf15ce1e186e9efaa2bf848973bf95da5889895c7b51
Reciphers for ciphertext: 0
Decipheredtext:           0000000000000800000000000000000000
RESULT CIPHER-DECIPHER: -----OK-----


Test: 45
Crypto pad: 0
Symmetric key bit length: 256
IV bit length:            128
Plaintext bit length:     136
Symmetric key:            0000000000000000000000000000000000000000000400000000000000000000
IV:                       00000000000400000000000000000000
Plaintext:                0000000000000400000000000000000000
Ciphertext:               2eebd881c7aedf0b141263aced4412394d65b4b0e3c0485957b2f2a963c50ff3d77bfde88d9213830fcba1c6b962ac2eb4e7c419192035d2a27b712ff635b4f1d7b6c167edacc518c0ca3e57f72eaf55
Reciphers for ciphertext: 0
Decipheredtext:           0000000000000400000000000000000000
RESULT CIPHER-DECIPHER: -----OK-----


Test: 46
Crypto pad: 0
Symmetric key bit length: 256
IV bit length:            128
Plaintext bit length:     136
Symmetric key:            0000000000000000000000000000000000000000000200000000000000000000
IV:                       00000000000200000000000000000000
Plaintext:                0000000000000200000000000000000000
Ciphertext:               f2f138195fb84c3298c0031ef62463998e419da726e56ffb0c227193f7d2b9ef7892344000a9d9e88b8a3023f53dd1860f3c8bc618f9e3ed5afcdb5cfb593b62370431ce072e8c1bc6582dcf0056f69e
Reciphers for ciphertext: 0
Decipheredtext:           0000000000000200000000000000000000
RESULT CIPHER-DECIPHER: -----OK-----


Test: 47
Crypto pad: 1
Symmetric key bit length: 256
IV bit length:            128
Plaintext bit length:     136
Symmetric key:            0000000000000000000000000000000000000000000100000000000000000000
IV:                       00000000000100000000000000000000
Plaintext:                0000000000000100000000000000000000
Ciphertext:               df0995b1f3986d88342bc443e099c88cf63b214a2f6939766195e61f4e15e3ab832071ad7e64fb3c2a7a5599ab032d53626d057e4baf510263f1293d15c59f06586c8360c0606f972fbb50291d269642
Reciphers for ciphertext: 0
Decipheredtext:           0000000000000100000000000000000000
RESULT CIPHER-DECIPHER: -----OK-----


Test: 48
Crypto pad: 0
Symmetric key bit length: 256
IV bit length:            128
Plaintext bit length:     136
Symmetric key:            0000000000000000000000000000000000000000000080000000000000000000
IV:                       00000000000080000000000000000000
Plaintext:                0000000000000080000000000000000000
Ciphertext:               e9fc5be8fa8373af5309d0f27523c5785769a0bec42526e0b63d1be2e5910f61a07217509347304790aafa60270788c2e14ae1283810fb627d730b9425d41939a224b71fcb390822b2f24b817ac25fb4
Reciphers for ciphertext: 0
Decipheredtext:           0000000000000080000000000000000000
RESULT CIPHER-DECIPHER: -----OK-----


Test: 49
Crypto pad: 1
Symmetric key bit length: 256
IV bit length:            128
Plaintext bit length:     136
Symmetric key:            0000000000000000000000000000000000000000000040000000000000000000
IV:                       00000000000040000000000000000000
Plaintext:                0000000000000040000000000000000000
Ciphertext:               3143911ffef507e749302da07e9d8d9a41472a9a3d119b354a6cc1bc09d6ede8f9b628455445c8880e2a4d9218419ce8e8371c01a1ddf5910ebb12a8c0f7da6cf093e6525455df7181cef17ecd2dfd46
Reciphers for ciphertext: 0
Decipheredtext:           0000000000000040000000000000000000
RESULT CIPHER-DECIPHER: -----OK-----


Test: 50
Crypto pad: 0
Symmetric key bit length: 256
IV bit length:            128
Plaintext bit length:     136
Symmetric key:            0000000000000000000000000000000000000000000020000000000000000000
IV:                       00000000000020000000000000000000
Plaintext:                0000000000000020000000000000000000
Ciphertext:               62a417620230e0b9bd3afc433e32cb96d5feb8ec319675d8758cce22008fd3078ed89045846d87cbaab01daaeef5bc3384ec7e144743b4c1a510ecc1801e4e6b7e73d47eb665ea6ece29814fa3d1cb5e
Reciphers for ciphertext: 0
Decipheredtext:           0000000000000020000000000000000000
RESULT CIPHER-DECIPHER: -----OK-----


Test: 51
Crypto pad: 0
Symmetric key bit length: 256
IV bit length:            128
Plaintext bit length:     136
Symmetric key:            0000000000000000000000000000000000000000000010000000000000000000
IV:                       00000000000010000000000000000000
Plaintext:                0000000000000010000000000000000000
Ciphertext:               be68d2d0b1d5ef70dcf1e73fa065d5b47ff980f57a2a743f2a9a49d8ac4f35a0aba00aa6f07e4469998c8ec1f95097a419967d57bf5b06a6c0721a87b48ef906b0439cdec854c2cf0edcd36986c29068
Reciphers for ciphertext: 0
Decipheredtext:           0000000000000010000000000000000000
RESULT CIPHER-DECIPHER: -----OK-----


Test: 52
Crypto pad: 1
Symmetric key bit length: 256
IV bit length:            128
Plaintext bit length:     136
Symmetric key:            0000000000000000000000000000000000000000000008000000000000000000
IV:                       00000000000008000000000000000000
Plaintext:                0000000000000008000000000000000000
Ciphertext:               03432fa74071bc285940fc869cfd7d6cf912fead1ea06973bb9c907d587d4af762b6838dc1ea946389a84d6201800df2621d32e0dc58bc015f7e63498898718ecb59f2a00aab436b5532ce4517baeec7
Reciphers for ciphertext: 0
Decipheredtext:           0000000000000008000000000000000000
RESULT CIPHER-DECIPHER: -----OK-----


Test: 53
Crypto pad: 1
Symmetric key bit length: 256
IV bit length:            128
Plaintext bit length:     136
Symmetric key:            0000000000000000000000000000000000000000000004000000000000000000
IV:                       00000000000004000000000000000000
Plaintext:                0000000000000004000000000000000000
Ciphertext:               cf9ce3d144e46d3ce70eb5a333a43df7349ce96e0b55508a656dfebcff7415192214aa947376cf33a8fa2e46ab31566ce2a589ddb3333081d609270ef37af01a74b31cc7f3632ab1739c45c7d248d1a3
Reciphers for ciphertext: 0
Decipheredtext:           0000000000000004000000000000000000
RESULT CIPHER-DECIPHER: -----OK-----


Test: 54
Crypto pad: 0
Symmetric key bit length: 256
IV bit length:            128
Plaintext bit length:     136
Symmetric key:            0000000000000000000000000000000000000000000002000000000000000000
IV:                       00000000000002000000000000000000
Plaintext:                0000000000000002000000000000000000
Ciphertext:               80a50b71eb1dfa7311b760d6c0d09bb60b9d0ab36d3f331d8516e46a7b68cf772a24c7f7003981bf6d54b81d1044abc8049069a318763f3035b5b5f316b3eb6a300c3ed62f9dc52398fca1d872564d70
Reciphers for ciphertext: 0
Decipheredtext:           0000000000000002000000000000000000
RESULT CIPHER-DECIPHER: -----OK-----


Test: 55
Crypto pad: 2
Symmetric key bit length: 256
IV bit length:            128
Plaintext bit length:     136
Symmetric key:            0000000000000000000000000000000000000000000001000000000000000000
IV:                       00000000000001000000000000000000
Plaintext:                0000000000000001000000000000000000
Ciphertext:               a2e01bf5ea4ec242f3915660c11ae20922dbd65544950f598cdd46a7233eac8fe08f5c581f67132141cc8197452f433009587e7815108f7e685ae82ae6d5e695899aa9c2b6e77cde9d6350a4288869f8
Reciphers for ciphertext: 0
Decipheredtext:           0000000000000001000000000000000000
RESULT CIPHER-DECIPHER: -----OK-----


Test: 56
Crypto pad: 1
Symmetric key bit length: 256
IV bit length:            128
Plaintext bit length:     136
Symmetric key:            0000000000000000000000000000000000000000000000800000000000000000
IV:                       00000000000000800000000000000000
Plaintext:                0000000000000000800000000000000000
Ciphertext:               c53b3e090f5bb9ba8790f149ad0543ac7dfb2ee94bc3c7ada2871f25c361b73d282fa6a87c8ff5661f75e2c9d1c3c3eafe87a5bc7c1e2e575dd09155fd0c0acac4ceadf5422a3e8c8b7d2d2c06e52c55
Reciphers for ciphertext: 0
Decipheredtext:           0000000000000000800000000000000000
RESULT CIPHER-DECIPHER: -----OK-----


Test: 57
Crypto pad: 0
Symmetric key bit length: 256
IV bit length:            128
Plaintext bit length:     136
Symmetric key:            0000000000000000000000000000000000000000000000400000000000000000
IV:                       00000000000000400000000000000000
Plaintext:                0000000000000000400000000000000000
Ciphertext:               9d12ee19dc5f41b6450b94437489186a295b80851977ad176d09f7a40eb598b4c9817893c21ae79cb55c4c076ed5683d12ec95590d43059d8ab8864121fabae50ee2b38bdd4ee764139c3e51633e5473
Reciphers for ciphertext: 0
Decipheredtext:           0000000000000000400000000000000000
RESULT CIPHER-DECIPHER: -----OK-----


Test: 58
Crypto pad: 1
Symmetric key bit length: 256
IV bit length:            128
Plaintext bit length:     136
Symmetric key:            0000000000000000000000000000000000000000000000200000000000000000
IV:                       00000000000000200000000000000000
Plaintext:                0000000000000000200000000000000000
Ciphertext:               2f46e03e86e4a5d995c5503c4b22e9f1d837330593aa62e27ae1bb43e2489d7c2330af295e574ebb6b6ec9664209029a96b9970c50cf1095cf8a2d1c36edbf64e057825b4ca669fa5a29934346b4570a
Reciphers for ciphertext: 0
Decipheredtext:           0000000000000000200000000000000000
RESULT CIPHER-DECIPHER: -----OK-----


Test: 59
Crypto pad: 1
Symmetric key bit length: 256
IV bit length:            128
Plaintext bit length:     136
Symmetric key:            0000000000000000000000000000000000000000000000100000000000000000
IV:                       00000000000000100000000000000000
Plaintext:                0000000000000000100000000000000000
Ciphertext:               d010137467c2e56888fc9ce1f39dc9fe37a0bebc47aa805af96ed88b68487d652c0e30d2ce772578b896159a86d9f51ced739466abb7493f68a69a6e75bcbc1761cbc35f9708459ea497cea5e4fc14e8
Reciphers for ciphertext: 0
Decipheredtext:           0000000000000000100000000000000000
RESULT CIPHER-DECIPHER: -----OK-----


Test: 60
Crypto pad: 2
Symmetric key bit length: 256
IV bit length:            128
Plaintext bit length:     136
Symmetric key:            0000000000000000000000000000000000000000000000080000000000000000
IV:                       00000000000000080000000000000000
Plaintext:                0000000000000000080000000000000000
Ciphertext:               cd386ed72efca6e6e16f7d9b75ea1f81fd028a8a019327603195c4953bbf0d3ba2e1a747275c271a42d4d61c765f2d4021c276353dab90ec031db515e76a43ef08401f5c9fad9d65edf3adc0c205ad1d
Reciphers for ciphertext: 0
Decipheredtext:           0000000000000000080000000000000000
RESULT CIPHER-DECIPHER: -----OK-----


Test: 61
Crypto pad: 0
Symmetric key bit length: 256
IV bit length:            128
Plaintext bit length:     136
Symmetric key:            0000000000000000000000000000000000000000000000040000000000000000
IV:                       00000000000000040000000000000000
Plaintext:                0000000000000000040000000000000000
Ciphertext:               259d170dc978269c75f4f8c0b66a67e79d911243f1003cd33354f704576f2128a5f4c7d43bd1b4c4c5a98c0d0c323096fac8226d7476ae62fd4fa0549b60fa96b387a5acc2a8b28a994df614a0e645e6
Reciphers for ciphertext: 0
Decipheredtext:           0000000000000000040000000000000000
RESULT CIPHER-DECIPHER: -----OK-----


Test: 62
Crypto pad: 1
Symmetric key bit length: 256
IV bit length:            128
Plaintext bit length:     136
Symmetric key:            0000000000000000000000000000000000000000000000020000000000000000
IV:                       00000000000000020000000000000000
Plaintext:                0000000000000000020000000000000000
Ciphertext:               54764a44f28e2625fb7aa08ce3170c9ec0aa0541f39d9a599fc949d1b2e6ea9d5f3e6e68debfdc1b520aebb4df9fbcd96779f35b78801e50e4f12b9013f7365c7a5465efa22cb3b4a53561fe8aea341e
Reciphers for ciphertext: 0
Decipheredtext:           0000000000000000020000000000000000
RESULT CIPHER-DECIPHER: -----OK-----


Test: 63
Crypto pad: 0
Symmetric key bit length: 256
IV bit length:            128
Plaintext bit length:     136
Symmetric key:            0000000000000000000000000000000000000000000000010000000000000000
IV:                       00000000000000010000000000000000
Plaintext:                0000000000000000010000000000000000
Ciphertext:               fafb6349ae7eef90076dc5280abec37bf1a91dccabfbf391c34706d44a40cf7ee4ca91f3159b88ada46bcc2ee32e5f918d2890f0ec03107f20473406ef110f019e59fd5b59bdd89cc0def6adb823baaf
Reciphers for ciphertext: 0
Decipheredtext:           0000000000000000010000000000000000
RESULT CIPHER-DECIPHER: -----OK-----


Test: 64
Crypto pad: 2
Symmetric key bit length: 256
IV bit length:            128
Plaintext bit length:     136
Symmetric key:            0000000000000000000000000000000000000000000000008000000000000000
IV:                       00000000000000008000000000000000
Plaintext:                0000000000000000008000000000000000
Ciphertext:               c5a6cf86415dcd2a82564990010b25c5aa2969b4966b2bcc5bcf3442f3d0342dc82ed0ab09e63c0eeb540c48e699ed4ffdaffe80d0464ac21ece62e356b1934f2a46800d17b4554b2f4f6c44cc623343
Reciphers for ciphertext: 0
Decipheredtext:           0000000000000000008000000000000000
RESULT CIPHER-DECIPHER: -----OK-----


Test: 65
Crypto pad: 2
Symmetric key bit length: 256
IV bit length:            128
Plaintext bit length:     136
Symmetric key:            0000000000000000000000000000000000000000000000004000000000000000
IV:                       00000000000000004000000000000000
Plaintext:                0000000000000000004000000000000000
Ciphertext:               b4d7b4406626a8f0fabd00660d3e05aa9517c19c676d972860add898701fa5934a3d319aaef96d24b03ba0a534cd85f57d3c44bb1b37b7c7340e885fad81ff30b630546328560069277a5e8615f213c1
Reciphers for ciphertext: 0
Decipheredtext:           0000000000000000004000000000000000
RESULT CIPHER-DECIPHER: -----OK-----


Test: 66
Crypto pad: 0
Symmetric key bit length: 256
IV bit length:            128
Plaintext bit length:     136
Symmetric key:            0000000000000000000000000000000000000000000000002000000000000000
IV:                       00000000000000002000000000000000
Plaintext:                0000000000000000002000000000000000
Ciphertext:               b502f793ef1488255a980bc1dc3c24d7bf30b6381db6d3c45d6f05af63212fd7dc3745a71733044e20f3d9f47a6b3775c43247b78fa5ce6191eebfd6f15498135564f019a744a4c6070887f1556c06d5
Reciphers for ciphertext: 0
Decipheredtext:           0000000000000000002000000000000000
RESULT CIPHER-DECIPHER: -----OK-----


Test: 67
Crypto pad: 1
Symmetric key bit length: 256
IV bit length:            128
Plaintext bit length:     136
Symmetric key:            0000000000000000000000000000000000000000000000001000000000000000
IV:                       00000000000000001000000000000000
Plaintext:                0000000000000000001000000000000000
Ciphertext:               d74f718275e496936e18802bbdf2c9695fd2c846627d31356fa7874f448f52b55db1b6e5aeb4fc93d9991a1ba0b3985a4c962bae39e12ba8287c9f794803446cde691318fea5ae6c923756ebfa6ec4dd
Reciphers for ciphertext: 1
Decipheredtext:           0000000000000000001000000000000000
RESULT CIPHER-DECIPHER: -----OK-----


Test: 68
Crypto pad: 2
Symmetric key bit length: 256
IV bit length:            128
Plaintext bit length:     136
Symmetric key:            0000000000000000000000000000000000000000000000000800000000000000
IV:                       00000000000000000800000000000000
Plaintext:                0000000000000000000800000000000000
Ciphertext:               ac557e60722ffcdf29ee5fddf35ee0a6e6d0cf41ffc8ec4e6397a8dd40b7fa32887361007cee1aa5ddfbaafea375a757afb78eb867b46ba4067481eb249acc436f7c8f1c0200326f5a624cac8d0c24dd
Reciphers for ciphertext: 0
Decipheredtext:           0000000000000000000800000000000000
RESULT CIPHER-DECIPHER: -----OK-----


Test: 69
Crypto pad: 1
Symmetric key bit length: 256
IV bit length:            128
Plaintext bit length:     136
Symmetric key:            0000000000000000000000000000000000000000000000000400000000000000
IV:                       00000000000000000400000000000000
Plaintext:                0000000000000000000400000000000000
Ciphertext:               24ef739127eb5e6406835ae4c6a59f8745718266aac231cc6ea587a0dfde92d5ee7dcbfe6e36d228daae63b1b40eeed00b433566de3d3f76563add39d95cefff6dc9dfe3eeb912378bcd1a3b8a8ac9d9
Reciphers for ciphertext: 0
Decipheredtext:           0000000000000000000400000000000000
RESULT CIPHER-DECIPHER: -----OK-----


Test: 70
Crypto pad: 2
Symmetric key bit length: 256
IV bit length:            128
Plaintext bit length:     136
Symmetric key:            0000000000000000000000000000000000000000000000000200000000000000
IV:                       00000000000000000200000000000000
Plaintext:                0000000000000000000200000000000000
Ciphertext:               71a502159b00f939d692f8c291af58b2817ced47920baf7c919007f0ad07662ebf886c7269beafed0f6a59a1b186a59e2b6a1139cbc267360e6ebff9326e04c7ba6402f7b6c419dc3637a6083e90db22
Reciphers for ciphertext: 0
Decipheredtext:           0000000000000000000200000000000000
RESULT CIPHER-DECIPHER: -----OK-----


Test: 71
Crypto pad: 0
Symmetric key bit length: 256
IV bit length:            128
Plaintext bit length:     136
Symmetric key:            0000000000000000000000000000000000000000000000000100000000000000
IV:                       00000000000000000100000000000000
Plaintext:                0000000000000000000100000000000000
Ciphertext:               01054cffa511e4183c345f32e205c2fa202be5ce7118a951242ace8c55672429f2a0de51ef94c6e03b9056cb20bb13142c65e9a256aec628dbddad6f9224a3dd0d2843ed7cb92b95b6dcc3593c12ed18
Reciphers for ciphertext: 0
Decipheredtext:           0000000000000000000100000000000000
RESULT CIPHER-DECIPHER: -----OK-----


Test: 72
Crypto pad: 2
Symmetric key bit length: 256
IV bit length:            128
Plaintext bit length:     136
Symmetric key:            0000000000000000000000000000000000000000000000000080000000000000
IV:                       00000000000000000080000000000000
Plaintext:                0000000000000000000080000000000000
Ciphertext:               a04ce9b3bc4ac981561c2a977f0d3dedef4c79cbb106c6b520a1cf5f139bbeeb07792efc13a35144ed50e16003eb6b30dc1de3d9b328de2127150e152b17c177d42c95cefc63298e0d91080000bd6a22
Reciphers for ciphertext: 0
Decipheredtext:           0000000000000000000080000000000000
RESULT CIPHER-DECIPHER: -----OK-----


Test: 73
Crypto pad: 2
Symmetric key bit length: 256
IV bit length:            128
Plaintext bit length:     136
Symmetric key:            0000000000000000000000000000000000000000000000000040000000000000
IV:                       00000000000000000040000000000000
Plaintext:                0000000000000000000040000000000000
Ciphertext:               c5c25be211a2a67296a6955b0f80d689b2a03a532adbbd4c09fb6ea825d67df0835389ad2afc9a72db25aa1db2c6ba618f593d552a3bb10f05a2de7d8e76f6706210434c0eca182c3a09923c56c23fcf
Reciphers for ciphertext: 0
Decipheredtext:           0000000000000000000040000000000000
RESULT CIPHER-DECIPHER: -----OK-----


Test: 74
Crypto pad: 0
Symmetric key bit length: 256
IV bit length:            128
Plaintext bit length:     136
Symmetric key:            0000000000000000000000000000000000000000000000000020000000000000
IV:                       00000000000000000020000000000000
Plaintext:                0000000000000000000020000000000000
Ciphertext:               2c4cdfdc59c04ed723221f8523ccc7b8c60f5f371a167b0066fcfc6fc796dea904b315419bae3cc332e4693aa216fa2ad8a9fd8998b72163a24dc1888f88a497d0d36eaa64e3507ad5c365238b4b8cf3
Reciphers for ciphertext: 0
Decipheredtext:           0000000000000000000020000000000000
RESULT CIPHER-DECIPHER: -----OK-----


Test: 75
Crypto pad: 1
Symmetric key bit length: 256
IV bit length:            128
Plaintext bit length:     136
Symmetric key:            0000000000000000000000000000000000000000000000000010000000000000
IV:                       00000000000000000010000000000000
Plaintext:                0000000000000000000010000000000000
Ciphertext:               8dffb93664931ceb287a5bfeaa85eb865afb04845bad23a29d57b977c5045e6e2bee6a4ba39f5bac59de6622426bce86b1b151e94b250e155179debd5af1256ea4c9a01d158ebfdbf5a212b44bcbbec5
Reciphers for ciphertext: 0
Decipheredtext:           0000000000000000000010000000000000
RESULT CIPHER-DECIPHER: -----OK-----


Test: 76
Crypto pad: 2
Symmetric key bit length: 256
IV bit length:            128
Plaintext bit length:     136
Symmetric key:            0000000000000000000000000000000000000000000000000008000000000000
IV:                       00000000000000000008000000000000
Plaintext:                0000000000000000000008000000000000
Ciphertext:               a160abfe494e46658dba1fbebd67b6515752b122435b4cd7f484af981b0f4f0c707a22f4c3b80a8e9247517a22f9535a02a9e54cfb20042d445d02545d81843593f625b932a0ece83d59590d135a4259
Reciphers for ciphertext: 0
Decipheredtext:           0000000000000000000008000000000000
RESULT CIPHER-DECIPHER: -----OK-----


Test: 77
Crypto pad: 1
Symmetric key bit length: 256
IV bit length:            128
Plaintext bit length:     136
Symmetric key:            0000000000000000000000000000000000000000000000000004000000000000
IV:                       00000000000000000004000000000000
Plaintext:                0000000000000000000004000000000000
Ciphertext:               273523992275aa5ee586d88d7c8005a73943cec6ed99389e08905bfe25c5b5341426ad8d77b4b31e98c00883115850228eb01260ac290fe44628de78131e18ee4fc4b26db60d6852093d37b821564699
Reciphers for ciphertext: 0
Decipheredtext:           0000000000000000000004000000000000
RESULT CIPHER-DECIPHER: -----OK-----


Test: 78
Crypto pad: 1
Symmetric key bit length: 256
IV bit length:            128
Plaintext bit length:     136
Symmetric key:            0000000000000000000000000000000000000000000000000002000000000000
IV:                       00000000000000000002000000000000
Plaintext:                0000000000000000000002000000000000
Ciphertext:               fbc295ed36d4dbd4fa0015264e7dbd78cdfc57ef178a40c016227d000ec00f3f54bed74c11ff31d7e41f110fa2eae2bad89d806e75e62618acef4820e53cf0c0a88bf3c31cac275d8e2428b2a3350305
Reciphers for ciphertext: 0
Decipheredtext:           0000000000000000000002000000000000
RESULT CIPHER-DECIPHER: -----OK-----


Test: 79
Crypto pad: 0
Symmetric key bit length: 256
IV bit length:            128
Plaintext bit length:     136
Symmetric key:            0000000000000000000000000000000000000000000000000001000000000000
IV:                       00000000000000000001000000000000
Plaintext:                0000000000000000000001000000000000
Ciphertext:               5291d5e508ede0bb7d6c55e4b22294aaca910bb3c0794603aa2a03dd2d2a549cccc207cdce402d8b8fe2cfb05e3cab2a66b8ea972abff454a752dad9fd6f52603d1216ca6c9f799a0289d06d2b2cd9ae
Reciphers for ciphertext: 0
Decipheredtext:           0000000000000000000001000000000000
RESULT CIPHER-DECIPHER: -----OK-----


Test: 80
Crypto pad: 1
Symmetric key bit length: 256
IV bit length:            128
Plaintext bit length:     136
Symmetric key:            0000000000000000000000000000000000000000000000000000800000000000
IV:                       00000000000000000000800000000000
Plaintext:                0000000000000000000000800000000000
Ciphertext:               5e220701143f0a0e61a6026194bb541f41cda2aded5e88eedc800b2984ac3b4bb8ae82bdf8d309a5b3c6f4f4832100c4b00e11b37dbf1959cf085b47848005bfb751fe3728c7a7a3493f78e963a1bca6
Reciphers for ciphertext: 0
Decipheredtext:           0000000000000000000000800000000000
RESULT CIPHER-DECIPHER: -----OK-----


Test: 81
Crypto pad: 0
Symmetric key bit length: 256
IV bit length:            128
Plaintext bit length:     136
Symmetric key:            0000000000000000000000000000000000000000000000000000400000000000
IV:                       00000000000000000000400000000000
Plaintext:                0000000000000000000000400000000000
Ciphertext:               3af4feb4fc4b7f788db542adbe64abcf3966bcf7f42f5df0561561df5099076425f42a351056a84dae619f0de7495700378f84510e1bc7eccfd7ee3d667486de98f2d9b1f02422046fcf0eb8ff16feea
Reciphers for ciphertext: 0
Decipheredtext:           0000000000000000000000400000000000
RESULT CIPHER-DECIPHER: -----OK-----


Test: 82
Crypto pad: 2
Symmetric key bit length: 256
IV bit length:            128
Plaintext bit length:     136
Symmetric key:            0000000000000000000000000000000000000000000000000000200000000000
IV:                       00000000000000000000200000000000
Plaintext:                0000000000000000000000200000000000
Ciphertext:               b9bfdbfc94cae37f2d8e482635a177056bae43f5b7cf62cce38ca38cedc4fb27d78200e1424e657b13b3e3633ab6c82d1ea26f4e53a32c1b0e1805904d100b254d783b7778fd3dfcc9862843834662e5
Reciphers for ciphertext: 0
Decipheredtext:           0000000000000000000000200000000000
RESULT CIPHER-DECIPHER: -----OK-----


Test: 83
Crypto pad: 1
Symmetric key bit length: 256
IV bit length:            128
Plaintext bit length:     136
Symmetric key:            0000000000000000000000000000000000000000000000000000100000000000
IV:                       00000000000000000000100000000000
Plaintext:                0000000000000000000000100000000000
Ciphertext:               be8731b31e340e36c2ccd8ddc73c22cfcec73c60f11a72780c31ec8ec6f9b72bdf67626f03172673fd7735ac4ada1e9ee79965169dd921ea7c2bb4e9bdc33bc846b3ca5f77890e17addf3d25ec898a05
Reciphers for ciphertext: 0
Decipheredtext:           0000000000000000000000100000000000
RESULT CIPHER-DECIPHER: -----OK-----


Test: 84
Crypto pad: 1
Symmetric key bit length: 256
IV bit length:            128
Plaintext bit length:     136
Symmetric key:            0000000000000000000000000000000000000000000000000000080000000000
IV:                       00000000000000000000080000000000
Plaintext:                0000000000000000000000080000000000
Ciphertext:               f2ccac55dd586ddbe73f9e2813678653a534667de086daad81cc521e8ae0dc23f4c1c7be6480eca87fc247abfd6b9b08db817363826e599f375826022598ccdcd1277609841091a0f9f64ded556aa39e
Reciphers for ciphertext: 0
Decipheredtext:           0000000000000000000000080000000000
RESULT CIPHER-DECIPHER: -----OK-----


Test: 85
Crypto pad: 1
Symmetric key bit length: 256
IV bit length:            128
Plaintext bit length:     136
Symmetric key:            0000000000000000000000000000000000000000000000000000040000000000
IV:                       00000000000000000000040000000000
Plaintext:                0000000000000000000000040000000000
Ciphertext:               7e7ebbe06406a44000fd811901962933c9ee4fb58b2406e2b176602dc04148da8886e02c2160f40b3ce8b8f554cffc81d5a89725660037c4695e568cfc3c11d25ce74da236ac95a80795ab71a518d93f
Reciphers for ciphertext: 0
Decipheredtext:           0000000000000000000000040000000000
RESULT CIPHER-DECIPHER: -----OK-----


Test: 86
Crypto pad: 2
Symmetric key bit length: 256
IV bit length:            128
Plaintext bit length:     136
Symmetric key:            0000000000000000000000000000000000000000000000000000020000000000
IV:                       00000000000000000000020000000000
Plaintext:                0000000000000000000000020000000000
Ciphertext:               c10007bf13a92728db2646c84c51e5855fd1bc2c56f51e887632ddd0c54a1cd4b6fb8fd83a2b0c6d33dd6fb4a50f2b8407ba771bdb9b83a88fa5ac5b570b0e5c5ea216f96194e97853a58e8d9042ddff
Reciphers for ciphertext: 0
Decipheredtext:           0000000000000000000000020000000000
RESULT CIPHER-DECIPHER: -----OK-----


Test: 87
Crypto pad: 2
Symmetric key bit length: 256
IV bit length:            128
Plaintext bit length:     136
Symmetric key:            0000000000000000000000000000000000000000000000000000010000000000
IV:                       00000000000000000000010000000000
Plaintext:                0000000000000000000000010000000000
Ciphertext:               a81ea6aaf5f5867a6d958ea9854570c3bb5d0cb2383d5d6f21a53a5e26fa925ef1a8b1df008b6df7f81ebaadff15fdad6c053c84cb4dc13740299ccb499a72c6c26c73f2d1dafe618ad5ac88c95d81d5
Reciphers for ciphertext: 0
Decipheredtext:           0000000000000000000000010000000000
RESULT CIPHER-DECIPHER: -----OK-----


Test: 88
Crypto pad: 2
Symmetric key bit length: 256
IV bit length:            128
Plaintext bit length:     136
Symmetric key:            0000000000000000000000000000000000000000000000000000008000000000
IV:                       00000000000000000000008000000000
Plaintext:                0000000000000000000000008000000000
Ciphertext:               7646cc2083d9e62cea8ebbdddc3917e899b925694865354a3fe01c5791c0346c8daf7e4b1c60740d036b3249a16d0b08187a049bcca995d66b7ae06021e4f645baecc0afc829572eb96b4438fee37d14
Reciphers for ciphertext: 0
Decipheredtext:           0000000000000000000000008000000000
RESULT CIPHER-DECIPHER: -----OK-----


Test: 89
Crypto pad: 2
Symmetric key bit length: 256
IV bit length:            128
Plaintext bit length:     136
Symmetric key:            0000000000000000000000000000000000000000000000000000004000000000
IV:                       00000000000000000000004000000000
Plaintext:                0000000000000000000000004000000000
Ciphertext:               5c7cf34867c6ee2ba4077ada651b5e365e2362beab2b149b97c69eb310dc2481cf39a59a848cf1e2ad5cb6a6ce5045d02f5b2e1f628d7e10951cfa4621732fae0e0ae00674af8c3b51ccaace6f0216dc
Reciphers for ciphertext: 0
Decipheredtext:           0000000000000000000000004000000000
RESULT CIPHER-DECIPHER: -----OK-----


Test: 90
Crypto pad: 2
Symmetric key bit length: 256
IV bit length:            128
Plaintext bit length:     136
Symmetric key:            0000000000000000000000000000000000000000000000000000002000000000
IV:                       00000000000000000000002000000000
Plaintext:                0000000000000000000000002000000000
Ciphertext:               b282408bccfd80b931b0d6449f9ced285f26ba1235325eedb832f641ba5691cfbe8b4b002fdba11b03b0dae3ad81bcff64f56cc0604e75013e8e6a212119c243cdec5e0c16214a7ea1e2f384e67bf415
Reciphers for ciphertext: 0
Decipheredtext:           0000000000000000000000002000000000
RESULT CIPHER-DECIPHER: -----OK-----


Test: 91
Crypto pad: 2
Symmetric key bit length: 256
IV bit length:            128
Plaintext bit length:     136
Symmetric key:            0000000000000000000000000000000000000000000000000000001000000000
IV:                       00000000000000000000001000000000
Plaintext:                0000000000000000000000001000000000
Ciphertext:               9e86cfb6a8d60e7b423931c06f955a050d034b86c321dc2efc9b8171151f9f48dfb4ed55e5f6264fa011dfe984a366af10ce6ee1fef2d76ffde6e88024ef83e1441cdf2bfaed2b8f6ee88c595960a77e
Reciphers for ciphertext: 0
Decipheredtext:           0000000000000000000000001000000000
RESULT CIPHER-DECIPHER: -----OK-----


Test: 92
Crypto pad: 2
Symmetric key bit length: 256
IV bit length:            128
Plaintext bit length:     136
Symmetric key:            0000000000000000000000000000000000000000000000000000000800000000
IV:                       00000000000000000000000800000000
Plaintext:                0000000000000000000000000800000000
Ciphertext:               92accb9c7e5fdbd81817c82e2bc8c6b164b5f39e31cb3a9329e5ee159fb4484440a1f6a347d82323d4c3ec67c78419bef351293c782dd349649c67e99c43a3ecab755cde5e998df681133627a3cef304
Reciphers for ciphertext: 0
Decipheredtext:           0000000000000000000000000800000000
RESULT CIPHER-DECIPHER: -----OK-----


Test: 93
Crypto pad: 1
Symmetric key bit length: 256
IV bit length:            128
Plaintext bit length:     136
Symmetric key:            0000000000000000000000000000000000000000000000000000000400000000
IV:                       00000000000000000000000400000000
Plaintext:                0000000000000000000000000400000000
Ciphertext:               965146ca8bae85c84a2b6ea9bc5ea63cb944c436e4f7b6c94ad09d18e51b6ebb258fcaf45758a051e9cefb4ceec7f83ed8166cbfead36befa1af3d61ba0176cb5fedbd91853734d44cc5d78ace0f3b0c
Reciphers for ciphertext: 0
Decipheredtext:           0000000000000000000000000400000000
RESULT CIPHER-DECIPHER: -----OK-----


Test: 94
Crypto pad: 1
Symmetric key bit length: 256
IV bit length:            128
Plaintext bit length:     136
Symmetric key:            0000000000000000000000000000000000000000000000000000000200000000
IV:                       00000000000000000000000200000000
Plaintext:                0000000000000000000000000200000000
Ciphertext:               2f93ca414b1ac8d89d6ba24f53f4edcd45f649aa32ad85ef0408ccc074037c44fdbb110d18724b3b674f0de17bd2b872d7c170c42cfc88977242a44b1649e9c36a39210e1ce2da7675cac8d97db3d790
Reciphers for ciphertext: 0
Decipheredtext:           0000000000000000000000000200000000
RESULT CIPHER-DECIPHER: -----OK-----


Test: 95
Crypto pad: 1
Symmetric key bit length: 256
IV bit length:            128
Plaintext bit length:     136
Symmetric key:            0000000000000000000000000000000000000000000000000000000100000000
IV:                       00000000000000000000000100000000
Plaintext:                0000000000000000000000000100000000
Ciphertext:               eef9100a1b4430f459789029615ba510fa944832826b1923db9d15d2f73ad84451e7145db19fbd3280b2bddef6033f179e47587336965f345d11ea876ff33a18f36f0d1c60d8566a73fbba402fd056ed
Reciphers for ciphertext: 0
Decipheredtext:           0000000000000000000000000100000000
RESULT CIPHER-DECIPHER: -----OK-----


Test: 96
Crypto pad: 0
Symmetric key bit length: 256
IV bit length:            128
Plaintext bit length:     136
Symmetric key:            0000000000000000000000000000000000000000000000000000000080000000
IV:                       00000000000000000000000080000000
Plaintext:                0000000000000000000000000080000000
Ciphertext:               f08a494349c4d04e237f119bbce35265eb2812ec147644b63d6133550cbf80018b1465e9a9bf00353a5fb5e2f647a4204f233c2643186666d2ca6f63c98862564693a943f50916ae2aef4a868e81b4f6
Reciphers for ciphertext: 0
Decipheredtext:           0000000000000000000000000080000000
RESULT CIPHER-DECIPHER: -----OK-----


Test: 97
Crypto pad: 1
Symmetric key bit length: 256
IV bit length:            128
Plaintext bit length:     136
Symmetric key:            0000000000000000000000000000000000000000000000000000000040000000
IV:                       00000000000000000000000040000000
Plaintext:                0000000000000000000000000040000000
Ciphertext:               0de03bca8dcfb3c2e36b2be63b3b94ca739be7de68370d125f88eb04382e681e3029661e07f56dcfb37174ff5dcf961cc628cd7ef6df0d37f6e33bda2d88c0c8c47a08a51729b25bb2325fe809e32b5c
Reciphers for ciphertext: 0
Decipheredtext:           0000000000000000000000000040000000
RESULT CIPHER-DECIPHER: -----OK-----


Test: 98
Crypto pad: 1
Symmetric key bit length: 256
IV bit length:            128
Plaintext bit length:     136
Symmetric key:            0000000000000000000000000000000000000000000000000000000020000000
IV:                       00000000000000000000000020000000
Plaintext:                0000000000000000000000000020000000
Ciphertext:               69bbd2cabeb248f9f8c0b94d2e00f92a890e5d7e50c18b8dc1d2fb4c300fac98c16dc40a1ba58411288307b13b4f9f1a4da8d1bb798618c42e3068fea6cd7592cdb7b914cb7a5a98d056356c16c14436
Reciphers for ciphertext: 0
Decipheredtext:           0000000000000000000000000020000000
RESULT CIPHER-DECIPHER: -----OK-----


Test: 99
Crypto pad: 1
Symmetric key bit length: 256
IV bit length:            128
Plaintext bit length:     136
Symmetric key:            0000000000000000000000000000000000000000000000000000000010000000
IV:                       00000000000000000000000010000000
Plaintext:                0000000000000000000000000010000000
Ciphertext:               8f92a328e692336cc868a9977d20bd8266d2f543f017a14f85af93281272ad024ee0dabd33940cf15be60f14ce0e02a527932540ea2f1f968f1ae31e0ea6cea7b1323cbccf257babfe7dd2490ea05098
Reciphers for ciphertext: 0
Decipheredtext:           0000000000000000000000000010000000
RESULT CIPHER-DECIPHER: -----OK-----


Test: 100
Crypto pad: 1
Symmetric key bit length: 256
IV bit length:            128
Plaintext bit length:     136
Symmetric key:            0000000000000000000000000000000000000000000000000000000008000000
IV:                       00000000000000000000000008000000
Plaintext:                0000000000000000000000000008000000
Ciphertext:               6ef7422ca8eb816636daff30201435eed4297e3103f40a2946c805a1a25651a5242d12fc26ff8fc976350691cf66816b0d2f1acba407394272693be51b9d2e0cc4a43f5a34a30cf14e1796b738174b84
Reciphers for ciphertext: 0
Decipheredtext:           0000000000000000000000000008000000
RESULT CIPHER-DECIPHER: -----OK-----


Test: 101
Crypto pad: 1
Symmetric key bit length: 256
IV bit length:            128
Plaintext bit length:     136
Symmetric key:            0000000000000000000000000000000000000000000000000000000004000000
IV:                       00000000000000000000000004000000
Plaintext:                0000000000000000000000000004000000
Ciphertext:               3df5ded03160b8fa63b5fd654edb50683dbb28401ab5cd9fa12a893af5740bb443ddf1ff48a33c530436badee5ec00fdde0509ad8e6c3da0a323d1468d6a8513440cb39150195c6bc0b1b57c85864a6d
Reciphers for ciphertext: 0
Decipheredtext:           0000000000000000000000000004000000
RESULT CIPHER-DECIPHER: -----OK-----


Test: 102
Crypto pad: 2
Symmetric key bit length: 256
IV bit length:            128
Plaintext bit length:     136
Symmetric key:            0000000000000000000000000000000000000000000000000000000002000000
IV:                       00000000000000000000000002000000
Plaintext:                0000000000000000000000000002000000
Ciphertext:               dab67fb081a8fc39e78634b3b412c1b6c5245194b91f06ec0188582049bf768102c21ed6b98af31d0c79587ec49fa453b0993a43e756775dba74476cdadaaebb9d392a6f2b34d7c686837ac4efcba737
Reciphers for ciphertext: 0
Decipheredtext:           0000000000000000000000000002000000
RESULT CIPHER-DECIPHER: -----OK-----


Test: 103
Crypto pad: 1
Symmetric key bit length: 256
IV bit length:            128
Plaintext bit length:     136
Symmetric key:            0000000000000000000000000000000000000000000000000000000001000000
IV:                       00000000000000000000000001000000
Plaintext:                0000000000000000000000000001000000
Ciphertext:               d3dc02cc4adb3f5ce71af9c9a048e278297dee7bd821090967710b29c24b8587a38d5de333be7017c70aecd8d34f9eb727bb671db6157ff2e214212cad63e5a2deb2875688f8ba57fe175764c0427f2d
Reciphers for ciphertext: 0
Decipheredtext:           0000000000000000000000000001000000
RESULT CIPHER-DECIPHER: -----OK-----


Test: 104
Crypto pad: 2
Symmetric key bit length: 256
IV bit length:            128
Plaintext bit length:     136
Symmetric key:            0000000000000000000000000000000000000000000000000000000000800000
IV:                       00000000000000000000000000800000
Plaintext:                0000000000000000000000000000800000
Ciphertext:               a50e50df2e6c5663cb8ff61e1de93f4bf1200c4626290a0bba9fb9870a79dae15467f56781470aac8b12d8b211390108a3e9219deb67977214031569e63ec96b96e7d5c0de2f41de08d90f2f2b5a7183
Reciphers for ciphertext: 0
Decipheredtext:           0000000000000000000000000000800000
RESULT CIPHER-DECIPHER: -----OK-----


Test: 105
Crypto pad: 0
Symmetric key bit length: 256
IV bit length:            128
Plaintext bit length:     136
Symmetric key:            0000000000000000000000000000000000000000000000000000000000400000
IV:                       00000000000000000000000000400000
Plaintext:                0000000000000000000000000000400000
Ciphertext:               64d97507a4a143eaae0083198a9a132c628fd8cf49f0d63d81176c5d59a5ae05b9ebecac7d69c379fbd1c8da83bab64cab1cc83cd2871e7aa211828ec9eb84e3b70be28e12b392625c8a08432a0d7970
Reciphers for ciphertext: 0
Decipheredtext:           0000000000000000000000000000400000
RESULT CIPHER-DECIPHER: -----OK-----


Test: 106
Crypto pad: 0
Symmetric key bit length: 256
IV bit length:            128
Plaintext bit length:     136
Symmetric key:            0000000000000000000000000000000000000000000000000000000000200000
IV:                       00000000000000000000000000200000
Plaintext:                0000000000000000000000000000200000
Ciphertext:               64cc10195a4d633d3462e74f233589ec88af61722225a24a2eae99537c0065d169a48502f742ee0d635df3893df120eea48c340345674e7cf6d069af1b9131effdbedd316d0adc604e1b1ce6d865d387
Reciphers for ciphertext: 0
Decipheredtext:           0000000000000000000000000000200000
RESULT CIPHER-DECIPHER: -----OK-----


Test: 107
Crypto pad: 2
Symmetric key bit length: 256
IV bit length:            128
Plaintext bit length:     136
Symmetric key:            0000000000000000000000000000000000000000000000000000000000100000
IV:                       00000000000000000000000000100000
Plaintext:                0000000000000000000000000000100000
Ciphertext:               7d5cd6f9f51206684a1b669bb062236ef57d4036835479c351c1239bbffcae9f823a03774e9b2868cf11d8feb47dad573457ea4966d53b20de368e1b3f6406b66237798d6779e8ed5cdbe85fca2e4999
Reciphers for ciphertext: 0
Decipheredtext:           0000000000000000000000000000100000
RESULT CIPHER-DECIPHER: -----OK-----


Test: 108
Crypto pad: 1
Symmetric key bit length: 256
IV bit length:            128
Plaintext bit length:     136
Symmetric key:            0000000000000000000000000000000000000000000000000000000000080000
IV:                       00000000000000000000000000080000
Plaintext:                0000000000000000000000000000080000
Ciphertext:               2c5593862eb61d7029058c9358c6ea7063bcff4cf1d7393ef4256e712cca7162c649d753340585035cadae2f3b67ee5f07c722d64e0778bec578096d3048f66983004b7674ed01b275608fbf595d7d27
Reciphers for ciphertext: 0
Decipheredtext:           0000000000000000000000000000080000
RESULT CIPHER-DECIPHER: -----OK-----


Test: 109
Crypto pad: 0
Symmetric key bit length: 256
IV bit length:            128
Plaintext bit length:     136
Symmetric key:            0000000000000000000000000000000000000000000000000000000000040000
IV:                       00000000000000000000000000040000
Plaintext:                0000000000000000000000000000040000
Ciphertext:               3cd088e401a38b2fed9a14c963a4410cde8b686e5a2bc80c0dc4d9fcfba7e655a1bb833c4436d4ae71f9b2b8aa38fa1be1918feffbc6f6060f5828c6bfdc84462fb767d3723462f8fbd1b94092139537
Reciphers for ciphertext: 0
Decipheredtext:           0000000000000000000000000000040000
RESULT CIPHER-DECIPHER: -----OK-----


Test: 110
Crypto pad: 1
Symmetric key bit length: 256
IV bit length:            128
Plaintext bit length:     136
Symmetric key:            0000000000000000000000000000000000000000000000000000000000020000
IV:                       00000000000000000000000000020000
Plaintext:                0000000000000000000000000000020000
Ciphertext:               3eaf21732435ea0b9ae6c39b0a5580c547801ea1bd40b6bc9b04595ef34165213a16482922bb7ee7c4a63530a825a6c5f63948dc1178c55288f27ea5b387e621ffa96c517a8f6a16e605d9bb92ac1ad2
Reciphers for ciphertext: 0
Decipheredtext:           0000000000000000000000000000020000
RESULT CIPHER-DECIPHER: -----OK-----


Test: 111
Crypto pad: 1
Symmetric key bit length: 256
IV bit length:            128
Plaintext bit length:     136
Symmetric key:            0000000000000000000000000000000000000000000000000000000000010000
IV:                       00000000000000000000000000010000
Plaintext:                0000000000000000000000000000010000
Ciphertext:               0c38ac8096499f3c3a8f33dd938ca80b95a58f5ddd76e62e072281e48358c303bf6f05f0f0425501b479bc67caad93fcfab12b7c010cbac7f19f81b021227814ebb61a5f635e33783e50808f98d059f8
Reciphers for ciphertext: 0
Decipheredtext:           0000000000000000000000000000010000
RESULT CIPHER-DECIPHER: -----OK-----


Test: 112
Crypto pad: 1
Symmetric key bit length: 256
IV bit length:            128
Plaintext bit length:     136
Symmetric key:            0000000000000000000000000000000000000000000000000000000000008000
IV:                       00000000000000000000000000008000
Plaintext:                0000000000000000000000000000008000
Ciphertext:               9dc1580b6a1dea1f0d8a2c49f52b12c963baeb28966b03a61c6d54accc3f65f669eb5f4449a9a8757ef9dc35211bcfa55a3dc46d20a3b314d39d673b1a6b4e26910feb9de3637c0d4a39f440a1cda7ba
Reciphers for ciphertext: 0
Decipheredtext:           0000000000000000000000000000008000
RESULT CIPHER-DECIPHER: -----OK-----


Test: 113
Crypto pad: 2
Symmetric key bit length: 256
IV bit length:            128
Plaintext bit length:     136
Symmetric key:            0000000000000000000000000000000000000000000000000000000000004000
IV:                       00000000000000000000000000004000
Plaintext:                0000000000000000000000000000004000
Ciphertext:               9d70d91ea74f4c3c40890f739d05d352d875ea03bfdd5117d7cb69b77b3e33c3e1e1eee1fefb032e20b71c6b08ab7f1617e655f6d06514c39963e616c09564fe18e526cdffcdba6eb4078971285c0c68
Reciphers for ciphertext: 0
Decipheredtext:           0000000000000000000000000000004000
RESULT CIPHER-DECIPHER: -----OK-----


Test: 114
Crypto pad: 2
Symmetric key bit length: 256
IV bit length:            128
Plaintext bit length:     136
Symmetric key:            0000000000000000000000000000000000000000000000000000000000002000
IV:                       00000000000000000000000000002000
Plaintext:                0000000000000000000000000000002000
Ciphertext:               047fad6ad14266858c34755f7e7a74db7e2bf6983cc90f7ea2598c475069af4e0110b3ae68f0919dc86e46d8d79bd609842b1cd53f0648d1508d99c865a1e30bc3ea3ce67895b4d0cb98cc970cc059c8
Reciphers for ciphertext: 0
Decipheredtext:           0000000000000000000000000000002000
RESULT CIPHER-DECIPHER: -----OK-----


Test: 115
Crypto pad: 1
Symmetric key bit length: 256
IV bit length:            128
Plaintext bit length:     136
Symmetric key:            0000000000000000000000000000000000000000000000000000000000001000
IV:                       00000000000000000000000000001000
Plaintext:                0000000000000000000000000000001000
Ciphertext:               3b914a579c7b8d3480b303945da10835eb15252e4beca8228d01e11595bdacb3b8cb482db2a2e82d89b395360d77e968097bbc6c811a7a177f309a983b4b5bddc5270ad4d161b87e1bc1ca42b9d3fe6f
Reciphers for ciphertext: 0
Decipheredtext:           0000000000000000000000000000001000
RESULT CIPHER-DECIPHER: -----OK-----


Test: 116
Crypto pad: 1
Symmetric key bit length: 256
IV bit length:            128
Plaintext bit length:     136
Symmetric key:            0000000000000000000000000000000000000000000000000000000000000800
IV:                       00000000000000000000000000000800
Plaintext:                0000000000000000000000000000000800
Ciphertext:               1a9c76d69f9940a57d36cd71a09a2f03a9ce4d0e20d9f4f639024db8809fb00e3710712ebd9f1c3dd585c58fc17da2d317750c3cda937fcca477c43643026e0d1109300355318673cd59dad1e47e0523
Reciphers for ciphertext: 0
Decipheredtext:           0000000000000000000000000000000800
RESULT CIPHER-DECIPHER: -----OK-----


Test: 117
Crypto pad: 0
Symmetric key bit length: 256
IV bit length:            128
Plaintext bit length:     136
Symmetric key:            0000000000000000000000000000000000000000000000000000000000000400
IV:                       00000000000000000000000000000400
Plaintext:                0000000000000000000000000000000400
Ciphertext:               feb1692f51cde3064545fe2cfe83909028ecd581316e6bad5e00866b961ccddd6ef6f32136fcca3305e9940be356409321c702c47a60bc17af4998b8b1daeff8b8ed2bd3f717de062380517bde746fa3
Reciphers for ciphertext: 0
Decipheredtext:           0000000000000000000000000000000400
RESULT CIPHER-DECIPHER: -----OK-----


Test: 118
Crypto pad: 0
Symmetric key bit length: 256
IV bit length:            128
Plaintext bit length:     136
Symmetric key:            0000000000000000000000000000000000000000000000000000000000000200
IV:                       00000000000000000000000000000200
Plaintext:                0000000000000000000000000000000200
Ciphertext:               4bb6013069d57ea163334779e38afd23bd862674a666bfdc1e6c395dccfd0eda1a989f12b5c8671bd52dbc46dac36eeb294f0d2cf1a153ee75932baa16a44d346233c6694aa0a5010c742b38091e963c
Reciphers for ciphertext: 0
Decipheredtext:           0000000000000000000000000000000200
RESULT CIPHER-DECIPHER: -----OK-----


Test: 119
Crypto pad: 2
Symmetric key bit length: 256
IV bit length:            128
Plaintext bit length:     136
Symmetric key:            0000000000000000000000000000000000000000000000000000000000000100
IV:                       00000000000000000000000000000100
Plaintext:                0000000000000000000000000000000100
Ciphertext:               ea423ea261b8da83dd96ba90042bbe24c31b1d13be18ae93fe6549239c579b6c21ca4c2d22ba1042c86079082ce983d80d4c049d0ca49c151d5914f0ce20a118c8f416aef605a64c7d04b040d61ed99f
Reciphers for ciphertext: 0
Decipheredtext:           0000000000000000000000000000000100
RESULT CIPHER-DECIPHER: -----OK-----


Test: 120
Crypto pad: 1
Symmetric key bit length: 256
IV bit length:            128
Plaintext bit length:     136
Symmetric key:            0000000000000000000000000000000000000000000000000000000000000080
IV:                       00000000000000000000000000000080
Plaintext:                0000000000000000000000000000000080
Ciphertext:               329578bfe050aff6bd3b01e7a8e374e5a5c09fd4a5d9b2487e347f76bf49c13790eb92ad500ec5c1a0ec8cd6d54e28e2329578bfe050aff6bd3b01e7a8e374e5cb86686b3b38188469bbb099fee26dbe
Reciphers for ciphertext: 0
Decipheredtext:           0000000000000000000000000000000080
RESULT CIPHER-DECIPHER: -----OK-----


Test: 121
Crypto pad: 1
Symmetric key bit length: 256
IV bit length:            128
Plaintext bit length:     136
Symmetric key:            0000000000000000000000000000000000000000000000000000000000000040
IV:                       00000000000000000000000000000040
Plaintext:                0000000000000000000000000000000040
Ciphertext:               af8208e9205bf9ec3b854c47547ef38ab327961e4ca8e5f72a64aa65565bb17f5ca9411844ed7b40c33f1a0803e6987eaf8208e9205bf9ec3b854c47547ef38a2e1e38b8e4524b540abdcb6e2a793dd5
Reciphers for ciphertext: 0
Decipheredtext:           0000000000000000000000000000000040
RESULT CIPHER-DECIPHER: -----OK-----


Test: 122
Crypto pad: 2
Symmetric key bit length: 256
IV bit length:            128
Plaintext bit length:     136
Symmetric key:            0000000000000000000000000000000000000000000000000000000000000020
IV:                       00000000000000000000000000000020
Plaintext:                0000000000000000000000000000000020
Ciphertext:               8606391dc4b48cc41b36b6d8d7b1b0cdf6db04ee855de915fa1df827299c390c42da20bd8e4cb986dd3ec87d32a9acfa8606391dc4b48cc41b36b6d8d7b1b0cdf2fcc1c1c9b7dd8f2b6e1f8685005983
Reciphers for ciphertext: 0
Decipheredtext:           0000000000000000000000000000000020
RESULT CIPHER-DECIPHER: -----OK-----


Test: 123
Crypto pad: 1
Symmetric key bit length: 256
IV bit length:            128
Plaintext bit length:     136
Symmetric key:            0000000000000000000000000000000000000000000000000000000000000010
IV:                       00000000000000000000000000000010
Plaintext:                0000000000000000000000000000000010
Ciphertext:               d1fa2b32660a903be915bb43b40f2bcd59c01089c460cf6a0d6782a8f5c2bb0bd6f2725316a0419550b601fe4fa39d50d1fa2b32660a903be915bb43b40f2bcda7a51dac203732b945cd46cba72c3a51
Reciphers for ciphertext: 0
Decipheredtext:           0000000000000000000000000000000010
RESULT CIPHER-DECIPHER: -----OK-----


Test: 124
Crypto pad: 2
Symmetric key bit length: 256
IV bit length:            128
Plaintext bit length:     136
Symmetric key:            0000000000000000000000000000000000000000000000000000000000000008
IV:                       00000000000000000000000000000008
Plaintext:                0000000000000000000000000000000008
Ciphertext:               e1dfb1e09150a86a7e5eff9e9e8fe1f704c4d36b84e25b2c000149ecd4d669003267373e9479d28cbf1850824fd360afe1dfb1e09150a86a7e5eff9e9e8fe1f72be034a8b149c80ccb337f7fb266351d
Reciphers for ciphertext: 0
Decipheredtext:           0000000000000000000000000000000008
RESULT CIPHER-DECIPHER: -----OK-----


Test: 125
Crypto pad: 2
Symmetric key bit length: 256
IV bit length:            128
Plaintext bit length:     136
Symmetric key:            0000000000000000000000000000000000000000000000000000000000000004
IV:                       00000000000000000000000000000004
Plaintext:                0000000000000000000000000000000004
Ciphertext:               a4ed00c883052cf4bfaadb466819ee623e8fb2ed56b135ca224d07f0bd927c2340ef128b02312a31eb16c133436a167fa4ed00c883052cf4bfaadb466819ee62a5fd1a9ef815a47618adf307e8b5c234
Reciphers for ciphertext: 0
Decipheredtext:           0000000000000000000000000000000004
RESULT CIPHER-DECIPHER: -----OK-----


Test: 126
Crypto pad: 0
Symmetric key bit length: 256
IV bit length:            128
Plaintext bit length:     136
Symmetric key:            0000000000000000000000000000000000000000000000000000000000000002
IV:                       00000000000000000000000000000002
Plaintext:                0000000000000000000000000000000002
Ciphertext:               3386c37d97490db60459a741775de70586bc9baa89b6e6ed0f5e9d12b0f1f6ce8a3bba091405f5abaeb56348dddfee3d3386c37d97490db60459a741775de705dfe22c2fe2a70a1bd2a9597302703852
Reciphers for ciphertext: 0
Decipheredtext:           0000000000000000000000000000000002
RESULT CIPHER-DECIPHER: -----OK-----


Test: 127
Crypto pad: 0
Symmetric key bit length: 256
IV bit length:            128
Plaintext bit length:     136
Symmetric key:            0000000000000000000000000000000000000000000000000000000000000001
IV:                       00000000000000000000000000000001
Plaintext:                0000000000000000000000000000000001
Ciphertext:               c9d2b5db15fd8902a6ebf478c3b780143069b78a4f4b697c24c41612dd674cae82dd29bdaa1d155ff1272641883606b6c9d2b5db15fd8902a6ebf478c3b78014edd6cd2631556925a69664462c019109
Reciphers for ciphertext: 0
Decipheredtext:           0000000000000000000000000000000001
RESULT CIPHER-DECIPHER: -----OK-----


 DATA SHA1 (hexadecimal): 765b33a51219cb1fdca34584053afbad3fe60c13

