
DiceLock 9.0.0.1

 TEST COMPONENTS:
 ----------------
 DiceLock:           DiceLockIVIndexed class
 Operation Mode:     CBC_Mode class
 Crypto pads:        0 - ANSI_X_923 class
                     1 - ISO_IEC_9797_1 class
                     2 - PKCS7 class
 Block Cipher:       TDEA class
 Key Modifier:       DecreaseBase0IndexModifier_6_0_0_1 class
   Index bit length: 192
 Random tests:       RandomTestSuite class
                     FrequencyTest class
                     BlockFrequencyTest class
                     CumulativeSumForwardTest class
                     LongestRunOfOnesTest class
                     RunsTest class
 Random alpha:       0.001

 VECTOR TEST: Test vector 3 - Changing symmetric key, IV and plaintext, shifting 1 bit set


##### INDIVIDUAL TESTS #####

Number tests: 128


Test: 0
Crypto pad: 0
Symmetric key bit length: 192
IV bit length:            64
Plaintext bit length:     136
Symmetric key:            000000000000000080000000000000000000000000000000
IV:                       8000000000000000
Plaintext:                0080000000000000000000000000000000
Ciphertext:               d266be5a8a231eb12a34a19f818bc399ec7ae0e5f63beb3e0f2c7c042199f3ac4bf7d694dde03b96dc1e4bc558c7a5bc17fe51d8679dbb97
Reciphers for ciphertext: 0
Decipheredtext:           0080000000000000000000000000000000
RESULT CIPHER-DECIPHER: -----OK-----


Test: 1
Crypto pad: 1
Symmetric key bit length: 192
IV bit length:            64
Plaintext bit length:     136
Symmetric key:            000000000000000040000000000000000000000000000000
IV:                       4000000000000000
Plaintext:                0040000000000000000000000000000000
Ciphertext:               e27b1b176cded0907f7b7089b232727c2ace8d1266d2ea9fea79d1344bf31062d3153c65065eeb9e410ca3ef60266f5cc3ba06ec946fb7b6
Reciphers for ciphertext: 0
Decipheredtext:           0040000000000000000000000000000000
RESULT CIPHER-DECIPHER: -----OK-----


Test: 2
Crypto pad: 1
Symmetric key bit length: 192
IV bit length:            64
Plaintext bit length:     136
Symmetric key:            000000000000000020000000000000000000000000000000
IV:                       2000000000000000
Plaintext:                0020000000000000000000000000000000
Ciphertext:               e662d0e3826936a2342e614626cdf598fabf155487b3c30a18be037306612e80d89b7fdc4c0c51e1ff1d61abcf6bbb7924f7909353c86ba4
Reciphers for ciphertext: 0
Decipheredtext:           0020000000000000000000000000000000
RESULT CIPHER-DECIPHER: -----OK-----


Test: 3
Crypto pad: 1
Symmetric key bit length: 192
IV bit length:            64
Plaintext bit length:     136
Symmetric key:            000000000000000010000000000000000000000000000000
IV:                       1000000000000000
Plaintext:                0010000000000000000000000000000000
Ciphertext:               079249b0400ddd8e0cff45f55b5502f6f67417f3294823ae59cac6261fe01736ec1132e67a8090f90ee7c203c383cfae165d6e76a30c5336
Reciphers for ciphertext: 0
Decipheredtext:           0010000000000000000000000000000000
RESULT CIPHER-DECIPHER: -----OK-----


Test: 4
Crypto pad: 2
Symmetric key bit length: 192
IV bit length:            64
Plaintext bit length:     136
Symmetric key:            000000000000000008000000000000000000000000000000
IV:                       0800000000000000
Plaintext:                0008000000000000000000000000000000
Ciphertext:               b471062802bba8b2530105ac480b5955583d63d5ee9b545da01bbb155ca4a20e67106e26e9735b678349b1bb4bed264b3a0efb71e92082ca
Reciphers for ciphertext: 0
Decipheredtext:           0008000000000000000000000000000000
RESULT CIPHER-DECIPHER: -----OK-----


Test: 5
Crypto pad: 1
Symmetric key bit length: 192
IV bit length:            64
Plaintext bit length:     136
Symmetric key:            000000000000000004000000000000000000000000000000
IV:                       0400000000000000
Plaintext:                0004000000000000000000000000000000
Ciphertext:               8fc8fc2a3e3b62564544d4110c1796463cc66f20e16fe428145a3ccea6cb4f054fbfa429a12edcb768c019676fae5baafed1d2c04861f46a
Reciphers for ciphertext: 0
Decipheredtext:           0004000000000000000000000000000000
RESULT CIPHER-DECIPHER: -----OK-----


Test: 6
Crypto pad: 0
Symmetric key bit length: 192
IV bit length:            64
Plaintext bit length:     136
Symmetric key:            000000000000000002000000000000000000000000000000
IV:                       0200000000000000
Plaintext:                0002000000000000000000000000000000
Ciphertext:               4402f79580af3badfc3a3f23a3a18300eb7046864c56a15e6856503fdd76c5745c59a43b90c5cd0256e52859af2f05cd552c8ecd912a4178
Reciphers for ciphertext: 0
Decipheredtext:           0002000000000000000000000000000000
RESULT CIPHER-DECIPHER: -----OK-----


Test: 7
Crypto pad: 2
Symmetric key bit length: 192
IV bit length:            64
Plaintext bit length:     136
Symmetric key:            000000000000000001000000000000000000000000000000
IV:                       0100000000000000
Plaintext:                0001000000000000000000000000000000
Ciphertext:               77cdd390cf08a0090dd65ceb7995030832c1dc44890c4f1304b389139b71e1cfb50c0ae705f0d876897614cfcc5f16391496cee896b3393d
Reciphers for ciphertext: 4
Decipheredtext:           0001000000000000000000000000000000
RESULT CIPHER-DECIPHER: -----OK-----


Test: 8
Crypto pad: 1
Symmetric key bit length: 192
IV bit length:            64
Plaintext bit length:     136
Symmetric key:            000000000000000000800000000000000000000000000000
IV:                       0080000000000000
Plaintext:                0000800000000000000000000000000000
Ciphertext:               aa6d1dfc915cbb9f0f38fd278d0086322f556ab9d37811f6a587a9c3aba34227c09971564d217c22df88a63ef31a67fe24eefc0ce7e53cf0
Reciphers for ciphertext: 0
Decipheredtext:           0000800000000000000000000000000000
RESULT CIPHER-DECIPHER: -----OK-----


Test: 9
Crypto pad: 2
Symmetric key bit length: 192
IV bit length:            64
Plaintext bit length:     136
Symmetric key:            000000000000000000400000000000000000000000000000
IV:                       0040000000000000
Plaintext:                0000400000000000000000000000000000
Ciphertext:               918e7bee19256dca4fffa73b1e768f362f605610387c97df6e6b8f9cff1fd7da0cfb3294cefa653b9f274167ea36ce86e26b5eb63749089e
Reciphers for ciphertext: 0
Decipheredtext:           0000400000000000000000000000000000
RESULT CIPHER-DECIPHER: -----OK-----


Test: 10
Crypto pad: 2
Symmetric key bit length: 192
IV bit length:            64
Plaintext bit length:     136
Symmetric key:            000000000000000000200000000000000000000000000000
IV:                       0020000000000000
Plaintext:                0000200000000000000000000000000000
Ciphertext:               fd11750b4cd9be1682beab0cef8f891d214eec866576f3e8cf6f4658328311f8854da81ce0651c619479302be668a481aa3f5b00305c0ce0
Reciphers for ciphertext: 0
Decipheredtext:           0000200000000000000000000000000000
RESULT CIPHER-DECIPHER: -----OK-----


Test: 11
Crypto pad: 1
Symmetric key bit length: 192
IV bit length:            64
Plaintext bit length:     136
Symmetric key:            000000000000000000100000000000000000000000000000
IV:                       0010000000000000
Plaintext:                0000100000000000000000000000000000
Ciphertext:               b0125e2db7b1b771fb9805e9dda26209143e6efdd9503adee90cb366a3b8c886e8229a68fbb7ee2109b9a6861c9a7fd14d08008cb1645ec3
Reciphers for ciphertext: 0
Decipheredtext:           0000100000000000000000000000000000
RESULT CIPHER-DECIPHER: -----OK-----


Test: 12
Crypto pad: 0
Symmetric key bit length: 192
IV bit length:            64
Plaintext bit length:     136
Symmetric key:            000000000000000000080000000000000000000000000000
IV:                       0008000000000000
Plaintext:                0000080000000000000000000000000000
Ciphertext:               5cb402f6aea3c8b92c83865e0c977047afc8151bc4e847e4d568dc99ec5fdc9589b080b97eb47a3b124efdc1a058eeb41138c3e070c9a607
Reciphers for ciphertext: 0
Decipheredtext:           0000080000000000000000000000000000
RESULT CIPHER-DECIPHER: -----OK-----


Test: 13
Crypto pad: 2
Symmetric key bit length: 192
IV bit length:            64
Plaintext bit length:     136
Symmetric key:            000000000000000000040000000000000000000000000000
IV:                       0004000000000000
Plaintext:                0000040000000000000000000000000000
Ciphertext:               eb108590fbcc24e089539dc96b3e93d78eb79369ebaf135916225b6aaa06924f159b5e01ca23e56a9d6fc3bc27b1c8fdd29e4569fdc976e4
Reciphers for ciphertext: 0
Decipheredtext:           0000040000000000000000000000000000
RESULT CIPHER-DECIPHER: -----OK-----


Test: 14
Crypto pad: 0
Symmetric key bit length: 192
IV bit length:            64
Plaintext bit length:     136
Symmetric key:            000000000000000000020000000000000000000000000000
IV:                       0002000000000000
Plaintext:                0000020000000000000000000000000000
Ciphertext:               76d226fd6771f6ebc189eecd3df33005c54cd1e5a3840f84d16c6aaf4dfe4fde5822e1fb592a1521db2b5bebf026c64ec1b7871f86befa35
Reciphers for ciphertext: 0
Decipheredtext:           0000020000000000000000000000000000
RESULT CIPHER-DECIPHER: -----OK-----


Test: 15
Crypto pad: 1
Symmetric key bit length: 192
IV bit length:            64
Plaintext bit length:     136
Symmetric key:            000000000000000000010000000000000000000000000000
IV:                       0001000000000000
Plaintext:                0000010000000000000000000000000000
Ciphertext:               a113425b67e0017788c8854b58ecca67e201bb8d96a40052ecddf8ac83c59541effadd5d580dc05b718177558c539fa00f0811278ea3cedf
Reciphers for ciphertext: 2
Decipheredtext:           0000010000000000000000000000000000
RESULT CIPHER-DECIPHER: -----OK-----


Test: 16
Crypto pad: 1
Symmetric key bit length: 192
IV bit length:            64
Plaintext bit length:     136
Symmetric key:            000000000000000000008000000000000000000000000000
IV:                       0000800000000000
Plaintext:                0000008000000000000000000000000000
Ciphertext:               d0dfcc302850ee9ea072cbe51b1e2ccd6f0e148cc322d23e1026027e6a9a0ca8cb1563cb3d786b0444782a8fe2aa1e6a6e7bc70db5ad88cc
Reciphers for ciphertext: 0
Decipheredtext:           0000008000000000000000000000000000
RESULT CIPHER-DECIPHER: -----OK-----


Test: 17
Crypto pad: 1
Symmetric key bit length: 192
IV bit length:            64
Plaintext bit length:     136
Symmetric key:            000000000000000000004000000000000000000000000000
IV:                       0000400000000000
Plaintext:                0000004000000000000000000000000000
Ciphertext:               12ef6aff3f0cd03864702f0eb7b13fa3e69c77009b05de9c8ad1af54f9ec0d6c8ff82cd5ca830dbe5b7ab30e3f94cf5b28e187a1c1bf572f
Reciphers for ciphertext: 0
Decipheredtext:           0000004000000000000000000000000000
RESULT CIPHER-DECIPHER: -----OK-----


Test: 18
Crypto pad: 1
Symmetric key bit length: 192
IV bit length:            64
Plaintext bit length:     136
Symmetric key:            000000000000000000002000000000000000000000000000
IV:                       0000200000000000
Plaintext:                0000002000000000000000000000000000
Ciphertext:               748cd0aa3112ef74c38bc93504e9b4efc1b071ce4bfd979a60965f64ff5cf16954397292f8beee11dd2f1159912eb0828b404b7d82b3bf29
Reciphers for ciphertext: 0
Decipheredtext:           0000002000000000000000000000000000
RESULT CIPHER-DECIPHER: -----OK-----


Test: 19
Crypto pad: 0
Symmetric key bit length: 192
IV bit length:            64
Plaintext bit length:     136
Symmetric key:            000000000000000000001000000000000000000000000000
IV:                       0000100000000000
Plaintext:                0000001000000000000000000000000000
Ciphertext:               47416e784147ddaeb46d4fb33a3282938ac4d63b03fe9384f8b39dc796a0a6f5da50a667b6003728bd67f12eac0f95cb9e19ebec4538a29a
Reciphers for ciphertext: 0
Decipheredtext:           0000001000000000000000000000000000
RESULT CIPHER-DECIPHER: -----OK-----


Test: 20
Crypto pad: 0
Symmetric key bit length: 192
IV bit length:            64
Plaintext bit length:     136
Symmetric key:            000000000000000000000800000000000000000000000000
IV:                       0000080000000000
Plaintext:                0000000800000000000000000000000000
Ciphertext:               6bad6f0c8a63b44bbbc1fd775192f054d353367f3533e3bce3660d8cd21e820519358df8078a78cef21efcfe9acddda103b13237a2dca72e
Reciphers for ciphertext: 0
Decipheredtext:           0000000800000000000000000000000000
RESULT CIPHER-DECIPHER: -----OK-----


Test: 21
Crypto pad: 1
Symmetric key bit length: 192
IV bit length:            64
Plaintext bit length:     136
Symmetric key:            000000000000000000000400000000000000000000000000
IV:                       0000040000000000
Plaintext:                0000000400000000000000000000000000
Ciphertext:               969307ec77344e2f1cf95fb3a664e5eb31575de3e89d3ee851fc447f48630f8608dcc4a7267ec3100d6821030e1d02a9a94f6f09ec3002d5
Reciphers for ciphertext: 0
Decipheredtext:           0000000400000000000000000000000000
RESULT CIPHER-DECIPHER: -----OK-----


Test: 22
Crypto pad: 2
Symmetric key bit length: 192
IV bit length:            64
Plaintext bit length:     136
Symmetric key:            000000000000000000000200000000000000000000000000
IV:                       0000020000000000
Plaintext:                0000000200000000000000000000000000
Ciphertext:               8172f7963c78558e6f86a7668c8b35d31ac8506e473a00d526c6c516b733394ad07dd2f01622fa2c3d733006f37506c9350bea9d305dbe93
Reciphers for ciphertext: 0
Decipheredtext:           0000000200000000000000000000000000
RESULT CIPHER-DECIPHER: -----OK-----


Test: 23
Crypto pad: 2
Symmetric key bit length: 192
IV bit length:            64
Plaintext bit length:     136
Symmetric key:            000000000000000000000100000000000000000000000000
IV:                       0000010000000000
Plaintext:                0000000100000000000000000000000000
Ciphertext:               5f56ad89351ad6f3bfd2bc27ed3f7aa1b4a3cdc4fb758d33665f61955d63fd414d14d672151bef944cad065a6498c3003ac391c4af5e2b25
Reciphers for ciphertext: 2
Decipheredtext:           0000000100000000000000000000000000
RESULT CIPHER-DECIPHER: -----OK-----


Test: 24
Crypto pad: 0
Symmetric key bit length: 192
IV bit length:            64
Plaintext bit length:     136
Symmetric key:            000000000000000000000080000000000000000000000000
IV:                       0000008000000000
Plaintext:                0000000080000000000000000000000000
Ciphertext:               a969a96a4306a868383e70834b0be07ee76a29d16f2dad5a7c38aef0374fc0922165c4c9ad44c8e0ac985c8841275a73582192808440a477
Reciphers for ciphertext: 0
Decipheredtext:           0000000080000000000000000000000000
RESULT CIPHER-DECIPHER: -----OK-----


Test: 25
Crypto pad: 1
Symmetric key bit length: 192
IV bit length:            64
Plaintext bit length:     136
Symmetric key:            000000000000000000000040000000000000000000000000
IV:                       0000004000000000
Plaintext:                0000000040000000000000000000000000
Ciphertext:               80f4c184766e052938ca09f4ff6508ef1178e3ec571d01dc079a1ece080f478940cc7e9993eb2fba83c54102739efd0d3b545774bc694009
Reciphers for ciphertext: 0
Decipheredtext:           0000000040000000000000000000000000
RESULT CIPHER-DECIPHER: -----OK-----


Test: 26
Crypto pad: 1
Symmetric key bit length: 192
IV bit length:            64
Plaintext bit length:     136
Symmetric key:            000000000000000000000020000000000000000000000000
IV:                       0000002000000000
Plaintext:                0000000020000000000000000000000000
Ciphertext:               3147ee7ef21d2171a053df6985ac1e55b704c96111759c3e0640bc60616cd9247307eafc03a012ea3ac612e0a0716e4bf18b842f5d71df82
Reciphers for ciphertext: 0
Decipheredtext:           0000000020000000000000000000000000
RESULT CIPHER-DECIPHER: -----OK-----


Test: 27
Crypto pad: 2
Symmetric key bit length: 192
IV bit length:            64
Plaintext bit length:     136
Symmetric key:            000000000000000000000010000000000000000000000000
IV:                       0000001000000000
Plaintext:                0000000010000000000000000000000000
Ciphertext:               ada41038a354770aee3d0b79e5904bcee1c3854eaf9db222e6a759d9d203445034aceb380e3d94ea57f2847863d7bf4004286aef999b3167
Reciphers for ciphertext: 0
Decipheredtext:           0000000010000000000000000000000000
RESULT CIPHER-DECIPHER: -----OK-----


Test: 28
Crypto pad: 1
Symmetric key bit length: 192
IV bit length:            64
Plaintext bit length:     136
Symmetric key:            000000000000000000000008000000000000000000000000
IV:                       0000000800000000
Plaintext:                0000000008000000000000000000000000
Ciphertext:               c70734d73784971c4023ca6a4d38985924e1e9438dd114ebef66082189a267078e14c5ecf7b41313f0dba033d8f97819759104bdade261fe
Reciphers for ciphertext: 0
Decipheredtext:           0000000008000000000000000000000000
RESULT CIPHER-DECIPHER: -----OK-----


Test: 29
Crypto pad: 2
Symmetric key bit length: 192
IV bit length:            64
Plaintext bit length:     136
Symmetric key:            000000000000000000000004000000000000000000000000
IV:                       0000000400000000
Plaintext:                0000000004000000000000000000000000
Ciphertext:               68f32d32261594766fc848ad15fad81475727a07cf504b2f67f965277ca1b6dd29115c87844ec00cc4d5d2ad52064132e8c7a7a2ec6002a1
Reciphers for ciphertext: 0
Decipheredtext:           0000000004000000000000000000000000
RESULT CIPHER-DECIPHER: -----OK-----


Test: 30
Crypto pad: 1
Symmetric key bit length: 192
IV bit length:            64
Plaintext bit length:     136
Symmetric key:            000000000000000000000002000000000000000000000000
IV:                       0000000200000000
Plaintext:                0000000002000000000000000000000000
Ciphertext:               ba900087c63489788990cbaa6428b458fa7c8763bc790df2574ec06d64877ff4f64c5af5ce62b72cb31c859d0232f33f23df9934ca0dd23f
Reciphers for ciphertext: 0
Decipheredtext:           0000000002000000000000000000000000
RESULT CIPHER-DECIPHER: -----OK-----


Test: 31
Crypto pad: 0
Symmetric key bit length: 192
IV bit length:            64
Plaintext bit length:     136
Symmetric key:            000000000000000000000001000000000000000000000000
IV:                       0000000100000000
Plaintext:                0000000001000000000000000000000000
Ciphertext:               3c7b9bcf8c5566d83999b043a4e1faccefd03d60049f323edf06ec9b9eb98dac719aab0542fd5cc12a0aae19127a35d02d7c9cc96ff4fde2
Reciphers for ciphertext: 2
Decipheredtext:           0000000001000000000000000000000000
RESULT CIPHER-DECIPHER: -----OK-----


Test: 32
Crypto pad: 0
Symmetric key bit length: 192
IV bit length:            64
Plaintext bit length:     136
Symmetric key:            000000000000000000000000800000000000000000000000
IV:                       0000000080000000
Plaintext:                0000000000800000000000000000000000
Ciphertext:               24baf745474e53c4eab58e23a5e41b8b491f793eaf7cb068cda1d4e610c12a3dd1047d84b71fa5f51d95380bf7e797072bad5d51d1d206e1
Reciphers for ciphertext: 0
Decipheredtext:           0000000000800000000000000000000000
RESULT CIPHER-DECIPHER: -----OK-----


Test: 33
Crypto pad: 0
Symmetric key bit length: 192
IV bit length:            64
Plaintext bit length:     136
Symmetric key:            000000000000000000000000400000000000000000000000
IV:                       0000000040000000
Plaintext:                0000000000400000000000000000000000
Ciphertext:               6fbc23f090ae197ebd1d0ebeb2135ed4f542e5184fb2ece8cf9d02859c205c172ba59d09f813b917ed772e040ba6e833de71705d08c7fded
Reciphers for ciphertext: 0
Decipheredtext:           0000000000400000000000000000000000
RESULT CIPHER-DECIPHER: -----OK-----


Test: 34
Crypto pad: 0
Symmetric key bit length: 192
IV bit length:            64
Plaintext bit length:     136
Symmetric key:            000000000000000000000000200000000000000000000000
IV:                       0000000020000000
Plaintext:                0000000000200000000000000000000000
Ciphertext:               4060b275c431671b3b8d7784a44fc3ab9a172f28f168b917cad90a333debdd9af5f003c1be25939dc3f4f2cb007cf095289cfdc3e7991b4c
Reciphers for ciphertext: 0
Decipheredtext:           0000000000200000000000000000000000
RESULT CIPHER-DECIPHER: -----OK-----


Test: 35
Crypto pad: 1
Symmetric key bit length: 192
IV bit length:            64
Plaintext bit length:     136
Symmetric key:            000000000000000000000000100000000000000000000000
IV:                       0000000010000000
Plaintext:                0000000000100000000000000000000000
Ciphertext:               14c43f3b3e0dc174938bf0060fb765c18212592a7c2ed460ccab859814c6806d289b80700bb47bd46d9a8366c2f70d0bc63bdc590323ef16
Reciphers for ciphertext: 0
Decipheredtext:           0000000000100000000000000000000000
RESULT CIPHER-DECIPHER: -----OK-----


Test: 36
Crypto pad: 2
Symmetric key bit length: 192
IV bit length:            64
Plaintext bit length:     136
Symmetric key:            000000000000000000000000080000000000000000000000
IV:                       0000000008000000
Plaintext:                0000000000080000000000000000000000
Ciphertext:               c95b37492ffbc541f8e6d551f6cabaaf19154cf28648b278f9354f3e2532382803024d24d6b8f19f6e506afeabe082c154c1189b3fe647a6
Reciphers for ciphertext: 0
Decipheredtext:           0000000000080000000000000000000000
RESULT CIPHER-DECIPHER: -----OK-----


Test: 37
Crypto pad: 0
Symmetric key bit length: 192
IV bit length:            64
Plaintext bit length:     136
Symmetric key:            000000000000000000000000040000000000000000000000
IV:                       0000000004000000
Plaintext:                0000000000040000000000000000000000
Ciphertext:               8d4de2b0866215e16b010092190f54215937d34cecad2e9a82ae480344da629834f5cf84cfd53b291b727ef3d32608901f765bd9630e1a00
Reciphers for ciphertext: 0
Decipheredtext:           0000000000040000000000000000000000
RESULT CIPHER-DECIPHER: -----OK-----


Test: 38
Crypto pad: 1
Symmetric key bit length: 192
IV bit length:            64
Plaintext bit length:     136
Symmetric key:            000000000000000000000000020000000000000000000000
IV:                       0000000002000000
Plaintext:                0000000000020000000000000000000000
Ciphertext:               262ff1eabbff7a6826044fad2ea47bd5c505cc15da55f1fc201c87c7e1e03d175da48225224bcfdf960cac623d4f0e3452c48b9d52b42ff8
Reciphers for ciphertext: 0
Decipheredtext:           0000000000020000000000000000000000
RESULT CIPHER-DECIPHER: -----OK-----


Test: 39
Crypto pad: 2
Symmetric key bit length: 192
IV bit length:            64
Plaintext bit length:     136
Symmetric key:            000000000000000000000000010000000000000000000000
IV:                       0000000001000000
Plaintext:                0000000000010000000000000000000000
Ciphertext:               66c5394bb80c51106b341a150ca07227ddb6d1af8c01abb99da37bed26140fdf1f3a65776f264642cb76623ffc88f97ef3e9954c259bebfe
Reciphers for ciphertext: 2
Decipheredtext:           0000000000010000000000000000000000
RESULT CIPHER-DECIPHER: -----OK-----


Test: 40
Crypto pad: 1
Symmetric key bit length: 192
IV bit length:            64
Plaintext bit length:     136
Symmetric key:            000000000000000000000000008000000000000000000000
IV:                       0000000000800000
Plaintext:                0000000000008000000000000000000000
Ciphertext:               c3eec1ff8e7ed009fa23e83ccc9147bbf783f11888682e994ee12a8e99a439171ce5312fba4016c50d0381015bf13612f29c3ed2faa2c018
Reciphers for ciphertext: 0
Decipheredtext:           0000000000008000000000000000000000
RESULT CIPHER-DECIPHER: -----OK-----


Test: 41
Crypto pad: 1
Symmetric key bit length: 192
IV bit length:            64
Plaintext bit length:     136
Symmetric key:            000000000000000000000000004000000000000000000000
IV:                       0000000000400000
Plaintext:                0000000000004000000000000000000000
Ciphertext:               f89296e7d526cf449ac84b706b9d913f0511db44a1dcb911f7cc9bdb640d63fd42be6af1ebea14d56f14c4153cb2996fe87980cdb3a3942a
Reciphers for ciphertext: 0
Decipheredtext:           0000000000004000000000000000000000
RESULT CIPHER-DECIPHER: -----OK-----


Test: 42
Crypto pad: 1
Symmetric key bit length: 192
IV bit length:            64
Plaintext bit length:     136
Symmetric key:            000000000000000000000000002000000000000000000000
IV:                       0000000000200000
Plaintext:                0000000000002000000000000000000000
Ciphertext:               684d4b1aa601b4bf3833659e4d1717a8864239550fb8b22ec5fcc5787732ce7563c8ba8a1310896170148ac189f061ca3ca19cb3278fcd5e
Reciphers for ciphertext: 0
Decipheredtext:           0000000000002000000000000000000000
RESULT CIPHER-DECIPHER: -----OK-----


Test: 43
Crypto pad: 1
Symmetric key bit length: 192
IV bit length:            64
Plaintext bit length:     136
Symmetric key:            000000000000000000000000001000000000000000000000
IV:                       0000000000100000
Plaintext:                0000000000001000000000000000000000
Ciphertext:               220776b63621199c5a1774d2fbb1a8d053badee9805965987c3eae2b209b4c1306f130e7c143a214035d6dd5af189307c4a757f3d118ba7c
Reciphers for ciphertext: 0
Decipheredtext:           0000000000001000000000000000000000
RESULT CIPHER-DECIPHER: -----OK-----


Test: 44
Crypto pad: 1
Symmetric key bit length: 192
IV bit length:            64
Plaintext bit length:     136
Symmetric key:            000000000000000000000000000800000000000000000000
IV:                       0000000000080000
Plaintext:                0000000000000800000000000000000000
Ciphertext:               7b1beafa8391681ad09671b012e5451e9d053bca46a9a18fd4dc4dc40a0c1d3f5fe8c170dccb202821533cec2aec7285894aa5fd9bab311c
Reciphers for ciphertext: 0
Decipheredtext:           0000000000000800000000000000000000
RESULT CIPHER-DECIPHER: -----OK-----


Test: 45
Crypto pad: 1
Symmetric key bit length: 192
IV bit length:            64
Plaintext bit length:     136
Symmetric key:            000000000000000000000000000400000000000000000000
IV:                       0000000000040000
Plaintext:                0000000000000400000000000000000000
Ciphertext:               736c421da900f8afe91f45783e196796792726014a5abcdf8d9d65f2b1907a8b600406fdf16a4e15e5dde362cb955741cbc78c2713556978
Reciphers for ciphertext: 0
Decipheredtext:           0000000000000400000000000000000000
RESULT CIPHER-DECIPHER: -----OK-----


Test: 46
Crypto pad: 2
Symmetric key bit length: 192
IV bit length:            64
Plaintext bit length:     136
Symmetric key:            000000000000000000000000000200000000000000000000
IV:                       0000000000020000
Plaintext:                0000000000000200000000000000000000
Ciphertext:               d7361674e7a184346591043aae0c488ab2028dc7000be93e3798913a03f2cd600f2776969ee58a585b15dbb81c69c029453c661edc2f1cda
Reciphers for ciphertext: 0
Decipheredtext:           0000000000000200000000000000000000
RESULT CIPHER-DECIPHER: -----OK-----


Test: 47
Crypto pad: 2
Symmetric key bit length: 192
IV bit length:            64
Plaintext bit length:     136
Symmetric key:            000000000000000000000000000100000000000000000000
IV:                       0000000000010000
Plaintext:                0000000000000100000000000000000000
Ciphertext:               fd3a279991c344fb81539a6c39b3dfa721f80898d8265d0e4ae626ed52f95ed80c22420149f6bc377a1e71875dd063bde95d7ca32e088b8b
Reciphers for ciphertext: 2
Decipheredtext:           0000000000000100000000000000000000
RESULT CIPHER-DECIPHER: -----OK-----


Test: 48
Crypto pad: 1
Symmetric key bit length: 192
IV bit length:            64
Plaintext bit length:     136
Symmetric key:            000000000000000000000000000080000000000000000000
IV:                       0000000000008000
Plaintext:                0000000000000080000000000000000000
Ciphertext:               3d0fb2f1b2a588a9685d8c51673f600fde49e8a66c468ddbf1a99ec82eb4715fe94cb6ba93e1b7e6b60617160f5b0204cfd8aa2366de2a11
Reciphers for ciphertext: 0
Decipheredtext:           0000000000000080000000000000000000
RESULT CIPHER-DECIPHER: -----OK-----


Test: 49
Crypto pad: 2
Symmetric key bit length: 192
IV bit length:            64
Plaintext bit length:     136
Symmetric key:            000000000000000000000000000040000000000000000000
IV:                       0000000000004000
Plaintext:                0000000000000040000000000000000000
Ciphertext:               b9eb520caf6f5f04dd31eb1246cf36d4cf9aa982438688bb3496f9f252b1969a371a189e39a128c05ba7bfd3823d78c7e20db5b0df90b00c
Reciphers for ciphertext: 0
Decipheredtext:           0000000000000040000000000000000000
RESULT CIPHER-DECIPHER: -----OK-----


Test: 50
Crypto pad: 1
Symmetric key bit length: 192
IV bit length:            64
Plaintext bit length:     136
Symmetric key:            000000000000000000000000000020000000000000000000
IV:                       0000000000002000
Plaintext:                0000000000000020000000000000000000
Ciphertext:               1ccbdca80c0430dc3f23b1f71362b7d1e4743fa7d71403c6eceb964b4573c82d97978d2fc44e26f42c3bd32cd8610df7265aec84a44b04fe
Reciphers for ciphertext: 0
Decipheredtext:           0000000000000020000000000000000000
RESULT CIPHER-DECIPHER: -----OK-----


Test: 51
Crypto pad: 0
Symmetric key bit length: 192
IV bit length:            64
Plaintext bit length:     136
Symmetric key:            000000000000000000000000000010000000000000000000
IV:                       0000000000001000
Plaintext:                0000000000000010000000000000000000
Ciphertext:               73edfc9e4b932edbb91f110d973be4157079e2cd081948d3b674962601b4292ba339ad268786930f4424fc0b2ef05ef14db58bcb5f35c977
Reciphers for ciphertext: 0
Decipheredtext:           0000000000000010000000000000000000
RESULT CIPHER-DECIPHER: -----OK-----


Test: 52
Crypto pad: 0
Symmetric key bit length: 192
IV bit length:            64
Plaintext bit length:     136
Symmetric key:            000000000000000000000000000008000000000000000000
IV:                       0000000000000800
Plaintext:                0000000000000008000000000000000000
Ciphertext:               4989c291c53d1f8cc6b3ff325eccf0bfd055fbc12d35fdcf0939700db4c9679a5f53ae438b3c364a0226993f573202e0fbfa3bbc052c73b2
Reciphers for ciphertext: 0
Decipheredtext:           0000000000000008000000000000000000
RESULT CIPHER-DECIPHER: -----OK-----


Test: 53
Crypto pad: 1
Symmetric key bit length: 192
IV bit length:            64
Plaintext bit length:     136
Symmetric key:            000000000000000000000000000004000000000000000000
IV:                       0000000000000400
Plaintext:                0000000000000004000000000000000000
Ciphertext:               d9f00345e487320ac849b0174eefd205f954240f2e4f04c6ae195204d775e657e2b676f2f79b3dafff027a737e5b5ae398c31b2742b47d4f
Reciphers for ciphertext: 1
Decipheredtext:           0000000000000004000000000000000000
RESULT CIPHER-DECIPHER: -----OK-----


Test: 54
Crypto pad: 0
Symmetric key bit length: 192
IV bit length:            64
Plaintext bit length:     136
Symmetric key:            000000000000000000000000000002000000000000000000
IV:                       0000000000000200
Plaintext:                0000000000000002000000000000000000
Ciphertext:               854d64694cbe957d03143ed4851d8b035fa36886e11f56aaee777ceb2126998945b5bb685da62bc5d1c4d035fd13814c75c0c161558d5908
Reciphers for ciphertext: 0
Decipheredtext:           0000000000000002000000000000000000
RESULT CIPHER-DECIPHER: -----OK-----


Test: 55
Crypto pad: 1
Symmetric key bit length: 192
IV bit length:            64
Plaintext bit length:     136
Symmetric key:            000000000000000000000000000001000000000000000000
IV:                       0000000000000100
Plaintext:                0000000000000001000000000000000000
Ciphertext:               407dd02bec67b050c26b13a8fb559b4d3a6fd91c24c0578a667d04f82fa6903165ef49a7bf946c464cabfd776e63813552002ed12cbbc848
Reciphers for ciphertext: 2
Decipheredtext:           0000000000000001000000000000000000
RESULT CIPHER-DECIPHER: -----OK-----


Test: 56
Crypto pad: 2
Symmetric key bit length: 192
IV bit length:            64
Plaintext bit length:     136
Symmetric key:            000000000000000000000000000000800000000000000000
IV:                       0000000000000080
Plaintext:                0000000000000000800000000000000000
Ciphertext:               58c1fd3d7090d2793be8282f350d25cebc09ca4db9901fb04876ff6202c253cb58c1fd3d7090d2797f6eff7b0fc088fdd295458b66379b07
Reciphers for ciphertext: 0
Decipheredtext:           0000000000000000800000000000000000
RESULT CIPHER-DECIPHER: -----OK-----


Test: 57
Crypto pad: 1
Symmetric key bit length: 192
IV bit length:            64
Plaintext bit length:     136
Symmetric key:            000000000000000000000000000000400000000000000000
IV:                       0000000000000040
Plaintext:                0000000000000000400000000000000000
Ciphertext:               1257c7bcc363aabfea50a6f4971923a68c2a2f44917b73cb3b8581decb0a3ddb1257c7bcc363aabfd9343c027c60fc891b48192f7d767a2d
Reciphers for ciphertext: 0
Decipheredtext:           0000000000000000400000000000000000
RESULT CIPHER-DECIPHER: -----OK-----


Test: 58
Crypto pad: 0
Symmetric key bit length: 192
IV bit length:            64
Plaintext bit length:     136
Symmetric key:            000000000000000000000000000000200000000000000000
IV:                       0000000000000020
Plaintext:                0000000000000000200000000000000000
Ciphertext:               2c983f0d1f5a170f41925e684595add9075acb8ad0c4cfa09855f5872d06db7f2c983f0d1f5a170fc7c0d4a280108d28478457490e354e72
Reciphers for ciphertext: 0
Decipheredtext:           0000000000000000200000000000000000
RESULT CIPHER-DECIPHER: -----OK-----


Test: 59
Crypto pad: 1
Symmetric key bit length: 192
IV bit length:            64
Plaintext bit length:     136
Symmetric key:            000000000000000000000000000000100000000000000000
IV:                       0000000000000010
Plaintext:                0000000000000000100000000000000000
Ciphertext:               61baa3d60879ea385a439764085539fed057e9d568a43856c1f66aa4e4da192f61baa3d60879ea3824eaa01db020b1f5658c2c009d710ddf
Reciphers for ciphertext: 0
Decipheredtext:           0000000000000000100000000000000000
RESULT CIPHER-DECIPHER: -----OK-----


Test: 60
Crypto pad: 0
Symmetric key bit length: 192
IV bit length:            64
Plaintext bit length:     136
Symmetric key:            000000000000000000000000000000080000000000000000
IV:                       0000000000000008
Plaintext:                0000000000000000080000000000000000
Ciphertext:               50aa8bbd5cb60bae56f7a2b5f1658f20d487c1c351c38a53b11b137d814ea04050aa8bbd5cb60bae821e0318275e6e71aeeaefdcccc7fea6
Reciphers for ciphertext: 0
Decipheredtext:           0000000000000000080000000000000000
RESULT CIPHER-DECIPHER: -----OK-----


Test: 61
Crypto pad: 0
Symmetric key bit length: 192
IV bit length:            64
Plaintext bit length:     136
Symmetric key:            000000000000000000000000000000040000000000000000
IV:                       0000000000000004
Plaintext:                0000000000000000040000000000000000
Ciphertext:               f9e5d6cd23783dbc52b3cbf0da81b34a59273d325470f901f6cab0ebacdfccc8f9e5d6cd23783dbc28d5402f11319a10026dacbc3aba7ce9
Reciphers for ciphertext: 0
Decipheredtext:           0000000000000000040000000000000000
RESULT CIPHER-DECIPHER: -----OK-----


Test: 62
Crypto pad: 1
Symmetric key bit length: 192
IV bit length:            64
Plaintext bit length:     136
Symmetric key:            000000000000000000000000000000020000000000000000
IV:                       0000000000000002
Plaintext:                0000000000000000020000000000000000
Ciphertext:               362d56521bbc98a1ba3325e5fab370b0afdd677381c4ac3255861d81f8a06153362d56521bbc98a13043513bfb83239112716989643b78f3
Reciphers for ciphertext: 0
Decipheredtext:           0000000000000000020000000000000000
RESULT CIPHER-DECIPHER: -----OK-----


Test: 63
Crypto pad: 1
Symmetric key bit length: 192
IV bit length:            64
Plaintext bit length:     136
Symmetric key:            000000000000000000000000000000010000000000000000
IV:                       0000000000000001
Plaintext:                0000000000000000010000000000000000
Ciphertext:               da4341f68183d0ef61c888d8685e647cbbe68173fd011be1bea368494a9fe869166b40b44aba4bd671545a28fdfa92d329ff33c9d22a62d0
Reciphers for ciphertext: 1
Decipheredtext:           0000000000000000010000000000000000
RESULT CIPHER-DECIPHER: -----OK-----


Test: 64
Crypto pad: 2
Symmetric key bit length: 192
IV bit length:            64
Plaintext bit length:     136
Symmetric key:            000000000000000000000000000000008000000000000000
IV:                       8000000000000000
Plaintext:                0000000000000000008000000000000000
Ciphertext:               6a7fc86c02379a5e9d2f1ecf02080c9696490304c4f695ca5eefb48f0a384ec66a7fc86c02379a5e88cf57ec50721d1e3ab74e751b433476
Reciphers for ciphertext: 0
Decipheredtext:           0000000000000000008000000000000000
RESULT CIPHER-DECIPHER: -----OK-----


Test: 65
Crypto pad: 1
Symmetric key bit length: 192
IV bit length:            64
Plaintext bit length:     136
Symmetric key:            000000000000000000000000000000004000000000000000
IV:                       4000000000000000
Plaintext:                0000000000000000004000000000000000
Ciphertext:               9dccabdba2c00e51f8c5e72c1dd46507313700685b0373610e6a0b66457441bc9dccabdba2c00e51bc52220388c8e8b3a65ab2cf7708cfc6
Reciphers for ciphertext: 0
Decipheredtext:           0000000000000000004000000000000000
RESULT CIPHER-DECIPHER: -----OK-----


Test: 66
Crypto pad: 1
Symmetric key bit length: 192
IV bit length:            64
Plaintext bit length:     136
Symmetric key:            000000000000000000000000000000002000000000000000
IV:                       2000000000000000
Plaintext:                0000000000000000002000000000000000
Ciphertext:               388f0acd72a772e56666eda6af9659e8e1115d8df11f4d4f47d3ce3ac5aeea42388f0acd72a772e578b53d85028f85948cb0d700e5c23e42
Reciphers for ciphertext: 0
Decipheredtext:           0000000000000000002000000000000000
RESULT CIPHER-DECIPHER: -----OK-----


Test: 67
Crypto pad: 1
Symmetric key bit length: 192
IV bit length:            64
Plaintext bit length:     136
Symmetric key:            000000000000000000000000000000001000000000000000
IV:                       1000000000000000
Plaintext:                0000000000000000001000000000000000
Ciphertext:               6f68674bbeaaee982f9481586c9d82987be53e66aaced42479960102da0465e86f68674bbeaaee98fa0f12729c6a836c3dbdc5606b7fd3bd
Reciphers for ciphertext: 0
Decipheredtext:           0000000000000000001000000000000000
RESULT CIPHER-DECIPHER: -----OK-----


Test: 68
Crypto pad: 1
Symmetric key bit length: 192
IV bit length:            64
Plaintext bit length:     136
Symmetric key:            000000000000000000000000000000000800000000000000
IV:                       0800000000000000
Plaintext:                0000000000000000000800000000000000
Ciphertext:               7d55d5f563fe10c4afd0d5294e6456e28a5c593f57d19b79c0b7960e3e4b082c7d55d5f563fe10c42c3baef6e99c799ac919616da690f384
Reciphers for ciphertext: 0
Decipheredtext:           0000000000000000000800000000000000
RESULT CIPHER-DECIPHER: -----OK-----


Test: 69
Crypto pad: 0
Symmetric key bit length: 192
IV bit length:            64
Plaintext bit length:     136
Symmetric key:            000000000000000000000000000000000400000000000000
IV:                       0400000000000000
Plaintext:                0000000000000000000400000000000000
Ciphertext:               ca8e3c5d0c33aa83938cb16a1b6fd4944e9a5312075df30d9fd7a84304ffd9ddca8e3c5d0c33aa8310a44d7392c6327ea6ee8b3ac484136a
Reciphers for ciphertext: 0
Decipheredtext:           0000000000000000000400000000000000
RESULT CIPHER-DECIPHER: -----OK-----


Test: 70
Crypto pad: 0
Symmetric key bit length: 192
IV bit length:            64
Plaintext bit length:     136
Symmetric key:            000000000000000000000000000000000200000000000000
IV:                       0200000000000000
Plaintext:                0000000000000000000200000000000000
Ciphertext:               735e4ddb6c2b34c5f39e7659eb57b0e0e6b5e613287a37f780bb044d7e8a7cda735e4ddb6c2b34c5f3701f11bcdaf91d27f019a4b1a9c1fb
Reciphers for ciphertext: 0
Decipheredtext:           0000000000000000000200000000000000
RESULT CIPHER-DECIPHER: -----OK-----


Test: 71
Crypto pad: 2
Symmetric key bit length: 192
IV bit length:            64
Plaintext bit length:     136
Symmetric key:            000000000000000000000000000000000100000000000000
IV:                       0100000000000000
Plaintext:                0000000000000000000100000000000000
Ciphertext:               cfe67934b59a302a4c71dcdd856d53f799243115e820ccc063ef310da474fee80d9f279ba5d87260f75a46d02db77b90087256d4fd487fe0
Reciphers for ciphertext: 1
Decipheredtext:           0000000000000000000100000000000000
RESULT CIPHER-DECIPHER: -----OK-----


Test: 72
Crypto pad: 0
Symmetric key bit length: 192
IV bit length:            64
Plaintext bit length:     136
Symmetric key:            000000000000000000000000000000000080000000000000
IV:                       0080000000000000
Plaintext:                0000000000000000000080000000000000
Ciphertext:               8fb6545ddfa2c85be1bf3a3459ceb1b28135d8cf654dfd87e86cc8e1ac4f95008fb6545ddfa2c85b6230c6733b92a5d7c315ce944d842269
Reciphers for ciphertext: 0
Decipheredtext:           0000000000000000000080000000000000
RESULT CIPHER-DECIPHER: -----OK-----


Test: 73
Crypto pad: 0
Symmetric key bit length: 192
IV bit length:            64
Plaintext bit length:     136
Symmetric key:            000000000000000000000000000000000040000000000000
IV:                       0040000000000000
Plaintext:                0000000000000000000040000000000000
Ciphertext:               80bc2b4680ef0cc0c35ce0b690e7331dd878d13831ff26de566653914d66a83080bc2b4680ef0cc037e49c3ed02ad7b20bf8ddfd0725c4b0
Reciphers for ciphertext: 0
Decipheredtext:           0000000000000000000040000000000000
RESULT CIPHER-DECIPHER: -----OK-----


Test: 74
Crypto pad: 0
Symmetric key bit length: 192
IV bit length:            64
Plaintext bit length:     136
Symmetric key:            000000000000000000000000000000000020000000000000
IV:                       0020000000000000
Plaintext:                0000000000000000000020000000000000
Ciphertext:               5fc430d733353fde5cc665033a1cf4701205faafa28cde06c81a9abd8b537be45fc430d733353fde0143e7150d07b3330f13f0f57a4f7c7d
Reciphers for ciphertext: 0
Decipheredtext:           0000000000000000000020000000000000
RESULT CIPHER-DECIPHER: -----OK-----


Test: 75
Crypto pad: 0
Symmetric key bit length: 192
IV bit length:            64
Plaintext bit length:     136
Symmetric key:            000000000000000000000000000000000010000000000000
IV:                       0010000000000000
Plaintext:                0000000000000000000010000000000000
Ciphertext:               79a574894ef08872576c2762dbfaea77d758dd8d5ac60461e0c950bce7937ae779a574894ef088723a3024036855334fa6d8e224133a760f
Reciphers for ciphertext: 0
Decipheredtext:           0000000000000000000010000000000000
RESULT CIPHER-DECIPHER: -----OK-----


Test: 76
Crypto pad: 0
Symmetric key bit length: 192
IV bit length:            64
Plaintext bit length:     136
Symmetric key:            000000000000000000000000000000000008000000000000
IV:                       0008000000000000
Plaintext:                0000000000000000000008000000000000
Ciphertext:               cc8fc8b014950ecd3cedbe98d685f5ef9f4323b50da293f921d60f2e335fa3fccc8fc8b014950ecd7c88ab7ed1342c75a8e18cf9c9148e9e
Reciphers for ciphertext: 0
Decipheredtext:           0000000000000000000008000000000000
RESULT CIPHER-DECIPHER: -----OK-----


Test: 77
Crypto pad: 2
Symmetric key bit length: 192
IV bit length:            64
Plaintext bit length:     136
Symmetric key:            000000000000000000000000000000000004000000000000
IV:                       0004000000000000
Plaintext:                0000000000000000000004000000000000
Ciphertext:               243e0e185a5cb24dd31a1773017cc93395f34d803aeda478a797142d40fc232f243e0e185a5cb24d5cb1a00b9b37f30a4c89d2b2678dd777
Reciphers for ciphertext: 0
Decipheredtext:           0000000000000000000004000000000000
RESULT CIPHER-DECIPHER: -----OK-----


Test: 78
Crypto pad: 0
Symmetric key bit length: 192
IV bit length:            64
Plaintext bit length:     136
Symmetric key:            000000000000000000000000000000000002000000000000
IV:                       0002000000000000
Plaintext:                0000000000000000000002000000000000
Ciphertext:               ad2f9596f560da76e55e35d9605cd906d1e852ceb72af762ce65ffadd122043bad2f9596f560da7692592406e0d357bc385edb5b2919106a
Reciphers for ciphertext: 0
Decipheredtext:           0000000000000000000002000000000000
RESULT CIPHER-DECIPHER: -----OK-----


Test: 79
Crypto pad: 2
Symmetric key bit length: 192
IV bit length:            64
Plaintext bit length:     136
Symmetric key:            000000000000000000000000000000000001000000000000
IV:                       0001000000000000
Plaintext:                0000000000000000000001000000000000
Ciphertext:               51746f85e283b035f01f739a6fc257d42dc18848196e0025c75078cc39fd0c6af356834379d165cd2bc5f75d96a95d8ecd8940226551b875
Reciphers for ciphertext: 1
Decipheredtext:           0000000000000000000001000000000000
RESULT CIPHER-DECIPHER: -----OK-----


Test: 80
Crypto pad: 1
Symmetric key bit length: 192
IV bit length:            64
Plaintext bit length:     136
Symmetric key:            000000000000000000000000000000000000800000000000
IV:                       0000800000000000
Plaintext:                0000000000000000000000800000000000
Ciphertext:               c449367493c7ad58dce830f9ca0a238dc352939c9c6254f8aab37f2d51f1f3bec449367493c7ad58ef6acb1b84305fd833e0ce11932d206e
Reciphers for ciphertext: 0
Decipheredtext:           0000000000000000000000800000000000
RESULT CIPHER-DECIPHER: -----OK-----


Test: 81
Crypto pad: 2
Symmetric key bit length: 192
IV bit length:            64
Plaintext bit length:     136
Symmetric key:            000000000000000000000000000000000000400000000000
IV:                       0000400000000000
Plaintext:                0000000000000000000000400000000000
Ciphertext:               e1e514f51ebac2fab77bd08fe5d2cea5a6c053bcc31e9f39858d1051b1296c80e1e514f51ebac2fa08586d89b8dcc75facb0b8b68765d307
Reciphers for ciphertext: 0
Decipheredtext:           0000000000000000000000400000000000
RESULT CIPHER-DECIPHER: -----OK-----


Test: 82
Crypto pad: 0
Symmetric key bit length: 192
IV bit length:            64
Plaintext bit length:     136
Symmetric key:            000000000000000000000000000000000000200000000000
IV:                       0000200000000000
Plaintext:                0000000000000000000000200000000000
Ciphertext:               b80fdf395beac3d41184cbfa3cbb46167a1f83916ba0dd9b9ef287c0ee7c7a05b80fdf395beac3d4f0f38f59f292ce7f326562e309607b8d
Reciphers for ciphertext: 0
Decipheredtext:           0000000000000000000000200000000000
RESULT CIPHER-DECIPHER: -----OK-----


Test: 83
Crypto pad: 1
Symmetric key bit length: 192
IV bit length:            64
Plaintext bit length:     136
Symmetric key:            000000000000000000000000000000000000100000000000
IV:                       0000100000000000
Plaintext:                0000000000000000000000100000000000
Ciphertext:               f23cee70708f971e2987feecd6a72871e5ead6917a9a830cf40562914b323ad4f23cee70708f971e0ccef889d147ae84ef666685f7f14a6e
Reciphers for ciphertext: 0
Decipheredtext:           0000000000000000000000100000000000
RESULT CIPHER-DECIPHER: -----OK-----


Test: 84
Crypto pad: 2
Symmetric key bit length: 192
IV bit length:            64
Plaintext bit length:     136
Symmetric key:            000000000000000000000000000000000000080000000000
IV:                       0000080000000000
Plaintext:                0000000000000000000000080000000000
Ciphertext:               422b29c9475786557b78ceafaac945fc5e3e69b405fafb8a0fe5969da3923c4e422b29c947578655ea7cefbebd8134e3addd08360a8b0941
Reciphers for ciphertext: 0
Decipheredtext:           0000000000000000000000080000000000
RESULT CIPHER-DECIPHER: -----OK-----


Test: 85
Crypto pad: 0
Symmetric key bit length: 192
IV bit length:            64
Plaintext bit length:     136
Symmetric key:            000000000000000000000000000000000000040000000000
IV:                       0000040000000000
Plaintext:                0000000000000000000000040000000000
Ciphertext:               9e70647cc895f17a5b9d2e888b8324e04f0e5c67b319b8fb3d14def63f6875df9e70647cc895f17a0462783c37d0a4e3abb7bb7d4de0ab29
Reciphers for ciphertext: 0
Decipheredtext:           0000000000000000000000040000000000
RESULT CIPHER-DECIPHER: -----OK-----


Test: 86
Crypto pad: 0
Symmetric key bit length: 192
IV bit length:            64
Plaintext bit length:     136
Symmetric key:            000000000000000000000000000000000000020000000000
IV:                       0000020000000000
Plaintext:                0000000000000000000000020000000000
Ciphertext:               c1da2546d26523d60d59962f369a38f010a0c3ed96f12de5da206f04ea913578c1da2546d26523d6db8d92d85e5b5094144765b196223021
Reciphers for ciphertext: 0
Decipheredtext:           0000000000000000000000020000000000
RESULT CIPHER-DECIPHER: -----OK-----


Test: 87
Crypto pad: 1
Symmetric key bit length: 192
IV bit length:            64
Plaintext bit length:     136
Symmetric key:            000000000000000000000000000000000000010000000000
IV:                       0000010000000000
Plaintext:                0000000000000000000000010000000000
Ciphertext:               74603a2518e7bc2900085e62001992be15c0df9968cb05d899e32913f6cf7e2ffbe00a8a1ef8ad72389b877135e9d8b4c6e1e1b507a8886f
Reciphers for ciphertext: 1
Decipheredtext:           0000000000000000000000010000000000
RESULT CIPHER-DECIPHER: -----OK-----


Test: 88
Crypto pad: 0
Symmetric key bit length: 192
IV bit length:            64
Plaintext bit length:     136
Symmetric key:            000000000000000000000000000000000000008000000000
IV:                       0000008000000000
Plaintext:                0000000000000000000000008000000000
Ciphertext:               2b8391e3b2e3ab78273ab6982ff4a474e9c23536201fe966278a209716e01eb62b8391e3b2e3ab788db667191852a45327ba027500230afa
Reciphers for ciphertext: 0
Decipheredtext:           0000000000000000000000008000000000
RESULT CIPHER-DECIPHER: -----OK-----


Test: 89
Crypto pad: 1
Symmetric key bit length: 192
IV bit length:            64
Plaintext bit length:     136
Symmetric key:            000000000000000000000000000000000000004000000000
IV:                       0000004000000000
Plaintext:                0000000000000000000000004000000000
Ciphertext:               9adbca892dac38dfa983c231b1926c26e0ac87770fc61137eec5e3fb2ff9abfa9adbca892dac38df374114f79256777950f353c163d2b6b5
Reciphers for ciphertext: 0
Decipheredtext:           0000000000000000000000004000000000
RESULT CIPHER-DECIPHER: -----OK-----


Test: 90
Crypto pad: 2
Symmetric key bit length: 192
IV bit length:            64
Plaintext bit length:     136
Symmetric key:            000000000000000000000000000000000000002000000000
IV:                       0000002000000000
Plaintext:                0000000000000000000000002000000000
Ciphertext:               b0da5b1b98427cb63375fc57bbe92c4a1d361c8d3b326877cf118c3017e31415b0da5b1b98427cb609e8546146544b305f47a59c86b3d4f4
Reciphers for ciphertext: 0
Decipheredtext:           0000000000000000000000002000000000
RESULT CIPHER-DECIPHER: -----OK-----


Test: 91
Crypto pad: 1
Symmetric key bit length: 192
IV bit length:            64
Plaintext bit length:     136
Symmetric key:            000000000000000000000000000000000000001000000000
IV:                       0000001000000000
Plaintext:                0000000000000000000000001000000000
Ciphertext:               4afdcaed2ad354d8d88f1f4cf59b284d59721db47ee01d40a56b2a3790fabb164afdcaed2ad354d8e3d7beb76fcc6ab60bda675f3acb0cf8
Reciphers for ciphertext: 0
Decipheredtext:           0000000000000000000000001000000000
RESULT CIPHER-DECIPHER: -----OK-----


Test: 92
Crypto pad: 2
Symmetric key bit length: 192
IV bit length:            64
Plaintext bit length:     136
Symmetric key:            000000000000000000000000000000000000000800000000
IV:                       0000000800000000
Plaintext:                0000000000000000000000000800000000
Ciphertext:               1713ce429c061c35f8219661e896c0bfc04bb26d9478e046aeddd355a0bdc9d51713ce429c061c35a98cc948b3ff21c7535cab757aa55061
Reciphers for ciphertext: 0
Decipheredtext:           0000000000000000000000000800000000
RESULT CIPHER-DECIPHER: -----OK-----


Test: 93
Crypto pad: 1
Symmetric key bit length: 192
IV bit length:            64
Plaintext bit length:     136
Symmetric key:            000000000000000000000000000000000000000400000000
IV:                       0000000400000000
Plaintext:                0000000000000000000000000400000000
Ciphertext:               ecbdac30642f1cd1eb654e01f7d286f6517cea18ca3d80911d102e5f1e221adeecbdac30642f1cd1a3c3abcf7512d261529ffe19d60a0ede
Reciphers for ciphertext: 0
Decipheredtext:           0000000000000000000000000400000000
RESULT CIPHER-DECIPHER: -----OK-----


Test: 94
Crypto pad: 1
Symmetric key bit length: 192
IV bit length:            64
Plaintext bit length:     136
Symmetric key:            000000000000000000000000000000000000000200000000
IV:                       0000000200000000
Plaintext:                0000000000000000000000000200000000
Ciphertext:               70cf8a1389627714fe14ff5a357e4b9b6a5504c7535f5a0370b0b74b75ea1c4570cf8a138962771436a1626919ec04a029772a347f770314
Reciphers for ciphertext: 0
Decipheredtext:           0000000000000000000000000200000000
RESULT CIPHER-DECIPHER: -----OK-----


Test: 95
Crypto pad: 2
Symmetric key bit length: 192
IV bit length:            64
Plaintext bit length:     136
Symmetric key:            000000000000000000000000000000000000000100000000
IV:                       0000000100000000
Plaintext:                0000000000000000000000000100000000
Ciphertext:               244eace5c2beaed1f9f2a34cd45e2d58e5820c143ca52746a822c2dd797b2ef0aeb5f5ede22d1a366b8d0b3fc8ef722096adf0ff3acd8a16
Reciphers for ciphertext: 1
Decipheredtext:           0000000000000000000000000100000000
RESULT CIPHER-DECIPHER: -----OK-----


Test: 96
Crypto pad: 0
Symmetric key bit length: 192
IV bit length:            64
Plaintext bit length:     136
Symmetric key:            000000000000000000000000000000000000000080000000
IV:                       0000000080000000
Plaintext:                0000000000000000000000000080000000
Ciphertext:               ea8d12eb40ba3b104c60628d6f08f63597dc5e727bf36b6a1d164f0703e9cbb8ea8d12eb40ba3b105b4173e57dbb1e85dc1dcd7edbd5e09f
Reciphers for ciphertext: 0
Decipheredtext:           0000000000000000000000000080000000
RESULT CIPHER-DECIPHER: -----OK-----


Test: 97
Crypto pad: 2
Symmetric key bit length: 192
IV bit length:            64
Plaintext bit length:     136
Symmetric key:            000000000000000000000000000000000000000040000000
IV:                       0000000040000000
Plaintext:                0000000000000000000000000040000000
Ciphertext:               9378e4bf59cfd179b4a20fe950d238ecbc7dd7b4debba5a95f70b2ebb9c575cb9378e4bf59cfd17910388f3496f65e85d80a4a4b43bd7f6c
Reciphers for ciphertext: 0
Decipheredtext:           0000000000000000000000000040000000
RESULT CIPHER-DECIPHER: -----OK-----


Test: 98
Crypto pad: 1
Symmetric key bit length: 192
IV bit length:            64
Plaintext bit length:     136
Symmetric key:            000000000000000000000000000000000000000020000000
IV:                       0000000020000000
Plaintext:                0000000000000000000000000020000000
Ciphertext:               9d5fe20679675f35c3066bdc2af78a0d7542842e93d4ea79d411b2b00f7ddb429d5fe20679675f351eae0b1a4ba875fe17923da5ad103746
Reciphers for ciphertext: 0
Decipheredtext:           0000000000000000000000000020000000
RESULT CIPHER-DECIPHER: -----OK-----


Test: 99
Crypto pad: 2
Symmetric key bit length: 192
IV bit length:            64
Plaintext bit length:     136
Symmetric key:            000000000000000000000000000000000000000010000000
IV:                       0000000010000000
Plaintext:                0000000000000000000000000010000000
Ciphertext:               b7423ceae060c1d8ab3bd0048af07bfd8011e304cefd3be0f688a13fcf74d93eb7423ceae060c1d8d7e62635f2ccaa3c531d1a0ca2b00be7
Reciphers for ciphertext: 0
Decipheredtext:           0000000000000000000000000010000000
RESULT CIPHER-DECIPHER: -----OK-----


Test: 100
Crypto pad: 0
Symmetric key bit length: 192
IV bit length:            64
Plaintext bit length:     136
Symmetric key:            000000000000000000000000000000000000000008000000
IV:                       0000000008000000
Plaintext:                0000000000000000000000000008000000
Ciphertext:               42f81aa698b9d5f4b4f3078bafaaa5cd967571952a4fcf9c25380bc84151d46642f81aa698b9d5f43c0b5c525609108f141a0998ca301135
Reciphers for ciphertext: 0
Decipheredtext:           0000000000000000000000000008000000
RESULT CIPHER-DECIPHER: -----OK-----


Test: 101
Crypto pad: 0
Symmetric key bit length: 192
IV bit length:            64
Plaintext bit length:     136
Symmetric key:            000000000000000000000000000000000000000004000000
IV:                       0000000004000000
Plaintext:                0000000000000000000000000004000000
Ciphertext:               186b6570b5de9aea4c0b43bdb2b938951726c515f05f90204ed507ef429ad708186b6570b5de9aeaa6af45d751056d3a08ae247fec60e787
Reciphers for ciphertext: 0
Decipheredtext:           0000000000000000000000000004000000
RESULT CIPHER-DECIPHER: -----OK-----


Test: 102
Crypto pad: 0
Symmetric key bit length: 192
IV bit length:            64
Plaintext bit length:     136
Symmetric key:            000000000000000000000000000000000000000002000000
IV:                       0000000002000000
Plaintext:                0000000000000000000000000002000000
Ciphertext:               544768cff6da90e4ae1cc8477e7ee43c5fce5fdb5a7e6bdcf18320fa9a0c9e17544768cff6da90e4f8c8fa271ee907592b3c4fc274a7a383
Reciphers for ciphertext: 0
Decipheredtext:           0000000000000000000000000002000000
RESULT CIPHER-DECIPHER: -----OK-----


Test: 103
Crypto pad: 1
Symmetric key bit length: 192
IV bit length:            64
Plaintext bit length:     136
Symmetric key:            000000000000000000000000000000000000000001000000
IV:                       0000000001000000
Plaintext:                0000000000000000000000000001000000
Ciphertext:               435bf76ae649256c715857a3d66ff6e72a716deebfd15afccfa3607ac5d1d8314d49db1532919c9fdccd0eb3cccafa3000a0aa1ea73eee83
Reciphers for ciphertext: 1
Decipheredtext:           0000000000000000000000000001000000
RESULT CIPHER-DECIPHER: -----OK-----


Test: 104
Crypto pad: 0
Symmetric key bit length: 192
IV bit length:            64
Plaintext bit length:     136
Symmetric key:            000000000000000000000000000000000000000000800000
IV:                       0000000000800000
Plaintext:                0000000000000000000000000000800000
Ciphertext:               869fcfc3b248338fb5192690df300723784e7f9d6028ba38fccec0958d712304869fcfc3b248338fc524e25ece58b911fab45d720584bb1f
Reciphers for ciphertext: 0
Decipheredtext:           0000000000000000000000000000800000
RESULT CIPHER-DECIPHER: -----OK-----


Test: 105
Crypto pad: 2
Symmetric key bit length: 192
IV bit length:            64
Plaintext bit length:     136
Symmetric key:            000000000000000000000000000000000000000000400000
IV:                       0000000000400000
Plaintext:                0000000000000000000000000000400000
Ciphertext:               007f03158062e32402cfff18bb50d13356d7ccad58350ecd98b81b8879ccdf9d007f03158062e324fe89f097f9e6ddad8e919a60e34c8ca6
Reciphers for ciphertext: 0
Decipheredtext:           0000000000000000000000000000400000
RESULT CIPHER-DECIPHER: -----OK-----


Test: 106
Crypto pad: 2
Symmetric key bit length: 192
IV bit length:            64
Plaintext bit length:     136
Symmetric key:            000000000000000000000000000000000000000000200000
IV:                       0000000000200000
Plaintext:                0000000000000000000000000000200000
Ciphertext:               990efc0e0330cac8cf19807c4f948b732568d2309186b4d4f9c887c3a593e53e990efc0e0330cac8dd2441ab3801e5b9af5bdaafa6729abc
Reciphers for ciphertext: 0
Decipheredtext:           0000000000000000000000000000200000
RESULT CIPHER-DECIPHER: -----OK-----


Test: 107
Crypto pad: 2
Symmetric key bit length: 192
IV bit length:            64
Plaintext bit length:     136
Symmetric key:            000000000000000000000000000000000000000000100000
IV:                       0000000000100000
Plaintext:                0000000000000000000000000000100000
Ciphertext:               766459f9803639b28e535f2613cecc4bf939dcfd656d5345c18cb2dec49e0969766459f9803639b213b93682354d2aec02864eaa4267a322
Reciphers for ciphertext: 0
Decipheredtext:           0000000000000000000000000000100000
RESULT CIPHER-DECIPHER: -----OK-----


Test: 108
Crypto pad: 2
Symmetric key bit length: 192
IV bit length:            64
Plaintext bit length:     136
Symmetric key:            000000000000000000000000000000000000000000080000
IV:                       0000000000080000
Plaintext:                0000000000000000000000000000080000
Ciphertext:               e017965bc6c2fbac4edca4a7364b694d830fa942f10029c371369fc4f1bfd733e017965bc6c2fbac214acd5ad8d5e161fa70816a71c80b6e
Reciphers for ciphertext: 0
Decipheredtext:           0000000000000000000000000000080000
RESULT CIPHER-DECIPHER: -----OK-----


Test: 109
Crypto pad: 2
Symmetric key bit length: 192
IV bit length:            64
Plaintext bit length:     136
Symmetric key:            000000000000000000000000000000000000000000040000
IV:                       0000000000040000
Plaintext:                0000000000000000000000000000040000
Ciphertext:               5068b201aeb2638c561b6c9d771c3b1849a1855c51bbcdfaa61fa76ab929b9285068b201aeb2638c80fa32b25a4ec95ae89ba2ecc029ad20
Reciphers for ciphertext: 0
Decipheredtext:           0000000000000000000000000000040000
RESULT CIPHER-DECIPHER: -----OK-----


Test: 110
Crypto pad: 1
Symmetric key bit length: 192
IV bit length:            64
Plaintext bit length:     136
Symmetric key:            000000000000000000000000000000000000000000020000
IV:                       0000000000020000
Plaintext:                0000000000000000000000000000020000
Ciphertext:               fab3603fbceea5155222f88cdc47ad0b928a619fdaa30c4b39dd178594f03be3fab3603fbceea515e841b4f13b567d17441f4fe79864f337
Reciphers for ciphertext: 0
Decipheredtext:           0000000000000000000000000000020000
RESULT CIPHER-DECIPHER: -----OK-----


Test: 111
Crypto pad: 1
Symmetric key bit length: 192
IV bit length:            64
Plaintext bit length:     136
Symmetric key:            000000000000000000000000000000000000000000010000
IV:                       0000000000010000
Plaintext:                0000000000000000000000000000010000
Ciphertext:               e96252970278b92b4d1832ca29fb29ee206309471ef995c0fedfeee9b2e2cf268dd45a2ddf90796c4409bb50fab8620fa80caafaefdef2b1
Reciphers for ciphertext: 1
Decipheredtext:           0000000000000000000000000000010000
RESULT CIPHER-DECIPHER: -----OK-----


Test: 112
Crypto pad: 1
Symmetric key bit length: 192
IV bit length:            64
Plaintext bit length:     136
Symmetric key:            000000000000000000000000000000000000000000008000
IV:                       0000000000008000
Plaintext:                0000000000000000000000000000008000
Ciphertext:               1fceec275133a23a6310e9f6a2b74752104a6c114e107f004c3d1db6d555612c1fceec275133a23a73e13bd51be05e5020c10141adafa787
Reciphers for ciphertext: 0
Decipheredtext:           0000000000000000000000000000008000
RESULT CIPHER-DECIPHER: -----OK-----


Test: 113
Crypto pad: 0
Symmetric key bit length: 192
IV bit length:            64
Plaintext bit length:     136
Symmetric key:            000000000000000000000000000000000000000000004000
IV:                       0000000000004000
Plaintext:                0000000000000000000000000000004000
Ciphertext:               124d9b68367948005b530919869c7f404b368062c52b00777902f76e59849349124d9b68367948004ac06592b3ec600a95fd3ab7d3e5dfeb
Reciphers for ciphertext: 0
Decipheredtext:           0000000000000000000000000000004000
RESULT CIPHER-DECIPHER: -----OK-----


Test: 114
Crypto pad: 0
Symmetric key bit length: 192
IV bit length:            64
Plaintext bit length:     136
Symmetric key:            000000000000000000000000000000000000000000002000
IV:                       0000000000002000
Plaintext:                0000000000000000000000000000002000
Ciphertext:               97c8674b714b1b6b1cc65c3cac5a24d294e00c945b6a2e22f59e505bde8558af97c8674b714b1b6b806dd84bcef2e9e708a9f43c413ec4cc
Reciphers for ciphertext: 0
Decipheredtext:           0000000000000000000000000000002000
RESULT CIPHER-DECIPHER: -----OK-----


Test: 115
Crypto pad: 1
Symmetric key bit length: 192
IV bit length:            64
Plaintext bit length:     136
Symmetric key:            000000000000000000000000000000000000000000001000
IV:                       0000000000001000
Plaintext:                0000000000000000000000000000001000
Ciphertext:               ac2b7e7989014c8e2a19e395a2602ab8fd09234dc5c2c9ae34a737709bd1412cac2b7e7989014c8e97423a785e20d16c4a3b3324f986d106
Reciphers for ciphertext: 0
Decipheredtext:           0000000000000000000000000000001000
RESULT CIPHER-DECIPHER: -----OK-----


Test: 116
Crypto pad: 0
Symmetric key bit length: 192
IV bit length:            64
Plaintext bit length:     136
Symmetric key:            000000000000000000000000000000000000000000000800
IV:                       0000000000000800
Plaintext:                0000000000000000000000000000000800
Ciphertext:               0d717c9b28ce3444985970967bc80a57343b934a2f0345a909c44c6351e93fd00d717c9b28ce3444d7d445866b2d3a3ec3f7bea7b141f90c
Reciphers for ciphertext: 0
Decipheredtext:           0000000000000000000000000000000800
RESULT CIPHER-DECIPHER: -----OK-----


Test: 117
Crypto pad: 2
Symmetric key bit length: 192
IV bit length:            64
Plaintext bit length:     136
Symmetric key:            000000000000000000000000000000000000000000000400
IV:                       0000000000000400
Plaintext:                0000000000000000000000000000000400
Ciphertext:               db3bbb2b17a2aea327b227c2ac14390a339edbfdbdca5cbd6411d6d92eaa4423db3bbb2b17a2aea323923120a280089c67dced137969de33
Reciphers for ciphertext: 0
Decipheredtext:           0000000000000000000000000000000400
RESULT CIPHER-DECIPHER: -----OK-----


Test: 118
Crypto pad: 0
Symmetric key bit length: 192
IV bit length:            64
Plaintext bit length:     136
Symmetric key:            000000000000000000000000000000000000000000000200
IV:                       0000000000000200
Plaintext:                0000000000000000000000000000000200
Ciphertext:               1632d33472311e9a714a83ef5128cf1d409684e495669f0750e74b2d8da635801632d33472311e9a8f701502b331c11cc1044a6d115038d3
Reciphers for ciphertext: 0
Decipheredtext:           0000000000000000000000000000000200
RESULT CIPHER-DECIPHER: -----OK-----


Test: 119
Crypto pad: 0
Symmetric key bit length: 192
IV bit length:            64
Plaintext bit length:     136
Symmetric key:            000000000000000000000000000000000000000000000100
IV:                       0000000000000100
Plaintext:                0000000000000000000000000000000100
Ciphertext:               d43c8bbdb20b3ae39033bb13919562e34a8e2d6826d865ec13c7165dc6fdd364dd7c0bbd61fafd54ba0b23e558890560c25c1d5ddc062b63
Reciphers for ciphertext: 1
Decipheredtext:           0000000000000000000000000000000100
RESULT CIPHER-DECIPHER: -----OK-----


Test: 120
Crypto pad: 0
Symmetric key bit length: 192
IV bit length:            64
Plaintext bit length:     136
Symmetric key:            000000000000000000000000000000000000000000000080
IV:                       0000000000000080
Plaintext:                0000000000000000000000000000000080
Ciphertext:               e40109c42fd282d14f59413695088a384b11704361df9befa1da63e30da2acdee40109c42fd282d14f59413695088a38ece695be428f9ead
Reciphers for ciphertext: 0
Decipheredtext:           0000000000000000000000000000000080
RESULT CIPHER-DECIPHER: -----OK-----


Test: 121
Crypto pad: 2
Symmetric key bit length: 192
IV bit length:            64
Plaintext bit length:     136
Symmetric key:            000000000000000000000000000000000000000000000040
IV:                       0000000000000040
Plaintext:                0000000000000000000000000000000040
Ciphertext:               e3edc8ea7e9f3cd2db7967584d73c1e1de2c27db0cbf117be85e3c678dea1c7be3edc8ea7e9f3cd2db7967584d73c1e1115061c3c6ccb6b9
Reciphers for ciphertext: 0
Decipheredtext:           0000000000000000000000000000000040
RESULT CIPHER-DECIPHER: -----OK-----


Test: 122
Crypto pad: 1
Symmetric key bit length: 192
IV bit length:            64
Plaintext bit length:     136
Symmetric key:            000000000000000000000000000000000000000000000020
IV:                       0000000000000020
Plaintext:                0000000000000000000000000000000020
Ciphertext:               e4bd5bc4ac30873933a9543675cfa7dcc5fbb433f32cec75569b3db0081ef0e3e4bd5bc4ac30873933a9543675cfa7dc50906135e5bcd49f
Reciphers for ciphertext: 0
Decipheredtext:           0000000000000000000000000000000020
RESULT CIPHER-DECIPHER: -----OK-----


Test: 123
Crypto pad: 2
Symmetric key bit length: 192
IV bit length:            64
Plaintext bit length:     136
Symmetric key:            000000000000000000000000000000000000000000000010
IV:                       0000000000000010
Plaintext:                0000000000000000000000000000000010
Ciphertext:               c1e15b92a8fe8d8087ed78955c7c56933faa8e50a2f7bdf9daa08de7e0e9fdbec1e15b92a8fe8d8087ed78955c7c56938d956046703ea625
Reciphers for ciphertext: 0
Decipheredtext:           0000000000000000000000000000000010
RESULT CIPHER-DECIPHER: -----OK-----


Test: 124
Crypto pad: 2
Symmetric key bit length: 192
IV bit length:            64
Plaintext bit length:     136
Symmetric key:            000000000000000000000000000000000000000000000008
IV:                       0000000000000008
Plaintext:                0000000000000000000000000000000008
Ciphertext:               da47e09f98c29ee306d7b262ab6907f51a1d529348070743046ad2fdf176e453da47e09f98c29ee306d7b262ab6907f52b29240e0b3ef3db
Reciphers for ciphertext: 0
Decipheredtext:           0000000000000000000000000000000008
RESULT CIPHER-DECIPHER: -----OK-----


Test: 125
Crypto pad: 0
Symmetric key bit length: 192
IV bit length:            64
Plaintext bit length:     136
Symmetric key:            000000000000000000000000000000000000000000000004
IV:                       0000000000000004
Plaintext:                0000000000000000000000000000000004
Ciphertext:               c34621fc2497a43cc8ff593a039a65a83e05f5741bf09af1877b00953ef6074ec34621fc2497a43cc8ff593a039a65a8458c7527278bd04c
Reciphers for ciphertext: 0
Decipheredtext:           0000000000000000000000000000000004
RESULT CIPHER-DECIPHER: -----OK-----


Test: 126
Crypto pad: 0
Symmetric key bit length: 192
IV bit length:            64
Plaintext bit length:     136
Symmetric key:            000000000000000000000000000000000000000000000002
IV:                       0000000000000002
Plaintext:                0000000000000000000000000000000002
Ciphertext:               050a9dc3fc0189acd8a168f45091968fe3440d622e1a33bbe625bf8a262819b2050a9dc3fc0189acd8a168f45091968f6b13f3fe2d61425d
Reciphers for ciphertext: 0
Decipheredtext:           0000000000000000000000000000000002
RESULT CIPHER-DECIPHER: -----OK-----


Test: 127
Crypto pad: 0
Symmetric key bit length: 192
IV bit length:            64
Plaintext bit length:     136
Symmetric key:            000000000000000000000000000000000000000000000001
IV:                       0000000000000001
Plaintext:                0000000000000000000000000000000001
Ciphertext:               82f737f4776527769721631208871ad0ad2bbb5d96719a2085beac396d9adad23d0ba3d1b488997ff18926ce4635e3ac8db817c57bf7af23
Reciphers for ciphertext: 2
Decipheredtext:           0000000000000000000000000000000001
RESULT CIPHER-DECIPHER: -----OK-----


 DATA SHA1 (hexadecimal): a828e05a5e3c5a4ed3faac70bd717ab0cf764cd0

