
DiceLock 9.0.0.1

 TEST COMPONENTS:
 ----------------
 DiceLock:           DiceLockIVIndexed class
 Operation Mode:     CBC_Mode class
 Crypto pads:        0 - ANSI_X_923 class
                     1 - ISO_IEC_9797_1 class
                     2 - PKCS7 class
 Block Cipher:       Camellia128 class
 Key Modifier:       DecreaseBase0IndexModifier_6_0_0_1 class
   Index bit length: 128
 Random tests:       RandomTestSuite class
                     FrequencyTest class
                     BlockFrequencyTest class
                     CumulativeSumForwardTest class
                     LongestRunOfOnesTest class
                     RunsTest class
 Random alpha:       0.001

 VECTOR TEST: Test vector 7 - Symmetric key all byte value 0xXX, IV all byte value 0xYY and plaintext all byte value 0xZZ


##### INDIVIDUAL TESTS #####

Number tests: 128


Test: 0
Crypto pad: 1
Symmetric key bit length: 128
IV bit length:            128
Plaintext bit length:     128
Symmetric key:            00000000000000000000000000000000
IV:                       ffffffffffffffffffffffffffffffff
Plaintext:                ffffffffffffffffffffffffffffffff
Ciphertext:               cac4340b5395d463c6f393810e8b7f57e9a28af5efef233f5dd6968f584614863d028025b156327c17f762c1f2cbca716e4fd06634ef0e60728a3ffac60a53d3
Reciphers for ciphertext: 0
Decipheredtext:           ffffffffffffffffffffffffffffffff
RESULT CIPHER-DECIPHER: -----OK-----


Test: 1
Crypto pad: 2
Symmetric key bit length: 128
IV bit length:            128
Plaintext bit length:     128
Symmetric key:            01010101010101010101010101010101
IV:                       fefefefefefefefefefefefefefefefe
Plaintext:                fefefefefefefefefefefefefefefefe
Ciphertext:               630fe7fcd58a6fcaccb83bf1a7cbd350e255c4810727b313acd778462563cffa502bc580ce85c5987d579fc60f8628717cab2c895b53631f86415d169f2083c1
Reciphers for ciphertext: 0
Decipheredtext:           fefefefefefefefefefefefefefefefe
RESULT CIPHER-DECIPHER: -----OK-----


Test: 2
Crypto pad: 1
Symmetric key bit length: 128
IV bit length:            128
Plaintext bit length:     128
Symmetric key:            02020202020202020202020202020202
IV:                       fdfdfdfdfdfdfdfdfdfdfdfdfdfdfdfd
Plaintext:                fdfdfdfdfdfdfdfdfdfdfdfdfdfdfdfd
Ciphertext:               cbb2f3c22126a9c2bc21e6da189a9c6d7c8a31b500bc8911d03e1749ca046c85550db22ef1a4fc017a61e9a1a482f7c7bfcc85e10e848e6a613f0d6d2ee290cb
Reciphers for ciphertext: 0
Decipheredtext:           fdfdfdfdfdfdfdfdfdfdfdfdfdfdfdfd
RESULT CIPHER-DECIPHER: -----OK-----


Test: 3
Crypto pad: 1
Symmetric key bit length: 128
IV bit length:            128
Plaintext bit length:     128
Symmetric key:            03030303030303030303030303030303
IV:                       fcfcfcfcfcfcfcfcfcfcfcfcfcfcfcfc
Plaintext:                fcfcfcfcfcfcfcfcfcfcfcfcfcfcfcfc
Ciphertext:               239452953787e4af3971c41c3821a6f32b21d62ec9d0d2072bbb239b6bf7e286930deb41af4329baa1eb4fe558b4c031e30867aadc8960a4f410827cce209438
Reciphers for ciphertext: 0
Decipheredtext:           fcfcfcfcfcfcfcfcfcfcfcfcfcfcfcfc
RESULT CIPHER-DECIPHER: -----OK-----


Test: 4
Crypto pad: 1
Symmetric key bit length: 128
IV bit length:            128
Plaintext bit length:     128
Symmetric key:            04040404040404040404040404040404
IV:                       fbfbfbfbfbfbfbfbfbfbfbfbfbfbfbfb
Plaintext:                fbfbfbfbfbfbfbfbfbfbfbfbfbfbfbfb
Ciphertext:               45fd8df3649c7abbabd415d0690e4be39489c894da7e05364f40060a6d6fc1186c8ef6e1183d9445b6db76da2468e86bdbca7ec325c252ff8520721c502481d4
Reciphers for ciphertext: 0
Decipheredtext:           fbfbfbfbfbfbfbfbfbfbfbfbfbfbfbfb
RESULT CIPHER-DECIPHER: -----OK-----


Test: 5
Crypto pad: 2
Symmetric key bit length: 128
IV bit length:            128
Plaintext bit length:     128
Symmetric key:            05050505050505050505050505050505
IV:                       fafafafafafafafafafafafafafafafa
Plaintext:                fafafafafafafafafafafafafafafafa
Ciphertext:               677df38b62d7ca2f6fe73ad8f713449f112af0fad90e95dfabb7f8285f8921e8478e3f1a29061388d9631d3afd8d86ad3eec1df08f60425f8a8d6eca481f1362
Reciphers for ciphertext: 0
Decipheredtext:           fafafafafafafafafafafafafafafafa
RESULT CIPHER-DECIPHER: -----OK-----


Test: 6
Crypto pad: 2
Symmetric key bit length: 128
IV bit length:            128
Plaintext bit length:     128
Symmetric key:            06060606060606060606060606060606
IV:                       f9f9f9f9f9f9f9f9f9f9f9f9f9f9f9f9
Plaintext:                f9f9f9f9f9f9f9f9f9f9f9f9f9f9f9f9
Ciphertext:               a232f7af09d2198c7f1013ce0eac9be3864b394ccb091f20eef66c5c06fe9aa9a63991144290b9a84c10fb295033645a83497b7e68e97878c4dbb616035ee9ff
Reciphers for ciphertext: 0
Decipheredtext:           f9f9f9f9f9f9f9f9f9f9f9f9f9f9f9f9
RESULT CIPHER-DECIPHER: -----OK-----


Test: 7
Crypto pad: 0
Symmetric key bit length: 128
IV bit length:            128
Plaintext bit length:     128
Symmetric key:            07070707070707070707070707070707
IV:                       f8f8f8f8f8f8f8f8f8f8f8f8f8f8f8f8
Plaintext:                f8f8f8f8f8f8f8f8f8f8f8f8f8f8f8f8
Ciphertext:               6190ff00c203b14caf745f2845336855256118771f0fa8010bd991ff35c8ddba1c445bad0526d12bc8d41aa19e9627b744042d12f5447ed075a9d26c17dc1c87
Reciphers for ciphertext: 0
Decipheredtext:           f8f8f8f8f8f8f8f8f8f8f8f8f8f8f8f8
RESULT CIPHER-DECIPHER: -----OK-----


Test: 8
Crypto pad: 1
Symmetric key bit length: 128
IV bit length:            128
Plaintext bit length:     128
Symmetric key:            08080808080808080808080808080808
IV:                       f7f7f7f7f7f7f7f7f7f7f7f7f7f7f7f7
Plaintext:                f7f7f7f7f7f7f7f7f7f7f7f7f7f7f7f7
Ciphertext:               397c2356a9a5e50675c257846a37cee18035b6183f30b9e3ec806209bc52eda633b0561335b2ea94af256440df3af2417bc5454dd49726e931fc659f59f0da92
Reciphers for ciphertext: 0
Decipheredtext:           f7f7f7f7f7f7f7f7f7f7f7f7f7f7f7f7
RESULT CIPHER-DECIPHER: -----OK-----


Test: 9
Crypto pad: 1
Symmetric key bit length: 128
IV bit length:            128
Plaintext bit length:     128
Symmetric key:            09090909090909090909090909090909
IV:                       f6f6f6f6f6f6f6f6f6f6f6f6f6f6f6f6
Plaintext:                f6f6f6f6f6f6f6f6f6f6f6f6f6f6f6f6
Ciphertext:               ffe33f5d3f0bf253418375d2afd1005492f5b3d88cdd13923a7aa962947e32ba17a832802b3c49c3a86b18f6b6dcfe6d285ffa6025dbb4a8564fc774e25a54ec
Reciphers for ciphertext: 0
Decipheredtext:           f6f6f6f6f6f6f6f6f6f6f6f6f6f6f6f6
RESULT CIPHER-DECIPHER: -----OK-----


Test: 10
Crypto pad: 0
Symmetric key bit length: 128
IV bit length:            128
Plaintext bit length:     128
Symmetric key:            0a0a0a0a0a0a0a0a0a0a0a0a0a0a0a0a
IV:                       f5f5f5f5f5f5f5f5f5f5f5f5f5f5f5f5
Plaintext:                f5f5f5f5f5f5f5f5f5f5f5f5f5f5f5f5
Ciphertext:               2a05c2273d2a58df2fcc1dd886935af2d0a36399d5e767f2c9e5ca3f5e616a6a99c48b92d15cc32fc5459298f26ec6db275a76148aa6969d4a74603cfdd993ee
Reciphers for ciphertext: 0
Decipheredtext:           f5f5f5f5f5f5f5f5f5f5f5f5f5f5f5f5
RESULT CIPHER-DECIPHER: -----OK-----


Test: 11
Crypto pad: 1
Symmetric key bit length: 128
IV bit length:            128
Plaintext bit length:     128
Symmetric key:            0b0b0b0b0b0b0b0b0b0b0b0b0b0b0b0b
IV:                       f4f4f4f4f4f4f4f4f4f4f4f4f4f4f4f4
Plaintext:                f4f4f4f4f4f4f4f4f4f4f4f4f4f4f4f4
Ciphertext:               ce2cf1cac1336ec218715a29ee8e44e41a7ee1ad71712e5e42fb97a081854c231914e79bf028c226f8a647687a7c12d6e41fbb5078b59d38ab5581d946fb33f4
Reciphers for ciphertext: 0
Decipheredtext:           f4f4f4f4f4f4f4f4f4f4f4f4f4f4f4f4
RESULT CIPHER-DECIPHER: -----OK-----


Test: 12
Crypto pad: 2
Symmetric key bit length: 128
IV bit length:            128
Plaintext bit length:     128
Symmetric key:            0c0c0c0c0c0c0c0c0c0c0c0c0c0c0c0c
IV:                       f3f3f3f3f3f3f3f3f3f3f3f3f3f3f3f3
Plaintext:                f3f3f3f3f3f3f3f3f3f3f3f3f3f3f3f3
Ciphertext:               db505efe2d0b5b720e72b70c913cc32a2e5dd3d113115d08dd91049c5492348811ee7562d0a9790a99d047d83ac3f356b23d17e6aa3a626b59df0c1b32fe23d5
Reciphers for ciphertext: 0
Decipheredtext:           f3f3f3f3f3f3f3f3f3f3f3f3f3f3f3f3
RESULT CIPHER-DECIPHER: -----OK-----


Test: 13
Crypto pad: 2
Symmetric key bit length: 128
IV bit length:            128
Plaintext bit length:     128
Symmetric key:            0d0d0d0d0d0d0d0d0d0d0d0d0d0d0d0d
IV:                       f2f2f2f2f2f2f2f2f2f2f2f2f2f2f2f2
Plaintext:                f2f2f2f2f2f2f2f2f2f2f2f2f2f2f2f2
Ciphertext:               b68b44b723193fd886ed04ca0cb1f0c4f9241973404d9a35a5178ae0ac44d6e05b12bda7fa0cdefc4ac70c1a3352c20aab25376cc77184e9052f85173fb3e218
Reciphers for ciphertext: 0
Decipheredtext:           f2f2f2f2f2f2f2f2f2f2f2f2f2f2f2f2
RESULT CIPHER-DECIPHER: -----OK-----


Test: 14
Crypto pad: 2
Symmetric key bit length: 128
IV bit length:            128
Plaintext bit length:     128
Symmetric key:            0e0e0e0e0e0e0e0e0e0e0e0e0e0e0e0e
IV:                       f1f1f1f1f1f1f1f1f1f1f1f1f1f1f1f1
Plaintext:                f1f1f1f1f1f1f1f1f1f1f1f1f1f1f1f1
Ciphertext:               e440d1b2f3b7119bee1000622d5cd41481f90a26f563b506f51c1bb78c8ff9752e27465e23129d822216fcdc3c02d475b7fa62bcab3b0af83b2ada12390d6c22
Reciphers for ciphertext: 0
Decipheredtext:           f1f1f1f1f1f1f1f1f1f1f1f1f1f1f1f1
RESULT CIPHER-DECIPHER: -----OK-----


Test: 15
Crypto pad: 1
Symmetric key bit length: 128
IV bit length:            128
Plaintext bit length:     128
Symmetric key:            0f0f0f0f0f0f0f0f0f0f0f0f0f0f0f0f
IV:                       f0f0f0f0f0f0f0f0f0f0f0f0f0f0f0f0
Plaintext:                f0f0f0f0f0f0f0f0f0f0f0f0f0f0f0f0
Ciphertext:               744926e2d5e0e919f317fb8c23c761c10e169eae317a9446c0fb4a8fd0ea92574aa9c9c614bf820c294b42c2f2a683e39cf196b1bfe5f3e62d89c62c05976c73
Reciphers for ciphertext: 0
Decipheredtext:           f0f0f0f0f0f0f0f0f0f0f0f0f0f0f0f0
RESULT CIPHER-DECIPHER: -----OK-----


Test: 16
Crypto pad: 0
Symmetric key bit length: 128
IV bit length:            128
Plaintext bit length:     128
Symmetric key:            10101010101010101010101010101010
IV:                       efefefefefefefefefefefefefefefef
Plaintext:                efefefefefefefefefefefefefefefef
Ciphertext:               1dbb209ea224a6d5cf43e9a134b91241490c4adcee8db177c79fe60e1bfc0b3cbf9aec98b57c90ad952c88e568e69e98fb007e3eb3b27b6dbb69ef3fd205162a
Reciphers for ciphertext: 0
Decipheredtext:           efefefefefefefefefefefefefefefef
RESULT CIPHER-DECIPHER: -----OK-----


Test: 17
Crypto pad: 1
Symmetric key bit length: 128
IV bit length:            128
Plaintext bit length:     128
Symmetric key:            11111111111111111111111111111111
IV:                       eeeeeeeeeeeeeeeeeeeeeeeeeeeeeeee
Plaintext:                eeeeeeeeeeeeeeeeeeeeeeeeeeeeeeee
Ciphertext:               529bc4f74e2ed5bdf053508fc314348344654092c64315054c35f45cefcc8dae4db34e47f214ace217f72c9173b4fb24a19803e51466630f56e8ff073b9d7fd1
Reciphers for ciphertext: 0
Decipheredtext:           eeeeeeeeeeeeeeeeeeeeeeeeeeeeeeee
RESULT CIPHER-DECIPHER: -----OK-----


Test: 18
Crypto pad: 0
Symmetric key bit length: 128
IV bit length:            128
Plaintext bit length:     128
Symmetric key:            12121212121212121212121212121212
IV:                       edededededededededededededededed
Plaintext:                edededededededededededededededed
Ciphertext:               e78ed83fae260ca69c831112457ce8eb698b8e01d8edf215d2d1414781debebafca9b22181401480161c0d8515c5181c5b66ce06bfd40dae701f286d7b260125
Reciphers for ciphertext: 0
Decipheredtext:           edededededededededededededededed
RESULT CIPHER-DECIPHER: -----OK-----


Test: 19
Crypto pad: 2
Symmetric key bit length: 128
IV bit length:            128
Plaintext bit length:     128
Symmetric key:            13131313131313131313131313131313
IV:                       ecececececececececececececececec
Plaintext:                ecececececececececececececececec
Ciphertext:               efb75007cc224316ca81ff6fba075a8c7a5faf079e2fe07e7ca70e5ea50dc2b730e5087c2671cf31ae016a4588314f57cfafe71b41c616be9674cd133dddf227
Reciphers for ciphertext: 0
Decipheredtext:           ecececececececececececececececec
RESULT CIPHER-DECIPHER: -----OK-----


Test: 20
Crypto pad: 2
Symmetric key bit length: 128
IV bit length:            128
Plaintext bit length:     128
Symmetric key:            14141414141414141414141414141414
IV:                       ebebebebebebebebebebebebebebebeb
Plaintext:                ebebebebebebebebebebebebebebebeb
Ciphertext:               b45774bff9cdc00e671e2e959e928bc8062644757832dfa4f483399de583ab2d2a87a81ce56f91c88d23b62f4178856e5400368c2443dc2f83cb53abee11f92c
Reciphers for ciphertext: 0
Decipheredtext:           ebebebebebebebebebebebebebebebeb
RESULT CIPHER-DECIPHER: -----OK-----


Test: 21
Crypto pad: 1
Symmetric key bit length: 128
IV bit length:            128
Plaintext bit length:     128
Symmetric key:            15151515151515151515151515151515
IV:                       eaeaeaeaeaeaeaeaeaeaeaeaeaeaeaea
Plaintext:                eaeaeaeaeaeaeaeaeaeaeaeaeaeaeaea
Ciphertext:               804f72dc6041a79f61784e4f343ecd7392202d0a1da210cbdcd7362a2045df199e9986d17b276678d74261f7a5554cd54a28a6c159844d7ba8fa5cf85c7d4d70
Reciphers for ciphertext: 0
Decipheredtext:           eaeaeaeaeaeaeaeaeaeaeaeaeaeaeaea
RESULT CIPHER-DECIPHER: -----OK-----


Test: 22
Crypto pad: 2
Symmetric key bit length: 128
IV bit length:            128
Plaintext bit length:     128
Symmetric key:            16161616161616161616161616161616
IV:                       e9e9e9e9e9e9e9e9e9e9e9e9e9e9e9e9
Plaintext:                e9e9e9e9e9e9e9e9e9e9e9e9e9e9e9e9
Ciphertext:               a0e54af738c1478d8f25ae85ff04626ee34a3b69719f42a546612d5ec6289f163e737372116ee48d4213e608e8b3e050e2c025f77314e01f65b3c3fb56409294
Reciphers for ciphertext: 0
Decipheredtext:           e9e9e9e9e9e9e9e9e9e9e9e9e9e9e9e9
RESULT CIPHER-DECIPHER: -----OK-----


Test: 23
Crypto pad: 0
Symmetric key bit length: 128
IV bit length:            128
Plaintext bit length:     128
Symmetric key:            17171717171717171717171717171717
IV:                       e8e8e8e8e8e8e8e8e8e8e8e8e8e8e8e8
Plaintext:                e8e8e8e8e8e8e8e8e8e8e8e8e8e8e8e8
Ciphertext:               dd88d16f2e1b43d1ab569a8ed376b9a642e5fd91c057f8a6a2ca4f8ce41d82081341010c8a0c2401150d3824d047e2b70c4b1aa02f5a9c5a17f98bd7a0e1b22b
Reciphers for ciphertext: 0
Decipheredtext:           e8e8e8e8e8e8e8e8e8e8e8e8e8e8e8e8
RESULT CIPHER-DECIPHER: -----OK-----


Test: 24
Crypto pad: 2
Symmetric key bit length: 128
IV bit length:            128
Plaintext bit length:     128
Symmetric key:            18181818181818181818181818181818
IV:                       e7e7e7e7e7e7e7e7e7e7e7e7e7e7e7e7
Plaintext:                e7e7e7e7e7e7e7e7e7e7e7e7e7e7e7e7
Ciphertext:               1a727198a32ca8ac5585767d093397db217aa105a9c03eac02143f42f8db2aa1b853f0002f6837aa651b3cc2351b986782842c19fa0f89111e62bb4a9581eb46
Reciphers for ciphertext: 0
Decipheredtext:           e7e7e7e7e7e7e7e7e7e7e7e7e7e7e7e7
RESULT CIPHER-DECIPHER: -----OK-----


Test: 25
Crypto pad: 0
Symmetric key bit length: 128
IV bit length:            128
Plaintext bit length:     128
Symmetric key:            19191919191919191919191919191919
IV:                       e6e6e6e6e6e6e6e6e6e6e6e6e6e6e6e6
Plaintext:                e6e6e6e6e6e6e6e6e6e6e6e6e6e6e6e6
Ciphertext:               8b1cb235cecf7e1389cd4f17fb0e4015e2787277ce84ab2530b415792c985b81352316fdfd7f19fabef7d402be331a48540b17bba041e3cb81312c827e3aa589
Reciphers for ciphertext: 0
Decipheredtext:           e6e6e6e6e6e6e6e6e6e6e6e6e6e6e6e6
RESULT CIPHER-DECIPHER: -----OK-----


Test: 26
Crypto pad: 0
Symmetric key bit length: 128
IV bit length:            128
Plaintext bit length:     128
Symmetric key:            1a1a1a1a1a1a1a1a1a1a1a1a1a1a1a1a
IV:                       e5e5e5e5e5e5e5e5e5e5e5e5e5e5e5e5
Plaintext:                e5e5e5e5e5e5e5e5e5e5e5e5e5e5e5e5
Ciphertext:               cafb6cbeb386e264502c65d5028735066ed40c2a95e76b7b0217ee956f18b812b7cd2ddaf9e85cb55e30d3bda291153a3fda533faa09c87d6b133e38c4c2a748
Reciphers for ciphertext: 0
Decipheredtext:           e5e5e5e5e5e5e5e5e5e5e5e5e5e5e5e5
RESULT CIPHER-DECIPHER: -----OK-----


Test: 27
Crypto pad: 0
Symmetric key bit length: 128
IV bit length:            128
Plaintext bit length:     128
Symmetric key:            1b1b1b1b1b1b1b1b1b1b1b1b1b1b1b1b
IV:                       e4e4e4e4e4e4e4e4e4e4e4e4e4e4e4e4
Plaintext:                e4e4e4e4e4e4e4e4e4e4e4e4e4e4e4e4
Ciphertext:               4cfc09b13c2fac12dc441c03780750ff53a56a4a215858b6e2edca0cd9b5a6089c7c8722b0be86a18eaeb156ee55f28aaa6942810f9b790adcf3d7819c4a02bd
Reciphers for ciphertext: 0
Decipheredtext:           e4e4e4e4e4e4e4e4e4e4e4e4e4e4e4e4
RESULT CIPHER-DECIPHER: -----OK-----


Test: 28
Crypto pad: 2
Symmetric key bit length: 128
IV bit length:            128
Plaintext bit length:     128
Symmetric key:            1c1c1c1c1c1c1c1c1c1c1c1c1c1c1c1c
IV:                       e3e3e3e3e3e3e3e3e3e3e3e3e3e3e3e3
Plaintext:                e3e3e3e3e3e3e3e3e3e3e3e3e3e3e3e3
Ciphertext:               791d2db5f01337d28d5d0ce5f13ac352112afe4ad4a461aab3ef299ee41f3638c70f83c285dff9abeeb5859902564d1e33a4224714cab0420d5b33fbee42789f
Reciphers for ciphertext: 0
Decipheredtext:           e3e3e3e3e3e3e3e3e3e3e3e3e3e3e3e3
RESULT CIPHER-DECIPHER: -----OK-----


Test: 29
Crypto pad: 0
Symmetric key bit length: 128
IV bit length:            128
Plaintext bit length:     128
Symmetric key:            1d1d1d1d1d1d1d1d1d1d1d1d1d1d1d1d
IV:                       e2e2e2e2e2e2e2e2e2e2e2e2e2e2e2e2
Plaintext:                e2e2e2e2e2e2e2e2e2e2e2e2e2e2e2e2
Ciphertext:               d45a4681196109085e70ea80543fb09efe7933343bc99670d57e52e84dc41f13befa3529d28dc28a78c516fac222fa5975d134e553f70e772d560f08c4542254
Reciphers for ciphertext: 0
Decipheredtext:           e2e2e2e2e2e2e2e2e2e2e2e2e2e2e2e2
RESULT CIPHER-DECIPHER: -----OK-----


Test: 30
Crypto pad: 2
Symmetric key bit length: 128
IV bit length:            128
Plaintext bit length:     128
Symmetric key:            1e1e1e1e1e1e1e1e1e1e1e1e1e1e1e1e
IV:                       e1e1e1e1e1e1e1e1e1e1e1e1e1e1e1e1
Plaintext:                e1e1e1e1e1e1e1e1e1e1e1e1e1e1e1e1
Ciphertext:               74fa8b039a385df288b39293686f0f0ba4b7cc0d2b689ebf8e25f78130beec591c3c0bcc2e5ab0828c87977f45accdbde6612848ddca1d215373cb8b322b1ad4
Reciphers for ciphertext: 0
Decipheredtext:           e1e1e1e1e1e1e1e1e1e1e1e1e1e1e1e1
RESULT CIPHER-DECIPHER: -----OK-----


Test: 31
Crypto pad: 2
Symmetric key bit length: 128
IV bit length:            128
Plaintext bit length:     128
Symmetric key:            1f1f1f1f1f1f1f1f1f1f1f1f1f1f1f1f
IV:                       e0e0e0e0e0e0e0e0e0e0e0e0e0e0e0e0
Plaintext:                e0e0e0e0e0e0e0e0e0e0e0e0e0e0e0e0
Ciphertext:               b3d174dd4ad1f7f4d511230fdff132b2feef596f0d367c38fdf27bab728d89da4af393fe088e32bbb389b64db288fe51c0580d69cb30aeb995eee348af9ce552
Reciphers for ciphertext: 0
Decipheredtext:           e0e0e0e0e0e0e0e0e0e0e0e0e0e0e0e0
RESULT CIPHER-DECIPHER: -----OK-----


Test: 32
Crypto pad: 1
Symmetric key bit length: 128
IV bit length:            128
Plaintext bit length:     128
Symmetric key:            20202020202020202020202020202020
IV:                       dfdfdfdfdfdfdfdfdfdfdfdfdfdfdfdf
Plaintext:                dfdfdfdfdfdfdfdfdfdfdfdfdfdfdfdf
Ciphertext:               2da83e84ff7069f34283929ef80349653f9775d4c0e20a4c9f81f378b9ec1269c401f906b441bd98d7b6ecdd22ada19b0ddd238976378d993e069916d122eab6
Reciphers for ciphertext: 0
Decipheredtext:           dfdfdfdfdfdfdfdfdfdfdfdfdfdfdfdf
RESULT CIPHER-DECIPHER: -----OK-----


Test: 33
Crypto pad: 1
Symmetric key bit length: 128
IV bit length:            128
Plaintext bit length:     128
Symmetric key:            21212121212121212121212121212121
IV:                       dededededededededededededededede
Plaintext:                dededededededededededededededede
Ciphertext:               5e003c09842dcc446c1eb95e9b520abc198296804470f1f911d976e342e99901226f4cafd2298b87ee1808db5bda930dc77fd2f9746556bb0afe236eeff8ef4b
Reciphers for ciphertext: 0
Decipheredtext:           dededededededededededededededede
RESULT CIPHER-DECIPHER: -----OK-----


Test: 34
Crypto pad: 2
Symmetric key bit length: 128
IV bit length:            128
Plaintext bit length:     128
Symmetric key:            22222222222222222222222222222222
IV:                       dddddddddddddddddddddddddddddddd
Plaintext:                dddddddddddddddddddddddddddddddd
Ciphertext:               6d2219f1a60018016ff622113f952cffcf62561a7f09cc18ea2cb56b4d91907ab609f2d51cce729287e2f12d2e58ecc904e392af332ebd100289085956447ab2
Reciphers for ciphertext: 0
Decipheredtext:           dddddddddddddddddddddddddddddddd
RESULT CIPHER-DECIPHER: -----OK-----


Test: 35
Crypto pad: 0
Symmetric key bit length: 128
IV bit length:            128
Plaintext bit length:     128
Symmetric key:            23232323232323232323232323232323
IV:                       dcdcdcdcdcdcdcdcdcdcdcdcdcdcdcdc
Plaintext:                dcdcdcdcdcdcdcdcdcdcdcdcdcdcdcdc
Ciphertext:               49312b5b8b5a9bf90e0cda18b5bf3c1e6d1323094cafb9ff05d55d71e9d9ae5278903faee850ee03aab59222dfa243482fe0f37169529f4e1b9b13cf9dd6f56b
Reciphers for ciphertext: 0
Decipheredtext:           dcdcdcdcdcdcdcdcdcdcdcdcdcdcdcdc
RESULT CIPHER-DECIPHER: -----OK-----


Test: 36
Crypto pad: 1
Symmetric key bit length: 128
IV bit length:            128
Plaintext bit length:     128
Symmetric key:            24242424242424242424242424242424
IV:                       dbdbdbdbdbdbdbdbdbdbdbdbdbdbdbdb
Plaintext:                dbdbdbdbdbdbdbdbdbdbdbdbdbdbdbdb
Ciphertext:               e3a592617c995e343c5ffb1dcafb19256cebc48fd97d16aa8dd5460f528877ed722c4d08081d8adc6c36420961e8a646496da79f58184d7dc1d742fdf0596f57
Reciphers for ciphertext: 0
Decipheredtext:           dbdbdbdbdbdbdbdbdbdbdbdbdbdbdbdb
RESULT CIPHER-DECIPHER: -----OK-----


Test: 37
Crypto pad: 0
Symmetric key bit length: 128
IV bit length:            128
Plaintext bit length:     128
Symmetric key:            25252525252525252525252525252525
IV:                       dadadadadadadadadadadadadadadada
Plaintext:                dadadadadadadadadadadadadadadada
Ciphertext:               b6a1153199370a33de8457113423eb65ab39f2561bfaf467bf7faeca6c7c31f373f0834cc3140a757ddc614715cc4ec7e64fc600cf53216026a31f409e0eda35
Reciphers for ciphertext: 0
Decipheredtext:           dadadadadadadadadadadadadadadada
RESULT CIPHER-DECIPHER: -----OK-----


Test: 38
Crypto pad: 1
Symmetric key bit length: 128
IV bit length:            128
Plaintext bit length:     128
Symmetric key:            26262626262626262626262626262626
IV:                       d9d9d9d9d9d9d9d9d9d9d9d9d9d9d9d9
Plaintext:                d9d9d9d9d9d9d9d9d9d9d9d9d9d9d9d9
Ciphertext:               4998841eab93f71d1df46e057e1faea271721ea8a95bda009b1af08932fb48bc56e2b9efffc5431adb5c6ba37dc0b9b6ab0fdafad2b98eaeceaf59c671ca78c3
Reciphers for ciphertext: 0
Decipheredtext:           d9d9d9d9d9d9d9d9d9d9d9d9d9d9d9d9
RESULT CIPHER-DECIPHER: -----OK-----


Test: 39
Crypto pad: 2
Symmetric key bit length: 128
IV bit length:            128
Plaintext bit length:     128
Symmetric key:            27272727272727272727272727272727
IV:                       d8d8d8d8d8d8d8d8d8d8d8d8d8d8d8d8
Plaintext:                d8d8d8d8d8d8d8d8d8d8d8d8d8d8d8d8
Ciphertext:               f0173d18145788ad7b1bedb1cab83a5063d31c3ecb42c281a40da0f58d9966c983d6a808a1f5bb8460ac7bee3d19691535bbe97f99ae657e864fc9cb8e0d804a
Reciphers for ciphertext: 0
Decipheredtext:           d8d8d8d8d8d8d8d8d8d8d8d8d8d8d8d8
RESULT CIPHER-DECIPHER: -----OK-----


Test: 40
Crypto pad: 2
Symmetric key bit length: 128
IV bit length:            128
Plaintext bit length:     128
Symmetric key:            28282828282828282828282828282828
IV:                       d7d7d7d7d7d7d7d7d7d7d7d7d7d7d7d7
Plaintext:                d7d7d7d7d7d7d7d7d7d7d7d7d7d7d7d7
Ciphertext:               74290f7f1c5b56ae2e16b646263e4c5260203f99f7920c14c8a0f7ea1c2b099b60f55354ae8527fb3a16a13f8d7be1d67ddd9c745095f3de8c91008dfc696a13
Reciphers for ciphertext: 0
Decipheredtext:           d7d7d7d7d7d7d7d7d7d7d7d7d7d7d7d7
RESULT CIPHER-DECIPHER: -----OK-----


Test: 41
Crypto pad: 2
Symmetric key bit length: 128
IV bit length:            128
Plaintext bit length:     128
Symmetric key:            29292929292929292929292929292929
IV:                       d6d6d6d6d6d6d6d6d6d6d6d6d6d6d6d6
Plaintext:                d6d6d6d6d6d6d6d6d6d6d6d6d6d6d6d6
Ciphertext:               906fef9cec30667bf44575997b96bcb6007d9b6678fa2a48328850ec4af43a8ccfd2a82f7f59759c190434005ad28f5f2dde626a33ff1298b7f788178fc1f862
Reciphers for ciphertext: 0
Decipheredtext:           d6d6d6d6d6d6d6d6d6d6d6d6d6d6d6d6
RESULT CIPHER-DECIPHER: -----OK-----


Test: 42
Crypto pad: 0
Symmetric key bit length: 128
IV bit length:            128
Plaintext bit length:     128
Symmetric key:            2a2a2a2a2a2a2a2a2a2a2a2a2a2a2a2a
IV:                       d5d5d5d5d5d5d5d5d5d5d5d5d5d5d5d5
Plaintext:                d5d5d5d5d5d5d5d5d5d5d5d5d5d5d5d5
Ciphertext:               dfed4afffa183760a5d805e866a8ec89d817d7b628ac54211816cf72cc429de53f91ea82ca4283b6c5de06f33d36a5231e39178b3c29008ef48ade8f241bab40
Reciphers for ciphertext: 0
Decipheredtext:           d5d5d5d5d5d5d5d5d5d5d5d5d5d5d5d5
RESULT CIPHER-DECIPHER: -----OK-----


Test: 43
Crypto pad: 2
Symmetric key bit length: 128
IV bit length:            128
Plaintext bit length:     128
Symmetric key:            2b2b2b2b2b2b2b2b2b2b2b2b2b2b2b2b
IV:                       d4d4d4d4d4d4d4d4d4d4d4d4d4d4d4d4
Plaintext:                d4d4d4d4d4d4d4d4d4d4d4d4d4d4d4d4
Ciphertext:               addd4296df2087b7a322c1278bf654a010813da1ed865a976a0402a2054b243744eadd2ecfef5d608354e3838c41c8ccdc8f78ea1e322fa827f9f94d014c9d8f
Reciphers for ciphertext: 0
Decipheredtext:           d4d4d4d4d4d4d4d4d4d4d4d4d4d4d4d4
RESULT CIPHER-DECIPHER: -----OK-----


Test: 44
Crypto pad: 1
Symmetric key bit length: 128
IV bit length:            128
Plaintext bit length:     128
Symmetric key:            2c2c2c2c2c2c2c2c2c2c2c2c2c2c2c2c
IV:                       d3d3d3d3d3d3d3d3d3d3d3d3d3d3d3d3
Plaintext:                d3d3d3d3d3d3d3d3d3d3d3d3d3d3d3d3
Ciphertext:               e9d1b9ab412f0e5b63567a666f26e41c9b867e0fde4ce89b470a1772f83325a0c7f1e234f3486770d63996c4f9783873f0c33e7aa497dedafc830e9c42f3d241
Reciphers for ciphertext: 0
Decipheredtext:           d3d3d3d3d3d3d3d3d3d3d3d3d3d3d3d3
RESULT CIPHER-DECIPHER: -----OK-----


Test: 45
Crypto pad: 0
Symmetric key bit length: 128
IV bit length:            128
Plaintext bit length:     128
Symmetric key:            2d2d2d2d2d2d2d2d2d2d2d2d2d2d2d2d
IV:                       d2d2d2d2d2d2d2d2d2d2d2d2d2d2d2d2
Plaintext:                d2d2d2d2d2d2d2d2d2d2d2d2d2d2d2d2
Ciphertext:               922ddff861733fca4db48024ec4474b477e8489e1b090f47ecdcd147b04449464ffe2923533054816f372c001b9748294a268bf537b939394737e3ca39c4a81f
Reciphers for ciphertext: 0
Decipheredtext:           d2d2d2d2d2d2d2d2d2d2d2d2d2d2d2d2
RESULT CIPHER-DECIPHER: -----OK-----


Test: 46
Crypto pad: 1
Symmetric key bit length: 128
IV bit length:            128
Plaintext bit length:     128
Symmetric key:            2e2e2e2e2e2e2e2e2e2e2e2e2e2e2e2e
IV:                       d1d1d1d1d1d1d1d1d1d1d1d1d1d1d1d1
Plaintext:                d1d1d1d1d1d1d1d1d1d1d1d1d1d1d1d1
Ciphertext:               12f74d60cc25c577b389596907e70a7eaae2f711a4788134b0dc7c022bb7cae14ff46e2d67faa552cc042b92fe63ba359e810aa3514f5d3b231c0e98cf6a6009
Reciphers for ciphertext: 0
Decipheredtext:           d1d1d1d1d1d1d1d1d1d1d1d1d1d1d1d1
RESULT CIPHER-DECIPHER: -----OK-----


Test: 47
Crypto pad: 1
Symmetric key bit length: 128
IV bit length:            128
Plaintext bit length:     128
Symmetric key:            2f2f2f2f2f2f2f2f2f2f2f2f2f2f2f2f
IV:                       d0d0d0d0d0d0d0d0d0d0d0d0d0d0d0d0
Plaintext:                d0d0d0d0d0d0d0d0d0d0d0d0d0d0d0d0
Ciphertext:               310ca249a2e9183b8b3fd0acc168518665b47a27613aa5057fda40561f7a0266ec936d89a6b80a6e3c5d5d8ecc0c1d391f5b3cc723864e6becbf1bc42ae8b185
Reciphers for ciphertext: 0
Decipheredtext:           d0d0d0d0d0d0d0d0d0d0d0d0d0d0d0d0
RESULT CIPHER-DECIPHER: -----OK-----


Test: 48
Crypto pad: 2
Symmetric key bit length: 128
IV bit length:            128
Plaintext bit length:     128
Symmetric key:            30303030303030303030303030303030
IV:                       cfcfcfcfcfcfcfcfcfcfcfcfcfcfcfcf
Plaintext:                cfcfcfcfcfcfcfcfcfcfcfcfcfcfcfcf
Ciphertext:               6450e2ddae811a19c0d7ac4b86932a0169abda391bb416f01ae0ab87935102ae34e444f24a091f5b761db431f8a0962148f1c1d6dfe1077780831150daac2b33
Reciphers for ciphertext: 0
Decipheredtext:           cfcfcfcfcfcfcfcfcfcfcfcfcfcfcfcf
RESULT CIPHER-DECIPHER: -----OK-----


Test: 49
Crypto pad: 2
Symmetric key bit length: 128
IV bit length:            128
Plaintext bit length:     128
Symmetric key:            31313131313131313131313131313131
IV:                       cececececececececececececececece
Plaintext:                cececececececececececececececece
Ciphertext:               8888552230406229e0f220d88323126ea4b8d8c8e5178926c6efd2019d303b7f03e4e5b8be75c55d591229a494a568f890a24d1839420bab482131624d7662c2
Reciphers for ciphertext: 0
Decipheredtext:           cececececececececececececececece
RESULT CIPHER-DECIPHER: -----OK-----


Test: 50
Crypto pad: 2
Symmetric key bit length: 128
IV bit length:            128
Plaintext bit length:     128
Symmetric key:            32323232323232323232323232323232
IV:                       cdcdcdcdcdcdcdcdcdcdcdcdcdcdcdcd
Plaintext:                cdcdcdcdcdcdcdcdcdcdcdcdcdcdcdcd
Ciphertext:               83c616b0ad26d680a9ca665670559f9ca22b37bf39d44bfc1fad602466f976618307be92cb83a319b78d8b42546fbfbbce5e1f9930ec4e258d4079cd41484e34
Reciphers for ciphertext: 0
Decipheredtext:           cdcdcdcdcdcdcdcdcdcdcdcdcdcdcdcd
RESULT CIPHER-DECIPHER: -----OK-----


Test: 51
Crypto pad: 0
Symmetric key bit length: 128
IV bit length:            128
Plaintext bit length:     128
Symmetric key:            33333333333333333333333333333333
IV:                       cccccccccccccccccccccccccccccccc
Plaintext:                cccccccccccccccccccccccccccccccc
Ciphertext:               cc301228a1c52b0c248424331b8354870949d089e37e99f62bc3cce74b4c16e9ac6eeb112b729e3b2a4a1162d54f7dd9446ac1f2cb0ef1393e862bc52a94c467
Reciphers for ciphertext: 0
Decipheredtext:           cccccccccccccccccccccccccccccccc
RESULT CIPHER-DECIPHER: -----OK-----


Test: 52
Crypto pad: 0
Symmetric key bit length: 128
IV bit length:            128
Plaintext bit length:     128
Symmetric key:            34343434343434343434343434343434
IV:                       cbcbcbcbcbcbcbcbcbcbcbcbcbcbcbcb
Plaintext:                cbcbcbcbcbcbcbcbcbcbcbcbcbcbcbcb
Ciphertext:               1724e2cd370482d5361e70ab08a018511b494e15ed672b6a9991b3430708ce593ad3b75a193c7cd2ba4c1c42ce7b0d38ac40d34e426972592ed812561e23200e
Reciphers for ciphertext: 0
Decipheredtext:           cbcbcbcbcbcbcbcbcbcbcbcbcbcbcbcb
RESULT CIPHER-DECIPHER: -----OK-----


Test: 53
Crypto pad: 1
Symmetric key bit length: 128
IV bit length:            128
Plaintext bit length:     128
Symmetric key:            35353535353535353535353535353535
IV:                       cacacacacacacacacacacacacacacaca
Plaintext:                cacacacacacacacacacacacacacacaca
Ciphertext:               b53bf0a47eb01f1fa0303864e82858a6f84d3654ade0d2ddc5a09bbde4fae1450406aa9e6c6bdaf5494d902ffad192c49083ff1b39a951a304312cc88e05cab5
Reciphers for ciphertext: 0
Decipheredtext:           cacacacacacacacacacacacacacacaca
RESULT CIPHER-DECIPHER: -----OK-----


Test: 54
Crypto pad: 0
Symmetric key bit length: 128
IV bit length:            128
Plaintext bit length:     128
Symmetric key:            36363636363636363636363636363636
IV:                       c9c9c9c9c9c9c9c9c9c9c9c9c9c9c9c9
Plaintext:                c9c9c9c9c9c9c9c9c9c9c9c9c9c9c9c9
Ciphertext:               0438c57dd7eca8ea75a32cc42481ee6160918bbea51d352f8f67b257d74c3b651cff6f1353e32eb827218f9fec867979fee8a2f5fbdd25a0a8bd25097c78eb8d
Reciphers for ciphertext: 0
Decipheredtext:           c9c9c9c9c9c9c9c9c9c9c9c9c9c9c9c9
RESULT CIPHER-DECIPHER: -----OK-----


Test: 55
Crypto pad: 1
Symmetric key bit length: 128
IV bit length:            128
Plaintext bit length:     128
Symmetric key:            37373737373737373737373737373737
IV:                       c8c8c8c8c8c8c8c8c8c8c8c8c8c8c8c8
Plaintext:                c8c8c8c8c8c8c8c8c8c8c8c8c8c8c8c8
Ciphertext:               1b899d906abeccae615dec4892c06b6e51bfbeaae5be991bfda9da8d7614812a17d21113dc3c6a2e4954006a0d8aeedf0b50de9cbe2f6ef9fc4b5f10f55a8f66
Reciphers for ciphertext: 0
Decipheredtext:           c8c8c8c8c8c8c8c8c8c8c8c8c8c8c8c8
RESULT CIPHER-DECIPHER: -----OK-----


Test: 56
Crypto pad: 0
Symmetric key bit length: 128
IV bit length:            128
Plaintext bit length:     128
Symmetric key:            38383838383838383838383838383838
IV:                       c7c7c7c7c7c7c7c7c7c7c7c7c7c7c7c7
Plaintext:                c7c7c7c7c7c7c7c7c7c7c7c7c7c7c7c7
Ciphertext:               f8c8f4dde59c649fe8c9ddf052f900417f6b1bd98e26c3aba716a7cdf48291b65367a14598c9a868b60663fcf23196267d1dc5f052bf844567973f786710b905
Reciphers for ciphertext: 0
Decipheredtext:           c7c7c7c7c7c7c7c7c7c7c7c7c7c7c7c7
RESULT CIPHER-DECIPHER: -----OK-----


Test: 57
Crypto pad: 1
Symmetric key bit length: 128
IV bit length:            128
Plaintext bit length:     128
Symmetric key:            39393939393939393939393939393939
IV:                       c6c6c6c6c6c6c6c6c6c6c6c6c6c6c6c6
Plaintext:                c6c6c6c6c6c6c6c6c6c6c6c6c6c6c6c6
Ciphertext:               7231555e0132797aa8666466fceb2ef303b4c58d03d3af7da18eeafbd69f0c3b7f110c7658c9043b4dcc52e6a30aa265b5352fb26a1d73f01cc28f03f48d3fba
Reciphers for ciphertext: 0
Decipheredtext:           c6c6c6c6c6c6c6c6c6c6c6c6c6c6c6c6
RESULT CIPHER-DECIPHER: -----OK-----


Test: 58
Crypto pad: 0
Symmetric key bit length: 128
IV bit length:            128
Plaintext bit length:     128
Symmetric key:            3a3a3a3a3a3a3a3a3a3a3a3a3a3a3a3a
IV:                       c5c5c5c5c5c5c5c5c5c5c5c5c5c5c5c5
Plaintext:                c5c5c5c5c5c5c5c5c5c5c5c5c5c5c5c5
Ciphertext:               d0373d0308c562fef57142428cc8cd1f08fd04e2ef3b92a58f6415882376dbd387ea1cb1e6524d0439598a92ad1a87d9ab82b28ffded4ae4e0d9bc41c29bb6ad
Reciphers for ciphertext: 0
Decipheredtext:           c5c5c5c5c5c5c5c5c5c5c5c5c5c5c5c5
RESULT CIPHER-DECIPHER: -----OK-----


Test: 59
Crypto pad: 0
Symmetric key bit length: 128
IV bit length:            128
Plaintext bit length:     128
Symmetric key:            3b3b3b3b3b3b3b3b3b3b3b3b3b3b3b3b
IV:                       c4c4c4c4c4c4c4c4c4c4c4c4c4c4c4c4
Plaintext:                c4c4c4c4c4c4c4c4c4c4c4c4c4c4c4c4
Ciphertext:               7510a3742e8c35741638204205ce3c47ac2a034f512aea811e598537732af4a576e726e370aa2990039d28ec5834273987a9b1378857866ffe947e6467b89dca
Reciphers for ciphertext: 0
Decipheredtext:           c4c4c4c4c4c4c4c4c4c4c4c4c4c4c4c4
RESULT CIPHER-DECIPHER: -----OK-----


Test: 60
Crypto pad: 1
Symmetric key bit length: 128
IV bit length:            128
Plaintext bit length:     128
Symmetric key:            3c3c3c3c3c3c3c3c3c3c3c3c3c3c3c3c
IV:                       c3c3c3c3c3c3c3c3c3c3c3c3c3c3c3c3
Plaintext:                c3c3c3c3c3c3c3c3c3c3c3c3c3c3c3c3
Ciphertext:               927d726b2ab0b8485a26f663cdd9f1728cfbb708cd98e542ea1ace77a5721709146c9428c45e03a383acf4708cc0d5470e57f7a40847ec7c3d06d7eec837fb11
Reciphers for ciphertext: 0
Decipheredtext:           c3c3c3c3c3c3c3c3c3c3c3c3c3c3c3c3
RESULT CIPHER-DECIPHER: -----OK-----


Test: 61
Crypto pad: 2
Symmetric key bit length: 128
IV bit length:            128
Plaintext bit length:     128
Symmetric key:            3d3d3d3d3d3d3d3d3d3d3d3d3d3d3d3d
IV:                       c2c2c2c2c2c2c2c2c2c2c2c2c2c2c2c2
Plaintext:                c2c2c2c2c2c2c2c2c2c2c2c2c2c2c2c2
Ciphertext:               4842de2f240f82c9fcc7ca35e5e7d68840c534329358bb9568272aac51136dff683dd626c6bdf4ab8a8c1c7d38abf16284e720cf53a76f7474e9b0d8dcc736b5
Reciphers for ciphertext: 0
Decipheredtext:           c2c2c2c2c2c2c2c2c2c2c2c2c2c2c2c2
RESULT CIPHER-DECIPHER: -----OK-----


Test: 62
Crypto pad: 2
Symmetric key bit length: 128
IV bit length:            128
Plaintext bit length:     128
Symmetric key:            3e3e3e3e3e3e3e3e3e3e3e3e3e3e3e3e
IV:                       c1c1c1c1c1c1c1c1c1c1c1c1c1c1c1c1
Plaintext:                c1c1c1c1c1c1c1c1c1c1c1c1c1c1c1c1
Ciphertext:               d31834e445a2d66ce8006dda9c685b52ce7b35e44a51f8c766520310f3c250c71fc198f9819cd0b6e2f4486c79a02cfcd531f2fe74ba7cc34b5d4f57e4457d19
Reciphers for ciphertext: 0
Decipheredtext:           c1c1c1c1c1c1c1c1c1c1c1c1c1c1c1c1
RESULT CIPHER-DECIPHER: -----OK-----


Test: 63
Crypto pad: 2
Symmetric key bit length: 128
IV bit length:            128
Plaintext bit length:     128
Symmetric key:            3f3f3f3f3f3f3f3f3f3f3f3f3f3f3f3f
IV:                       c0c0c0c0c0c0c0c0c0c0c0c0c0c0c0c0
Plaintext:                c0c0c0c0c0c0c0c0c0c0c0c0c0c0c0c0
Ciphertext:               72ea27d7b6beaf3c3d616432777f31e071c6cb396d9e2ed786b445c829a064458587323fa79200190728d0c47f66e78844d0ac595d3e8cb8f6ef016866ed1737
Reciphers for ciphertext: 0
Decipheredtext:           c0c0c0c0c0c0c0c0c0c0c0c0c0c0c0c0
RESULT CIPHER-DECIPHER: -----OK-----


Test: 64
Crypto pad: 1
Symmetric key bit length: 128
IV bit length:            128
Plaintext bit length:     128
Symmetric key:            40404040404040404040404040404040
IV:                       bfbfbfbfbfbfbfbfbfbfbfbfbfbfbfbf
Plaintext:                bfbfbfbfbfbfbfbfbfbfbfbfbfbfbfbf
Ciphertext:               344ebbb57c7340e40e3dad96bc8747a319e0bf51903464abed0cb646e165541bc14a35e561ef8bb2a8b47f03aac4597dc749afdf6d78a9db301ef6cbd5e02d1c
Reciphers for ciphertext: 0
Decipheredtext:           bfbfbfbfbfbfbfbfbfbfbfbfbfbfbfbf
RESULT CIPHER-DECIPHER: -----OK-----


Test: 65
Crypto pad: 1
Symmetric key bit length: 128
IV bit length:            128
Plaintext bit length:     128
Symmetric key:            41414141414141414141414141414141
IV:                       bebebebebebebebebebebebebebebebe
Plaintext:                bebebebebebebebebebebebebebebebe
Ciphertext:               caba88aa619cf1dc25573decf52597ca4e8874e7315047cdd01042c906457b58537573bbedf0eabf285cb95e9ec4704839ee97ffe64bd7120b9d47705db178d9
Reciphers for ciphertext: 0
Decipheredtext:           bebebebebebebebebebebebebebebebe
RESULT CIPHER-DECIPHER: -----OK-----


Test: 66
Crypto pad: 2
Symmetric key bit length: 128
IV bit length:            128
Plaintext bit length:     128
Symmetric key:            42424242424242424242424242424242
IV:                       bdbdbdbdbdbdbdbdbdbdbdbdbdbdbdbd
Plaintext:                bdbdbdbdbdbdbdbdbdbdbdbdbdbdbdbd
Ciphertext:               9f9d3195109f294ecc9ebab13c49447786b0ff4fd4a04fa7174036a4ae2f92ed1f4d252e4d3b39c97f286dcd03b35cbba56cb46042799dcb96c4ca5bcac51641
Reciphers for ciphertext: 0
Decipheredtext:           bdbdbdbdbdbdbdbdbdbdbdbdbdbdbdbd
RESULT CIPHER-DECIPHER: -----OK-----


Test: 67
Crypto pad: 2
Symmetric key bit length: 128
IV bit length:            128
Plaintext bit length:     128
Symmetric key:            43434343434343434343434343434343
IV:                       bcbcbcbcbcbcbcbcbcbcbcbcbcbcbcbc
Plaintext:                bcbcbcbcbcbcbcbcbcbcbcbcbcbcbcbc
Ciphertext:               5ef7ef983b473af37785f7dade6b6c0aba1d97076a6dbc55e9f9330341164be3bad8fd416dda5b5f479529d901357925793bf43242cdcc5af68b52e7848948e7
Reciphers for ciphertext: 0
Decipheredtext:           bcbcbcbcbcbcbcbcbcbcbcbcbcbcbcbc
RESULT CIPHER-DECIPHER: -----OK-----


Test: 68
Crypto pad: 1
Symmetric key bit length: 128
IV bit length:            128
Plaintext bit length:     128
Symmetric key:            44444444444444444444444444444444
IV:                       bbbbbbbbbbbbbbbbbbbbbbbbbbbbbbbb
Plaintext:                bbbbbbbbbbbbbbbbbbbbbbbbbbbbbbbb
Ciphertext:               38aa8bf1fbf962e6b47ad672694b8d2ad31a8e6afd3f63ef5dac1910a09c5ceb578270c65e997bb06ccd9f034e7667fe4fb307a3d5d7ca0ad74823e1220c9b7f
Reciphers for ciphertext: 0
Decipheredtext:           bbbbbbbbbbbbbbbbbbbbbbbbbbbbbbbb
RESULT CIPHER-DECIPHER: -----OK-----


Test: 69
Crypto pad: 1
Symmetric key bit length: 128
IV bit length:            128
Plaintext bit length:     128
Symmetric key:            45454545454545454545454545454545
IV:                       babababababababababababababababa
Plaintext:                babababababababababababababababa
Ciphertext:               5edf30dbff4dd38d721aba13f7e5d6c36aad12bdd127bd88148fdffb7da9236fefd1fc7f0ecc1472bfecc0bd54992049342d66f5f0ad045daebd333444f39b58
Reciphers for ciphertext: 0
Decipheredtext:           babababababababababababababababa
RESULT CIPHER-DECIPHER: -----OK-----


Test: 70
Crypto pad: 1
Symmetric key bit length: 128
IV bit length:            128
Plaintext bit length:     128
Symmetric key:            46464646464646464646464646464646
IV:                       b9b9b9b9b9b9b9b9b9b9b9b9b9b9b9b9
Plaintext:                b9b9b9b9b9b9b9b9b9b9b9b9b9b9b9b9
Ciphertext:               182a66b5013c2277e25f497cb8f130955f013e7850d391063e6adfb37bbff7b95d2c2d213e3ff97bae934819d55588e5fe3d04007f2b8f589f9702d6f950d0e4
Reciphers for ciphertext: 0
Decipheredtext:           b9b9b9b9b9b9b9b9b9b9b9b9b9b9b9b9
RESULT CIPHER-DECIPHER: -----OK-----


Test: 71
Crypto pad: 2
Symmetric key bit length: 128
IV bit length:            128
Plaintext bit length:     128
Symmetric key:            47474747474747474747474747474747
IV:                       b8b8b8b8b8b8b8b8b8b8b8b8b8b8b8b8
Plaintext:                b8b8b8b8b8b8b8b8b8b8b8b8b8b8b8b8
Ciphertext:               90e85aaa17cb13db81ffbae44d14ab1049e5757a25effe1ba7c92f2aec97d8848d800b99ee09d6af1f4879b949982a66af9e7a315eeb8b2a33ec87630775a864
Reciphers for ciphertext: 0
Decipheredtext:           b8b8b8b8b8b8b8b8b8b8b8b8b8b8b8b8
RESULT CIPHER-DECIPHER: -----OK-----


Test: 72
Crypto pad: 2
Symmetric key bit length: 128
IV bit length:            128
Plaintext bit length:     128
Symmetric key:            48484848484848484848484848484848
IV:                       b7b7b7b7b7b7b7b7b7b7b7b7b7b7b7b7
Plaintext:                b7b7b7b7b7b7b7b7b7b7b7b7b7b7b7b7
Ciphertext:               b7d6c20ddb5a9c3e99dae936b5dfd6f76ccf407e8b2b79a06dfdc1f0b0556dada79253db8b679989c72cd4eedd0e413df6789ae9037316b7c039f2a329a35d27
Reciphers for ciphertext: 0
Decipheredtext:           b7b7b7b7b7b7b7b7b7b7b7b7b7b7b7b7
RESULT CIPHER-DECIPHER: -----OK-----


Test: 73
Crypto pad: 2
Symmetric key bit length: 128
IV bit length:            128
Plaintext bit length:     128
Symmetric key:            49494949494949494949494949494949
IV:                       b6b6b6b6b6b6b6b6b6b6b6b6b6b6b6b6
Plaintext:                b6b6b6b6b6b6b6b6b6b6b6b6b6b6b6b6
Ciphertext:               9b1d6ec74faa4be89d786b68b720832277203ce99b5f285d57dc652512536456fbec821986eff991d58483ceaca1d59551f37829b548a49350f288b031ec1a53
Reciphers for ciphertext: 0
Decipheredtext:           b6b6b6b6b6b6b6b6b6b6b6b6b6b6b6b6
RESULT CIPHER-DECIPHER: -----OK-----


Test: 74
Crypto pad: 2
Symmetric key bit length: 128
IV bit length:            128
Plaintext bit length:     128
Symmetric key:            4a4a4a4a4a4a4a4a4a4a4a4a4a4a4a4a
IV:                       b5b5b5b5b5b5b5b5b5b5b5b5b5b5b5b5
Plaintext:                b5b5b5b5b5b5b5b5b5b5b5b5b5b5b5b5
Ciphertext:               129ce8fc978986f335cc53fa02cc022968c2bc9166e216d0d54ac5a857be868cead7135d3f32fd4c8854b413fa07d4a5c3fec44ca39364972c59e9db90095dff
Reciphers for ciphertext: 0
Decipheredtext:           b5b5b5b5b5b5b5b5b5b5b5b5b5b5b5b5
RESULT CIPHER-DECIPHER: -----OK-----


Test: 75
Crypto pad: 1
Symmetric key bit length: 128
IV bit length:            128
Plaintext bit length:     128
Symmetric key:            4b4b4b4b4b4b4b4b4b4b4b4b4b4b4b4b
IV:                       b4b4b4b4b4b4b4b4b4b4b4b4b4b4b4b4
Plaintext:                b4b4b4b4b4b4b4b4b4b4b4b4b4b4b4b4
Ciphertext:               163e64cd2992aecf8409c68b92d67e2a6639aaae734b30b1414b1b5008450ffc0143649d966b8b35045fdd8e49c310366b7ab72de6f7286c3045d98731f3d4a8
Reciphers for ciphertext: 0
Decipheredtext:           b4b4b4b4b4b4b4b4b4b4b4b4b4b4b4b4
RESULT CIPHER-DECIPHER: -----OK-----


Test: 76
Crypto pad: 0
Symmetric key bit length: 128
IV bit length:            128
Plaintext bit length:     128
Symmetric key:            4c4c4c4c4c4c4c4c4c4c4c4c4c4c4c4c
IV:                       b3b3b3b3b3b3b3b3b3b3b3b3b3b3b3b3
Plaintext:                b3b3b3b3b3b3b3b3b3b3b3b3b3b3b3b3
Ciphertext:               d90a98d372ce4c3216c85af652616bd35be403f10f7be12ca8f3a346d46770e0b4191f4bfe1c1d94bd2d8cf2eac1622d99e20aa3144a8bbddf80665eb05ce5ba
Reciphers for ciphertext: 0
Decipheredtext:           b3b3b3b3b3b3b3b3b3b3b3b3b3b3b3b3
RESULT CIPHER-DECIPHER: -----OK-----


Test: 77
Crypto pad: 0
Symmetric key bit length: 128
IV bit length:            128
Plaintext bit length:     128
Symmetric key:            4d4d4d4d4d4d4d4d4d4d4d4d4d4d4d4d
IV:                       b2b2b2b2b2b2b2b2b2b2b2b2b2b2b2b2
Plaintext:                b2b2b2b2b2b2b2b2b2b2b2b2b2b2b2b2
Ciphertext:               a2033264a71f05758632d8fb2bd63a5e1ab3778a6b8c02226db025ac8c848cef997d1a5c30a22db0c849f8597a1aa08f00198b6fe229670ab0bba34e16be93ff
Reciphers for ciphertext: 0
Decipheredtext:           b2b2b2b2b2b2b2b2b2b2b2b2b2b2b2b2
RESULT CIPHER-DECIPHER: -----OK-----


Test: 78
Crypto pad: 1
Symmetric key bit length: 128
IV bit length:            128
Plaintext bit length:     128
Symmetric key:            4e4e4e4e4e4e4e4e4e4e4e4e4e4e4e4e
IV:                       b1b1b1b1b1b1b1b1b1b1b1b1b1b1b1b1
Plaintext:                b1b1b1b1b1b1b1b1b1b1b1b1b1b1b1b1
Ciphertext:               2d7b6b647e0d1adfaffccb1e782b762d7a00a09bf01c68499368dc658da10c07e6d20e61962877b3d02510a26710f80b4780bfe2d519c98b001bc78f4d31fa52
Reciphers for ciphertext: 0
Decipheredtext:           b1b1b1b1b1b1b1b1b1b1b1b1b1b1b1b1
RESULT CIPHER-DECIPHER: -----OK-----


Test: 79
Crypto pad: 1
Symmetric key bit length: 128
IV bit length:            128
Plaintext bit length:     128
Symmetric key:            4f4f4f4f4f4f4f4f4f4f4f4f4f4f4f4f
IV:                       b0b0b0b0b0b0b0b0b0b0b0b0b0b0b0b0
Plaintext:                b0b0b0b0b0b0b0b0b0b0b0b0b0b0b0b0
Ciphertext:               7ca26fd5d6db7eaa785fcca1e2854910e828468b2a1e8577c4a26bd962e3b910a351b9994276248176bc2e2897327109979a3e9652a7e51823a85267abe9dc32
Reciphers for ciphertext: 1
Decipheredtext:           b0b0b0b0b0b0b0b0b0b0b0b0b0b0b0b0
RESULT CIPHER-DECIPHER: -----OK-----


Test: 80
Crypto pad: 2
Symmetric key bit length: 128
IV bit length:            128
Plaintext bit length:     128
Symmetric key:            50505050505050505050505050505050
IV:                       afafafafafafafafafafafafafafafaf
Plaintext:                afafafafafafafafafafafafafafafaf
Ciphertext:               59925b329ecdc51c9bccb2075c2cc5ee20948d7f54159e31f6d07b7edcec6566860ae47204bb17ce553d6d0e40379761c9cbc1b059583e8f10824ae2f899fd3f
Reciphers for ciphertext: 0
Decipheredtext:           afafafafafafafafafafafafafafafaf
RESULT CIPHER-DECIPHER: -----OK-----


Test: 81
Crypto pad: 0
Symmetric key bit length: 128
IV bit length:            128
Plaintext bit length:     128
Symmetric key:            51515151515151515151515151515151
IV:                       aeaeaeaeaeaeaeaeaeaeaeaeaeaeaeae
Plaintext:                aeaeaeaeaeaeaeaeaeaeaeaeaeaeaeae
Ciphertext:               f5ccb024267f0c36e33faa2fc784bfbff1dec209afe6218332be0c7dead760d2c58c4f472837e61d6d51d91ac7ab43ce3dcfe19e664b810e388ce66355414e2d
Reciphers for ciphertext: 0
Decipheredtext:           aeaeaeaeaeaeaeaeaeaeaeaeaeaeaeae
RESULT CIPHER-DECIPHER: -----OK-----


Test: 82
Crypto pad: 0
Symmetric key bit length: 128
IV bit length:            128
Plaintext bit length:     128
Symmetric key:            52525252525252525252525252525252
IV:                       adadadadadadadadadadadadadadadad
Plaintext:                adadadadadadadadadadadadadadadad
Ciphertext:               9ca85e073af74bc01f6b12631bbb3f229c37f7980831d1b686729438261f76114fb7f5cfbce70ebb8b34a66735a86db989338e7d1035f84ee2e15dd325275f70
Reciphers for ciphertext: 0
Decipheredtext:           adadadadadadadadadadadadadadadad
RESULT CIPHER-DECIPHER: -----OK-----


Test: 83
Crypto pad: 2
Symmetric key bit length: 128
IV bit length:            128
Plaintext bit length:     128
Symmetric key:            53535353535353535353535353535353
IV:                       acacacacacacacacacacacacacacacac
Plaintext:                acacacacacacacacacacacacacacacac
Ciphertext:               7f2e538a60f1d455f267a3e27bb8b9ed84481f5145d8d79c9f349f1205eb02e9415684c09dba56117e731fa4f4c6777eb9b8ab8ffe1f45db4d88f8adef704f8f
Reciphers for ciphertext: 0
Decipheredtext:           acacacacacacacacacacacacacacacac
RESULT CIPHER-DECIPHER: -----OK-----


Test: 84
Crypto pad: 1
Symmetric key bit length: 128
IV bit length:            128
Plaintext bit length:     128
Symmetric key:            54545454545454545454545454545454
IV:                       abababababababababababababababab
Plaintext:                abababababababababababababababab
Ciphertext:               3ec3fd38ac2be445c40d5df14b5c95b60de9eccedafd755c6147220934ae6d6323e4ce590cea5c41be7021b212b76e313922bfee22e2ec456e4c14c26b55d8fb
Reciphers for ciphertext: 0
Decipheredtext:           abababababababababababababababab
RESULT CIPHER-DECIPHER: -----OK-----


Test: 85
Crypto pad: 2
Symmetric key bit length: 128
IV bit length:            128
Plaintext bit length:     128
Symmetric key:            55555555555555555555555555555555
IV:                       aaaaaaaaaaaaaaaaaaaaaaaaaaaaaaaa
Plaintext:                aaaaaaaaaaaaaaaaaaaaaaaaaaaaaaaa
Ciphertext:               33e839da8f5996c8578b5e58ae8cb40de0bb40de9681a675c6d3a21be97711d74b02e5a9b962a1dbe40d4bb0298d450d67ba8128aa4ce24f12db430f24bfc1c2
Reciphers for ciphertext: 0
Decipheredtext:           aaaaaaaaaaaaaaaaaaaaaaaaaaaaaaaa
RESULT CIPHER-DECIPHER: -----OK-----


Test: 86
Crypto pad: 2
Symmetric key bit length: 128
IV bit length:            128
Plaintext bit length:     128
Symmetric key:            56565656565656565656565656565656
IV:                       a9a9a9a9a9a9a9a9a9a9a9a9a9a9a9a9
Plaintext:                a9a9a9a9a9a9a9a9a9a9a9a9a9a9a9a9
Ciphertext:               cabbc617e5d9f4c0a06590a69f3be9315464c2a61ad8b607d369e416cc09c289dd4fae7f89ef02eeb4cefad5c9b6ced27be8e157c75d67bbbea3192178143793
Reciphers for ciphertext: 0
Decipheredtext:           a9a9a9a9a9a9a9a9a9a9a9a9a9a9a9a9
RESULT CIPHER-DECIPHER: -----OK-----


Test: 87
Crypto pad: 0
Symmetric key bit length: 128
IV bit length:            128
Plaintext bit length:     128
Symmetric key:            57575757575757575757575757575757
IV:                       a8a8a8a8a8a8a8a8a8a8a8a8a8a8a8a8
Plaintext:                a8a8a8a8a8a8a8a8a8a8a8a8a8a8a8a8
Ciphertext:               cf83748d1390d37509d04b45c0d31270d32989bc3fe81c1266f05bf03391fa40e2f337e4008ecf3d28e7b3bca2e2cddf228d40b51e68f6bf848a1231f5918c89
Reciphers for ciphertext: 0
Decipheredtext:           a8a8a8a8a8a8a8a8a8a8a8a8a8a8a8a8
RESULT CIPHER-DECIPHER: -----OK-----


Test: 88
Crypto pad: 1
Symmetric key bit length: 128
IV bit length:            128
Plaintext bit length:     128
Symmetric key:            58585858585858585858585858585858
IV:                       a7a7a7a7a7a7a7a7a7a7a7a7a7a7a7a7
Plaintext:                a7a7a7a7a7a7a7a7a7a7a7a7a7a7a7a7
Ciphertext:               06d3bbf573209cf8d112da18d0c3ef3fb5afdce22d79fbfe505b788a981024973c75ceb2a51545ab09babb8c10e4ed36c2333519cbb12f4250e4ebef924752d8
Reciphers for ciphertext: 0
Decipheredtext:           a7a7a7a7a7a7a7a7a7a7a7a7a7a7a7a7
RESULT CIPHER-DECIPHER: -----OK-----


Test: 89
Crypto pad: 0
Symmetric key bit length: 128
IV bit length:            128
Plaintext bit length:     128
Symmetric key:            59595959595959595959595959595959
IV:                       a6a6a6a6a6a6a6a6a6a6a6a6a6a6a6a6
Plaintext:                a6a6a6a6a6a6a6a6a6a6a6a6a6a6a6a6
Ciphertext:               2798da17c44e13f64962064dbd661208fc445aaba736caf0c34fa095b81e3f3163a284c33c82033a96c07d4b98b4214712d48dc5eeaf41b8632fb2339d229dbb
Reciphers for ciphertext: 0
Decipheredtext:           a6a6a6a6a6a6a6a6a6a6a6a6a6a6a6a6
RESULT CIPHER-DECIPHER: -----OK-----


Test: 90
Crypto pad: 0
Symmetric key bit length: 128
IV bit length:            128
Plaintext bit length:     128
Symmetric key:            5a5a5a5a5a5a5a5a5a5a5a5a5a5a5a5a
IV:                       a5a5a5a5a5a5a5a5a5a5a5a5a5a5a5a5
Plaintext:                a5a5a5a5a5a5a5a5a5a5a5a5a5a5a5a5
Ciphertext:               023e0024f68521c8131a202f2b49e08676e60625235ef0656e6af8073a537dc7c45fd7e9e83be0897d287d484ff66ffb400fdd45336a05e3b461bc7cd44fba79
Reciphers for ciphertext: 0
Decipheredtext:           a5a5a5a5a5a5a5a5a5a5a5a5a5a5a5a5
RESULT CIPHER-DECIPHER: -----OK-----


Test: 91
Crypto pad: 0
Symmetric key bit length: 128
IV bit length:            128
Plaintext bit length:     128
Symmetric key:            5b5b5b5b5b5b5b5b5b5b5b5b5b5b5b5b
IV:                       a4a4a4a4a4a4a4a4a4a4a4a4a4a4a4a4
Plaintext:                a4a4a4a4a4a4a4a4a4a4a4a4a4a4a4a4
Ciphertext:               c224a827f8b7695b575ed7623c4c993c6281fc84975bc26265e5dcd5a537c980192f249782b5e8d24615bef0857a62e41adb4f6bc3467a805e22c7e6bbea6129
Reciphers for ciphertext: 0
Decipheredtext:           a4a4a4a4a4a4a4a4a4a4a4a4a4a4a4a4
RESULT CIPHER-DECIPHER: -----OK-----


Test: 92
Crypto pad: 2
Symmetric key bit length: 128
IV bit length:            128
Plaintext bit length:     128
Symmetric key:            5c5c5c5c5c5c5c5c5c5c5c5c5c5c5c5c
IV:                       a3a3a3a3a3a3a3a3a3a3a3a3a3a3a3a3
Plaintext:                a3a3a3a3a3a3a3a3a3a3a3a3a3a3a3a3
Ciphertext:               7fe760ca4d37a310c13e0a5537b3d3819eb7d85e5c4042a7bba64d7df74ed51c4bf92e0eb207732c058a41bf2d4817cfea8c0bd7e3ce7fb885dcd5a2f1c6c61e
Reciphers for ciphertext: 0
Decipheredtext:           a3a3a3a3a3a3a3a3a3a3a3a3a3a3a3a3
RESULT CIPHER-DECIPHER: -----OK-----


Test: 93
Crypto pad: 2
Symmetric key bit length: 128
IV bit length:            128
Plaintext bit length:     128
Symmetric key:            5d5d5d5d5d5d5d5d5d5d5d5d5d5d5d5d
IV:                       a2a2a2a2a2a2a2a2a2a2a2a2a2a2a2a2
Plaintext:                a2a2a2a2a2a2a2a2a2a2a2a2a2a2a2a2
Ciphertext:               f73bfddf4e6b4c6e37293cc755d98dbb7b8b1ec66504caaed2f118dbd92e890369b252ab18db9bc1ea1d69e2d8d8b51c6503a2030eebfb828900219c37e676f4
Reciphers for ciphertext: 0
Decipheredtext:           a2a2a2a2a2a2a2a2a2a2a2a2a2a2a2a2
RESULT CIPHER-DECIPHER: -----OK-----


Test: 94
Crypto pad: 0
Symmetric key bit length: 128
IV bit length:            128
Plaintext bit length:     128
Symmetric key:            5e5e5e5e5e5e5e5e5e5e5e5e5e5e5e5e
IV:                       a1a1a1a1a1a1a1a1a1a1a1a1a1a1a1a1
Plaintext:                a1a1a1a1a1a1a1a1a1a1a1a1a1a1a1a1
Ciphertext:               90e9475194f8e73b0a78bd3eec760d2254a4e80baa3fa574b69495bd7807ab32cd46b5bb8bfa0978159e85d1076e5e20868467cacf81e57405cd7790614ef345
Reciphers for ciphertext: 0
Decipheredtext:           a1a1a1a1a1a1a1a1a1a1a1a1a1a1a1a1
RESULT CIPHER-DECIPHER: -----OK-----


Test: 95
Crypto pad: 0
Symmetric key bit length: 128
IV bit length:            128
Plaintext bit length:     128
Symmetric key:            5f5f5f5f5f5f5f5f5f5f5f5f5f5f5f5f
IV:                       a0a0a0a0a0a0a0a0a0a0a0a0a0a0a0a0
Plaintext:                a0a0a0a0a0a0a0a0a0a0a0a0a0a0a0a0
Ciphertext:               74cb208a05dbc3a69939c9e273cb1032fd9d418e52ff68e2571321ddbbebe91bb6d5e54934ca07cba6d4b8a9843c3d865813b2b53dc8197b6a8b6cdf2a647dca
Reciphers for ciphertext: 0
Decipheredtext:           a0a0a0a0a0a0a0a0a0a0a0a0a0a0a0a0
RESULT CIPHER-DECIPHER: -----OK-----


Test: 96
Crypto pad: 1
Symmetric key bit length: 128
IV bit length:            128
Plaintext bit length:     128
Symmetric key:            60606060606060606060606060606060
IV:                       9f9f9f9f9f9f9f9f9f9f9f9f9f9f9f9f
Plaintext:                9f9f9f9f9f9f9f9f9f9f9f9f9f9f9f9f
Ciphertext:               87e03b7aafe693af4ef51ff8f4499889f8acd62da85ca826256965e547de43c7148fd7173464e6327cbcf1f6a8e11c202adbe0b2c7abcb80cf3f4f8e018f3da9
Reciphers for ciphertext: 0
Decipheredtext:           9f9f9f9f9f9f9f9f9f9f9f9f9f9f9f9f
RESULT CIPHER-DECIPHER: -----OK-----


Test: 97
Crypto pad: 1
Symmetric key bit length: 128
IV bit length:            128
Plaintext bit length:     128
Symmetric key:            61616161616161616161616161616161
IV:                       9e9e9e9e9e9e9e9e9e9e9e9e9e9e9e9e
Plaintext:                9e9e9e9e9e9e9e9e9e9e9e9e9e9e9e9e
Ciphertext:               e2a2a64a4031f08c073b1fa1ab33a60ab9a32d2a2cef053cd1fa8c1bb2eadf8aba499ac1aaddd8c8d7653682be87ccea2c00646321e55b95ff79cc1f4d5545f1
Reciphers for ciphertext: 0
Decipheredtext:           9e9e9e9e9e9e9e9e9e9e9e9e9e9e9e9e
RESULT CIPHER-DECIPHER: -----OK-----


Test: 98
Crypto pad: 2
Symmetric key bit length: 128
IV bit length:            128
Plaintext bit length:     128
Symmetric key:            62626262626262626262626262626262
IV:                       9d9d9d9d9d9d9d9d9d9d9d9d9d9d9d9d
Plaintext:                9d9d9d9d9d9d9d9d9d9d9d9d9d9d9d9d
Ciphertext:               4889386c07d75a37e2588868e2f03d2570210cc5631934c647a675fd6a433da025c018e7d951bd2fe6599921823d806283588608151923ab947afe6544f960c9
Reciphers for ciphertext: 0
Decipheredtext:           9d9d9d9d9d9d9d9d9d9d9d9d9d9d9d9d
RESULT CIPHER-DECIPHER: -----OK-----


Test: 99
Crypto pad: 2
Symmetric key bit length: 128
IV bit length:            128
Plaintext bit length:     128
Symmetric key:            63636363636363636363636363636363
IV:                       9c9c9c9c9c9c9c9c9c9c9c9c9c9c9c9c
Plaintext:                9c9c9c9c9c9c9c9c9c9c9c9c9c9c9c9c
Ciphertext:               19cd51d8ad84a66c5e47e5f9bd31b9e82d6d888098661db493780fd4b10b4ddcf23afdb76a2ca4366e15dc8f44c6bdcf1ef728ccdd4e131962b1b546a67876b3
Reciphers for ciphertext: 0
Decipheredtext:           9c9c9c9c9c9c9c9c9c9c9c9c9c9c9c9c
RESULT CIPHER-DECIPHER: -----OK-----


Test: 100
Crypto pad: 1
Symmetric key bit length: 128
IV bit length:            128
Plaintext bit length:     128
Symmetric key:            64646464646464646464646464646464
IV:                       9b9b9b9b9b9b9b9b9b9b9b9b9b9b9b9b
Plaintext:                9b9b9b9b9b9b9b9b9b9b9b9b9b9b9b9b
Ciphertext:               ac5d5a8fdb98ee1a2a22bf471b0fc6877ff9913b1b073d777e8bab8f85d12396d33f5d82c4c0576ecf64f0c1810434c0d11794a89a3c3b1d6452ac41a233395b
Reciphers for ciphertext: 0
Decipheredtext:           9b9b9b9b9b9b9b9b9b9b9b9b9b9b9b9b
RESULT CIPHER-DECIPHER: -----OK-----


Test: 101
Crypto pad: 0
Symmetric key bit length: 128
IV bit length:            128
Plaintext bit length:     128
Symmetric key:            65656565656565656565656565656565
IV:                       9a9a9a9a9a9a9a9a9a9a9a9a9a9a9a9a
Plaintext:                9a9a9a9a9a9a9a9a9a9a9a9a9a9a9a9a
Ciphertext:               0e96268599fa0ddc9b2705b1019b15dbf853bfa36a96b9617c50c99677f19431eeb06655867b94b95ccece599432d5ab07c8b772292a8fc17fa2a9face9cdb26
Reciphers for ciphertext: 0
Decipheredtext:           9a9a9a9a9a9a9a9a9a9a9a9a9a9a9a9a
RESULT CIPHER-DECIPHER: -----OK-----


Test: 102
Crypto pad: 1
Symmetric key bit length: 128
IV bit length:            128
Plaintext bit length:     128
Symmetric key:            66666666666666666666666666666666
IV:                       99999999999999999999999999999999
Plaintext:                99999999999999999999999999999999
Ciphertext:               fd0c208a49d042b395d7db34fec96f7de66b7334c219c1a848dff50daa3fc967e8964a81e3db7e439658d28ba055005ee786e014fccec6694b27fd8b09e54ce5
Reciphers for ciphertext: 0
Decipheredtext:           99999999999999999999999999999999
RESULT CIPHER-DECIPHER: -----OK-----


Test: 103
Crypto pad: 0
Symmetric key bit length: 128
IV bit length:            128
Plaintext bit length:     128
Symmetric key:            67676767676767676767676767676767
IV:                       98989898989898989898989898989898
Plaintext:                98989898989898989898989898989898
Ciphertext:               e1ec6c5a405b2a02def3f2e20e93319d4ace752b7ee3c5785f7c7624695b098ed624dc42994a4ae84d5f45d107cb18c013a879ca5c15cebd22efc36b31404706
Reciphers for ciphertext: 0
Decipheredtext:           98989898989898989898989898989898
RESULT CIPHER-DECIPHER: -----OK-----


Test: 104
Crypto pad: 1
Symmetric key bit length: 128
IV bit length:            128
Plaintext bit length:     128
Symmetric key:            68686868686868686868686868686868
IV:                       97979797979797979797979797979797
Plaintext:                97979797979797979797979797979797
Ciphertext:               42075878c5c66737a20b9bde071d8aae5b62aa819b84824cc2c46c800b53621ae66d902feda46ed8081f16fe5d4e2ed4b231c5bd3c6990cb895137ef6c432ff0
Reciphers for ciphertext: 0
Decipheredtext:           97979797979797979797979797979797
RESULT CIPHER-DECIPHER: -----OK-----


Test: 105
Crypto pad: 1
Symmetric key bit length: 128
IV bit length:            128
Plaintext bit length:     128
Symmetric key:            69696969696969696969696969696969
IV:                       96969696969696969696969696969696
Plaintext:                96969696969696969696969696969696
Ciphertext:               301e3a715a2d96b9551437c17dd5821d64e7e533c2c89ac215a3a15ba5496cd0a419b0b6d09b6cfc0e19d2a6f7333638eccb79d99e6bf81fde179818cabe8751
Reciphers for ciphertext: 0
Decipheredtext:           96969696969696969696969696969696
RESULT CIPHER-DECIPHER: -----OK-----


Test: 106
Crypto pad: 1
Symmetric key bit length: 128
IV bit length:            128
Plaintext bit length:     128
Symmetric key:            6a6a6a6a6a6a6a6a6a6a6a6a6a6a6a6a
IV:                       95959595959595959595959595959595
Plaintext:                95959595959595959595959595959595
Ciphertext:               6b1534c0d6437b8f3a807c433baf45840e91e383f979b5e3ba159c88a38d3c2aaf44cc936edc077343a11bd7ea3ad361ceebc5249af130c25385fd0a18cb1c66
Reciphers for ciphertext: 0
Decipheredtext:           95959595959595959595959595959595
RESULT CIPHER-DECIPHER: -----OK-----


Test: 107
Crypto pad: 1
Symmetric key bit length: 128
IV bit length:            128
Plaintext bit length:     128
Symmetric key:            6b6b6b6b6b6b6b6b6b6b6b6b6b6b6b6b
IV:                       94949494949494949494949494949494
Plaintext:                94949494949494949494949494949494
Ciphertext:               6e2f5d72bac515bd0526abe85a87d7542585bb8bdcc6b047b1ffd99f39d71aa388db114cd028e087eb1ba646435c264394c8ecddfade0082ff81fe288c0d4739
Reciphers for ciphertext: 0
Decipheredtext:           94949494949494949494949494949494
RESULT CIPHER-DECIPHER: -----OK-----


Test: 108
Crypto pad: 0
Symmetric key bit length: 128
IV bit length:            128
Plaintext bit length:     128
Symmetric key:            6c6c6c6c6c6c6c6c6c6c6c6c6c6c6c6c
IV:                       93939393939393939393939393939393
Plaintext:                93939393939393939393939393939393
Ciphertext:               d181c6a2a8c8ec9a6a7b48f52e6db6827c84e6ce64ac14e401e4031c92b8574fe2c03818d4906151404890de2d5b160a5f09704053bc7ccadf811b2e7fb31f09
Reciphers for ciphertext: 0
Decipheredtext:           93939393939393939393939393939393
RESULT CIPHER-DECIPHER: -----OK-----


Test: 109
Crypto pad: 2
Symmetric key bit length: 128
IV bit length:            128
Plaintext bit length:     128
Symmetric key:            6d6d6d6d6d6d6d6d6d6d6d6d6d6d6d6d
IV:                       92929292929292929292929292929292
Plaintext:                92929292929292929292929292929292
Ciphertext:               0dda8a8e9b6398c1f6a1935a35539aefa57158f2961f1f24204e31836b5132ea4181d169cd10d2201f9e8e9e7841f5430d00494015c50a2eee213c4fac606174
Reciphers for ciphertext: 0
Decipheredtext:           92929292929292929292929292929292
RESULT CIPHER-DECIPHER: -----OK-----


Test: 110
Crypto pad: 0
Symmetric key bit length: 128
IV bit length:            128
Plaintext bit length:     128
Symmetric key:            6e6e6e6e6e6e6e6e6e6e6e6e6e6e6e6e
IV:                       91919191919191919191919191919191
Plaintext:                91919191919191919191919191919191
Ciphertext:               0845384a88b2beacb65c24cc3e93fbfacf2355e1f564a562a25d7e13301dfcd25fc0d13439f33e07eb896ff96e26ff8c0f9d03ff9f43039aa4e7e14057c13d32
Reciphers for ciphertext: 0
Decipheredtext:           91919191919191919191919191919191
RESULT CIPHER-DECIPHER: -----OK-----


Test: 111
Crypto pad: 0
Symmetric key bit length: 128
IV bit length:            128
Plaintext bit length:     128
Symmetric key:            6f6f6f6f6f6f6f6f6f6f6f6f6f6f6f6f
IV:                       90909090909090909090909090909090
Plaintext:                90909090909090909090909090909090
Ciphertext:               8f1e5c9e1dc373b3e079387b43af8d7f9706600bc46cd0d9744037df01d00351e8c8d6be0e1b965293a2e915ee470e364668cd796acd9dd376c9cf9951bd5ee7
Reciphers for ciphertext: 0
Decipheredtext:           90909090909090909090909090909090
RESULT CIPHER-DECIPHER: -----OK-----


Test: 112
Crypto pad: 1
Symmetric key bit length: 128
IV bit length:            128
Plaintext bit length:     128
Symmetric key:            70707070707070707070707070707070
IV:                       8f8f8f8f8f8f8f8f8f8f8f8f8f8f8f8f
Plaintext:                8f8f8f8f8f8f8f8f8f8f8f8f8f8f8f8f
Ciphertext:               51a6405fb1219e15f69698d0f1581b5f0f8d597662150e92960eae517ecd51a426b204f26aee9376d7ff482eaea0c1675328de602b5f21215ecefc1624034176
Reciphers for ciphertext: 0
Decipheredtext:           8f8f8f8f8f8f8f8f8f8f8f8f8f8f8f8f
RESULT CIPHER-DECIPHER: -----OK-----


Test: 113
Crypto pad: 0
Symmetric key bit length: 128
IV bit length:            128
Plaintext bit length:     128
Symmetric key:            71717171717171717171717171717171
IV:                       8e8e8e8e8e8e8e8e8e8e8e8e8e8e8e8e
Plaintext:                8e8e8e8e8e8e8e8e8e8e8e8e8e8e8e8e
Ciphertext:               8746a8e68f77f0e203b8e482dbd94c97b98353ad2b86e47848305549c56588720d62fb540295c3e0d1d051d3a271f158d6c2d1fa44e94dfe7dcac9b13f6b5e5d
Reciphers for ciphertext: 0
Decipheredtext:           8e8e8e8e8e8e8e8e8e8e8e8e8e8e8e8e
RESULT CIPHER-DECIPHER: -----OK-----


Test: 114
Crypto pad: 1
Symmetric key bit length: 128
IV bit length:            128
Plaintext bit length:     128
Symmetric key:            72727272727272727272727272727272
IV:                       8d8d8d8d8d8d8d8d8d8d8d8d8d8d8d8d
Plaintext:                8d8d8d8d8d8d8d8d8d8d8d8d8d8d8d8d
Ciphertext:               cd77c3475eb142ca16e1f827b89d220db9449d5372cda4fa6cf1f928fcdd6c0f2236f222672d60aee5d7e955e6f0aa52efe732e926b19e62c5d8cbd605fd8681
Reciphers for ciphertext: 0
Decipheredtext:           8d8d8d8d8d8d8d8d8d8d8d8d8d8d8d8d
RESULT CIPHER-DECIPHER: -----OK-----


Test: 115
Crypto pad: 1
Symmetric key bit length: 128
IV bit length:            128
Plaintext bit length:     128
Symmetric key:            73737373737373737373737373737373
IV:                       8c8c8c8c8c8c8c8c8c8c8c8c8c8c8c8c
Plaintext:                8c8c8c8c8c8c8c8c8c8c8c8c8c8c8c8c
Ciphertext:               234f44c0f581fc6c53fabd20bc9c953e6d886e63e98ad8594f0a5bf85d621e7d4bdd9faefada004c4dfc79a43b4c0cb16e382f6ea43597a40b7227aef8fcda84
Reciphers for ciphertext: 0
Decipheredtext:           8c8c8c8c8c8c8c8c8c8c8c8c8c8c8c8c
RESULT CIPHER-DECIPHER: -----OK-----


Test: 116
Crypto pad: 0
Symmetric key bit length: 128
IV bit length:            128
Plaintext bit length:     128
Symmetric key:            74747474747474747474747474747474
IV:                       8b8b8b8b8b8b8b8b8b8b8b8b8b8b8b8b
Plaintext:                8b8b8b8b8b8b8b8b8b8b8b8b8b8b8b8b
Ciphertext:               ea35e33f8d7706c48846adadd4e17b1abd3f918d8d87f95b74345f286096d46359e19566fcf2b9b694a3d57a51d3c47a9dd3baa9eaf69bd863c503c74e44be9d
Reciphers for ciphertext: 0
Decipheredtext:           8b8b8b8b8b8b8b8b8b8b8b8b8b8b8b8b
RESULT CIPHER-DECIPHER: -----OK-----


Test: 117
Crypto pad: 1
Symmetric key bit length: 128
IV bit length:            128
Plaintext bit length:     128
Symmetric key:            75757575757575757575757575757575
IV:                       8a8a8a8a8a8a8a8a8a8a8a8a8a8a8a8a
Plaintext:                8a8a8a8a8a8a8a8a8a8a8a8a8a8a8a8a
Ciphertext:               4ed413c550c02b15fe211275460dd1f7ec3abc27b6ef40045000a1ae693bd62fe5a05e37349ba8b6e446c181d58d3cc4b8431e1783ce02e0edabbfd0c9b8ceb7
Reciphers for ciphertext: 0
Decipheredtext:           8a8a8a8a8a8a8a8a8a8a8a8a8a8a8a8a
RESULT CIPHER-DECIPHER: -----OK-----


Test: 118
Crypto pad: 2
Symmetric key bit length: 128
IV bit length:            128
Plaintext bit length:     128
Symmetric key:            76767676767676767676767676767676
IV:                       89898989898989898989898989898989
Plaintext:                89898989898989898989898989898989
Ciphertext:               831f1fc209f1e1faf3be3925659b95796cf467f7f5e4fcca9e2a96d993c1970fcba852713d0e058a63b9402684d4dc1ad718db03515b0cae5cfaf91002f0a8e7
Reciphers for ciphertext: 0
Decipheredtext:           89898989898989898989898989898989
RESULT CIPHER-DECIPHER: -----OK-----


Test: 119
Crypto pad: 1
Symmetric key bit length: 128
IV bit length:            128
Plaintext bit length:     128
Symmetric key:            77777777777777777777777777777777
IV:                       88888888888888888888888888888888
Plaintext:                88888888888888888888888888888888
Ciphertext:               64998a8b7ca745207ca6dffb47b3176e1a53b157abcd2c8cff0103e25c73a9f6002f8a9018ab8d539afc240fd6657d6558c22a97df2f5cc1615db5174a7d1b3b
Reciphers for ciphertext: 0
Decipheredtext:           88888888888888888888888888888888
RESULT CIPHER-DECIPHER: -----OK-----


Test: 120
Crypto pad: 2
Symmetric key bit length: 128
IV bit length:            128
Plaintext bit length:     128
Symmetric key:            78787878787878787878787878787878
IV:                       87878787878787878787878787878787
Plaintext:                87878787878787878787878787878787
Ciphertext:               ef348f02b4099e331341eca54dc9d59c740e478d735b4e2c22610ec4c672a1f07953cef6ae3c2143387f6b09ad2e80fe2eb574979b53ea38532ccaa2818e6fd3
Reciphers for ciphertext: 0
Decipheredtext:           87878787878787878787878787878787
RESULT CIPHER-DECIPHER: -----OK-----


Test: 121
Crypto pad: 0
Symmetric key bit length: 128
IV bit length:            128
Plaintext bit length:     128
Symmetric key:            79797979797979797979797979797979
IV:                       86868686868686868686868686868686
Plaintext:                86868686868686868686868686868686
Ciphertext:               cb97a98732a730639e30c3ffaadd3e5bee281d67b4c899605dd0a14957307eb5340f060226dc1e71f356d21e675726197943bfeb765d6a3ade03b1863855c745
Reciphers for ciphertext: 0
Decipheredtext:           86868686868686868686868686868686
RESULT CIPHER-DECIPHER: -----OK-----


Test: 122
Crypto pad: 2
Symmetric key bit length: 128
IV bit length:            128
Plaintext bit length:     128
Symmetric key:            7a7a7a7a7a7a7a7a7a7a7a7a7a7a7a7a
IV:                       85858585858585858585858585858585
Plaintext:                85858585858585858585858585858585
Ciphertext:               6df0a481c88ca5739e5f96b1cc8274300cecd94ae2a310b6d231de55e9a678c8224e6b8530ec5ca6e09156f1012d3eca4de76d9d5728c07ad8bc77a5cfb2d58e
Reciphers for ciphertext: 0
Decipheredtext:           85858585858585858585858585858585
RESULT CIPHER-DECIPHER: -----OK-----


Test: 123
Crypto pad: 0
Symmetric key bit length: 128
IV bit length:            128
Plaintext bit length:     128
Symmetric key:            7b7b7b7b7b7b7b7b7b7b7b7b7b7b7b7b
IV:                       84848484848484848484848484848484
Plaintext:                84848484848484848484848484848484
Ciphertext:               1e8d7102fd9681ad6257320e8598fb0f55407aabfe289b3501eb74c8d54d05bbe7bb5cb12ce6e487bb3098bb33e6f38c6681282f9672543c1ee6de6402b2736a
Reciphers for ciphertext: 0
Decipheredtext:           84848484848484848484848484848484
RESULT CIPHER-DECIPHER: -----OK-----


Test: 124
Crypto pad: 1
Symmetric key bit length: 128
IV bit length:            128
Plaintext bit length:     128
Symmetric key:            7c7c7c7c7c7c7c7c7c7c7c7c7c7c7c7c
IV:                       83838383838383838383838383838383
Plaintext:                83838383838383838383838383838383
Ciphertext:               943d43a5d864ae51d3ed19fafe369bc8d2912345462f3b84e2ee720c2eb28f1a9213fc3e997a5115c7018beaf7ed272823f724d9acd2426483e8a8daabadaea8
Reciphers for ciphertext: 0
Decipheredtext:           83838383838383838383838383838383
RESULT CIPHER-DECIPHER: -----OK-----


Test: 125
Crypto pad: 2
Symmetric key bit length: 128
IV bit length:            128
Plaintext bit length:     128
Symmetric key:            7d7d7d7d7d7d7d7d7d7d7d7d7d7d7d7d
IV:                       82828282828282828282828282828282
Plaintext:                82828282828282828282828282828282
Ciphertext:               d47c85db134e730d8b2feaa0840e7a71c4431e00013e65c5970bde4e20fba70495e2061b0767794aec8947d232ae77fc0b0568f1db90848cbcde334dceef63ca
Reciphers for ciphertext: 0
Decipheredtext:           82828282828282828282828282828282
RESULT CIPHER-DECIPHER: -----OK-----


Test: 126
Crypto pad: 2
Symmetric key bit length: 128
IV bit length:            128
Plaintext bit length:     128
Symmetric key:            7e7e7e7e7e7e7e7e7e7e7e7e7e7e7e7e
IV:                       81818181818181818181818181818181
Plaintext:                81818181818181818181818181818181
Ciphertext:               9386525f51a550785a49158df8d485684b84a6080bb99abacc274da343012da7942f8d03dea62e012608ed114de3c5727a3b3ae9d4124a892afe47de9348b450
Reciphers for ciphertext: 0
Decipheredtext:           81818181818181818181818181818181
RESULT CIPHER-DECIPHER: -----OK-----


Test: 127
Crypto pad: 1
Symmetric key bit length: 128
IV bit length:            128
Plaintext bit length:     128
Symmetric key:            7f7f7f7f7f7f7f7f7f7f7f7f7f7f7f7f
IV:                       80808080808080808080808080808080
Plaintext:                80808080808080808080808080808080
Ciphertext:               cf4520f2e1b83e52c945295e3eeca5a3a2a39bfdd9a097d0e0536eee53083786af415bcac23498401bbccd0c506fc7e0e53672c190b6f2e0d058e14be0362109
Reciphers for ciphertext: 0
Decipheredtext:           80808080808080808080808080808080
RESULT CIPHER-DECIPHER: -----OK-----


 DATA SHA1 (hexadecimal): 2543411b8b626810d35405ece9ea550d0aa1700f

