
DiceLock 9.0.0.1

 TEST COMPONENTS:
 ----------------
 DiceLock:           DiceLockIVDigested class
 Operation Mode:     CFB_Mode class
 Block Cipher:       Twofish256 class
 Hash algorithms:     0 - Sha1 class
                      1 - Sha224 class
                      2 - Sha256 class
                      3 - Sha384 class
                      4 - Sha512 class
                      5 - Sha512_224 class
                      6 - Sha512_256 class
                      7 - Ripemd128 class
                      8 - Ripemd160 class
                      9 - Ripemd256 class
                     10 - Ripemd320 class
                     11 - MD2 class
                     12 - MD4 class
                     13 - MD5 class
 Key Modifier:       IncreaseKeyModifier_6_0_0_1 class
 Random tests:       RandomTestSuite class
                     FrequencyTest class
                     BlockFrequencyTest class
                     CumulativeSumForwardTest class
                     LongestRunOfOnesTest class
                     RunsTest class
 Random alpha:       0.001

 VECTOR TEST: Test vector 2 - Changing plaintext, shifting 1 bit set


##### INDIVIDUAL TESTS #####

Number tests: 128


Test: 0
Hash algorithm: 8
Symmetric key bit length: 256
IV bit length:            128
Plaintext bit length:     128
Symmetric key:            0000000000000000000000000000000000000000000000000000000000000000
IV:                       00000000000000000000000000000000
Plaintext:                80000000000000000000000000000000
Ciphertext:               d7ff739d4dc92c1bd7fc01700cc8216fd294612d685907c660e0c762a1163354cf163b46
Reciphers for ciphertext: 0
Decipheredtext:           80000000000000000000000000000000
RESULT CIPHER-DECIPHER: -----OK-----


Test: 1
Hash algorithm: 6
Symmetric key bit length: 256
IV bit length:            128
Plaintext bit length:     128
Symmetric key:            0000000000000000000000000000000000000000000000000000000000000000
IV:                       00000000000000000000000000000000
Plaintext:                40000000000000000000000000000000
Ciphertext:               17ff739d4dc92c1bd7fc01700cc8216fd58f9c913d491545cb317b7981dffd583475e490b8e975e48551220adeba9ede
Reciphers for ciphertext: 0
Decipheredtext:           40000000000000000000000000000000
RESULT CIPHER-DECIPHER: -----OK-----


Test: 2
Hash algorithm: 10
Symmetric key bit length: 256
IV bit length:            128
Plaintext bit length:     128
Symmetric key:            0000000000000000000000000000000000000000000000000000000000000000
IV:                       00000000000000000000000000000000
Plaintext:                20000000000000000000000000000000
Ciphertext:               77ff739d4dc92c1bd7fc01700cc8216fc34551a85becb8522128fc0e35f1bcdb0aaa8c58348cd284b8e87a6d6e469b79d3f472ccfa152619
Reciphers for ciphertext: 0
Decipheredtext:           20000000000000000000000000000000
RESULT CIPHER-DECIPHER: -----OK-----


Test: 3
Hash algorithm: 1
Symmetric key bit length: 256
IV bit length:            128
Plaintext bit length:     128
Symmetric key:            0000000000000000000000000000000000000000000000000000000000000000
IV:                       00000000000000000000000000000000
Plaintext:                10000000000000000000000000000000
Ciphertext:               47ff739d4dc92c1bd7fc01700cc8216fcfd4b848edd0e6866975f25a061df22e3a4c552bc154f6110fe1deee
Reciphers for ciphertext: 0
Decipheredtext:           10000000000000000000000000000000
RESULT CIPHER-DECIPHER: -----OK-----


Test: 4
Hash algorithm: 13
Symmetric key bit length: 256
IV bit length:            128
Plaintext bit length:     128
Symmetric key:            0000000000000000000000000000000000000000000000000000000000000000
IV:                       00000000000000000000000000000000
Plaintext:                08000000000000000000000000000000
Ciphertext:               5fff739d4dc92c1bd7fc01700cc8216f8bd1e0fe62a5b34fd09c23251cf5ca8d
Reciphers for ciphertext: 0
Decipheredtext:           08000000000000000000000000000000
RESULT CIPHER-DECIPHER: -----OK-----


Test: 5
Hash algorithm: 3
Symmetric key bit length: 256
IV bit length:            128
Plaintext bit length:     128
Symmetric key:            0000000000000000000000000000000000000000000000000000000000000000
IV:                       00000000000000000000000000000000
Plaintext:                04000000000000000000000000000000
Ciphertext:               53ff739d4dc92c1bd7fc01700cc8216f12a664220d8647f5ea0159c1f7432037051adb131e9e5ff03ec698eaca463ceb09bac5ed2b6372a2697547ff172a4bfd
Reciphers for ciphertext: 0
Decipheredtext:           04000000000000000000000000000000
RESULT CIPHER-DECIPHER: -----OK-----


Test: 6
Hash algorithm: 13
Symmetric key bit length: 256
IV bit length:            128
Plaintext bit length:     128
Symmetric key:            0000000000000000000000000000000000000000000000000000000000000000
IV:                       00000000000000000000000000000000
Plaintext:                02000000000000000000000000000000
Ciphertext:               55ff739d4dc92c1bd7fc01700cc8216fd5f507c1e694afc653aee5599662f040
Reciphers for ciphertext: 0
Decipheredtext:           02000000000000000000000000000000
RESULT CIPHER-DECIPHER: -----OK-----


Test: 7
Hash algorithm: 1
Symmetric key bit length: 256
IV bit length:            128
Plaintext bit length:     128
Symmetric key:            0000000000000000000000000000000000000000000000000000000000000000
IV:                       00000000000000000000000000000000
Plaintext:                01000000000000000000000000000000
Ciphertext:               56ff739d4dc92c1bd7fc01700cc8216f8d53d90be6a42a9fa854071c6f178d9896b69a6e965017483840c6c1
Reciphers for ciphertext: 0
Decipheredtext:           01000000000000000000000000000000
RESULT CIPHER-DECIPHER: -----OK-----


Test: 8
Hash algorithm: 12
Symmetric key bit length: 256
IV bit length:            128
Plaintext bit length:     128
Symmetric key:            0000000000000000000000000000000000000000000000000000000000000000
IV:                       00000000000000000000000000000000
Plaintext:                00800000000000000000000000000000
Ciphertext:               577f739d4dc92c1bd7fc01700cc8216f4c9088901a62aa5525316483be89bc02
Reciphers for ciphertext: 0
Decipheredtext:           00800000000000000000000000000000
RESULT CIPHER-DECIPHER: -----OK-----


Test: 9
Hash algorithm: 5
Symmetric key bit length: 256
IV bit length:            128
Plaintext bit length:     128
Symmetric key:            0000000000000000000000000000000000000000000000000000000000000000
IV:                       00000000000000000000000000000000
Plaintext:                00400000000000000000000000000000
Ciphertext:               57bf739d4dc92c1bd7fc01700cc8216fa28b063ad97db33079b4aef6eb8f08934728e378604517245be16a0e
Reciphers for ciphertext: 0
Decipheredtext:           00400000000000000000000000000000
RESULT CIPHER-DECIPHER: -----OK-----


Test: 10
Hash algorithm: 7
Symmetric key bit length: 256
IV bit length:            128
Plaintext bit length:     128
Symmetric key:            0000000000000000000000000000000000000000000000000000000000000000
IV:                       00000000000000000000000000000000
Plaintext:                00200000000000000000000000000000
Ciphertext:               57df739d4dc92c1bd7fc01700cc8216f9ce0b8c9725adaccb2b2d5ac508c59f9
Reciphers for ciphertext: 0
Decipheredtext:           00200000000000000000000000000000
RESULT CIPHER-DECIPHER: -----OK-----


Test: 11
Hash algorithm: 1
Symmetric key bit length: 256
IV bit length:            128
Plaintext bit length:     128
Symmetric key:            0000000000000000000000000000000000000000000000000000000000000000
IV:                       00000000000000000000000000000000
Plaintext:                00100000000000000000000000000000
Ciphertext:               57ef739d4dc92c1bd7fc01700cc8216fa30ab534539910a529b8a834def8efd40c82aed624b24e91f9c67790
Reciphers for ciphertext: 0
Decipheredtext:           00100000000000000000000000000000
RESULT CIPHER-DECIPHER: -----OK-----


Test: 12
Hash algorithm: 4
Symmetric key bit length: 256
IV bit length:            128
Plaintext bit length:     128
Symmetric key:            0000000000000000000000000000000000000000000000000000000000000000
IV:                       00000000000000000000000000000000
Plaintext:                00080000000000000000000000000000
Ciphertext:               57f7739d4dc92c1bd7fc01700cc8216febdfd8c1a26ac493a4c8df30d9893e64408f65bd75ae6605d4bb52cb26573ab152c52632624314a2e2c089c4a394a239496febe4016c6864652e73fc11ca6035
Reciphers for ciphertext: 0
Decipheredtext:           00080000000000000000000000000000
RESULT CIPHER-DECIPHER: -----OK-----


Test: 13
Hash algorithm: 13
Symmetric key bit length: 256
IV bit length:            128
Plaintext bit length:     128
Symmetric key:            0000000000000000000000000000000000000000000000000000000000000000
IV:                       00000000000000000000000000000000
Plaintext:                00040000000000000000000000000000
Ciphertext:               57fb739d4dc92c1bd7fc01700cc8216f12d4fd9672cf603062517e9d65b16e99
Reciphers for ciphertext: 0
Decipheredtext:           00040000000000000000000000000000
RESULT CIPHER-DECIPHER: -----OK-----


Test: 14
Hash algorithm: 13
Symmetric key bit length: 256
IV bit length:            128
Plaintext bit length:     128
Symmetric key:            0000000000000000000000000000000000000000000000000000000000000000
IV:                       00000000000000000000000000000000
Plaintext:                00020000000000000000000000000000
Ciphertext:               57fd739d4dc92c1bd7fc01700cc8216ffd0aa5003f60a0694ecd370667332f3c
Reciphers for ciphertext: 0
Decipheredtext:           00020000000000000000000000000000
RESULT CIPHER-DECIPHER: -----OK-----


Test: 15
Hash algorithm: 2
Symmetric key bit length: 256
IV bit length:            128
Plaintext bit length:     128
Symmetric key:            0000000000000000000000000000000000000000000000000000000000000000
IV:                       00000000000000000000000000000000
Plaintext:                00010000000000000000000000000000
Ciphertext:               57fe739d4dc92c1bd7fc01700cc8216f5190d70711790645a45acbd7326116a2cbc99cca3ea2cd155fbec11f6f7356a6
Reciphers for ciphertext: 0
Decipheredtext:           00010000000000000000000000000000
RESULT CIPHER-DECIPHER: -----OK-----


Test: 16
Hash algorithm: 3
Symmetric key bit length: 256
IV bit length:            128
Plaintext bit length:     128
Symmetric key:            0000000000000000000000000000000000000000000000000000000000000000
IV:                       00000000000000000000000000000000
Plaintext:                00008000000000000000000000000000
Ciphertext:               57fff39d4dc92c1bd7fc01700cc8216fb703672ded8a50ac5dac06b2edd58351ccf03937e356e4a1897dc587db17d1d0a5557dbf60f9d2aec0a78912b9fbda7a
Reciphers for ciphertext: 0
Decipheredtext:           00008000000000000000000000000000
RESULT CIPHER-DECIPHER: -----OK-----


Test: 17
Hash algorithm: 12
Symmetric key bit length: 256
IV bit length:            128
Plaintext bit length:     128
Symmetric key:            0000000000000000000000000000000000000000000000000000000000000000
IV:                       00000000000000000000000000000000
Plaintext:                00004000000000000000000000000000
Ciphertext:               57ff339d4dc92c1bd7fc01700cc8216f9ad02ba6b2eaf7ff3804fb1c2ce48698
Reciphers for ciphertext: 0
Decipheredtext:           00004000000000000000000000000000
RESULT CIPHER-DECIPHER: -----OK-----


Test: 18
Hash algorithm: 5
Symmetric key bit length: 256
IV bit length:            128
Plaintext bit length:     128
Symmetric key:            0000000000000000000000000000000000000000000000000000000000000000
IV:                       00000000000000000000000000000000
Plaintext:                00002000000000000000000000000000
Ciphertext:               57ff539d4dc92c1bd7fc01700cc8216ffeac1da779e8bfad5521f7e7d5e6a6c441523ef62c0b3e17fa74a256
Reciphers for ciphertext: 0
Decipheredtext:           00002000000000000000000000000000
RESULT CIPHER-DECIPHER: -----OK-----


Test: 19
Hash algorithm: 8
Symmetric key bit length: 256
IV bit length:            128
Plaintext bit length:     128
Symmetric key:            0000000000000000000000000000000000000000000000000000000000000000
IV:                       00000000000000000000000000000000
Plaintext:                00001000000000000000000000000000
Ciphertext:               57ff639d4dc92c1bd7fc01700cc8216fc8b73201d785f1fe1b787b1f8417b47d6bb76bb4
Reciphers for ciphertext: 0
Decipheredtext:           00001000000000000000000000000000
RESULT CIPHER-DECIPHER: -----OK-----


Test: 20
Hash algorithm: 0
Symmetric key bit length: 256
IV bit length:            128
Plaintext bit length:     128
Symmetric key:            0000000000000000000000000000000000000000000000000000000000000000
IV:                       00000000000000000000000000000000
Plaintext:                00000800000000000000000000000000
Ciphertext:               57ff7b9d4dc92c1bd7fc01700cc8216f328449b9d04de0f36fc85c210bbb03fe408c541d
Reciphers for ciphertext: 0
Decipheredtext:           00000800000000000000000000000000
RESULT CIPHER-DECIPHER: -----OK-----


Test: 21
Hash algorithm: 11
Symmetric key bit length: 256
IV bit length:            128
Plaintext bit length:     128
Symmetric key:            0000000000000000000000000000000000000000000000000000000000000000
IV:                       00000000000000000000000000000000
Plaintext:                00000400000000000000000000000000
Ciphertext:               57ff779d4dc92c1bd7fc01700cc8216f20d5a7514da771bd52e047f4f57c1a74
Reciphers for ciphertext: 0
Decipheredtext:           00000400000000000000000000000000
RESULT CIPHER-DECIPHER: -----OK-----


Test: 22
Hash algorithm: 8
Symmetric key bit length: 256
IV bit length:            128
Plaintext bit length:     128
Symmetric key:            0000000000000000000000000000000000000000000000000000000000000000
IV:                       00000000000000000000000000000000
Plaintext:                00000200000000000000000000000000
Ciphertext:               57ff719d4dc92c1bd7fc01700cc8216fea9c335ad4cb5d57119c0371e3b487e89d99d907
Reciphers for ciphertext: 0
Decipheredtext:           00000200000000000000000000000000
RESULT CIPHER-DECIPHER: -----OK-----


Test: 23
Hash algorithm: 3
Symmetric key bit length: 256
IV bit length:            128
Plaintext bit length:     128
Symmetric key:            0000000000000000000000000000000000000000000000000000000000000000
IV:                       00000000000000000000000000000000
Plaintext:                00000100000000000000000000000000
Ciphertext:               57ff729d4dc92c1bd7fc01700cc8216f646037998fb6750b2da1611cdaf7596ec515fa0ce6bdc71ad56e554207491501b9c76ea3bb7d7d45ee574520a01fe3af
Reciphers for ciphertext: 0
Decipheredtext:           00000100000000000000000000000000
RESULT CIPHER-DECIPHER: -----OK-----


Test: 24
Hash algorithm: 6
Symmetric key bit length: 256
IV bit length:            128
Plaintext bit length:     128
Symmetric key:            0000000000000000000000000000000000000000000000000000000000000000
IV:                       00000000000000000000000000000000
Plaintext:                00000080000000000000000000000000
Ciphertext:               57ff731d4dc92c1bd7fc01700cc8216f11f4243fc970581d7edd857a4bd0767b6123529a8f72c865e8e4a20ba919acbc
Reciphers for ciphertext: 0
Decipheredtext:           00000080000000000000000000000000
RESULT CIPHER-DECIPHER: -----OK-----


Test: 25
Hash algorithm: 1
Symmetric key bit length: 256
IV bit length:            128
Plaintext bit length:     128
Symmetric key:            0000000000000000000000000000000000000000000000000000000000000000
IV:                       00000000000000000000000000000000
Plaintext:                00000040000000000000000000000000
Ciphertext:               57ff73dd4dc92c1bd7fc01700cc8216ff5762313eeff3cb78d967ac0f05ce3a11bcb337d3f9e790d7b2d4b60
Reciphers for ciphertext: 0
Decipheredtext:           00000040000000000000000000000000
RESULT CIPHER-DECIPHER: -----OK-----


Test: 26
Hash algorithm: 7
Symmetric key bit length: 256
IV bit length:            128
Plaintext bit length:     128
Symmetric key:            0000000000000000000000000000000000000000000000000000000000000000
IV:                       00000000000000000000000000000000
Plaintext:                00000020000000000000000000000000
Ciphertext:               57ff73bd4dc92c1bd7fc01700cc8216f1596204a47deff0d2749df9ceea42480
Reciphers for ciphertext: 0
Decipheredtext:           00000020000000000000000000000000
RESULT CIPHER-DECIPHER: -----OK-----


Test: 27
Hash algorithm: 3
Symmetric key bit length: 256
IV bit length:            128
Plaintext bit length:     128
Symmetric key:            0000000000000000000000000000000000000000000000000000000000000000
IV:                       00000000000000000000000000000000
Plaintext:                00000010000000000000000000000000
Ciphertext:               57ff738d4dc92c1bd7fc01700cc8216ff3ada24d74eac576ff74b5b146d68e1e56b176c2f7a5d7cda9d71803a62d7fff809699347a58ee24a21b73bbea9a13b6
Reciphers for ciphertext: 0
Decipheredtext:           00000010000000000000000000000000
RESULT CIPHER-DECIPHER: -----OK-----


Test: 28
Hash algorithm: 6
Symmetric key bit length: 256
IV bit length:            128
Plaintext bit length:     128
Symmetric key:            0000000000000000000000000000000000000000000000000000000000000000
IV:                       00000000000000000000000000000000
Plaintext:                00000008000000000000000000000000
Ciphertext:               57ff73954dc92c1bd7fc01700cc8216f6fd6641851161ffe7b71c756ed9a95f7bd9dfb80c2496bbc4d1dca3d3367f18a
Reciphers for ciphertext: 0
Decipheredtext:           00000008000000000000000000000000
RESULT CIPHER-DECIPHER: -----OK-----


Test: 29
Hash algorithm: 3
Symmetric key bit length: 256
IV bit length:            128
Plaintext bit length:     128
Symmetric key:            0000000000000000000000000000000000000000000000000000000000000000
IV:                       00000000000000000000000000000000
Plaintext:                00000004000000000000000000000000
Ciphertext:               57ff73994dc92c1bd7fc01700cc8216f5830097b8592b870b7191c4533292ac5cd3f9dc2a0b551a3460901d8e99f3f6e40d00823842e7025bda6d674bba8a244
Reciphers for ciphertext: 0
Decipheredtext:           00000004000000000000000000000000
RESULT CIPHER-DECIPHER: -----OK-----


Test: 30
Hash algorithm: 12
Symmetric key bit length: 256
IV bit length:            128
Plaintext bit length:     128
Symmetric key:            0000000000000000000000000000000000000000000000000000000000000000
IV:                       00000000000000000000000000000000
Plaintext:                00000002000000000000000000000000
Ciphertext:               57ff739f4dc92c1bd7fc01700cc8216ff70d8b3010a746ec012223f946c3ae40
Reciphers for ciphertext: 0
Decipheredtext:           00000002000000000000000000000000
RESULT CIPHER-DECIPHER: -----OK-----


Test: 31
Hash algorithm: 8
Symmetric key bit length: 256
IV bit length:            128
Plaintext bit length:     128
Symmetric key:            0000000000000000000000000000000000000000000000000000000000000000
IV:                       00000000000000000000000000000000
Plaintext:                00000001000000000000000000000000
Ciphertext:               57ff739c4dc92c1bd7fc01700cc8216febbfded9cd673b9228dd2b426025d4743354df2e
Reciphers for ciphertext: 0
Decipheredtext:           00000001000000000000000000000000
RESULT CIPHER-DECIPHER: -----OK-----


Test: 32
Hash algorithm: 3
Symmetric key bit length: 256
IV bit length:            128
Plaintext bit length:     128
Symmetric key:            0000000000000000000000000000000000000000000000000000000000000000
IV:                       00000000000000000000000000000000
Plaintext:                00000000800000000000000000000000
Ciphertext:               57ff739dcdc92c1bd7fc01700cc8216f410f6068d28216a76cbdd0a8c8e0fe7ed5168c4f1ae4ceb6c9db4ccca0aa227c10add945a6d2dedf7167794ccfe21d11
Reciphers for ciphertext: 0
Decipheredtext:           00000000800000000000000000000000
RESULT CIPHER-DECIPHER: -----OK-----


Test: 33
Hash algorithm: 3
Symmetric key bit length: 256
IV bit length:            128
Plaintext bit length:     128
Symmetric key:            0000000000000000000000000000000000000000000000000000000000000000
IV:                       00000000000000000000000000000000
Plaintext:                00000000400000000000000000000000
Ciphertext:               005ea3afcaff3dda323148690537853c501cd1d37d2fd3209eadc54e89946a77dbc6efcbc0f63e8eecf7e261777ce10aaa9a6aa9f57018a1ee1de10ccb056296
Reciphers for ciphertext: 1
Decipheredtext:           00000000400000000000000000000000
RESULT CIPHER-DECIPHER: -----OK-----


Test: 34
Hash algorithm: 9
Symmetric key bit length: 256
IV bit length:            128
Plaintext bit length:     128
Symmetric key:            0000000000000000000000000000000000000000000000000000000000000000
IV:                       00000000000000000000000000000000
Plaintext:                00000000200000000000000000000000
Ciphertext:               57ff739d6dc92c1bd7fc01700cc8216ffd699d2be2f170356d2b719d1413db7fa2dea641ccfdf099c50c1c03fbf7a2eb
Reciphers for ciphertext: 0
Decipheredtext:           00000000200000000000000000000000
RESULT CIPHER-DECIPHER: -----OK-----


Test: 35
Hash algorithm: 9
Symmetric key bit length: 256
IV bit length:            128
Plaintext bit length:     128
Symmetric key:            0000000000000000000000000000000000000000000000000000000000000000
IV:                       00000000000000000000000000000000
Plaintext:                00000000100000000000000000000000
Ciphertext:               57ff739d5dc92c1bd7fc01700cc8216f4ad567531bb172d7ec40b27fd006969b81c8932ede9a256fe8210fbaa0e1ff96
Reciphers for ciphertext: 0
Decipheredtext:           00000000100000000000000000000000
RESULT CIPHER-DECIPHER: -----OK-----


Test: 36
Hash algorithm: 3
Symmetric key bit length: 256
IV bit length:            128
Plaintext bit length:     128
Symmetric key:            0000000000000000000000000000000000000000000000000000000000000000
IV:                       00000000000000000000000000000000
Plaintext:                00000000080000000000000000000000
Ciphertext:               57ff739d45c92c1bd7fc01700cc8216f2f4281ab535392e0835ed33e9150d00d21d8a8583eaad556a2af4450bbf871fcb048a9f87405c769fed27f66390f35cc
Reciphers for ciphertext: 0
Decipheredtext:           00000000080000000000000000000000
RESULT CIPHER-DECIPHER: -----OK-----


Test: 37
Hash algorithm: 11
Symmetric key bit length: 256
IV bit length:            128
Plaintext bit length:     128
Symmetric key:            0000000000000000000000000000000000000000000000000000000000000000
IV:                       00000000000000000000000000000000
Plaintext:                00000000040000000000000000000000
Ciphertext:               57ff739d49c92c1bd7fc01700cc8216f5093ce5445c9761962c5d0f466846efe
Reciphers for ciphertext: 0
Decipheredtext:           00000000040000000000000000000000
RESULT CIPHER-DECIPHER: -----OK-----


Test: 38
Hash algorithm: 13
Symmetric key bit length: 256
IV bit length:            128
Plaintext bit length:     128
Symmetric key:            0000000000000000000000000000000000000000000000000000000000000000
IV:                       00000000000000000000000000000000
Plaintext:                00000000020000000000000000000000
Ciphertext:               57ff739d4fc92c1bd7fc01700cc8216f890feeb941dcac0fef6a3447d825e47b
Reciphers for ciphertext: 0
Decipheredtext:           00000000020000000000000000000000
RESULT CIPHER-DECIPHER: -----OK-----


Test: 39
Hash algorithm: 5
Symmetric key bit length: 256
IV bit length:            128
Plaintext bit length:     128
Symmetric key:            0000000000000000000000000000000000000000000000000000000000000000
IV:                       00000000000000000000000000000000
Plaintext:                00000000010000000000000000000000
Ciphertext:               57ff739d4cc92c1bd7fc01700cc8216fdb1e0c82b94defe39e1dfdc5afbfb48227b70519d9d08d8d0ab3c47a
Reciphers for ciphertext: 0
Decipheredtext:           00000000010000000000000000000000
RESULT CIPHER-DECIPHER: -----OK-----


Test: 40
Hash algorithm: 4
Symmetric key bit length: 256
IV bit length:            128
Plaintext bit length:     128
Symmetric key:            0000000000000000000000000000000000000000000000000000000000000000
IV:                       00000000000000000000000000000000
Plaintext:                00000000008000000000000000000000
Ciphertext:               57ff739d4d492c1bd7fc01700cc8216fb14dde98bc2f58e5682a0bf317fa0e9a7ff84ecb478488fb4c5f04f84f3953271175d7289120c2664fbc4e1be0fef5cc6f28e3447213c50a7023eb6269f2b6a4
Reciphers for ciphertext: 0
Decipheredtext:           00000000008000000000000000000000
RESULT CIPHER-DECIPHER: -----OK-----


Test: 41
Hash algorithm: 2
Symmetric key bit length: 256
IV bit length:            128
Plaintext bit length:     128
Symmetric key:            0000000000000000000000000000000000000000000000000000000000000000
IV:                       00000000000000000000000000000000
Plaintext:                00000000004000000000000000000000
Ciphertext:               57ff739d4d892c1bd7fc01700cc8216f04f4e694baf18532874863efed7a896b4386e04d1a18820240df511c01902196
Reciphers for ciphertext: 0
Decipheredtext:           00000000004000000000000000000000
RESULT CIPHER-DECIPHER: -----OK-----


Test: 42
Hash algorithm: 11
Symmetric key bit length: 256
IV bit length:            128
Plaintext bit length:     128
Symmetric key:            0000000000000000000000000000000000000000000000000000000000000000
IV:                       00000000000000000000000000000000
Plaintext:                00000000002000000000000000000000
Ciphertext:               57ff739d4de92c1bd7fc01700cc8216f91fca41d5384d391039df4760e570aaf
Reciphers for ciphertext: 0
Decipheredtext:           00000000002000000000000000000000
RESULT CIPHER-DECIPHER: -----OK-----


Test: 43
Hash algorithm: 8
Symmetric key bit length: 256
IV bit length:            128
Plaintext bit length:     128
Symmetric key:            0000000000000000000000000000000000000000000000000000000000000000
IV:                       00000000000000000000000000000000
Plaintext:                00000000001000000000000000000000
Ciphertext:               57ff739d4dd92c1bd7fc01700cc8216f5449c14dbcb393f073e4782c8e282c1639b90267
Reciphers for ciphertext: 0
Decipheredtext:           00000000001000000000000000000000
RESULT CIPHER-DECIPHER: -----OK-----


Test: 44
Hash algorithm: 4
Symmetric key bit length: 256
IV bit length:            128
Plaintext bit length:     128
Symmetric key:            0000000000000000000000000000000000000000000000000000000000000000
IV:                       00000000000000000000000000000000
Plaintext:                00000000000800000000000000000000
Ciphertext:               57ff739d4dc12c1bd7fc01700cc8216f0b85f091341fe382e91677fda59ee95f560e0938d8b38b25b4afa9a560e49a7b4dac4db26bd6a7f1936eaa3ecfa3755d951e119e1968c02963856eb52dd7203a
Reciphers for ciphertext: 0
Decipheredtext:           00000000000800000000000000000000
RESULT CIPHER-DECIPHER: -----OK-----


Test: 45
Hash algorithm: 5
Symmetric key bit length: 256
IV bit length:            128
Plaintext bit length:     128
Symmetric key:            0000000000000000000000000000000000000000000000000000000000000000
IV:                       00000000000000000000000000000000
Plaintext:                00000000000400000000000000000000
Ciphertext:               57ff739d4dcd2c1bd7fc01700cc8216f737a30dc00065f86b7bbf4cff73f760ec17dcc9940228b0b0a11ad6f
Reciphers for ciphertext: 0
Decipheredtext:           00000000000400000000000000000000
RESULT CIPHER-DECIPHER: -----OK-----


Test: 46
Hash algorithm: 5
Symmetric key bit length: 256
IV bit length:            128
Plaintext bit length:     128
Symmetric key:            0000000000000000000000000000000000000000000000000000000000000000
IV:                       00000000000000000000000000000000
Plaintext:                00000000000200000000000000000000
Ciphertext:               57ff739d4dcb2c1bd7fc01700cc8216f1d42e7601e2c89b485a56d0e1bb8850ff58f2849bee1016d02756ed1
Reciphers for ciphertext: 0
Decipheredtext:           00000000000200000000000000000000
RESULT CIPHER-DECIPHER: -----OK-----


Test: 47
Hash algorithm: 8
Symmetric key bit length: 256
IV bit length:            128
Plaintext bit length:     128
Symmetric key:            0000000000000000000000000000000000000000000000000000000000000000
IV:                       00000000000000000000000000000000
Plaintext:                00000000000100000000000000000000
Ciphertext:               57ff739d4dc82c1bd7fc01700cc8216f568e119f1c2e62ba31e28d6f5ade56e042e9e329
Reciphers for ciphertext: 0
Decipheredtext:           00000000000100000000000000000000
RESULT CIPHER-DECIPHER: -----OK-----


Test: 48
Hash algorithm: 4
Symmetric key bit length: 256
IV bit length:            128
Plaintext bit length:     128
Symmetric key:            0000000000000000000000000000000000000000000000000000000000000000
IV:                       00000000000000000000000000000000
Plaintext:                00000000000080000000000000000000
Ciphertext:               57ff739d4dc9ac1bd7fc01700cc8216f04c2f21385aa652daa66356bc7f67108a87d962d6347c741badeddd40baa0774fb97b7d55af1c1adc7d5d079bc614b26c1e6ce7613b9a9679153173d096d33ea
Reciphers for ciphertext: 0
Decipheredtext:           00000000000080000000000000000000
RESULT CIPHER-DECIPHER: -----OK-----


Test: 49
Hash algorithm: 2
Symmetric key bit length: 256
IV bit length:            128
Plaintext bit length:     128
Symmetric key:            0000000000000000000000000000000000000000000000000000000000000000
IV:                       00000000000000000000000000000000
Plaintext:                00000000000040000000000000000000
Ciphertext:               57ff739d4dc96c1bd7fc01700cc8216f82cf9353bef98a59752b06c5cb2a391f84ff325d0fc1e8b08fcc38ce6482e8de
Reciphers for ciphertext: 0
Decipheredtext:           00000000000040000000000000000000
RESULT CIPHER-DECIPHER: -----OK-----


Test: 50
Hash algorithm: 5
Symmetric key bit length: 256
IV bit length:            128
Plaintext bit length:     128
Symmetric key:            0000000000000000000000000000000000000000000000000000000000000000
IV:                       00000000000000000000000000000000
Plaintext:                00000000000020000000000000000000
Ciphertext:               57ff739d4dc90c1bd7fc01700cc8216fad51e9c814c8c06323ccb2e76f6dd4a75dc64a65b7aad0327596056c
Reciphers for ciphertext: 0
Decipheredtext:           00000000000020000000000000000000
RESULT CIPHER-DECIPHER: -----OK-----


Test: 51
Hash algorithm: 2
Symmetric key bit length: 256
IV bit length:            128
Plaintext bit length:     128
Symmetric key:            0000000000000000000000000000000000000000000000000000000000000000
IV:                       00000000000000000000000000000000
Plaintext:                00000000000010000000000000000000
Ciphertext:               57ff739d4dc93c1bd7fc01700cc8216ff4c268f798f589044ea4ad90c21d3dd5261aa8ca6945335f5635de3a35e330a3
Reciphers for ciphertext: 0
Decipheredtext:           00000000000010000000000000000000
RESULT CIPHER-DECIPHER: -----OK-----


Test: 52
Hash algorithm: 0
Symmetric key bit length: 256
IV bit length:            128
Plaintext bit length:     128
Symmetric key:            0000000000000000000000000000000000000000000000000000000000000000
IV:                       00000000000000000000000000000000
Plaintext:                00000000000008000000000000000000
Ciphertext:               57ff739d4dc9241bd7fc01700cc8216fe6234a245bf00c9490a99d5adae697d1cdfaaad4
Reciphers for ciphertext: 0
Decipheredtext:           00000000000008000000000000000000
RESULT CIPHER-DECIPHER: -----OK-----


Test: 53
Hash algorithm: 1
Symmetric key bit length: 256
IV bit length:            128
Plaintext bit length:     128
Symmetric key:            0000000000000000000000000000000000000000000000000000000000000000
IV:                       00000000000000000000000000000000
Plaintext:                00000000000004000000000000000000
Ciphertext:               57ff739d4dc9281bd7fc01700cc8216f70afcd6161dbd50083871fb88e34625e5693991a8121cbc86fd40df8
Reciphers for ciphertext: 0
Decipheredtext:           00000000000004000000000000000000
RESULT CIPHER-DECIPHER: -----OK-----


Test: 54
Hash algorithm: 12
Symmetric key bit length: 256
IV bit length:            128
Plaintext bit length:     128
Symmetric key:            0000000000000000000000000000000000000000000000000000000000000000
IV:                       00000000000000000000000000000000
Plaintext:                00000000000002000000000000000000
Ciphertext:               57ff739d4dc92e1bd7fc01700cc8216f11dcd081ec774aada4feb715618f896f
Reciphers for ciphertext: 0
Decipheredtext:           00000000000002000000000000000000
RESULT CIPHER-DECIPHER: -----OK-----


Test: 55
Hash algorithm: 9
Symmetric key bit length: 256
IV bit length:            128
Plaintext bit length:     128
Symmetric key:            0000000000000000000000000000000000000000000000000000000000000000
IV:                       00000000000000000000000000000000
Plaintext:                00000000000001000000000000000000
Ciphertext:               57ff739d4dc92d1bd7fc01700cc8216f3878f9f147554f864ed369eb09606557a5d1d269fa7f2639cb6ac9e614fe8701
Reciphers for ciphertext: 0
Decipheredtext:           00000000000001000000000000000000
RESULT CIPHER-DECIPHER: -----OK-----


Test: 56
Hash algorithm: 3
Symmetric key bit length: 256
IV bit length:            128
Plaintext bit length:     128
Symmetric key:            0000000000000000000000000000000000000000000000000000000000000000
IV:                       00000000000000000000000000000000
Plaintext:                00000000000000800000000000000000
Ciphertext:               57ff739d4dc92c9bd7fc01700cc8216f2763ae00ec183d3c2c50612e3dfcad9803b0ab7db37ce3fc849e25b1c90fcff8d6ccc7c5cb7b6daa4d2a81e699197eb7
Reciphers for ciphertext: 0
Decipheredtext:           00000000000000800000000000000000
RESULT CIPHER-DECIPHER: -----OK-----


Test: 57
Hash algorithm: 7
Symmetric key bit length: 256
IV bit length:            128
Plaintext bit length:     128
Symmetric key:            0000000000000000000000000000000000000000000000000000000000000000
IV:                       00000000000000000000000000000000
Plaintext:                00000000000000400000000000000000
Ciphertext:               57ff739d4dc92c5bd7fc01700cc8216fe39e14d6a63ddc4b9594eddf8937aaf5
Reciphers for ciphertext: 0
Decipheredtext:           00000000000000400000000000000000
RESULT CIPHER-DECIPHER: -----OK-----


Test: 58
Hash algorithm: 4
Symmetric key bit length: 256
IV bit length:            128
Plaintext bit length:     128
Symmetric key:            0000000000000000000000000000000000000000000000000000000000000000
IV:                       00000000000000000000000000000000
Plaintext:                00000000000000200000000000000000
Ciphertext:               57ff739d4dc92c3bd7fc01700cc8216f0b3597895e21353804cfa867831aa4683a03613c85be31dc35b6367dc613b831bb32ea36e5ee415de3d25746dc855194941bdc6b28189612b6fb62a54c8ba9cc
Reciphers for ciphertext: 0
Decipheredtext:           00000000000000200000000000000000
RESULT CIPHER-DECIPHER: -----OK-----


Test: 59
Hash algorithm: 1
Symmetric key bit length: 256
IV bit length:            128
Plaintext bit length:     128
Symmetric key:            0000000000000000000000000000000000000000000000000000000000000000
IV:                       00000000000000000000000000000000
Plaintext:                00000000000000100000000000000000
Ciphertext:               57ff739d4dc92c0bd7fc01700cc8216fbfc2969cd3491d1fcbf7cc4de073cf8dea68aaa086424dcfa6a63b6c
Reciphers for ciphertext: 0
Decipheredtext:           00000000000000100000000000000000
RESULT CIPHER-DECIPHER: -----OK-----


Test: 60
Hash algorithm: 9
Symmetric key bit length: 256
IV bit length:            128
Plaintext bit length:     128
Symmetric key:            0000000000000000000000000000000000000000000000000000000000000000
IV:                       00000000000000000000000000000000
Plaintext:                00000000000000080000000000000000
Ciphertext:               57ff739d4dc92c13d7fc01700cc8216f5e870a9ef84c7feb8ebeb5891362e0824360aa3783b66f3c408aff8993fa9788
Reciphers for ciphertext: 0
Decipheredtext:           00000000000000080000000000000000
RESULT CIPHER-DECIPHER: -----OK-----


Test: 61
Hash algorithm: 7
Symmetric key bit length: 256
IV bit length:            128
Plaintext bit length:     128
Symmetric key:            0000000000000000000000000000000000000000000000000000000000000000
IV:                       00000000000000000000000000000000
Plaintext:                00000000000000040000000000000000
Ciphertext:               57ff739d4dc92c1fd7fc01700cc8216f21c80e09e175fcb3d8840101f68db6fd
Reciphers for ciphertext: 0
Decipheredtext:           00000000000000040000000000000000
RESULT CIPHER-DECIPHER: -----OK-----


Test: 62
Hash algorithm: 0
Symmetric key bit length: 256
IV bit length:            128
Plaintext bit length:     128
Symmetric key:            0000000000000000000000000000000000000000000000000000000000000000
IV:                       00000000000000000000000000000000
Plaintext:                00000000000000020000000000000000
Ciphertext:               57ff739d4dc92c19d7fc01700cc8216ff458699c94910e24ed77bd3d403387d17caeb719
Reciphers for ciphertext: 0
Decipheredtext:           00000000000000020000000000000000
RESULT CIPHER-DECIPHER: -----OK-----


Test: 63
Hash algorithm: 9
Symmetric key bit length: 256
IV bit length:            128
Plaintext bit length:     128
Symmetric key:            0000000000000000000000000000000000000000000000000000000000000000
IV:                       00000000000000000000000000000000
Plaintext:                00000000000000010000000000000000
Ciphertext:               57ff739d4dc92c1ad7fc01700cc8216f8a670e9e460359872300f8ebdd897a112cba859e4adfb9ea968cfe12269467f4
Reciphers for ciphertext: 0
Decipheredtext:           00000000000000010000000000000000
RESULT CIPHER-DECIPHER: -----OK-----


Test: 64
Hash algorithm: 4
Symmetric key bit length: 256
IV bit length:            128
Plaintext bit length:     128
Symmetric key:            0000000000000000000000000000000000000000000000000000000000000000
IV:                       00000000000000000000000000000000
Plaintext:                00000000000000008000000000000000
Ciphertext:               57ff739d4dc92c1b57fc01700cc8216f929f84874a474c93b126233a7e9a150fd1c0afa0fc9df6563c18dee8398487567bfaa4b09e9b77fd3931ca11bee0278b4aa6b80a1fcf46406a976e5b149caac4
Reciphers for ciphertext: 0
Decipheredtext:           00000000000000008000000000000000
RESULT CIPHER-DECIPHER: -----OK-----


Test: 65
Hash algorithm: 13
Symmetric key bit length: 256
IV bit length:            128
Plaintext bit length:     128
Symmetric key:            0000000000000000000000000000000000000000000000000000000000000000
IV:                       00000000000000000000000000000000
Plaintext:                00000000000000004000000000000000
Ciphertext:               57ff739d4dc92c1b97fc01700cc8216f6d90fc8a37322f51bb204884d24fadc9
Reciphers for ciphertext: 0
Decipheredtext:           00000000000000004000000000000000
RESULT CIPHER-DECIPHER: -----OK-----


Test: 66
Hash algorithm: 11
Symmetric key bit length: 256
IV bit length:            128
Plaintext bit length:     128
Symmetric key:            0000000000000000000000000000000000000000000000000000000000000000
IV:                       00000000000000000000000000000000
Plaintext:                00000000000000002000000000000000
Ciphertext:               57ff739d4dc92c1bf7fc01700cc8216ffcbd9059b5e26f7f60a67d85750f5958
Reciphers for ciphertext: 0
Decipheredtext:           00000000000000002000000000000000
RESULT CIPHER-DECIPHER: -----OK-----


Test: 67
Hash algorithm: 7
Symmetric key bit length: 256
IV bit length:            128
Plaintext bit length:     128
Symmetric key:            0000000000000000000000000000000000000000000000000000000000000000
IV:                       00000000000000000000000000000000
Plaintext:                00000000000000001000000000000000
Ciphertext:               57ff739d4dc92c1bc7fc01700cc8216fa8778f96bd08039e4b05e0bfa692401f
Reciphers for ciphertext: 0
Decipheredtext:           00000000000000001000000000000000
RESULT CIPHER-DECIPHER: -----OK-----


Test: 68
Hash algorithm: 10
Symmetric key bit length: 256
IV bit length:            128
Plaintext bit length:     128
Symmetric key:            0000000000000000000000000000000000000000000000000000000000000000
IV:                       00000000000000000000000000000000
Plaintext:                00000000000000000800000000000000
Ciphertext:               57ff739d4dc92c1bdffc01700cc8216fd0059a3da16051bddbc460bd3a4e63555a7b61f8d028ca8571a8b77bd4f0af55ba6951c68ff6405c
Reciphers for ciphertext: 0
Decipheredtext:           00000000000000000800000000000000
RESULT CIPHER-DECIPHER: -----OK-----


Test: 69
Hash algorithm: 4
Symmetric key bit length: 256
IV bit length:            128
Plaintext bit length:     128
Symmetric key:            0000000000000000000000000000000000000000000000000000000000000000
IV:                       00000000000000000000000000000000
Plaintext:                00000000000000000400000000000000
Ciphertext:               57ff739d4dc92c1bd3fc01700cc8216f246fdfe9d6d778e34fdbfee5c8adeed7fc52405479b320088909933388edd6c5b3369769a3a3ff94061672ea48cc3b413ea4e88fc8d094680c7f2b92fa00ffa0
Reciphers for ciphertext: 0
Decipheredtext:           00000000000000000400000000000000
RESULT CIPHER-DECIPHER: -----OK-----


Test: 70
Hash algorithm: 8
Symmetric key bit length: 256
IV bit length:            128
Plaintext bit length:     128
Symmetric key:            0000000000000000000000000000000000000000000000000000000000000000
IV:                       00000000000000000000000000000000
Plaintext:                00000000000000000200000000000000
Ciphertext:               57ff739d4dc92c1bd5fc01700cc8216f226e7090f21ef276b7cf7faa9b97ec40f619e998
Reciphers for ciphertext: 0
Decipheredtext:           00000000000000000200000000000000
RESULT CIPHER-DECIPHER: -----OK-----


Test: 71
Hash algorithm: 5
Symmetric key bit length: 256
IV bit length:            128
Plaintext bit length:     128
Symmetric key:            0000000000000000000000000000000000000000000000000000000000000000
IV:                       00000000000000000000000000000000
Plaintext:                00000000000000000100000000000000
Ciphertext:               57ff739d4dc92c1bd6fc01700cc8216f5e0867f39bc82f05b8b21a8d03f22b6e54b72711d844c5f48f22c8fd
Reciphers for ciphertext: 0
Decipheredtext:           00000000000000000100000000000000
RESULT CIPHER-DECIPHER: -----OK-----


Test: 72
Hash algorithm: 10
Symmetric key bit length: 256
IV bit length:            128
Plaintext bit length:     128
Symmetric key:            0000000000000000000000000000000000000000000000000000000000000000
IV:                       00000000000000000000000000000000
Plaintext:                00000000000000000080000000000000
Ciphertext:               57ff739d4dc92c1bd77c01700cc8216f55f7bf2c2ef7a5e731a63ec2a446f41a759db05ca82e00f374cc0b99d8c47392b91b425c442c53c0
Reciphers for ciphertext: 0
Decipheredtext:           00000000000000000080000000000000
RESULT CIPHER-DECIPHER: -----OK-----


Test: 73
Hash algorithm: 12
Symmetric key bit length: 256
IV bit length:            128
Plaintext bit length:     128
Symmetric key:            0000000000000000000000000000000000000000000000000000000000000000
IV:                       00000000000000000000000000000000
Plaintext:                00000000000000000040000000000000
Ciphertext:               57ff739d4dc92c1bd7bc01700cc8216ffa46c58889752e1f2d23c711e1409621
Reciphers for ciphertext: 0
Decipheredtext:           00000000000000000040000000000000
RESULT CIPHER-DECIPHER: -----OK-----


Test: 74
Hash algorithm: 6
Symmetric key bit length: 256
IV bit length:            128
Plaintext bit length:     128
Symmetric key:            0000000000000000000000000000000000000000000000000000000000000000
IV:                       00000000000000000000000000000000
Plaintext:                00000000000000000020000000000000
Ciphertext:               57ff739d4dc92c1bd7dc01700cc8216f868a6e67365e65eca8564d96f96a97081b27d10a32a994250d51d62c6c9265d8
Reciphers for ciphertext: 0
Decipheredtext:           00000000000000000020000000000000
RESULT CIPHER-DECIPHER: -----OK-----


Test: 75
Hash algorithm: 9
Symmetric key bit length: 256
IV bit length:            128
Plaintext bit length:     128
Symmetric key:            0000000000000000000000000000000000000000000000000000000000000000
IV:                       00000000000000000000000000000000
Plaintext:                00000000000000000010000000000000
Ciphertext:               57ff739d4dc92c1bd7ec01700cc8216f4a9b9db9f953b84b4f69f78cd66c6f8f87470786b29673be8e7edbf8998111a2
Reciphers for ciphertext: 0
Decipheredtext:           00000000000000000010000000000000
RESULT CIPHER-DECIPHER: -----OK-----


Test: 76
Hash algorithm: 10
Symmetric key bit length: 256
IV bit length:            128
Plaintext bit length:     128
Symmetric key:            0000000000000000000000000000000000000000000000000000000000000000
IV:                       00000000000000000000000000000000
Plaintext:                00000000000000000008000000000000
Ciphertext:               57ff739d4dc92c1bd7f401700cc8216fdcd6395204cfa97ac3250ea69a58d8d9e5950e5fbec1e62c882b332be0fd88ecbeeb8b3302e2da8b
Reciphers for ciphertext: 0
Decipheredtext:           00000000000000000008000000000000
RESULT CIPHER-DECIPHER: -----OK-----


Test: 77
Hash algorithm: 5
Symmetric key bit length: 256
IV bit length:            128
Plaintext bit length:     128
Symmetric key:            0000000000000000000000000000000000000000000000000000000000000000
IV:                       00000000000000000000000000000000
Plaintext:                00000000000000000004000000000000
Ciphertext:               57ff739d4dc92c1bd7f801700cc8216f1f54ba464766ba3b6a7bb78aa6c5cafcb70c3b2dd1ef1a639c5a9aeb
Reciphers for ciphertext: 0
Decipheredtext:           00000000000000000004000000000000
RESULT CIPHER-DECIPHER: -----OK-----


Test: 78
Hash algorithm: 13
Symmetric key bit length: 256
IV bit length:            128
Plaintext bit length:     128
Symmetric key:            0000000000000000000000000000000000000000000000000000000000000000
IV:                       00000000000000000000000000000000
Plaintext:                00000000000000000002000000000000
Ciphertext:               57ff739d4dc92c1bd7fe01700cc8216fc3775bf86f5bc1f9734e3d5f884faef3
Reciphers for ciphertext: 0
Decipheredtext:           00000000000000000002000000000000
RESULT CIPHER-DECIPHER: -----OK-----


Test: 79
Hash algorithm: 9
Symmetric key bit length: 256
IV bit length:            128
Plaintext bit length:     128
Symmetric key:            0000000000000000000000000000000000000000000000000000000000000000
IV:                       00000000000000000000000000000000
Plaintext:                00000000000000000001000000000000
Ciphertext:               57ff739d4dc92c1bd7fd01700cc8216f7cd17800c57cf9d34967a6725bfb9d9b1dfcc9cea640057769817a58a407bc14
Reciphers for ciphertext: 0
Decipheredtext:           00000000000000000001000000000000
RESULT CIPHER-DECIPHER: -----OK-----


Test: 80
Hash algorithm: 5
Symmetric key bit length: 256
IV bit length:            128
Plaintext bit length:     128
Symmetric key:            0000000000000000000000000000000000000000000000000000000000000000
IV:                       00000000000000000000000000000000
Plaintext:                00000000000000000000800000000000
Ciphertext:               57ff739d4dc92c1bd7fc81700cc8216ff880b67b21f2fc5fca1651a98cfd68d1387f4097c8a0933e8e9bc67f
Reciphers for ciphertext: 0
Decipheredtext:           00000000000000000000800000000000
RESULT CIPHER-DECIPHER: -----OK-----


Test: 81
Hash algorithm: 6
Symmetric key bit length: 256
IV bit length:            128
Plaintext bit length:     128
Symmetric key:            0000000000000000000000000000000000000000000000000000000000000000
IV:                       00000000000000000000000000000000
Plaintext:                00000000000000000000400000000000
Ciphertext:               57ff739d4dc92c1bd7fc41700cc8216fe2a23911d01027d22a19e77ee9490861cef5f8b4e6bf16c2edb5735b10b00e46
Reciphers for ciphertext: 0
Decipheredtext:           00000000000000000000400000000000
RESULT CIPHER-DECIPHER: -----OK-----


Test: 82
Hash algorithm: 9
Symmetric key bit length: 256
IV bit length:            128
Plaintext bit length:     128
Symmetric key:            0000000000000000000000000000000000000000000000000000000000000000
IV:                       00000000000000000000000000000000
Plaintext:                00000000000000000000200000000000
Ciphertext:               57ff739d4dc92c1bd7fc21700cc8216fb27e4cd0125b1c4089796e9c3969f935066e554e248227320a4c4133c653b920
Reciphers for ciphertext: 0
Decipheredtext:           00000000000000000000200000000000
RESULT CIPHER-DECIPHER: -----OK-----


Test: 83
Hash algorithm: 9
Symmetric key bit length: 256
IV bit length:            128
Plaintext bit length:     128
Symmetric key:            0000000000000000000000000000000000000000000000000000000000000000
IV:                       00000000000000000000000000000000
Plaintext:                00000000000000000000100000000000
Ciphertext:               57ff739d4dc92c1bd7fc11700cc8216f0e797a27eb3fe719d7ac353b3dc3c2efbc29d2fe318b8e55068ea75abf6aadea
Reciphers for ciphertext: 0
Decipheredtext:           00000000000000000000100000000000
RESULT CIPHER-DECIPHER: -----OK-----


Test: 84
Hash algorithm: 13
Symmetric key bit length: 256
IV bit length:            128
Plaintext bit length:     128
Symmetric key:            0000000000000000000000000000000000000000000000000000000000000000
IV:                       00000000000000000000000000000000
Plaintext:                00000000000000000000080000000000
Ciphertext:               57ff739d4dc92c1bd7fc09700cc8216fc1e26c7a4d1306ef83372dc1a7f03dc9
Reciphers for ciphertext: 0
Decipheredtext:           00000000000000000000080000000000
RESULT CIPHER-DECIPHER: -----OK-----


Test: 85
Hash algorithm: 8
Symmetric key bit length: 256
IV bit length:            128
Plaintext bit length:     128
Symmetric key:            0000000000000000000000000000000000000000000000000000000000000000
IV:                       00000000000000000000000000000000
Plaintext:                00000000000000000000040000000000
Ciphertext:               57ff739d4dc92c1bd7fc05700cc8216ff6fd69f1aa39d9085cfe61eba4b365a276f577e4
Reciphers for ciphertext: 0
Decipheredtext:           00000000000000000000040000000000
RESULT CIPHER-DECIPHER: -----OK-----


Test: 86
Hash algorithm: 13
Symmetric key bit length: 256
IV bit length:            128
Plaintext bit length:     128
Symmetric key:            0000000000000000000000000000000000000000000000000000000000000000
IV:                       00000000000000000000000000000000
Plaintext:                00000000000000000000020000000000
Ciphertext:               57ff739d4dc92c1bd7fc03700cc8216f10a0de2f7ec7a397829f28897edb5828
Reciphers for ciphertext: 0
Decipheredtext:           00000000000000000000020000000000
RESULT CIPHER-DECIPHER: -----OK-----


Test: 87
Hash algorithm: 6
Symmetric key bit length: 256
IV bit length:            128
Plaintext bit length:     128
Symmetric key:            0000000000000000000000000000000000000000000000000000000000000000
IV:                       00000000000000000000000000000000
Plaintext:                00000000000000000000010000000000
Ciphertext:               57ff739d4dc92c1bd7fc00700cc8216f1ff7fdc1cea1ea58740dd0842fc727ea27bf77ed8987b73cf6ef3334625aab78
Reciphers for ciphertext: 0
Decipheredtext:           00000000000000000000010000000000
RESULT CIPHER-DECIPHER: -----OK-----


Test: 88
Hash algorithm: 7
Symmetric key bit length: 256
IV bit length:            128
Plaintext bit length:     128
Symmetric key:            0000000000000000000000000000000000000000000000000000000000000000
IV:                       00000000000000000000000000000000
Plaintext:                00000000000000000000008000000000
Ciphertext:               57ff739d4dc92c1bd7fc01f00cc8216f5fcd6b094009cf262af5e647fd181b9a
Reciphers for ciphertext: 0
Decipheredtext:           00000000000000000000008000000000
RESULT CIPHER-DECIPHER: -----OK-----


Test: 89
Hash algorithm: 8
Symmetric key bit length: 256
IV bit length:            128
Plaintext bit length:     128
Symmetric key:            0000000000000000000000000000000000000000000000000000000000000000
IV:                       00000000000000000000000000000000
Plaintext:                00000000000000000000004000000000
Ciphertext:               57ff739d4dc92c1bd7fc01300cc8216f214a20bdea2ba02ee39be7133577d78cc5dc7a44
Reciphers for ciphertext: 0
Decipheredtext:           00000000000000000000004000000000
RESULT CIPHER-DECIPHER: -----OK-----


Test: 90
Hash algorithm: 6
Symmetric key bit length: 256
IV bit length:            128
Plaintext bit length:     128
Symmetric key:            0000000000000000000000000000000000000000000000000000000000000000
IV:                       00000000000000000000000000000000
Plaintext:                00000000000000000000002000000000
Ciphertext:               57ff739d4dc92c1bd7fc01500cc8216fad51d41e8c9572ffd8bc31ad4174a49179e496cd3d364251ee94661872e35aed
Reciphers for ciphertext: 0
Decipheredtext:           00000000000000000000002000000000
RESULT CIPHER-DECIPHER: -----OK-----


Test: 91
Hash algorithm: 11
Symmetric key bit length: 256
IV bit length:            128
Plaintext bit length:     128
Symmetric key:            0000000000000000000000000000000000000000000000000000000000000000
IV:                       00000000000000000000000000000000
Plaintext:                00000000000000000000001000000000
Ciphertext:               57ff739d4dc92c1bd7fc01600cc8216fa68a37b5c02035aca04314f135cf66e7
Reciphers for ciphertext: 0
Decipheredtext:           00000000000000000000001000000000
RESULT CIPHER-DECIPHER: -----OK-----


Test: 92
Hash algorithm: 0
Symmetric key bit length: 256
IV bit length:            128
Plaintext bit length:     128
Symmetric key:            0000000000000000000000000000000000000000000000000000000000000000
IV:                       00000000000000000000000000000000
Plaintext:                00000000000000000000000800000000
Ciphertext:               57ff739d4dc92c1bd7fc01780cc8216fddeb8024c671122971e756599b583fe773630a54
Reciphers for ciphertext: 0
Decipheredtext:           00000000000000000000000800000000
RESULT CIPHER-DECIPHER: -----OK-----


Test: 93
Hash algorithm: 0
Symmetric key bit length: 256
IV bit length:            128
Plaintext bit length:     128
Symmetric key:            0000000000000000000000000000000000000000000000000000000000000000
IV:                       00000000000000000000000000000000
Plaintext:                00000000000000000000000400000000
Ciphertext:               57ff739d4dc92c1bd7fc01740cc8216f30eaae4abbfe227fb54ac2bc08a718628631a5f2
Reciphers for ciphertext: 0
Decipheredtext:           00000000000000000000000400000000
RESULT CIPHER-DECIPHER: -----OK-----


Test: 94
Hash algorithm: 10
Symmetric key bit length: 256
IV bit length:            128
Plaintext bit length:     128
Symmetric key:            0000000000000000000000000000000000000000000000000000000000000000
IV:                       00000000000000000000000000000000
Plaintext:                00000000000000000000000200000000
Ciphertext:               57ff739d4dc92c1bd7fc01720cc8216f9882b5426f63f4e4078d24015aa758021bd22efce88c60627c344878aa2babd8133b19adbc83dc37
Reciphers for ciphertext: 0
Decipheredtext:           00000000000000000000000200000000
RESULT CIPHER-DECIPHER: -----OK-----


Test: 95
Hash algorithm: 4
Symmetric key bit length: 256
IV bit length:            128
Plaintext bit length:     128
Symmetric key:            0000000000000000000000000000000000000000000000000000000000000000
IV:                       00000000000000000000000000000000
Plaintext:                00000000000000000000000100000000
Ciphertext:               57ff739d4dc92c1bd7fc01710cc8216fc2c027ffd50aab3376dfba6bb41f12efaf9d0a042634bf28b1dc4007224a7ac374aa64095d3f631acf7cb25a1f781045d9b551b305939188a8ad97ddd2801e87
Reciphers for ciphertext: 0
Decipheredtext:           00000000000000000000000100000000
RESULT CIPHER-DECIPHER: -----OK-----


Test: 96
Hash algorithm: 11
Symmetric key bit length: 256
IV bit length:            128
Plaintext bit length:     128
Symmetric key:            0000000000000000000000000000000000000000000000000000000000000000
IV:                       00000000000000000000000000000000
Plaintext:                00000000000000000000000080000000
Ciphertext:               57ff739d4dc92c1bd7fc01708cc8216fdbdfb7478a0c79ad76923590be7e66de
Reciphers for ciphertext: 0
Decipheredtext:           00000000000000000000000080000000
RESULT CIPHER-DECIPHER: -----OK-----


Test: 97
Hash algorithm: 7
Symmetric key bit length: 256
IV bit length:            128
Plaintext bit length:     128
Symmetric key:            0000000000000000000000000000000000000000000000000000000000000000
IV:                       00000000000000000000000000000000
Plaintext:                00000000000000000000000040000000
Ciphertext:               57ff739d4dc92c1bd7fc01704cc8216f1800991357f915c3c36e196a80a823b4
Reciphers for ciphertext: 0
Decipheredtext:           00000000000000000000000040000000
RESULT CIPHER-DECIPHER: -----OK-----


Test: 98
Hash algorithm: 10
Symmetric key bit length: 256
IV bit length:            128
Plaintext bit length:     128
Symmetric key:            0000000000000000000000000000000000000000000000000000000000000000
IV:                       00000000000000000000000000000000
Plaintext:                00000000000000000000000020000000
Ciphertext:               57ff739d4dc92c1bd7fc01702cc8216f987871025ea8b049a59202abd0070ff811b04c86e092fbfe98e555459a0e33be2ecafb1ac76afa3b
Reciphers for ciphertext: 0
Decipheredtext:           00000000000000000000000020000000
RESULT CIPHER-DECIPHER: -----OK-----


Test: 99
Hash algorithm: 11
Symmetric key bit length: 256
IV bit length:            128
Plaintext bit length:     128
Symmetric key:            0000000000000000000000000000000000000000000000000000000000000000
IV:                       00000000000000000000000000000000
Plaintext:                00000000000000000000000010000000
Ciphertext:               57ff739d4dc92c1bd7fc01701cc8216fb35daf81c794a32fa7c7e13da4b93023
Reciphers for ciphertext: 0
Decipheredtext:           00000000000000000000000010000000
RESULT CIPHER-DECIPHER: -----OK-----


Test: 100
Hash algorithm: 3
Symmetric key bit length: 256
IV bit length:            128
Plaintext bit length:     128
Symmetric key:            0000000000000000000000000000000000000000000000000000000000000000
IV:                       00000000000000000000000000000000
Plaintext:                00000000000000000000000008000000
Ciphertext:               57ff739d4dc92c1bd7fc017004c8216f20404e0315c880ca97fdacf9bfccca1defd0ce1f83423f0c063adc46d87c119f96bfd8666fad8869a937c67609557ddd
Reciphers for ciphertext: 0
Decipheredtext:           00000000000000000000000008000000
RESULT CIPHER-DECIPHER: -----OK-----


Test: 101
Hash algorithm: 0
Symmetric key bit length: 256
IV bit length:            128
Plaintext bit length:     128
Symmetric key:            0000000000000000000000000000000000000000000000000000000000000000
IV:                       00000000000000000000000000000000
Plaintext:                00000000000000000000000004000000
Ciphertext:               57ff739d4dc92c1bd7fc017008c8216feeabd54349295adb9951f7393188a927bb7419a1
Reciphers for ciphertext: 0
Decipheredtext:           00000000000000000000000004000000
RESULT CIPHER-DECIPHER: -----OK-----


Test: 102
Hash algorithm: 1
Symmetric key bit length: 256
IV bit length:            128
Plaintext bit length:     128
Symmetric key:            0000000000000000000000000000000000000000000000000000000000000000
IV:                       00000000000000000000000000000000
Plaintext:                00000000000000000000000002000000
Ciphertext:               57ff739d4dc92c1bd7fc01700ec8216f1e5e3b65ec3aa82de281ac64aa4c7daf6e3d048136a16e5f96b689c8
Reciphers for ciphertext: 0
Decipheredtext:           00000000000000000000000002000000
RESULT CIPHER-DECIPHER: -----OK-----


Test: 103
Hash algorithm: 4
Symmetric key bit length: 256
IV bit length:            128
Plaintext bit length:     128
Symmetric key:            0000000000000000000000000000000000000000000000000000000000000000
IV:                       00000000000000000000000000000000
Plaintext:                00000000000000000000000001000000
Ciphertext:               57ff739d4dc92c1bd7fc01700dc8216fc0555d451e0cfd2f4d74a9036472d37efb946f0f47eafe3edef85e8d290e3b79a109a42e90eec98dc5354be47cf6633257d466b43192b8af9d1729ca0c13b4ff
Reciphers for ciphertext: 0
Decipheredtext:           00000000000000000000000001000000
RESULT CIPHER-DECIPHER: -----OK-----


Test: 104
Hash algorithm: 5
Symmetric key bit length: 256
IV bit length:            128
Plaintext bit length:     128
Symmetric key:            0000000000000000000000000000000000000000000000000000000000000000
IV:                       00000000000000000000000000000000
Plaintext:                00000000000000000000000000800000
Ciphertext:               57ff739d4dc92c1bd7fc01700c48216fe55f3991701e13e6a71f5cd169081f0ad59b0ce4c37d4e84ce15289a
Reciphers for ciphertext: 0
Decipheredtext:           00000000000000000000000000800000
RESULT CIPHER-DECIPHER: -----OK-----


Test: 105
Hash algorithm: 2
Symmetric key bit length: 256
IV bit length:            128
Plaintext bit length:     128
Symmetric key:            0000000000000000000000000000000000000000000000000000000000000000
IV:                       00000000000000000000000000000000
Plaintext:                00000000000000000000000000400000
Ciphertext:               57ff739d4dc92c1bd7fc01700c88216f14e61bd9138c2647c971dd93f8d8a29ded17861b56e43b6e3043ef3a8ba7d727
Reciphers for ciphertext: 0
Decipheredtext:           00000000000000000000000000400000
RESULT CIPHER-DECIPHER: -----OK-----


Test: 106
Hash algorithm: 10
Symmetric key bit length: 256
IV bit length:            128
Plaintext bit length:     128
Symmetric key:            0000000000000000000000000000000000000000000000000000000000000000
IV:                       00000000000000000000000000000000
Plaintext:                00000000000000000000000000200000
Ciphertext:               57ff739d4dc92c1bd7fc01700ce8216f283b8daa81c45816199c5ca92b7dde6503de6eb02e460a3c628d371f2c1416aab8a526afa039b4d9
Reciphers for ciphertext: 0
Decipheredtext:           00000000000000000000000000200000
RESULT CIPHER-DECIPHER: -----OK-----


Test: 107
Hash algorithm: 4
Symmetric key bit length: 256
IV bit length:            128
Plaintext bit length:     128
Symmetric key:            0000000000000000000000000000000000000000000000000000000000000000
IV:                       00000000000000000000000000000000
Plaintext:                00000000000000000000000000100000
Ciphertext:               57ff739d4dc92c1bd7fc01700cd8216f9d76939943eda9a59f0cd823ab6d9bda87d4664e139615682a39b873d889abcfcbd9ed78381e368f22ea4a29bac0641239e2f796a13c7e366c528310b8ba3814
Reciphers for ciphertext: 0
Decipheredtext:           00000000000000000000000000100000
RESULT CIPHER-DECIPHER: -----OK-----


Test: 108
Hash algorithm: 13
Symmetric key bit length: 256
IV bit length:            128
Plaintext bit length:     128
Symmetric key:            0000000000000000000000000000000000000000000000000000000000000000
IV:                       00000000000000000000000000000000
Plaintext:                00000000000000000000000000080000
Ciphertext:               57ff739d4dc92c1bd7fc01700cc0216f134b5b98bebdba07d5dd24fd114b50e5
Reciphers for ciphertext: 0
Decipheredtext:           00000000000000000000000000080000
RESULT CIPHER-DECIPHER: -----OK-----


Test: 109
Hash algorithm: 0
Symmetric key bit length: 256
IV bit length:            128
Plaintext bit length:     128
Symmetric key:            0000000000000000000000000000000000000000000000000000000000000000
IV:                       00000000000000000000000000000000
Plaintext:                00000000000000000000000000040000
Ciphertext:               57ff739d4dc92c1bd7fc01700ccc216fe347bec95074b64a09b1d7ccdea3864e465eae80
Reciphers for ciphertext: 0
Decipheredtext:           00000000000000000000000000040000
RESULT CIPHER-DECIPHER: -----OK-----


Test: 110
Hash algorithm: 10
Symmetric key bit length: 256
IV bit length:            128
Plaintext bit length:     128
Symmetric key:            0000000000000000000000000000000000000000000000000000000000000000
IV:                       00000000000000000000000000000000
Plaintext:                00000000000000000000000000020000
Ciphertext:               57ff739d4dc92c1bd7fc01700cca216fd6087a8953258caf4bbc412d69620cfd5454b3e5b1045f9cfcfdbf97a6a57aaa2d217d89c6cc82c3
Reciphers for ciphertext: 0
Decipheredtext:           00000000000000000000000000020000
RESULT CIPHER-DECIPHER: -----OK-----


Test: 111
Hash algorithm: 10
Symmetric key bit length: 256
IV bit length:            128
Plaintext bit length:     128
Symmetric key:            0000000000000000000000000000000000000000000000000000000000000000
IV:                       00000000000000000000000000000000
Plaintext:                00000000000000000000000000010000
Ciphertext:               57ff739d4dc92c1bd7fc01700cc9216f772668b43af3e70637050a2824969986e506224761a3da6f4f5eec9bd0832f617310b58488ceea18
Reciphers for ciphertext: 0
Decipheredtext:           00000000000000000000000000010000
RESULT CIPHER-DECIPHER: -----OK-----


Test: 112
Hash algorithm: 4
Symmetric key bit length: 256
IV bit length:            128
Plaintext bit length:     128
Symmetric key:            0000000000000000000000000000000000000000000000000000000000000000
IV:                       00000000000000000000000000000000
Plaintext:                00000000000000000000000000008000
Ciphertext:               57ff739d4dc92c1bd7fc01700cc8a16f7448ddefb81fdf64c06a8322fde705840c191c6a9d76b68e04e053ecf6362fef55254823b4e5e804f69c76be643c177142cf895f1d6b42691f8cc1f8d436c3c7
Reciphers for ciphertext: 0
Decipheredtext:           00000000000000000000000000008000
RESULT CIPHER-DECIPHER: -----OK-----


Test: 113
Hash algorithm: 9
Symmetric key bit length: 256
IV bit length:            128
Plaintext bit length:     128
Symmetric key:            0000000000000000000000000000000000000000000000000000000000000000
IV:                       00000000000000000000000000000000
Plaintext:                00000000000000000000000000004000
Ciphertext:               57ff739d4dc92c1bd7fc01700cc8616f8146b6caf113a267f132ae1913d1d76e2f4bf00078080c06fe7b6572c9fcb415
Reciphers for ciphertext: 0
Decipheredtext:           00000000000000000000000000004000
RESULT CIPHER-DECIPHER: -----OK-----


Test: 114
Hash algorithm: 0
Symmetric key bit length: 256
IV bit length:            128
Plaintext bit length:     128
Symmetric key:            0000000000000000000000000000000000000000000000000000000000000000
IV:                       00000000000000000000000000000000
Plaintext:                00000000000000000000000000002000
Ciphertext:               57ff739d4dc92c1bd7fc01700cc8016f6a6522725654ce651181a6370ebf70b591dc019c
Reciphers for ciphertext: 0
Decipheredtext:           00000000000000000000000000002000
RESULT CIPHER-DECIPHER: -----OK-----


Test: 115
Hash algorithm: 11
Symmetric key bit length: 256
IV bit length:            128
Plaintext bit length:     128
Symmetric key:            0000000000000000000000000000000000000000000000000000000000000000
IV:                       00000000000000000000000000000000
Plaintext:                00000000000000000000000000001000
Ciphertext:               57ff739d4dc92c1bd7fc01700cc8316fad52e252f34f9bdf9c165d5df2c80b52
Reciphers for ciphertext: 0
Decipheredtext:           00000000000000000000000000001000
RESULT CIPHER-DECIPHER: -----OK-----


Test: 116
Hash algorithm: 13
Symmetric key bit length: 256
IV bit length:            128
Plaintext bit length:     128
Symmetric key:            0000000000000000000000000000000000000000000000000000000000000000
IV:                       00000000000000000000000000000000
Plaintext:                00000000000000000000000000000800
Ciphertext:               57ff739d4dc92c1bd7fc01700cc8296f051fd8064213b42c66ee90c4e238a776
Reciphers for ciphertext: 0
Decipheredtext:           00000000000000000000000000000800
RESULT CIPHER-DECIPHER: -----OK-----


Test: 117
Hash algorithm: 6
Symmetric key bit length: 256
IV bit length:            128
Plaintext bit length:     128
Symmetric key:            0000000000000000000000000000000000000000000000000000000000000000
IV:                       00000000000000000000000000000000
Plaintext:                00000000000000000000000000000400
Ciphertext:               57ff739d4dc92c1bd7fc01700cc8256ff33bf5ba939d12ba9ddf04620d0349f02a7855a5c958150302048cc0518c7f48
Reciphers for ciphertext: 0
Decipheredtext:           00000000000000000000000000000400
RESULT CIPHER-DECIPHER: -----OK-----


Test: 118
Hash algorithm: 0
Symmetric key bit length: 256
IV bit length:            128
Plaintext bit length:     128
Symmetric key:            0000000000000000000000000000000000000000000000000000000000000000
IV:                       00000000000000000000000000000000
Plaintext:                00000000000000000000000000000200
Ciphertext:               57ff739d4dc92c1bd7fc01700cc8236f987f428e50bdc86f370b993d6784f5a03e293da8
Reciphers for ciphertext: 0
Decipheredtext:           00000000000000000000000000000200
RESULT CIPHER-DECIPHER: -----OK-----


Test: 119
Hash algorithm: 3
Symmetric key bit length: 256
IV bit length:            128
Plaintext bit length:     128
Symmetric key:            0000000000000000000000000000000000000000000000000000000000000000
IV:                       00000000000000000000000000000000
Plaintext:                00000000000000000000000000000100
Ciphertext:               57ff739d4dc92c1bd7fc01700cc8206f28d040b38a7cbb821af9a389748576fab670664c7dd6ea35af6c4803adf8d3c3d2eb6d2d3867c6fe6cb6de43131f0158
Reciphers for ciphertext: 0
Decipheredtext:           00000000000000000000000000000100
RESULT CIPHER-DECIPHER: -----OK-----


Test: 120
Hash algorithm: 1
Symmetric key bit length: 256
IV bit length:            128
Plaintext bit length:     128
Symmetric key:            0000000000000000000000000000000000000000000000000000000000000000
IV:                       00000000000000000000000000000000
Plaintext:                00000000000000000000000000000080
Ciphertext:               57ff739d4dc92c1bd7fc01700cc821ef1fd8ec095cda4e7e6f987a148ff13761f15b4943d7640275eaffbc71
Reciphers for ciphertext: 0
Decipheredtext:           00000000000000000000000000000080
RESULT CIPHER-DECIPHER: -----OK-----


Test: 121
Hash algorithm: 4
Symmetric key bit length: 256
IV bit length:            128
Plaintext bit length:     128
Symmetric key:            0000000000000000000000000000000000000000000000000000000000000000
IV:                       00000000000000000000000000000000
Plaintext:                00000000000000000000000000000040
Ciphertext:               57ff739d4dc92c1bd7fc01700cc8212ff0ca27a463ffa0d16da709de765d9d48fc9acb9b2feda22390f9a0b050bd965e0f1a326ccb214e2adddea5824a97a250b80356105c3a104a4bb1238ed6969e66
Reciphers for ciphertext: 0
Decipheredtext:           00000000000000000000000000000040
RESULT CIPHER-DECIPHER: -----OK-----


Test: 122
Hash algorithm: 8
Symmetric key bit length: 256
IV bit length:            128
Plaintext bit length:     128
Symmetric key:            0000000000000000000000000000000000000000000000000000000000000000
IV:                       00000000000000000000000000000000
Plaintext:                00000000000000000000000000000020
Ciphertext:               57ff739d4dc92c1bd7fc01700cc8214fe4bbbea8ead2c5a417684ecd56b821ec8b4448f8
Reciphers for ciphertext: 0
Decipheredtext:           00000000000000000000000000000020
RESULT CIPHER-DECIPHER: -----OK-----


Test: 123
Hash algorithm: 9
Symmetric key bit length: 256
IV bit length:            128
Plaintext bit length:     128
Symmetric key:            0000000000000000000000000000000000000000000000000000000000000000
IV:                       00000000000000000000000000000000
Plaintext:                00000000000000000000000000000010
Ciphertext:               57ff739d4dc92c1bd7fc01700cc8217f3b81b7474cbcbf217556adca430f3609246497caacb11e6dfdc5d2898586ea8c
Reciphers for ciphertext: 0
Decipheredtext:           00000000000000000000000000000010
RESULT CIPHER-DECIPHER: -----OK-----


Test: 124
Hash algorithm: 8
Symmetric key bit length: 256
IV bit length:            128
Plaintext bit length:     128
Symmetric key:            0000000000000000000000000000000000000000000000000000000000000000
IV:                       00000000000000000000000000000000
Plaintext:                00000000000000000000000000000008
Ciphertext:               57ff739d4dc92c1bd7fc01700cc82167c814f42ac1402de82898567c8ebb0a83a391a1c8
Reciphers for ciphertext: 0
Decipheredtext:           00000000000000000000000000000008
RESULT CIPHER-DECIPHER: -----OK-----


Test: 125
Hash algorithm: 1
Symmetric key bit length: 256
IV bit length:            128
Plaintext bit length:     128
Symmetric key:            0000000000000000000000000000000000000000000000000000000000000000
IV:                       00000000000000000000000000000000
Plaintext:                00000000000000000000000000000004
Ciphertext:               57ff739d4dc92c1bd7fc01700cc8216b295cae484e8e7a821e361b441c330c47a18cc1e1432194b522076227
Reciphers for ciphertext: 0
Decipheredtext:           00000000000000000000000000000004
RESULT CIPHER-DECIPHER: -----OK-----


Test: 126
Hash algorithm: 8
Symmetric key bit length: 256
IV bit length:            128
Plaintext bit length:     128
Symmetric key:            0000000000000000000000000000000000000000000000000000000000000000
IV:                       00000000000000000000000000000000
Plaintext:                00000000000000000000000000000002
Ciphertext:               57ff739d4dc92c1bd7fc01700cc8216d06ba84536108ee4eab5d8d48b57721fa149c5f60
Reciphers for ciphertext: 0
Decipheredtext:           00000000000000000000000000000002
RESULT CIPHER-DECIPHER: -----OK-----


Test: 127
Hash algorithm: 12
Symmetric key bit length: 256
IV bit length:            128
Plaintext bit length:     128
Symmetric key:            0000000000000000000000000000000000000000000000000000000000000000
IV:                       00000000000000000000000000000000
Plaintext:                00000000000000000000000000000001
Ciphertext:               57ff739d4dc92c1bd7fc01700cc8216e16db1d512a383540ee46b2de32a0d0da
Reciphers for ciphertext: 0
Decipheredtext:           00000000000000000000000000000001
RESULT CIPHER-DECIPHER: -----OK-----


 DATA SHA1 (hexadecimal): f64bd0afff36c393b78040c99af97cbb92d51d5b

