
DiceLock 9.0.0.1

 TEST COMPONENTS:
 ----------------
 DiceLock:           DiceLockIVDigested class
 Operation Mode:     CFB_Mode class
 Block Cipher:       Serpent192 class
 Hash algorithms:     0 - Sha1 class
                      1 - Sha224 class
                      2 - Sha256 class
                      3 - Sha384 class
                      4 - Sha512 class
                      5 - Sha512_224 class
                      6 - Sha512_256 class
                      7 - Ripemd128 class
                      8 - Ripemd160 class
                      9 - Ripemd256 class
                     10 - Ripemd320 class
                     11 - MD2 class
                     12 - MD4 class
                     13 - MD5 class
 Key Modifier:       DecreaseKeyModifier_6_0_0_1 class
 Random tests:       RandomTestSuite class
                     FrequencyTest class
                     BlockFrequencyTest class
                     CumulativeSumForwardTest class
                     LongestRunOfOnesTest class
                     RunsTest class
 Random alpha:       0.001

 VECTOR TEST: Test vector 1 - Changing IV, shifting 1 bit set


##### INDIVIDUAL TESTS #####

Number tests: 128


Test: 0
Hash algorithm: 8
Symmetric key bit length: 192
IV bit length:            128
Plaintext bit length:     136
Symmetric key:            000000000000000000000000000000000000000000000000
IV:                       80000000000000000000000000000000
Plaintext:                0000000000000000000000000000000000
Ciphertext:               b10b271ba25257e1294f2b51f076d0d964ad04c538193e398d77e935779a59456364c191f8
Reciphers for ciphertext: 0
Decipheredtext:           0000000000000000000000000000000000
RESULT CIPHER-DECIPHER: -----OK-----


Test: 1
Hash algorithm: 5
Symmetric key bit length: 192
IV bit length:            128
Plaintext bit length:     136
Symmetric key:            000000000000000000000000000000000000000000000000
IV:                       40000000000000000000000000000000
Plaintext:                0000000000000000000000000000000000
Ciphertext:               d522a3b8d6d89d4d2a124fdd88f36896a2bfb7bfefe044e543039f346232bc88cdf4c22193c54a213fee60f65c
Reciphers for ciphertext: 0
Decipheredtext:           0000000000000000000000000000000000
RESULT CIPHER-DECIPHER: -----OK-----


Test: 2
Hash algorithm: 5
Symmetric key bit length: 192
IV bit length:            128
Plaintext bit length:     136
Symmetric key:            000000000000000000000000000000000000000000000000
IV:                       20000000000000000000000000000000
Plaintext:                0000000000000000000000000000000000
Ciphertext:               6faefee5f5255d5465c1befa672af1d326053be2b2c3b9255a4c4cc545dd651188fad8f3955aecbcb587d1a4c6
Reciphers for ciphertext: 0
Decipheredtext:           0000000000000000000000000000000000
RESULT CIPHER-DECIPHER: -----OK-----


Test: 3
Hash algorithm: 9
Symmetric key bit length: 192
IV bit length:            128
Plaintext bit length:     136
Symmetric key:            000000000000000000000000000000000000000000000000
IV:                       10000000000000000000000000000000
Plaintext:                0000000000000000000000000000000000
Ciphertext:               409e1d63bc71eb0d6f7eceaa03025897baaa671fad4fe7530b9d38820bb2743984bdd076cdc07d921b99e3ec89b9edc26b
Reciphers for ciphertext: 0
Decipheredtext:           0000000000000000000000000000000000
RESULT CIPHER-DECIPHER: -----OK-----


Test: 4
Hash algorithm: 4
Symmetric key bit length: 192
IV bit length:            128
Plaintext bit length:     136
Symmetric key:            000000000000000000000000000000000000000000000000
IV:                       08000000000000000000000000000000
Plaintext:                0000000000000000000000000000000000
Ciphertext:               8a7e9feb4300a2a265f4a14e52011be1e39763444d3f61e1d123fa6cbe4a517255de802dbb5ac481f71fe389863957348c527ac431ef66637d869ad6015f2e52ffc94d96b2cb88796e8aa4da995427637e
Reciphers for ciphertext: 0
Decipheredtext:           0000000000000000000000000000000000
RESULT CIPHER-DECIPHER: -----OK-----


Test: 5
Hash algorithm: 5
Symmetric key bit length: 192
IV bit length:            128
Plaintext bit length:     136
Symmetric key:            000000000000000000000000000000000000000000000000
IV:                       04000000000000000000000000000000
Plaintext:                0000000000000000000000000000000000
Ciphertext:               c1b3fb68eef9e0eb6d3df001e57eac9b06ab26e73fd86598e544b08bbe5f314cc06ef2e27657321d1670cd64dd
Reciphers for ciphertext: 0
Decipheredtext:           0000000000000000000000000000000000
RESULT CIPHER-DECIPHER: -----OK-----


Test: 6
Hash algorithm: 6
Symmetric key bit length: 192
IV bit length:            128
Plaintext bit length:     136
Symmetric key:            000000000000000000000000000000000000000000000000
IV:                       02000000000000000000000000000000
Plaintext:                0000000000000000000000000000000000
Ciphertext:               9dcaabb7839129739d1c6f5501624e441e952851f3139f4ddae3af55155b3885ad87ef9dfa26ce50a02121dceb48f3001f
Reciphers for ciphertext: 0
Decipheredtext:           0000000000000000000000000000000000
RESULT CIPHER-DECIPHER: -----OK-----


Test: 7
Hash algorithm: 12
Symmetric key bit length: 192
IV bit length:            128
Plaintext bit length:     136
Symmetric key:            000000000000000000000000000000000000000000000000
IV:                       01000000000000000000000000000000
Plaintext:                0000000000000000000000000000000000
Ciphertext:               47402e1c09e0c315b13cab5a5aa17e496a88750ae7485c8f511949ec66c84be4d7
Reciphers for ciphertext: 0
Decipheredtext:           0000000000000000000000000000000000
RESULT CIPHER-DECIPHER: -----OK-----


Test: 8
Hash algorithm: 8
Symmetric key bit length: 192
IV bit length:            128
Plaintext bit length:     136
Symmetric key:            000000000000000000000000000000000000000000000000
IV:                       00800000000000000000000000000000
Plaintext:                0000000000000000000000000000000000
Ciphertext:               cde5ff61bb5659952a8c5cfedacf06a377d1ea1d42003a37f9742a42d8b0e093199b102187
Reciphers for ciphertext: 0
Decipheredtext:           0000000000000000000000000000000000
RESULT CIPHER-DECIPHER: -----OK-----


Test: 9
Hash algorithm: 7
Symmetric key bit length: 192
IV bit length:            128
Plaintext bit length:     136
Symmetric key:            000000000000000000000000000000000000000000000000
IV:                       00400000000000000000000000000000
Plaintext:                0000000000000000000000000000000000
Ciphertext:               b26502ac2100f53bed68f2454563154850df74b2cc4eecf1f53d2f38efe696bd37
Reciphers for ciphertext: 0
Decipheredtext:           0000000000000000000000000000000000
RESULT CIPHER-DECIPHER: -----OK-----


Test: 10
Hash algorithm: 6
Symmetric key bit length: 192
IV bit length:            128
Plaintext bit length:     136
Symmetric key:            000000000000000000000000000000000000000000000000
IV:                       00200000000000000000000000000000
Plaintext:                0000000000000000000000000000000000
Ciphertext:               b607bf21517dbec46d95758fff5a073bdcbee54565c173da6d13264fcfa500ccd2ce686ac342c4aa7b99576899e925b4ed
Reciphers for ciphertext: 0
Decipheredtext:           0000000000000000000000000000000000
RESULT CIPHER-DECIPHER: -----OK-----


Test: 11
Hash algorithm: 12
Symmetric key bit length: 192
IV bit length:            128
Plaintext bit length:     136
Symmetric key:            000000000000000000000000000000000000000000000000
IV:                       00100000000000000000000000000000
Plaintext:                0000000000000000000000000000000000
Ciphertext:               d4d07ee9ba4512d2985453a0ae16aa8e4d1be55a12fbf95e963021149c3cfc3010
Reciphers for ciphertext: 0
Decipheredtext:           0000000000000000000000000000000000
RESULT CIPHER-DECIPHER: -----OK-----


Test: 12
Hash algorithm: 9
Symmetric key bit length: 192
IV bit length:            128
Plaintext bit length:     136
Symmetric key:            000000000000000000000000000000000000000000000000
IV:                       00080000000000000000000000000000
Plaintext:                0000000000000000000000000000000000
Ciphertext:               139b2bf2f5f28c014a6c2f9aea71faaf22f962293c06643407b82a633b5b079bbc45751cc163439d13c78106fc842a63e7
Reciphers for ciphertext: 0
Decipheredtext:           0000000000000000000000000000000000
RESULT CIPHER-DECIPHER: -----OK-----


Test: 13
Hash algorithm: 7
Symmetric key bit length: 192
IV bit length:            128
Plaintext bit length:     136
Symmetric key:            000000000000000000000000000000000000000000000000
IV:                       00040000000000000000000000000000
Plaintext:                0000000000000000000000000000000000
Ciphertext:               4c35a2015688b03192dd599a3fddb893c2212412613964b4ff429a93309c2810ec
Reciphers for ciphertext: 0
Decipheredtext:           0000000000000000000000000000000000
RESULT CIPHER-DECIPHER: -----OK-----


Test: 14
Hash algorithm: 12
Symmetric key bit length: 192
IV bit length:            128
Plaintext bit length:     136
Symmetric key:            000000000000000000000000000000000000000000000000
IV:                       00020000000000000000000000000000
Plaintext:                0000000000000000000000000000000000
Ciphertext:               24def3618142e83ba5124d914edb23ee0eebebd79ac0fea47f0d670aaddc31b970
Reciphers for ciphertext: 0
Decipheredtext:           0000000000000000000000000000000000
RESULT CIPHER-DECIPHER: -----OK-----


Test: 15
Hash algorithm: 3
Symmetric key bit length: 192
IV bit length:            128
Plaintext bit length:     136
Symmetric key:            000000000000000000000000000000000000000000000000
IV:                       00010000000000000000000000000000
Plaintext:                0000000000000000000000000000000000
Ciphertext:               4ba48c16fa165c322614a94b0f236ee7dbe1903cd6cb058c7a1cc82be008b577f8bc2f700bd8c07ff0457963ce7355757200f5867d23f93f3564e9bf63aaba5c3a
Reciphers for ciphertext: 0
Decipheredtext:           0000000000000000000000000000000000
RESULT CIPHER-DECIPHER: -----OK-----


Test: 16
Hash algorithm: 4
Symmetric key bit length: 192
IV bit length:            128
Plaintext bit length:     136
Symmetric key:            000000000000000000000000000000000000000000000000
IV:                       00008000000000000000000000000000
Plaintext:                0000000000000000000000000000000000
Ciphertext:               251d642123ee51ac09e02026228c14140b3800bf875f8f12df4feeedd63adc7da03ff9c21f2b19a81722c82c6601adad9e0c44b4f1913f5dc45bb97632c7a05ca60e2e88c6b2e267c05f1ab9621291ef84
Reciphers for ciphertext: 0
Decipheredtext:           0000000000000000000000000000000000
RESULT CIPHER-DECIPHER: -----OK-----


Test: 17
Hash algorithm: 12
Symmetric key bit length: 192
IV bit length:            128
Plaintext bit length:     136
Symmetric key:            000000000000000000000000000000000000000000000000
IV:                       00004000000000000000000000000000
Plaintext:                0000000000000000000000000000000000
Ciphertext:               35604c5d7589b042c9a2e2550b439d317afa5568a63435fc0661d7a56999a907af
Reciphers for ciphertext: 0
Decipheredtext:           0000000000000000000000000000000000
RESULT CIPHER-DECIPHER: -----OK-----


Test: 18
Hash algorithm: 6
Symmetric key bit length: 192
IV bit length:            128
Plaintext bit length:     136
Symmetric key:            000000000000000000000000000000000000000000000000
IV:                       00002000000000000000000000000000
Plaintext:                0000000000000000000000000000000000
Ciphertext:               a921c70d25df86916bafcb0d99834d771fa1c33d49b5d1e238151cf14dc3d9869ed0e443f20d8f4fca1601855ceb7c78d9
Reciphers for ciphertext: 0
Decipheredtext:           0000000000000000000000000000000000
RESULT CIPHER-DECIPHER: -----OK-----


Test: 19
Hash algorithm: 11
Symmetric key bit length: 192
IV bit length:            128
Plaintext bit length:     136
Symmetric key:            000000000000000000000000000000000000000000000000
IV:                       00001000000000000000000000000000
Plaintext:                0000000000000000000000000000000000
Ciphertext:               f9faad2a61a6cc1383ae2eb67b62dce1d968e724a3f3458203b1c1d74a39dc911f
Reciphers for ciphertext: 1
Decipheredtext:           0000000000000000000000000000000000
RESULT CIPHER-DECIPHER: -----OK-----


Test: 20
Hash algorithm: 4
Symmetric key bit length: 192
IV bit length:            128
Plaintext bit length:     136
Symmetric key:            000000000000000000000000000000000000000000000000
IV:                       00000800000000000000000000000000
Plaintext:                0000000000000000000000000000000000
Ciphertext:               2281b03c4aad92683b10418afd19fcbe9e3f9c6b9a36ccd11b7d1e8c7ae549950a96d585ea60bbf158e1a863010ee27034248a66f0cac52423bcc058719a9c2a88d922566164b516d2cbe8f1c9bb0af649
Reciphers for ciphertext: 0
Decipheredtext:           0000000000000000000000000000000000
RESULT CIPHER-DECIPHER: -----OK-----


Test: 21
Hash algorithm: 10
Symmetric key bit length: 192
IV bit length:            128
Plaintext bit length:     136
Symmetric key:            000000000000000000000000000000000000000000000000
IV:                       00000400000000000000000000000000
Plaintext:                0000000000000000000000000000000000
Ciphertext:               5df5f94a1760883ca1e80ba88fe02dcc4c48e60da7698160926a19437fe346fc3b31b4a6fea4fd272f22de3f853b6cbf531adbcd313810afa6
Reciphers for ciphertext: 0
Decipheredtext:           0000000000000000000000000000000000
RESULT CIPHER-DECIPHER: -----OK-----


Test: 22
Hash algorithm: 7
Symmetric key bit length: 192
IV bit length:            128
Plaintext bit length:     136
Symmetric key:            000000000000000000000000000000000000000000000000
IV:                       00000200000000000000000000000000
Plaintext:                0000000000000000000000000000000000
Ciphertext:               fb2a57edd5cf3d2d38ec0f185ae33549f3963be78dba2339e3e8abc5b2f9169d36
Reciphers for ciphertext: 0
Decipheredtext:           0000000000000000000000000000000000
RESULT CIPHER-DECIPHER: -----OK-----


Test: 23
Hash algorithm: 4
Symmetric key bit length: 192
IV bit length:            128
Plaintext bit length:     136
Symmetric key:            000000000000000000000000000000000000000000000000
IV:                       00000100000000000000000000000000
Plaintext:                0000000000000000000000000000000000
Ciphertext:               0fa7045d04878611ba1ee1b89ae48fd7e812badffb78e6c562fc102c4882b4e6639210303c8b3609c0f221b3da1f5b227b77030988484eeafdaa2a5cb38a49d9ac2b15c832124341218b49b2d94137f83b
Reciphers for ciphertext: 0
Decipheredtext:           0000000000000000000000000000000000
RESULT CIPHER-DECIPHER: -----OK-----


Test: 24
Hash algorithm: 0
Symmetric key bit length: 192
IV bit length:            128
Plaintext bit length:     136
Symmetric key:            000000000000000000000000000000000000000000000000
IV:                       00000080000000000000000000000000
Plaintext:                0000000000000000000000000000000000
Ciphertext:               d4bccb77a50cba2a5d3e19c39b10a95d7839982a5f85fe432af30622bf5fe21a41c82a0ec9
Reciphers for ciphertext: 0
Decipheredtext:           0000000000000000000000000000000000
RESULT CIPHER-DECIPHER: -----OK-----


Test: 25
Hash algorithm: 5
Symmetric key bit length: 192
IV bit length:            128
Plaintext bit length:     136
Symmetric key:            000000000000000000000000000000000000000000000000
IV:                       00000040000000000000000000000000
Plaintext:                0000000000000000000000000000000000
Ciphertext:               0c673c63c42f40cc9c547e8ffec646bc9566f22034f2b338c2b5d905304489a6e7d1915d6e2fb9359a9ea7642a
Reciphers for ciphertext: 0
Decipheredtext:           0000000000000000000000000000000000
RESULT CIPHER-DECIPHER: -----OK-----


Test: 26
Hash algorithm: 3
Symmetric key bit length: 192
IV bit length:            128
Plaintext bit length:     136
Symmetric key:            000000000000000000000000000000000000000000000000
IV:                       00000020000000000000000000000000
Plaintext:                0000000000000000000000000000000000
Ciphertext:               914cf9c7744a56d5d5e4beabff1aa160fe3b7849074559869def383c00f88cb87f57ac71056fb4a33605b3bfe70db687ab8f8c71e42ca6ebd6d4bbbeeaa079873b
Reciphers for ciphertext: 0
Decipheredtext:           0000000000000000000000000000000000
RESULT CIPHER-DECIPHER: -----OK-----


Test: 27
Hash algorithm: 8
Symmetric key bit length: 192
IV bit length:            128
Plaintext bit length:     136
Symmetric key:            000000000000000000000000000000000000000000000000
IV:                       00000010000000000000000000000000
Plaintext:                0000000000000000000000000000000000
Ciphertext:               073e2f69a01ef426c14ade8f0a30dd84891b31cd4a1b729a4a9fecc0a9601f483e036305a5
Reciphers for ciphertext: 0
Decipheredtext:           0000000000000000000000000000000000
RESULT CIPHER-DECIPHER: -----OK-----


Test: 28
Hash algorithm: 13
Symmetric key bit length: 192
IV bit length:            128
Plaintext bit length:     136
Symmetric key:            000000000000000000000000000000000000000000000000
IV:                       00000008000000000000000000000000
Plaintext:                0000000000000000000000000000000000
Ciphertext:               5f0cf0ae5a8bc4d1fb37cf8f2f063437f9acc44d18e354835ed94d3d414ece9196
Reciphers for ciphertext: 0
Decipheredtext:           0000000000000000000000000000000000
RESULT CIPHER-DECIPHER: -----OK-----


Test: 29
Hash algorithm: 8
Symmetric key bit length: 192
IV bit length:            128
Plaintext bit length:     136
Symmetric key:            000000000000000000000000000000000000000000000000
IV:                       00000004000000000000000000000000
Plaintext:                0000000000000000000000000000000000
Ciphertext:               c3e16559538c35da71d6a9f5c79144ead3dfee877ae8e05bb62f70b7d3adbed1507eac8f6c
Reciphers for ciphertext: 0
Decipheredtext:           0000000000000000000000000000000000
RESULT CIPHER-DECIPHER: -----OK-----


Test: 30
Hash algorithm: 9
Symmetric key bit length: 192
IV bit length:            128
Plaintext bit length:     136
Symmetric key:            000000000000000000000000000000000000000000000000
IV:                       00000002000000000000000000000000
Plaintext:                0000000000000000000000000000000000
Ciphertext:               3a154b0a7eab802c082a4a96cc9968d40bd0ec49c48d3d382afa6c06377def09c775ea02d5db9e7758a2d3164a01c8ab54
Reciphers for ciphertext: 0
Decipheredtext:           0000000000000000000000000000000000
RESULT CIPHER-DECIPHER: -----OK-----


Test: 31
Hash algorithm: 2
Symmetric key bit length: 192
IV bit length:            128
Plaintext bit length:     136
Symmetric key:            000000000000000000000000000000000000000000000000
IV:                       00000001000000000000000000000000
Plaintext:                0000000000000000000000000000000000
Ciphertext:               205f88404d8c02bcc7c68a064c74a545742ad799581f855e12c395caec537f82dcd84faa8445f2c928b9e65f4e5b10005d
Reciphers for ciphertext: 0
Decipheredtext:           0000000000000000000000000000000000
RESULT CIPHER-DECIPHER: -----OK-----


Test: 32
Hash algorithm: 2
Symmetric key bit length: 192
IV bit length:            128
Plaintext bit length:     136
Symmetric key:            000000000000000000000000000000000000000000000000
IV:                       00000000800000000000000000000000
Plaintext:                0000000000000000000000000000000000
Ciphertext:               27d5c66ef07bff1f9f2789205ef6f54f332d5dd776a272a3b19b74c9ca41fdd2d6f41645b06eefdacb5da3fc38fa1c17f0
Reciphers for ciphertext: 0
Decipheredtext:           0000000000000000000000000000000000
RESULT CIPHER-DECIPHER: -----OK-----


Test: 33
Hash algorithm: 5
Symmetric key bit length: 192
IV bit length:            128
Plaintext bit length:     136
Symmetric key:            000000000000000000000000000000000000000000000000
IV:                       00000000400000000000000000000000
Plaintext:                0000000000000000000000000000000000
Ciphertext:               7adfdd145251206f5eef7206f718c8b046104ac14364cd5861776209b94d5728eb5b3716c735a560301ea1c2ba
Reciphers for ciphertext: 0
Decipheredtext:           0000000000000000000000000000000000
RESULT CIPHER-DECIPHER: -----OK-----


Test: 34
Hash algorithm: 2
Symmetric key bit length: 192
IV bit length:            128
Plaintext bit length:     136
Symmetric key:            000000000000000000000000000000000000000000000000
IV:                       00000000200000000000000000000000
Plaintext:                0000000000000000000000000000000000
Ciphertext:               971a2283f2d786efceed19ca000f4d2ab49d92339ba0deda41cabe59201f046ab3b4d823df6efba1560979d829b4657217
Reciphers for ciphertext: 0
Decipheredtext:           0000000000000000000000000000000000
RESULT CIPHER-DECIPHER: -----OK-----


Test: 35
Hash algorithm: 13
Symmetric key bit length: 192
IV bit length:            128
Plaintext bit length:     136
Symmetric key:            000000000000000000000000000000000000000000000000
IV:                       00000000100000000000000000000000
Plaintext:                0000000000000000000000000000000000
Ciphertext:               59ed88f7ee96e19469c0d5604da0e6f969aa2535415749a61b4bba27ae2c684358
Reciphers for ciphertext: 0
Decipheredtext:           0000000000000000000000000000000000
RESULT CIPHER-DECIPHER: -----OK-----


Test: 36
Hash algorithm: 13
Symmetric key bit length: 192
IV bit length:            128
Plaintext bit length:     136
Symmetric key:            000000000000000000000000000000000000000000000000
IV:                       00000000080000000000000000000000
Plaintext:                0000000000000000000000000000000000
Ciphertext:               d970cba6992074c2f5bea1952ee82b606f2ab8761020ff334dd7c4535b4f208ec1
Reciphers for ciphertext: 0
Decipheredtext:           0000000000000000000000000000000000
RESULT CIPHER-DECIPHER: -----OK-----


Test: 37
Hash algorithm: 8
Symmetric key bit length: 192
IV bit length:            128
Plaintext bit length:     136
Symmetric key:            000000000000000000000000000000000000000000000000
IV:                       00000000040000000000000000000000
Plaintext:                0000000000000000000000000000000000
Ciphertext:               6de2a3c48a416d9b679112fe54133fb57f71ed41e7312d03f739370cd83e3caa0f4c5d04c4
Reciphers for ciphertext: 0
Decipheredtext:           0000000000000000000000000000000000
RESULT CIPHER-DECIPHER: -----OK-----


Test: 38
Hash algorithm: 13
Symmetric key bit length: 192
IV bit length:            128
Plaintext bit length:     136
Symmetric key:            000000000000000000000000000000000000000000000000
IV:                       00000000020000000000000000000000
Plaintext:                0000000000000000000000000000000000
Ciphertext:               a85b4fcf07c08c7d99fab5ffc1f7680f755b93f279be1fcbf2bb804731a03fcdae
Reciphers for ciphertext: 0
Decipheredtext:           0000000000000000000000000000000000
RESULT CIPHER-DECIPHER: -----OK-----


Test: 39
Hash algorithm: 2
Symmetric key bit length: 192
IV bit length:            128
Plaintext bit length:     136
Symmetric key:            000000000000000000000000000000000000000000000000
IV:                       00000000010000000000000000000000
Plaintext:                0000000000000000000000000000000000
Ciphertext:               c4d174f3a6489b334a612ddf4c01903b3bce5965ebf441c79d4e326d35530ab7a2e773e11f4aa0b209eb45a66626617b73
Reciphers for ciphertext: 0
Decipheredtext:           0000000000000000000000000000000000
RESULT CIPHER-DECIPHER: -----OK-----


Test: 40
Hash algorithm: 0
Symmetric key bit length: 192
IV bit length:            128
Plaintext bit length:     136
Symmetric key:            000000000000000000000000000000000000000000000000
IV:                       00000000008000000000000000000000
Plaintext:                0000000000000000000000000000000000
Ciphertext:               f428ce9715b50860eb9dac15b475803de8190c2fbf3547f16045a5976970873321a5680cb8
Reciphers for ciphertext: 0
Decipheredtext:           0000000000000000000000000000000000
RESULT CIPHER-DECIPHER: -----OK-----


Test: 41
Hash algorithm: 8
Symmetric key bit length: 192
IV bit length:            128
Plaintext bit length:     136
Symmetric key:            000000000000000000000000000000000000000000000000
IV:                       00000000004000000000000000000000
Plaintext:                0000000000000000000000000000000000
Ciphertext:               15a4c8c2ec76338fd7f4ccbc22335a670009ab2ae1571a5de38952d29a481ccfdd5ce552d1
Reciphers for ciphertext: 0
Decipheredtext:           0000000000000000000000000000000000
RESULT CIPHER-DECIPHER: -----OK-----


Test: 42
Hash algorithm: 1
Symmetric key bit length: 192
IV bit length:            128
Plaintext bit length:     136
Symmetric key:            000000000000000000000000000000000000000000000000
IV:                       00000000002000000000000000000000
Plaintext:                0000000000000000000000000000000000
Ciphertext:               78782ca4652234a2b363d8da766ccdb88591d6873d7cc99b4cf6ff2eb1743432ba4684e54868cc01fe14c1bf42
Reciphers for ciphertext: 0
Decipheredtext:           0000000000000000000000000000000000
RESULT CIPHER-DECIPHER: -----OK-----


Test: 43
Hash algorithm: 9
Symmetric key bit length: 192
IV bit length:            128
Plaintext bit length:     136
Symmetric key:            000000000000000000000000000000000000000000000000
IV:                       00000000001000000000000000000000
Plaintext:                0000000000000000000000000000000000
Ciphertext:               b9ac015cc263572caee0e34683b3f6e0085355039231f5ef2a5ca6afe732c597f3dd15753f3744759630c0dd9c8b38797c
Reciphers for ciphertext: 0
Decipheredtext:           0000000000000000000000000000000000
RESULT CIPHER-DECIPHER: -----OK-----


Test: 44
Hash algorithm: 10
Symmetric key bit length: 192
IV bit length:            128
Plaintext bit length:     136
Symmetric key:            000000000000000000000000000000000000000000000000
IV:                       00000000000800000000000000000000
Plaintext:                0000000000000000000000000000000000
Ciphertext:               7990673b85f6a31660293f4b7295e296ce6c8393d6fb174bb8abd8779c1e333361bb2c5139085b515f4a6a0f048442c5b54d2b26b6cb55b503
Reciphers for ciphertext: 0
Decipheredtext:           0000000000000000000000000000000000
RESULT CIPHER-DECIPHER: -----OK-----


Test: 45
Hash algorithm: 9
Symmetric key bit length: 192
IV bit length:            128
Plaintext bit length:     136
Symmetric key:            000000000000000000000000000000000000000000000000
IV:                       00000000000400000000000000000000
Plaintext:                0000000000000000000000000000000000
Ciphertext:               32210034b38a6810f1623bdc777a5e30b1d8d802fa401cd0160324777dc60c3f2361f7a1727d05d9abc0693d3ffaa81268
Reciphers for ciphertext: 0
Decipheredtext:           0000000000000000000000000000000000
RESULT CIPHER-DECIPHER: -----OK-----


Test: 46
Hash algorithm: 0
Symmetric key bit length: 192
IV bit length:            128
Plaintext bit length:     136
Symmetric key:            000000000000000000000000000000000000000000000000
IV:                       00000000000200000000000000000000
Plaintext:                0000000000000000000000000000000000
Ciphertext:               189b8ec3470085b3da97e82ca8964e3203f5bf6feb67f27cb374afd3506c64fd2e5d5a1355
Reciphers for ciphertext: 0
Decipheredtext:           0000000000000000000000000000000000
RESULT CIPHER-DECIPHER: -----OK-----


Test: 47
Hash algorithm: 6
Symmetric key bit length: 192
IV bit length:            128
Plaintext bit length:     136
Symmetric key:            000000000000000000000000000000000000000000000000
IV:                       00000000000100000000000000000000
Plaintext:                0000000000000000000000000000000000
Ciphertext:               1e5c3b6e60715a4ee2397d86128feb23a316bec12af07f3ee79c8a47c648d520caeb83f14b65b5592ecf2de81c299db400
Reciphers for ciphertext: 0
Decipheredtext:           0000000000000000000000000000000000
RESULT CIPHER-DECIPHER: -----OK-----


Test: 48
Hash algorithm: 2
Symmetric key bit length: 192
IV bit length:            128
Plaintext bit length:     136
Symmetric key:            000000000000000000000000000000000000000000000000
IV:                       00000000000080000000000000000000
Plaintext:                0000000000000000000000000000000000
Ciphertext:               209e0c925c6eba5ee377b3fd99dc74eced2a161d8a0e67e6f0e724f31786d7537590da455d2ffd77ac2ca033c3fb512f3e
Reciphers for ciphertext: 0
Decipheredtext:           0000000000000000000000000000000000
RESULT CIPHER-DECIPHER: -----OK-----


Test: 49
Hash algorithm: 2
Symmetric key bit length: 192
IV bit length:            128
Plaintext bit length:     136
Symmetric key:            000000000000000000000000000000000000000000000000
IV:                       00000000000040000000000000000000
Plaintext:                0000000000000000000000000000000000
Ciphertext:               d6d11ea627c1fe32e1ff75f69f2ef91251dc590fbe75c8a29ce5ac351c8025de8b375f7d5418165379493d59607074c33c
Reciphers for ciphertext: 0
Decipheredtext:           0000000000000000000000000000000000
RESULT CIPHER-DECIPHER: -----OK-----


Test: 50
Hash algorithm: 6
Symmetric key bit length: 192
IV bit length:            128
Plaintext bit length:     136
Symmetric key:            000000000000000000000000000000000000000000000000
IV:                       00000000000020000000000000000000
Plaintext:                0000000000000000000000000000000000
Ciphertext:               330fa8dafe4a31dd83168f9a81c6bff80e3bed529e6e445574fda5b5dadb9c74117b1fe2cd45f32f8264ee1e1d87829e23
Reciphers for ciphertext: 0
Decipheredtext:           0000000000000000000000000000000000
RESULT CIPHER-DECIPHER: -----OK-----


Test: 51
Hash algorithm: 8
Symmetric key bit length: 192
IV bit length:            128
Plaintext bit length:     136
Symmetric key:            000000000000000000000000000000000000000000000000
IV:                       00000000000010000000000000000000
Plaintext:                0000000000000000000000000000000000
Ciphertext:               733b41f6263c4669ae05eba3592455288d6f34a3d59d502805f0a3f585330bc09269b7b728
Reciphers for ciphertext: 0
Decipheredtext:           0000000000000000000000000000000000
RESULT CIPHER-DECIPHER: -----OK-----


Test: 52
Hash algorithm: 3
Symmetric key bit length: 192
IV bit length:            128
Plaintext bit length:     136
Symmetric key:            000000000000000000000000000000000000000000000000
IV:                       00000000000008000000000000000000
Plaintext:                0000000000000000000000000000000000
Ciphertext:               462d605055949e84e16ffcc1d8ce18e0baec19d09064874eccdbb37e6adf5801fff4f1e011420496bac1e576a8940e90274629deaf027939ff42e88820f859f0eb
Reciphers for ciphertext: 0
Decipheredtext:           0000000000000000000000000000000000
RESULT CIPHER-DECIPHER: -----OK-----


Test: 53
Hash algorithm: 8
Symmetric key bit length: 192
IV bit length:            128
Plaintext bit length:     136
Symmetric key:            000000000000000000000000000000000000000000000000
IV:                       00000000000004000000000000000000
Plaintext:                0000000000000000000000000000000000
Ciphertext:               eba12bd6b1bf6e263037e89a34b1468afcf7aec9f50ad3004a6e91f6bc5e9ed330b9c582ce
Reciphers for ciphertext: 0
Decipheredtext:           0000000000000000000000000000000000
RESULT CIPHER-DECIPHER: -----OK-----


Test: 54
Hash algorithm: 3
Symmetric key bit length: 192
IV bit length:            128
Plaintext bit length:     136
Symmetric key:            000000000000000000000000000000000000000000000000
IV:                       00000000000002000000000000000000
Plaintext:                0000000000000000000000000000000000
Ciphertext:               cfb0119561a328e22fdaac332097a0ae396584a15550b0f8aa15062e982701b9b1ef3a53afe0323873e92b64de503b00bcce6a8d38b6f5091a69e0e4dd55850443
Reciphers for ciphertext: 0
Decipheredtext:           0000000000000000000000000000000000
RESULT CIPHER-DECIPHER: -----OK-----


Test: 55
Hash algorithm: 6
Symmetric key bit length: 192
IV bit length:            128
Plaintext bit length:     136
Symmetric key:            000000000000000000000000000000000000000000000000
IV:                       00000000000001000000000000000000
Plaintext:                0000000000000000000000000000000000
Ciphertext:               65477c9404927a19a24dcb813012cd6b656da586d0949c1eb0dcfef1c16a48068271e6420c287f00413289759ce7363e8a
Reciphers for ciphertext: 0
Decipheredtext:           0000000000000000000000000000000000
RESULT CIPHER-DECIPHER: -----OK-----


Test: 56
Hash algorithm: 9
Symmetric key bit length: 192
IV bit length:            128
Plaintext bit length:     136
Symmetric key:            000000000000000000000000000000000000000000000000
IV:                       00000000000000800000000000000000
Plaintext:                0000000000000000000000000000000000
Ciphertext:               71c538be7c7c25ac9c9bf433c439a81cab9b3c3a708fea9daa6eddb892754fc90f86a02f3059166a8f32c4569b6280961f
Reciphers for ciphertext: 0
Decipheredtext:           0000000000000000000000000000000000
RESULT CIPHER-DECIPHER: -----OK-----


Test: 57
Hash algorithm: 12
Symmetric key bit length: 192
IV bit length:            128
Plaintext bit length:     136
Symmetric key:            000000000000000000000000000000000000000000000000
IV:                       00000000000000400000000000000000
Plaintext:                0000000000000000000000000000000000
Ciphertext:               43ff9632b748a0e5bb93c80b7a72d1e6138ccab2c9f6f4eca113e68f37e8984b78
Reciphers for ciphertext: 0
Decipheredtext:           0000000000000000000000000000000000
RESULT CIPHER-DECIPHER: -----OK-----


Test: 58
Hash algorithm: 0
Symmetric key bit length: 192
IV bit length:            128
Plaintext bit length:     136
Symmetric key:            000000000000000000000000000000000000000000000000
IV:                       00000000000000200000000000000000
Plaintext:                0000000000000000000000000000000000
Ciphertext:               958934c3731793b6501508488515386b4c78add5eb53e56ab6fe2d333441e78b7752f07062
Reciphers for ciphertext: 0
Decipheredtext:           0000000000000000000000000000000000
RESULT CIPHER-DECIPHER: -----OK-----


Test: 59
Hash algorithm: 6
Symmetric key bit length: 192
IV bit length:            128
Plaintext bit length:     136
Symmetric key:            000000000000000000000000000000000000000000000000
IV:                       00000000000000100000000000000000
Plaintext:                0000000000000000000000000000000000
Ciphertext:               74e629f351506259f0e5ba56161959415f7c04d3b7c15e06f08e5680164c4392a8358a32a306eb4245ab75e914de5ad301
Reciphers for ciphertext: 0
Decipheredtext:           0000000000000000000000000000000000
RESULT CIPHER-DECIPHER: -----OK-----


Test: 60
Hash algorithm: 4
Symmetric key bit length: 192
IV bit length:            128
Plaintext bit length:     136
Symmetric key:            000000000000000000000000000000000000000000000000
IV:                       00000000000000080000000000000000
Plaintext:                0000000000000000000000000000000000
Ciphertext:               c12671b5543b37ee8045e21738b48456f2dc3baa13285a749dc64b2fe720e4ede25dc53a352010a68b177cca26a03e8daa047438fb75d41b717584aa3b91945c91f9753c366b43276cdba656ffd0de070a
Reciphers for ciphertext: 0
Decipheredtext:           0000000000000000000000000000000000
RESULT CIPHER-DECIPHER: -----OK-----


Test: 61
Hash algorithm: 10
Symmetric key bit length: 192
IV bit length:            128
Plaintext bit length:     136
Symmetric key:            000000000000000000000000000000000000000000000000
IV:                       00000000000000040000000000000000
Plaintext:                0000000000000000000000000000000000
Ciphertext:               efeb1397a75a6d11b76c5aa522c01dd3b0faf8e77ad9bb85bf7c9d12724e66cc240f5f6a611a47997e6030efdd9606fd8a7455eaf8ad13ca73
Reciphers for ciphertext: 0
Decipheredtext:           0000000000000000000000000000000000
RESULT CIPHER-DECIPHER: -----OK-----


Test: 62
Hash algorithm: 3
Symmetric key bit length: 192
IV bit length:            128
Plaintext bit length:     136
Symmetric key:            000000000000000000000000000000000000000000000000
IV:                       00000000000000020000000000000000
Plaintext:                0000000000000000000000000000000000
Ciphertext:               40fcf95ce176d4c0614d49836af9b7b972eac8499cd06504885b91cb286d6faea67949ea0829b12d8435188e37740795cab9c6e0b037d827ef00e5fe2e1fe2835f
Reciphers for ciphertext: 0
Decipheredtext:           0000000000000000000000000000000000
RESULT CIPHER-DECIPHER: -----OK-----


Test: 63
Hash algorithm: 3
Symmetric key bit length: 192
IV bit length:            128
Plaintext bit length:     136
Symmetric key:            000000000000000000000000000000000000000000000000
IV:                       00000000000000010000000000000000
Plaintext:                0000000000000000000000000000000000
Ciphertext:               800532e2359c581ab7375a0023e5619fa52a318222048f88528debd8ab247378808e8af24b922a535549592bfb22368d551aecca84249ba149774c754f7e9dc4cd
Reciphers for ciphertext: 0
Decipheredtext:           0000000000000000000000000000000000
RESULT CIPHER-DECIPHER: -----OK-----


Test: 64
Hash algorithm: 2
Symmetric key bit length: 192
IV bit length:            128
Plaintext bit length:     136
Symmetric key:            000000000000000000000000000000000000000000000000
IV:                       00000000000000008000000000000000
Plaintext:                0000000000000000000000000000000000
Ciphertext:               02f4ee73fff08f688c534b8db1cf192f48087cff6badf9d3c688000b67aec43eb6326816ee7b07987b2372da338e280bd0
Reciphers for ciphertext: 0
Decipheredtext:           0000000000000000000000000000000000
RESULT CIPHER-DECIPHER: -----OK-----


Test: 65
Hash algorithm: 4
Symmetric key bit length: 192
IV bit length:            128
Plaintext bit length:     136
Symmetric key:            000000000000000000000000000000000000000000000000
IV:                       00000000000000004000000000000000
Plaintext:                0000000000000000000000000000000000
Ciphertext:               703e4282110f7d27a6571abd98152d2bbb6d2399246d6e3e54e059d74d8045449fc55b6043af7d936e2937c0aa93b22b27ac4d112611cb6aa0ee0aa1f21a383e8b287985e7bb5948d4c87e522ca1bccf87
Reciphers for ciphertext: 0
Decipheredtext:           0000000000000000000000000000000000
RESULT CIPHER-DECIPHER: -----OK-----


Test: 66
Hash algorithm: 11
Symmetric key bit length: 192
IV bit length:            128
Plaintext bit length:     136
Symmetric key:            000000000000000000000000000000000000000000000000
IV:                       00000000000000002000000000000000
Plaintext:                0000000000000000000000000000000000
Ciphertext:               f93b8b96d84d6457c2def803789e58fb936826021f4aae2a47f0b101ff3a201505
Reciphers for ciphertext: 0
Decipheredtext:           0000000000000000000000000000000000
RESULT CIPHER-DECIPHER: -----OK-----


Test: 67
Hash algorithm: 11
Symmetric key bit length: 192
IV bit length:            128
Plaintext bit length:     136
Symmetric key:            000000000000000000000000000000000000000000000000
IV:                       00000000000000001000000000000000
Plaintext:                0000000000000000000000000000000000
Ciphertext:               3291f29dc7a8fa6bfbab3080d46c8f4e2aa38c7b14554bb47bc9c4c97c96d2c2b0
Reciphers for ciphertext: 0
Decipheredtext:           0000000000000000000000000000000000
RESULT CIPHER-DECIPHER: -----OK-----


Test: 68
Hash algorithm: 13
Symmetric key bit length: 192
IV bit length:            128
Plaintext bit length:     136
Symmetric key:            000000000000000000000000000000000000000000000000
IV:                       00000000000000000800000000000000
Plaintext:                0000000000000000000000000000000000
Ciphertext:               48a880f8db4317311f7fc7c534734c594fbb603d4e629c50be3d05350b55bbe9f8
Reciphers for ciphertext: 0
Decipheredtext:           0000000000000000000000000000000000
RESULT CIPHER-DECIPHER: -----OK-----


Test: 69
Hash algorithm: 2
Symmetric key bit length: 192
IV bit length:            128
Plaintext bit length:     136
Symmetric key:            000000000000000000000000000000000000000000000000
IV:                       00000000000000000400000000000000
Plaintext:                0000000000000000000000000000000000
Ciphertext:               056ee1a0611b70d8b476a926a260908bc80fe6f0b833122c76b025e9ccbd6bb7120430a0ceef76d17c20142f007c7aa877
Reciphers for ciphertext: 0
Decipheredtext:           0000000000000000000000000000000000
RESULT CIPHER-DECIPHER: -----OK-----


Test: 70
Hash algorithm: 4
Symmetric key bit length: 192
IV bit length:            128
Plaintext bit length:     136
Symmetric key:            000000000000000000000000000000000000000000000000
IV:                       00000000000000000200000000000000
Plaintext:                0000000000000000000000000000000000
Ciphertext:               0b22b4f0679776283a545ea4827f5d9d2b163f6f561bf6355b7c5a93549a2f34297a3d8fc44939f4170fe35ff12a49f7515df572b424fb5b55335f00621d3ddd83358ea66ae9857f130eacb3f176b160f4
Reciphers for ciphertext: 0
Decipheredtext:           0000000000000000000000000000000000
RESULT CIPHER-DECIPHER: -----OK-----


Test: 71
Hash algorithm: 13
Symmetric key bit length: 192
IV bit length:            128
Plaintext bit length:     136
Symmetric key:            000000000000000000000000000000000000000000000000
IV:                       00000000000000000100000000000000
Plaintext:                0000000000000000000000000000000000
Ciphertext:               b4983ccdb7953ea334fdb51232dd607f064750817b0e4a792c168747dc5315c5de
Reciphers for ciphertext: 0
Decipheredtext:           0000000000000000000000000000000000
RESULT CIPHER-DECIPHER: -----OK-----


Test: 72
Hash algorithm: 5
Symmetric key bit length: 192
IV bit length:            128
Plaintext bit length:     136
Symmetric key:            000000000000000000000000000000000000000000000000
IV:                       00000000000000000080000000000000
Plaintext:                0000000000000000000000000000000000
Ciphertext:               84c360cdb59408fbff6c1d98b633a1674aee567c9a830870f5d6e166270c7c413c809881aaf9938fe26f00e8a9
Reciphers for ciphertext: 0
Decipheredtext:           0000000000000000000000000000000000
RESULT CIPHER-DECIPHER: -----OK-----


Test: 73
Hash algorithm: 12
Symmetric key bit length: 192
IV bit length:            128
Plaintext bit length:     136
Symmetric key:            000000000000000000000000000000000000000000000000
IV:                       00000000000000000040000000000000
Plaintext:                0000000000000000000000000000000000
Ciphertext:               99370507d1c662282477ee90fa4e72b933560221fc907a2e6c8c02a9ac68a4e827
Reciphers for ciphertext: 0
Decipheredtext:           0000000000000000000000000000000000
RESULT CIPHER-DECIPHER: -----OK-----


Test: 74
Hash algorithm: 8
Symmetric key bit length: 192
IV bit length:            128
Plaintext bit length:     136
Symmetric key:            000000000000000000000000000000000000000000000000
IV:                       00000000000000000020000000000000
Plaintext:                0000000000000000000000000000000000
Ciphertext:               71f8ee3b5575730281c6826d80b4c46c456df70c18ee191d6edf609c4bea9b51d6d065bcc0
Reciphers for ciphertext: 0
Decipheredtext:           0000000000000000000000000000000000
RESULT CIPHER-DECIPHER: -----OK-----


Test: 75
Hash algorithm: 7
Symmetric key bit length: 192
IV bit length:            128
Plaintext bit length:     136
Symmetric key:            000000000000000000000000000000000000000000000000
IV:                       00000000000000000010000000000000
Plaintext:                0000000000000000000000000000000000
Ciphertext:               33a80e4a9d495bfe8f76e07a1ea05ed0f85eb9be2af2a55f305f312ad0bd55f6af
Reciphers for ciphertext: 0
Decipheredtext:           0000000000000000000000000000000000
RESULT CIPHER-DECIPHER: -----OK-----


Test: 76
Hash algorithm: 5
Symmetric key bit length: 192
IV bit length:            128
Plaintext bit length:     136
Symmetric key:            000000000000000000000000000000000000000000000000
IV:                       00000000000000000008000000000000
Plaintext:                0000000000000000000000000000000000
Ciphertext:               3db3dbf045c4023b584e8568d25952eba75726c7a773587a3571c3fed76816b2b04207e484ed4538fcd6738a04
Reciphers for ciphertext: 0
Decipheredtext:           0000000000000000000000000000000000
RESULT CIPHER-DECIPHER: -----OK-----


Test: 77
Hash algorithm: 0
Symmetric key bit length: 192
IV bit length:            128
Plaintext bit length:     136
Symmetric key:            000000000000000000000000000000000000000000000000
IV:                       00000000000000000004000000000000
Plaintext:                0000000000000000000000000000000000
Ciphertext:               a7a9058c51ceb88f05e6cb97a4923727434a8de4a4713c418fabdef0eb6060843b5960dc4b
Reciphers for ciphertext: 0
Decipheredtext:           0000000000000000000000000000000000
RESULT CIPHER-DECIPHER: -----OK-----


Test: 78
Hash algorithm: 5
Symmetric key bit length: 192
IV bit length:            128
Plaintext bit length:     136
Symmetric key:            000000000000000000000000000000000000000000000000
IV:                       00000000000000000002000000000000
Plaintext:                0000000000000000000000000000000000
Ciphertext:               1e977f546daae78f553861f420e89e6236740263035b369f817cb51a4b9aa77e399bc514945fc467375bc9d6f2
Reciphers for ciphertext: 0
Decipheredtext:           0000000000000000000000000000000000
RESULT CIPHER-DECIPHER: -----OK-----


Test: 79
Hash algorithm: 7
Symmetric key bit length: 192
IV bit length:            128
Plaintext bit length:     136
Symmetric key:            000000000000000000000000000000000000000000000000
IV:                       00000000000000000001000000000000
Plaintext:                0000000000000000000000000000000000
Ciphertext:               9f47bea3e662ca502341f727ecf64ff02af2560ec3898ece9ef3063d8d4f03e78f
Reciphers for ciphertext: 0
Decipheredtext:           0000000000000000000000000000000000
RESULT CIPHER-DECIPHER: -----OK-----


Test: 80
Hash algorithm: 12
Symmetric key bit length: 192
IV bit length:            128
Plaintext bit length:     136
Symmetric key:            000000000000000000000000000000000000000000000000
IV:                       00000000000000000000800000000000
Plaintext:                0000000000000000000000000000000000
Ciphertext:               723c52ca0635fc08c4818a8d386bf2ca37bd0976314789b04c6cf4cdb1aa816854
Reciphers for ciphertext: 0
Decipheredtext:           0000000000000000000000000000000000
RESULT CIPHER-DECIPHER: -----OK-----


Test: 81
Hash algorithm: 10
Symmetric key bit length: 192
IV bit length:            128
Plaintext bit length:     136
Symmetric key:            000000000000000000000000000000000000000000000000
IV:                       00000000000000000000400000000000
Plaintext:                0000000000000000000000000000000000
Ciphertext:               562ad986fc63064fed5b8e77a575a079de43392d6b8282eee126aac6a0c9d3718e64907457f0c40f13f5febf93227380f1985dd5a654e2b483
Reciphers for ciphertext: 0
Decipheredtext:           0000000000000000000000000000000000
RESULT CIPHER-DECIPHER: -----OK-----


Test: 82
Hash algorithm: 2
Symmetric key bit length: 192
IV bit length:            128
Plaintext bit length:     136
Symmetric key:            000000000000000000000000000000000000000000000000
IV:                       00000000000000000000200000000000
Plaintext:                0000000000000000000000000000000000
Ciphertext:               3209896941454c0d59e17df9e99ee590a138819871134c10a35db23d13f695c2095935a1be1d461089bdab6272ad96adea
Reciphers for ciphertext: 0
Decipheredtext:           0000000000000000000000000000000000
RESULT CIPHER-DECIPHER: -----OK-----


Test: 83
Hash algorithm: 0
Symmetric key bit length: 192
IV bit length:            128
Plaintext bit length:     136
Symmetric key:            000000000000000000000000000000000000000000000000
IV:                       00000000000000000000100000000000
Plaintext:                0000000000000000000000000000000000
Ciphertext:               afa1d3a3a7c49544ecd0f005fe4adf304c4285328b87366c4442e8cb793ab86c2c74f1675b
Reciphers for ciphertext: 0
Decipheredtext:           0000000000000000000000000000000000
RESULT CIPHER-DECIPHER: -----OK-----


Test: 84
Hash algorithm: 7
Symmetric key bit length: 192
IV bit length:            128
Plaintext bit length:     136
Symmetric key:            000000000000000000000000000000000000000000000000
IV:                       00000000000000000000080000000000
Plaintext:                0000000000000000000000000000000000
Ciphertext:               d0c15dbaa5f877a191e7ed56d1546dbfbfbdd0eddaca14736f41a027fc72a1c5c0
Reciphers for ciphertext: 0
Decipheredtext:           0000000000000000000000000000000000
RESULT CIPHER-DECIPHER: -----OK-----


Test: 85
Hash algorithm: 8
Symmetric key bit length: 192
IV bit length:            128
Plaintext bit length:     136
Symmetric key:            000000000000000000000000000000000000000000000000
IV:                       00000000000000000000040000000000
Plaintext:                0000000000000000000000000000000000
Ciphertext:               467e0e629df57e2af5fd7a53b286222c3e5a71ec4126991046ab5b6475d8a9b796a7c5f663
Reciphers for ciphertext: 0
Decipheredtext:           0000000000000000000000000000000000
RESULT CIPHER-DECIPHER: -----OK-----


Test: 86
Hash algorithm: 11
Symmetric key bit length: 192
IV bit length:            128
Plaintext bit length:     136
Symmetric key:            000000000000000000000000000000000000000000000000
IV:                       00000000000000000000020000000000
Plaintext:                0000000000000000000000000000000000
Ciphertext:               8097e51df87b86a1756436f5ec835f5415118a6c946a98c8b1470bcf09ae3d12aa
Reciphers for ciphertext: 0
Decipheredtext:           0000000000000000000000000000000000
RESULT CIPHER-DECIPHER: -----OK-----


Test: 87
Hash algorithm: 13
Symmetric key bit length: 192
IV bit length:            128
Plaintext bit length:     136
Symmetric key:            000000000000000000000000000000000000000000000000
IV:                       00000000000000000000010000000000
Plaintext:                0000000000000000000000000000000000
Ciphertext:               bc06ed199ac6a8be027a5b57e348765e5f4fce50af2319ef312000a9998280d3ff
Reciphers for ciphertext: 0
Decipheredtext:           0000000000000000000000000000000000
RESULT CIPHER-DECIPHER: -----OK-----


Test: 88
Hash algorithm: 1
Symmetric key bit length: 192
IV bit length:            128
Plaintext bit length:     136
Symmetric key:            000000000000000000000000000000000000000000000000
IV:                       00000000000000000000008000000000
Plaintext:                0000000000000000000000000000000000
Ciphertext:               f77d868cf760b9143a89809510ccb0990a1ed32d15ee8b16fa7f1576fe12944f9b60073bbdbe8205814bab48cc
Reciphers for ciphertext: 0
Decipheredtext:           0000000000000000000000000000000000
RESULT CIPHER-DECIPHER: -----OK-----


Test: 89
Hash algorithm: 6
Symmetric key bit length: 192
IV bit length:            128
Plaintext bit length:     136
Symmetric key:            000000000000000000000000000000000000000000000000
IV:                       00000000000000000000004000000000
Plaintext:                0000000000000000000000000000000000
Ciphertext:               6ac27194ccb8b8c5a9ef91c460babc4f2862208bd05cb6dc6cd75cab843ae077a68dfda0bf7f90745f30194adc3bce9de2
Reciphers for ciphertext: 0
Decipheredtext:           0000000000000000000000000000000000
RESULT CIPHER-DECIPHER: -----OK-----


Test: 90
Hash algorithm: 7
Symmetric key bit length: 192
IV bit length:            128
Plaintext bit length:     136
Symmetric key:            000000000000000000000000000000000000000000000000
IV:                       00000000000000000000002000000000
Plaintext:                0000000000000000000000000000000000
Ciphertext:               90ecb7adf91e1664d96ddfa84f3e3b7a07fdfd07cd96f212aa092a1502eccb9305
Reciphers for ciphertext: 0
Decipheredtext:           0000000000000000000000000000000000
RESULT CIPHER-DECIPHER: -----OK-----


Test: 91
Hash algorithm: 0
Symmetric key bit length: 192
IV bit length:            128
Plaintext bit length:     136
Symmetric key:            000000000000000000000000000000000000000000000000
IV:                       00000000000000000000001000000000
Plaintext:                0000000000000000000000000000000000
Ciphertext:               c9344eaead5b2d403df0b0e23edda5db7f2410af868da9d44093c88b9efa2f16c76e141595
Reciphers for ciphertext: 0
Decipheredtext:           0000000000000000000000000000000000
RESULT CIPHER-DECIPHER: -----OK-----


Test: 92
Hash algorithm: 6
Symmetric key bit length: 192
IV bit length:            128
Plaintext bit length:     136
Symmetric key:            000000000000000000000000000000000000000000000000
IV:                       00000000000000000000000800000000
Plaintext:                0000000000000000000000000000000000
Ciphertext:               7b1e6b2e84a5fa629825f60885f73423f473fc916a14ab9ecbe696cc48dfadffcab34e249152ed3491ba2dbcd8360eaf37
Reciphers for ciphertext: 0
Decipheredtext:           0000000000000000000000000000000000
RESULT CIPHER-DECIPHER: -----OK-----


Test: 93
Hash algorithm: 8
Symmetric key bit length: 192
IV bit length:            128
Plaintext bit length:     136
Symmetric key:            000000000000000000000000000000000000000000000000
IV:                       00000000000000000000000400000000
Plaintext:                0000000000000000000000000000000000
Ciphertext:               730f3bab94156e5835bd741bb8d85ef1676f00d9882f7900346b1b6a3dd2f7cb4b5cc87fe6
Reciphers for ciphertext: 0
Decipheredtext:           0000000000000000000000000000000000
RESULT CIPHER-DECIPHER: -----OK-----


Test: 94
Hash algorithm: 4
Symmetric key bit length: 192
IV bit length:            128
Plaintext bit length:     136
Symmetric key:            000000000000000000000000000000000000000000000000
IV:                       00000000000000000000000200000000
Plaintext:                0000000000000000000000000000000000
Ciphertext:               6685abc072c2dc93354a623446ee54a68a7b9870660ea39fe07344afc45ebe3d12d07d831122926e5b3c57475d53741101d3ae06d1952e059888ba4414c5c14d78e6874079650afd0d251ba4172adaabcb
Reciphers for ciphertext: 0
Decipheredtext:           0000000000000000000000000000000000
RESULT CIPHER-DECIPHER: -----OK-----


Test: 95
Hash algorithm: 7
Symmetric key bit length: 192
IV bit length:            128
Plaintext bit length:     136
Symmetric key:            000000000000000000000000000000000000000000000000
IV:                       00000000000000000000000100000000
Plaintext:                0000000000000000000000000000000000
Ciphertext:               c350186035a00e5802ceda6ae90615e735ae41a8005a4c0a96d28910c04af3bd98
Reciphers for ciphertext: 0
Decipheredtext:           0000000000000000000000000000000000
RESULT CIPHER-DECIPHER: -----OK-----


Test: 96
Hash algorithm: 1
Symmetric key bit length: 192
IV bit length:            128
Plaintext bit length:     136
Symmetric key:            000000000000000000000000000000000000000000000000
IV:                       00000000000000000000000080000000
Plaintext:                0000000000000000000000000000000000
Ciphertext:               38f0bee5d234428ab287939be63bd400a6d15e157ccbdfed64f71b65f0e4632b02236bb57d6b3e37c9aa4bef92
Reciphers for ciphertext: 0
Decipheredtext:           0000000000000000000000000000000000
RESULT CIPHER-DECIPHER: -----OK-----


Test: 97
Hash algorithm: 3
Symmetric key bit length: 192
IV bit length:            128
Plaintext bit length:     136
Symmetric key:            000000000000000000000000000000000000000000000000
IV:                       00000000000000000000000040000000
Plaintext:                0000000000000000000000000000000000
Ciphertext:               59c13cf6b6608aa743a57e580a8d82bbc4f3f58c3687735aef7979fcf30d1b9ba4f1f24aaa3730659d3ad8d28b101388bdb4953938da6eeee90dd9332901fd0136
Reciphers for ciphertext: 0
Decipheredtext:           0000000000000000000000000000000000
RESULT CIPHER-DECIPHER: -----OK-----


Test: 98
Hash algorithm: 11
Symmetric key bit length: 192
IV bit length:            128
Plaintext bit length:     136
Symmetric key:            000000000000000000000000000000000000000000000000
IV:                       00000000000000000000000020000000
Plaintext:                0000000000000000000000000000000000
Ciphertext:               60e6f6290fc3e9dc2c656bfacb3873426af1fb7fa09d20a7cc1e0a920689863ebc
Reciphers for ciphertext: 0
Decipheredtext:           0000000000000000000000000000000000
RESULT CIPHER-DECIPHER: -----OK-----


Test: 99
Hash algorithm: 4
Symmetric key bit length: 192
IV bit length:            128
Plaintext bit length:     136
Symmetric key:            000000000000000000000000000000000000000000000000
IV:                       00000000000000000000000010000000
Plaintext:                0000000000000000000000000000000000
Ciphertext:               dd49442c7ab7443bd7e41b4b848662d22cc0549f8a06d6074891ead6bb9cd60b667bc94c1789f3f4ca28307dd77a1724b3603f5b58040361413d80b0a0c4ab4c672322058df13ff72f8ad16e5c67db7498
Reciphers for ciphertext: 0
Decipheredtext:           0000000000000000000000000000000000
RESULT CIPHER-DECIPHER: -----OK-----


Test: 100
Hash algorithm: 1
Symmetric key bit length: 192
IV bit length:            128
Plaintext bit length:     136
Symmetric key:            000000000000000000000000000000000000000000000000
IV:                       00000000000000000000000008000000
Plaintext:                0000000000000000000000000000000000
Ciphertext:               3a18f3904cd710c501784b44b7bed928e5d3b65809553cbf2b44e4bd2fb5e6262ab217f3564fcad3960aa43603
Reciphers for ciphertext: 0
Decipheredtext:           0000000000000000000000000000000000
RESULT CIPHER-DECIPHER: -----OK-----


Test: 101
Hash algorithm: 11
Symmetric key bit length: 192
IV bit length:            128
Plaintext bit length:     136
Symmetric key:            000000000000000000000000000000000000000000000000
IV:                       00000000000000000000000004000000
Plaintext:                0000000000000000000000000000000000
Ciphertext:               8afb4f1591681cfd0ff331f5e749899d341be6c69c038b52ed3d9cc809a5f7c463
Reciphers for ciphertext: 0
Decipheredtext:           0000000000000000000000000000000000
RESULT CIPHER-DECIPHER: -----OK-----


Test: 102
Hash algorithm: 5
Symmetric key bit length: 192
IV bit length:            128
Plaintext bit length:     136
Symmetric key:            000000000000000000000000000000000000000000000000
IV:                       00000000000000000000000002000000
Plaintext:                0000000000000000000000000000000000
Ciphertext:               24093cf425ca447b76edbfc957a529b3d44e9c20a313563c755f60c476edeac9e8cf4abb1aabc41ea67c2d224b
Reciphers for ciphertext: 0
Decipheredtext:           0000000000000000000000000000000000
RESULT CIPHER-DECIPHER: -----OK-----


Test: 103
Hash algorithm: 1
Symmetric key bit length: 192
IV bit length:            128
Plaintext bit length:     136
Symmetric key:            000000000000000000000000000000000000000000000000
IV:                       00000000000000000000000001000000
Plaintext:                0000000000000000000000000000000000
Ciphertext:               f5734b1089880f05e728cb07b4b50919681cdde0899063a0eba2b43d6cb6edf61b022142a26934f59d1b7d5301
Reciphers for ciphertext: 0
Decipheredtext:           0000000000000000000000000000000000
RESULT CIPHER-DECIPHER: -----OK-----


Test: 104
Hash algorithm: 8
Symmetric key bit length: 192
IV bit length:            128
Plaintext bit length:     136
Symmetric key:            000000000000000000000000000000000000000000000000
IV:                       00000000000000000000000000800000
Plaintext:                0000000000000000000000000000000000
Ciphertext:               e53a9ff4cdf0c76a9e5d3031e8b151da47f9357dd7769ca906c0fb2e17829ec46098f4ff70
Reciphers for ciphertext: 0
Decipheredtext:           0000000000000000000000000000000000
RESULT CIPHER-DECIPHER: -----OK-----


Test: 105
Hash algorithm: 5
Symmetric key bit length: 192
IV bit length:            128
Plaintext bit length:     136
Symmetric key:            000000000000000000000000000000000000000000000000
IV:                       00000000000000000000000000400000
Plaintext:                0000000000000000000000000000000000
Ciphertext:               a59d4bfa111ac6f33624aac45518094aebcf0857ad2786befd1fa9d17bef57e9113f297ce18c01c71a58617d7a
Reciphers for ciphertext: 0
Decipheredtext:           0000000000000000000000000000000000
RESULT CIPHER-DECIPHER: -----OK-----


Test: 106
Hash algorithm: 1
Symmetric key bit length: 192
IV bit length:            128
Plaintext bit length:     136
Symmetric key:            000000000000000000000000000000000000000000000000
IV:                       00000000000000000000000000200000
Plaintext:                0000000000000000000000000000000000
Ciphertext:               46949a5758b3b4184f684358915083db6aaf3a31ce41581bf60af4b53393087cd9dc240ecbee27b467ae987b77
Reciphers for ciphertext: 0
Decipheredtext:           0000000000000000000000000000000000
RESULT CIPHER-DECIPHER: -----OK-----


Test: 107
Hash algorithm: 7
Symmetric key bit length: 192
IV bit length:            128
Plaintext bit length:     136
Symmetric key:            000000000000000000000000000000000000000000000000
IV:                       00000000000000000000000000100000
Plaintext:                0000000000000000000000000000000000
Ciphertext:               4b3dd9621bedd5f7f54f53606737a113e1262c69027401d139250899cac4c2096c
Reciphers for ciphertext: 0
Decipheredtext:           0000000000000000000000000000000000
RESULT CIPHER-DECIPHER: -----OK-----


Test: 108
Hash algorithm: 5
Symmetric key bit length: 192
IV bit length:            128
Plaintext bit length:     136
Symmetric key:            000000000000000000000000000000000000000000000000
IV:                       00000000000000000000000000080000
Plaintext:                0000000000000000000000000000000000
Ciphertext:               958e939d24b0d7c9b1c237891d3b61c299ff1b8fca122cafc7984f4c36a77481998815b902ca836595b4fa8390
Reciphers for ciphertext: 0
Decipheredtext:           0000000000000000000000000000000000
RESULT CIPHER-DECIPHER: -----OK-----


Test: 109
Hash algorithm: 13
Symmetric key bit length: 192
IV bit length:            128
Plaintext bit length:     136
Symmetric key:            000000000000000000000000000000000000000000000000
IV:                       00000000000000000000000000040000
Plaintext:                0000000000000000000000000000000000
Ciphertext:               6930b05005417f71db709b617888b43fd79af80de6bc9e38fef90a69af1940119e
Reciphers for ciphertext: 0
Decipheredtext:           0000000000000000000000000000000000
RESULT CIPHER-DECIPHER: -----OK-----


Test: 110
Hash algorithm: 10
Symmetric key bit length: 192
IV bit length:            128
Plaintext bit length:     136
Symmetric key:            000000000000000000000000000000000000000000000000
IV:                       00000000000000000000000000020000
Plaintext:                0000000000000000000000000000000000
Ciphertext:               ebc7f36e81c8abece7aacd8e5dbd890545fed40783ff2943422c5b8559311b58f2a547f07a6e2d0348e566a38e1bba551fa59cc2f19c41ceaa
Reciphers for ciphertext: 0
Decipheredtext:           0000000000000000000000000000000000
RESULT CIPHER-DECIPHER: -----OK-----


Test: 111
Hash algorithm: 3
Symmetric key bit length: 192
IV bit length:            128
Plaintext bit length:     136
Symmetric key:            000000000000000000000000000000000000000000000000
IV:                       00000000000000000000000000010000
Plaintext:                0000000000000000000000000000000000
Ciphertext:               a8cc6bba06b7aa9806819d7830c0c95a4e02f8db7a37a47ad03c5d1fd33756d04586b1afd7c55767cf6dd2c564cb6717e718eb2c649ec9d3d3afb947ba8da4ce62
Reciphers for ciphertext: 0
Decipheredtext:           0000000000000000000000000000000000
RESULT CIPHER-DECIPHER: -----OK-----


Test: 112
Hash algorithm: 6
Symmetric key bit length: 192
IV bit length:            128
Plaintext bit length:     136
Symmetric key:            000000000000000000000000000000000000000000000000
IV:                       00000000000000000000000000008000
Plaintext:                0000000000000000000000000000000000
Ciphertext:               6921097106f0f151bf767e897e6bd64b2461c3f33596fe95f8c1c544c924311da291981cd6c872ca595cbcad00df94eade
Reciphers for ciphertext: 0
Decipheredtext:           0000000000000000000000000000000000
RESULT CIPHER-DECIPHER: -----OK-----


Test: 113
Hash algorithm: 5
Symmetric key bit length: 192
IV bit length:            128
Plaintext bit length:     136
Symmetric key:            000000000000000000000000000000000000000000000000
IV:                       00000000000000000000000000004000
Plaintext:                0000000000000000000000000000000000
Ciphertext:               bce445f2d14016520d49faa088c5724ae9d67159a5e7dc6e5c24c4811f328a92113555508740cd8b4a0cf5cdb9
Reciphers for ciphertext: 0
Decipheredtext:           0000000000000000000000000000000000
RESULT CIPHER-DECIPHER: -----OK-----


Test: 114
Hash algorithm: 5
Symmetric key bit length: 192
IV bit length:            128
Plaintext bit length:     136
Symmetric key:            000000000000000000000000000000000000000000000000
IV:                       00000000000000000000000000002000
Plaintext:                0000000000000000000000000000000000
Ciphertext:               1cebadbafac634b929a1d7c1cc5d203285767eb1edcc5a4cb7002cac7e7612c069c5679a15e832adeb84b07d69
Reciphers for ciphertext: 0
Decipheredtext:           0000000000000000000000000000000000
RESULT CIPHER-DECIPHER: -----OK-----


Test: 115
Hash algorithm: 8
Symmetric key bit length: 192
IV bit length:            128
Plaintext bit length:     136
Symmetric key:            000000000000000000000000000000000000000000000000
IV:                       00000000000000000000000000001000
Plaintext:                0000000000000000000000000000000000
Ciphertext:               58461087da47ecd75993f9f64c9af774c74449f2a4612b82bb0735e7d026b562ce60ed1dcb
Reciphers for ciphertext: 0
Decipheredtext:           0000000000000000000000000000000000
RESULT CIPHER-DECIPHER: -----OK-----


Test: 116
Hash algorithm: 11
Symmetric key bit length: 192
IV bit length:            128
Plaintext bit length:     136
Symmetric key:            000000000000000000000000000000000000000000000000
IV:                       00000000000000000000000000000800
Plaintext:                0000000000000000000000000000000000
Ciphertext:               8de6083068111cd9b07b17a58b421028941cfb81b9faf252c98214ee59c9fc5dd6
Reciphers for ciphertext: 0
Decipheredtext:           0000000000000000000000000000000000
RESULT CIPHER-DECIPHER: -----OK-----


Test: 117
Hash algorithm: 4
Symmetric key bit length: 192
IV bit length:            128
Plaintext bit length:     136
Symmetric key:            000000000000000000000000000000000000000000000000
IV:                       00000000000000000000000000000400
Plaintext:                0000000000000000000000000000000000
Ciphertext:               8fd00a5dd8e6f93ebb73d3ae05c26338f692cdd1fba487ba4dfd7d1e5e1d920a8cdf76370012c78b771a3c4f8a9afc98b81649813ad765230d88f16530b6aa8553a8c84f50d35f7151ad0ba34d641adec6
Reciphers for ciphertext: 0
Decipheredtext:           0000000000000000000000000000000000
RESULT CIPHER-DECIPHER: -----OK-----


Test: 118
Hash algorithm: 10
Symmetric key bit length: 192
IV bit length:            128
Plaintext bit length:     136
Symmetric key:            000000000000000000000000000000000000000000000000
IV:                       00000000000000000000000000000200
Plaintext:                0000000000000000000000000000000000
Ciphertext:               7b4dc0232880d9d7edfb4d89a07a20dd346e5e34ce56613179260a055eccdcf12a0b362db50949957a28cd5466373ca351d9619c6d15f980c2
Reciphers for ciphertext: 0
Decipheredtext:           0000000000000000000000000000000000
RESULT CIPHER-DECIPHER: -----OK-----


Test: 119
Hash algorithm: 2
Symmetric key bit length: 192
IV bit length:            128
Plaintext bit length:     136
Symmetric key:            000000000000000000000000000000000000000000000000
IV:                       00000000000000000000000000000100
Plaintext:                0000000000000000000000000000000000
Ciphertext:               4fb7e947a58b192186cce9aaecc9eaa612453ff85ff782458f829fa940f3c2cd3f985d0b5e80621ef75698050f22213782
Reciphers for ciphertext: 0
Decipheredtext:           0000000000000000000000000000000000
RESULT CIPHER-DECIPHER: -----OK-----


Test: 120
Hash algorithm: 12
Symmetric key bit length: 192
IV bit length:            128
Plaintext bit length:     136
Symmetric key:            000000000000000000000000000000000000000000000000
IV:                       00000000000000000000000000000080
Plaintext:                0000000000000000000000000000000000
Ciphertext:               bb8a615964c174450d7e68ad32f4f523dc74bf45a2257d3801a50b2f91a01e6fbd
Reciphers for ciphertext: 0
Decipheredtext:           0000000000000000000000000000000000
RESULT CIPHER-DECIPHER: -----OK-----


Test: 121
Hash algorithm: 1
Symmetric key bit length: 192
IV bit length:            128
Plaintext bit length:     136
Symmetric key:            000000000000000000000000000000000000000000000000
IV:                       00000000000000000000000000000040
Plaintext:                0000000000000000000000000000000000
Ciphertext:               e37cf906ae4c30a4a4e9f6364989cd56920ad2529fb7a79f4ae175005d4bd13254a2ba3f3dd2dcbb3d8ccd349b
Reciphers for ciphertext: 0
Decipheredtext:           0000000000000000000000000000000000
RESULT CIPHER-DECIPHER: -----OK-----


Test: 122
Hash algorithm: 10
Symmetric key bit length: 192
IV bit length:            128
Plaintext bit length:     136
Symmetric key:            000000000000000000000000000000000000000000000000
IV:                       00000000000000000000000000000020
Plaintext:                0000000000000000000000000000000000
Ciphertext:               7b223c8e3fc51b77f4f91a464fd904b6ee6e31c8634124f3d93f085291237fd541b685e97bc57064da025197325195ed14ba70b94d277e4a44
Reciphers for ciphertext: 0
Decipheredtext:           0000000000000000000000000000000000
RESULT CIPHER-DECIPHER: -----OK-----


Test: 123
Hash algorithm: 2
Symmetric key bit length: 192
IV bit length:            128
Plaintext bit length:     136
Symmetric key:            000000000000000000000000000000000000000000000000
IV:                       00000000000000000000000000000010
Plaintext:                0000000000000000000000000000000000
Ciphertext:               02263d1d95636d0d63806875c42a85bb5008ae2c05c76a31a367d3289fdb21a222f1c81ab876ff6e7147d86a47d3023d66
Reciphers for ciphertext: 0
Decipheredtext:           0000000000000000000000000000000000
RESULT CIPHER-DECIPHER: -----OK-----


Test: 124
Hash algorithm: 13
Symmetric key bit length: 192
IV bit length:            128
Plaintext bit length:     136
Symmetric key:            000000000000000000000000000000000000000000000000
IV:                       00000000000000000000000000000008
Plaintext:                0000000000000000000000000000000000
Ciphertext:               9c25b3aacdc23f99982c8dd96c209c313d6fed0e1c741d7816ba567f170de83990
Reciphers for ciphertext: 0
Decipheredtext:           0000000000000000000000000000000000
RESULT CIPHER-DECIPHER: -----OK-----


Test: 125
Hash algorithm: 6
Symmetric key bit length: 192
IV bit length:            128
Plaintext bit length:     136
Symmetric key:            000000000000000000000000000000000000000000000000
IV:                       00000000000000000000000000000004
Plaintext:                0000000000000000000000000000000000
Ciphertext:               f7e9ad85347a957d3b1e4556595971d288ff0b57c1a474f1d445ad7f160303ba3b24a997d84d1dfcac8d9d48b349dbf704
Reciphers for ciphertext: 0
Decipheredtext:           0000000000000000000000000000000000
RESULT CIPHER-DECIPHER: -----OK-----


Test: 126
Hash algorithm: 6
Symmetric key bit length: 192
IV bit length:            128
Plaintext bit length:     136
Symmetric key:            000000000000000000000000000000000000000000000000
IV:                       00000000000000000000000000000002
Plaintext:                0000000000000000000000000000000000
Ciphertext:               bad13d578b19df90632a7f7c927d25d431b233c7131b17bb391d99453cc827ee3d74e201c178be6a06d68933559f68f933
Reciphers for ciphertext: 0
Decipheredtext:           0000000000000000000000000000000000
RESULT CIPHER-DECIPHER: -----OK-----


Test: 127
Hash algorithm: 9
Symmetric key bit length: 192
IV bit length:            128
Plaintext bit length:     136
Symmetric key:            000000000000000000000000000000000000000000000000
IV:                       00000000000000000000000000000001
Plaintext:                0000000000000000000000000000000000
Ciphertext:               79cd7df51ac0dc8296f1f3e8dbf610768b93347f3be956648464b7bf496a8071657c7565b2ed5c0313f48ace79c8f7a25e
Reciphers for ciphertext: 0
Decipheredtext:           0000000000000000000000000000000000
RESULT CIPHER-DECIPHER: -----OK-----


 DATA SHA1 (hexadecimal): 27a0d9c9f67d58cea590a9d7a05cf743430f63b5

