
DiceLock 9.0.0.1

 TEST COMPONENTS:
 ----------------
 DiceLock:           DiceLockIVDigested class
 Operation Mode:     CFB_Mode class
 Block Cipher:       AES256 class
 Hash algorithms:     0 - Sha1 class
                      1 - Sha224 class
                      2 - Sha256 class
                      3 - Sha384 class
                      4 - Sha512 class
                      5 - Sha512_224 class
                      6 - Sha512_256 class
                      7 - Ripemd128 class
                      8 - Ripemd160 class
                      9 - Ripemd256 class
                     10 - Ripemd320 class
                     11 - MD2 class
                     12 - MD4 class
                     13 - MD5 class
 Key Modifier:       DecreaseKeyModifier_6_0_0_1 class
 Random tests:       RandomTestSuite class
                     FrequencyTest class
                     BlockFrequencyTest class
                     CumulativeSumForwardTest class
                     LongestRunOfOnesTest class
                     RunsTest class
 Random alpha:       0.001

 VECTOR TEST: Test vector 1 - Changing IV, shifting 1 bit set


##### INDIVIDUAL TESTS #####

Number tests: 128


Test: 0
Hash algorithm: 9
Symmetric key bit length: 256
IV bit length:            128
Plaintext bit length:     128
Symmetric key:            0000000000000000000000000000000000000000000000000000000000000000
IV:                       80000000000000000000000000000000
Plaintext:                00000000000000000000000000000000
Ciphertext:               ddc6bf790c15760d8d9aeb6f9a75fd4e1b374e3b53565bb03fd4eb3800fe13f2d1d14192c91130156da4af6d456dce89
Reciphers for ciphertext: 0
Decipheredtext:           00000000000000000000000000000000
RESULT CIPHER-DECIPHER: -----OK-----


Test: 1
Hash algorithm: 0
Symmetric key bit length: 256
IV bit length:            128
Plaintext bit length:     128
Symmetric key:            0000000000000000000000000000000000000000000000000000000000000000
IV:                       40000000000000000000000000000000
Plaintext:                00000000000000000000000000000000
Ciphertext:               c7098c217c334d0c9bdf37ea13b0822c26207e5d2d30f1505f94fa1ab2ee9421b130001c
Reciphers for ciphertext: 0
Decipheredtext:           00000000000000000000000000000000
RESULT CIPHER-DECIPHER: -----OK-----


Test: 2
Hash algorithm: 9
Symmetric key bit length: 256
IV bit length:            128
Plaintext bit length:     128
Symmetric key:            0000000000000000000000000000000000000000000000000000000000000000
IV:                       20000000000000000000000000000000
Plaintext:                00000000000000000000000000000000
Ciphertext:               60f0fb0d4c56a8d4eefec5264204042da6010a4f131585695cb0c571d88fea915be123225209fca5c071823248c9dc2f
Reciphers for ciphertext: 0
Decipheredtext:           00000000000000000000000000000000
RESULT CIPHER-DECIPHER: -----OK-----


Test: 3
Hash algorithm: 2
Symmetric key bit length: 256
IV bit length:            128
Plaintext bit length:     128
Symmetric key:            0000000000000000000000000000000000000000000000000000000000000000
IV:                       10000000000000000000000000000000
Plaintext:                00000000000000000000000000000000
Ciphertext:               73376fbbf654d0686e0e84001477106b4470674401254dbdf9904c75c11bc243b01fb520ddcbe07db1aff813ce927093
Reciphers for ciphertext: 0
Decipheredtext:           00000000000000000000000000000000
RESULT CIPHER-DECIPHER: -----OK-----


Test: 4
Hash algorithm: 2
Symmetric key bit length: 256
IV bit length:            128
Plaintext bit length:     128
Symmetric key:            0000000000000000000000000000000000000000000000000000000000000000
IV:                       08000000000000000000000000000000
Plaintext:                00000000000000000000000000000000
Ciphertext:               2f443b52ba5f0c6ea0602c7c4fd259b6180333ad4d2e91bb37fee4099abe8b9e3dd39a85b64d9fb01ab7612a6a70c7ef
Reciphers for ciphertext: 0
Decipheredtext:           00000000000000000000000000000000
RESULT CIPHER-DECIPHER: -----OK-----


Test: 5
Hash algorithm: 0
Symmetric key bit length: 256
IV bit length:            128
Plaintext bit length:     128
Symmetric key:            0000000000000000000000000000000000000000000000000000000000000000
IV:                       04000000000000000000000000000000
Plaintext:                00000000000000000000000000000000
Ciphertext:               75d11b0e3a68c4223d88dbf017977dd794f8e9726b6b787ef9c31600b6c96bda83503cde
Reciphers for ciphertext: 0
Decipheredtext:           00000000000000000000000000000000
RESULT CIPHER-DECIPHER: -----OK-----


Test: 6
Hash algorithm: 4
Symmetric key bit length: 256
IV bit length:            128
Plaintext bit length:     128
Symmetric key:            0000000000000000000000000000000000000000000000000000000000000000
IV:                       02000000000000000000000000000000
Plaintext:                00000000000000000000000000000000
Ciphertext:               779b38d15bffb63d8d609d551a5cc98e7cf78219632051c9f3c12058ea520b0c745a4653c4b26bb2a4144206f0d509331fb1280bc86fab09cbcfd119b30aa61c8b3169a3f854eb9f0179d19e8d63a08b
Reciphers for ciphertext: 0
Decipheredtext:           00000000000000000000000000000000
RESULT CIPHER-DECIPHER: -----OK-----


Test: 7
Hash algorithm: 11
Symmetric key bit length: 256
IV bit length:            128
Plaintext bit length:     128
Symmetric key:            0000000000000000000000000000000000000000000000000000000000000000
IV:                       01000000000000000000000000000000
Plaintext:                00000000000000000000000000000000
Ciphertext:               5275f3d86b4fb8684593133ebfa53cd36c470db472da98a88fdc1db2974a1b55
Reciphers for ciphertext: 0
Decipheredtext:           00000000000000000000000000000000
RESULT CIPHER-DECIPHER: -----OK-----


Test: 8
Hash algorithm: 11
Symmetric key bit length: 256
IV bit length:            128
Plaintext bit length:     128
Symmetric key:            0000000000000000000000000000000000000000000000000000000000000000
IV:                       00800000000000000000000000000000
Plaintext:                00000000000000000000000000000000
Ciphertext:               1cef2074b336cec62f12dea2f6ab148122ddde18aaa3ee06e55dd02ede443307
Reciphers for ciphertext: 0
Decipheredtext:           00000000000000000000000000000000
RESULT CIPHER-DECIPHER: -----OK-----


Test: 9
Hash algorithm: 11
Symmetric key bit length: 256
IV bit length:            128
Plaintext bit length:     128
Symmetric key:            0000000000000000000000000000000000000000000000000000000000000000
IV:                       00400000000000000000000000000000
Plaintext:                00000000000000000000000000000000
Ciphertext:               1aef5abbad9d7160874578dcd8bae17224dda4d7b40851a04d0a7650f055c6f4
Reciphers for ciphertext: 0
Decipheredtext:           00000000000000000000000000000000
RESULT CIPHER-DECIPHER: -----OK-----


Test: 10
Hash algorithm: 7
Symmetric key bit length: 256
IV bit length:            128
Plaintext bit length:     128
Symmetric key:            0000000000000000000000000000000000000000000000000000000000000000
IV:                       00200000000000000000000000000000
Plaintext:                00000000000000000000000000000000
Ciphertext:               46c525db17e72f26bf03216846b6f609320616b26ba612a9860fd04962f17aca
Reciphers for ciphertext: 0
Decipheredtext:           00000000000000000000000000000000
RESULT CIPHER-DECIPHER: -----OK-----


Test: 11
Hash algorithm: 1
Symmetric key bit length: 256
IV bit length:            128
Plaintext bit length:     128
Symmetric key:            0000000000000000000000000000000000000000000000000000000000000000
IV:                       00100000000000000000000000000000
Plaintext:                00000000000000000000000000000000
Ciphertext:               e24411f941bbe08788781e3ec52cbaa413c1acc0dfa08511cafe32de9cceb80550add93b366015574a92bc69
Reciphers for ciphertext: 0
Decipheredtext:           00000000000000000000000000000000
RESULT CIPHER-DECIPHER: -----OK-----


Test: 12
Hash algorithm: 8
Symmetric key bit length: 256
IV bit length:            128
Plaintext bit length:     128
Symmetric key:            0000000000000000000000000000000000000000000000000000000000000000
IV:                       00080000000000000000000000000000
Plaintext:                00000000000000000000000000000000
Ciphertext:               83a3dedd1dd27018f6a6477e4052758171d5d25455a83be822d92bb2e884fc94ad55cccb
Reciphers for ciphertext: 0
Decipheredtext:           00000000000000000000000000000000
RESULT CIPHER-DECIPHER: -----OK-----


Test: 13
Hash algorithm: 3
Symmetric key bit length: 256
IV bit length:            128
Plaintext bit length:     128
Symmetric key:            0000000000000000000000000000000000000000000000000000000000000000
IV:                       00040000000000000000000000000000
Plaintext:                00000000000000000000000000000000
Ciphertext:               b68f8a2cdbab0c923c67fc8f0f1087de18cfefb17ab2304cf4b8bbc45126c6b4c29793bfdcfcfd680866ff436f1f706e3c877dc1c2bd908fa541c2e99a4729ec
Reciphers for ciphertext: 0
Decipheredtext:           00000000000000000000000000000000
RESULT CIPHER-DECIPHER: -----OK-----


Test: 14
Hash algorithm: 13
Symmetric key bit length: 256
IV bit length:            128
Plaintext bit length:     128
Symmetric key:            0000000000000000000000000000000000000000000000000000000000000000
IV:                       00020000000000000000000000000000
Plaintext:                00000000000000000000000000000000
Ciphertext:               649944a70c32bf87a7409e7ae128fde82e7e5791e8794638de92eb54c260e54d
Reciphers for ciphertext: 0
Decipheredtext:           00000000000000000000000000000000
RESULT CIPHER-DECIPHER: -----OK-----


Test: 15
Hash algorithm: 3
Symmetric key bit length: 256
IV bit length:            128
Plaintext bit length:     128
Symmetric key:            0000000000000000000000000000000000000000000000000000000000000000
IV:                       00010000000000000000000000000000
Plaintext:                00000000000000000000000000000000
Ciphertext:               2846526d67387539c89314de9e0c2d02860637f0c62149e7004c5395c03a6c680266ff74df94ae4ad20be4af887021d7abd9dd232b6c3414e8e583a30bd1f9a6
Reciphers for ciphertext: 0
Decipheredtext:           00000000000000000000000000000000
RESULT CIPHER-DECIPHER: -----OK-----


Test: 16
Hash algorithm: 10
Symmetric key bit length: 256
IV bit length:            128
Plaintext bit length:     128
Symmetric key:            0000000000000000000000000000000000000000000000000000000000000000
IV:                       00008000000000000000000000000000
Plaintext:                00000000000000000000000000000000
Ciphertext:               a9a0b8402e53c70dd1688054ba58ddfd68d364fdb822ac863f01db3a3bf1523efa5e9feb2a0ed86b624c1d9a156af19d171c5f64c1616c6c
Reciphers for ciphertext: 0
Decipheredtext:           00000000000000000000000000000000
RESULT CIPHER-DECIPHER: -----OK-----


Test: 17
Hash algorithm: 9
Symmetric key bit length: 256
IV bit length:            128
Plaintext bit length:     128
Symmetric key:            0000000000000000000000000000000000000000000000000000000000000000
IV:                       00004000000000000000000000000000
Plaintext:                00000000000000000000000000000000
Ciphertext:               4a72e6e1b79c83ac4be3eba5699eed488c8317a3e8dfae11f9adebf2f31503f4cdfc4328d1ceb9ed02cfff8aa57486f0
Reciphers for ciphertext: 0
Decipheredtext:           00000000000000000000000000000000
RESULT CIPHER-DECIPHER: -----OK-----


Test: 18
Hash algorithm: 4
Symmetric key bit length: 256
IV bit length:            128
Plaintext bit length:     128
Symmetric key:            0000000000000000000000000000000000000000000000000000000000000000
IV:                       00002000000000000000000000000000
Plaintext:                00000000000000000000000000000000
Ciphertext:               b0e36b867ba4ff2b77d0614b0e364e4cbb8fd14e437b18df0971dc46fe388cce05fb827c866b7b830636ce4283e57f872302c7c2d5155ca69ca15c8bd773f0f8a72ebd8284f825e2ad7c3e61652ada1c
Reciphers for ciphertext: 0
Decipheredtext:           00000000000000000000000000000000
RESULT CIPHER-DECIPHER: -----OK-----


Test: 19
Hash algorithm: 8
Symmetric key bit length: 256
IV bit length:            128
Plaintext bit length:     128
Symmetric key:            0000000000000000000000000000000000000000000000000000000000000000
IV:                       00001000000000000000000000000000
Plaintext:                00000000000000000000000000000000
Ciphertext:               49b57de141f6418e3090f24ddd4014b6bbc37168098c0a7ee4ef9e8175969da3a66a60d1
Reciphers for ciphertext: 0
Decipheredtext:           00000000000000000000000000000000
RESULT CIPHER-DECIPHER: -----OK-----


Test: 20
Hash algorithm: 1
Symmetric key bit length: 256
IV bit length:            128
Plaintext bit length:     128
Symmetric key:            0000000000000000000000000000000000000000000000000000000000000000
IV:                       00000800000000000000000000000000
Plaintext:                00000000000000000000000000000000
Ciphertext:               a6c0d5b9797258e1987ac5f6cd20146d57456880e7693d77dafce91694c216cc9cc221a854dc38e6bf8cb73f
Reciphers for ciphertext: 0
Decipheredtext:           00000000000000000000000000000000
RESULT CIPHER-DECIPHER: -----OK-----


Test: 21
Hash algorithm: 0
Symmetric key bit length: 256
IV bit length:            128
Plaintext bit length:     128
Symmetric key:            0000000000000000000000000000000000000000000000000000000000000000
IV:                       00000400000000000000000000000000
Plaintext:                00000000000000000000000000000000
Ciphertext:               426cf4bdcaa369175965d26e7c71eea2a34506c19ba0d54b9d2e1f9edd2ff8af1f818ebd
Reciphers for ciphertext: 0
Decipheredtext:           00000000000000000000000000000000
RESULT CIPHER-DECIPHER: -----OK-----


Test: 22
Hash algorithm: 11
Symmetric key bit length: 256
IV bit length:            128
Plaintext bit length:     128
Symmetric key:            0000000000000000000000000000000000000000000000000000000000000000
IV:                       00000200000000000000000000000000
Plaintext:                00000000000000000000000000000000
Ciphertext:               e27f484ce54bc99bc1a52bda3b518a26dc4db620fcdee95b0bea255613beada0
Reciphers for ciphertext: 0
Decipheredtext:           00000000000000000000000000000000
RESULT CIPHER-DECIPHER: -----OK-----


Test: 23
Hash algorithm: 0
Symmetric key bit length: 256
IV bit length:            128
Plaintext bit length:     128
Symmetric key:            0000000000000000000000000000000000000000000000000000000000000000
IV:                       00000100000000000000000000000000
Plaintext:                00000000000000000000000000000000
Ciphertext:               d16d186284c7e6ee64b8104e0ef20ba53044ea1ed5c45ab2a0f3ddbeafac1da8b2858fab
Reciphers for ciphertext: 0
Decipheredtext:           00000000000000000000000000000000
RESULT CIPHER-DECIPHER: -----OK-----


Test: 24
Hash algorithm: 5
Symmetric key bit length: 256
IV bit length:            128
Plaintext bit length:     128
Symmetric key:            0000000000000000000000000000000000000000000000000000000000000000
IV:                       00000080000000000000000000000000
Plaintext:                00000000000000000000000000000000
Ciphertext:               6431f8538ad54e1e044a9f71f8ef556b3defbed7372a4e581202297205f53dcf372c06882f7a1be1c3f2e0e0
Reciphers for ciphertext: 0
Decipheredtext:           00000000000000000000000000000000
RESULT CIPHER-DECIPHER: -----OK-----


Test: 25
Hash algorithm: 6
Symmetric key bit length: 256
IV bit length:            128
Plaintext bit length:     128
Symmetric key:            0000000000000000000000000000000000000000000000000000000000000000
IV:                       00000040000000000000000000000000
Plaintext:                00000000000000000000000000000000
Ciphertext:               ecd57ceb451d27eb96c55b2042257e8e08c9ea8bf55a332661e1c42f94c3bbdbda54e447976972546f74e9f12663163d
Reciphers for ciphertext: 0
Decipheredtext:           00000000000000000000000000000000
RESULT CIPHER-DECIPHER: -----OK-----


Test: 26
Hash algorithm: 2
Symmetric key bit length: 256
IV bit length:            128
Plaintext bit length:     128
Symmetric key:            0000000000000000000000000000000000000000000000000000000000000000
IV:                       00000020000000000000000000000000
Plaintext:                00000000000000000000000000000000
Ciphertext:               4f0f188dc911b1954afbc734c9f68872784810723e602c40dd650f411c9a5a5a2fe3d0a69638d6cfbb31efd29a0268a6
Reciphers for ciphertext: 0
Decipheredtext:           00000000000000000000000000000000
RESULT CIPHER-DECIPHER: -----OK-----


Test: 27
Hash algorithm: 12
Symmetric key bit length: 256
IV bit length:            128
Plaintext bit length:     128
Symmetric key:            0000000000000000000000000000000000000000000000000000000000000000
IV:                       00000010000000000000000000000000
Plaintext:                00000000000000000000000000000000
Ciphertext:               b54def0337626b65614e81edfde620f3fd31d05d1c6f011c53004c5361f3369c
Reciphers for ciphertext: 0
Decipheredtext:           00000000000000000000000000000000
RESULT CIPHER-DECIPHER: -----OK-----


Test: 28
Hash algorithm: 7
Symmetric key bit length: 256
IV bit length:            128
Plaintext bit length:     128
Symmetric key:            0000000000000000000000000000000000000000000000000000000000000000
IV:                       00000008000000000000000000000000
Plaintext:                00000000000000000000000000000000
Ciphertext:               6655d8074cae0b90b0d3a3fe72d4d9db1296eb6e30ef361f89df52df56935518
Reciphers for ciphertext: 0
Decipheredtext:           00000000000000000000000000000000
RESULT CIPHER-DECIPHER: -----OK-----


Test: 29
Hash algorithm: 13
Symmetric key bit length: 256
IV bit length:            128
Plaintext bit length:     128
Symmetric key:            0000000000000000000000000000000000000000000000000000000000000000
IV:                       00000004000000000000000000000000
Plaintext:                00000000000000000000000000000000
Ciphertext:               c6b74b6b9eb4fc0c9a237db1b616d09a8c50585d7aff05b3e3f1089f955ec83f
Reciphers for ciphertext: 0
Decipheredtext:           00000000000000000000000000000000
RESULT CIPHER-DECIPHER: -----OK-----


Test: 30
Hash algorithm: 5
Symmetric key bit length: 256
IV bit length:            128
Plaintext bit length:     128
Symmetric key:            0000000000000000000000000000000000000000000000000000000000000000
IV:                       00000002000000000000000000000000
Plaintext:                00000000000000000000000000000000
Ciphertext:               d7b5d076ea56ec2b20791d7ad51ccf8f8e6b96f257a9ec6d3631ab792806a72b79c48147dad3107044527da0
Reciphers for ciphertext: 0
Decipheredtext:           00000000000000000000000000000000
RESULT CIPHER-DECIPHER: -----OK-----


Test: 31
Hash algorithm: 7
Symmetric key bit length: 256
IV bit length:            128
Plaintext bit length:     128
Symmetric key:            0000000000000000000000000000000000000000000000000000000000000000
IV:                       00000001000000000000000000000000
Plaintext:                00000000000000000000000000000000
Ciphertext:               fe160c224bf003ce3bddc90cb52ed22c8ad53f4b37b13e4102d1382d91695eef
Reciphers for ciphertext: 0
Decipheredtext:           00000000000000000000000000000000
RESULT CIPHER-DECIPHER: -----OK-----


Test: 32
Hash algorithm: 2
Symmetric key bit length: 256
IV bit length:            128
Plaintext bit length:     128
Symmetric key:            0000000000000000000000000000000000000000000000000000000000000000
IV:                       00000000800000000000000000000000
Plaintext:                00000000000000000000000000000000
Ciphertext:               5e00da9ba94b5ec0d258d8a8002e0f6a6947d2645e3ac31545c610ddd542dd42be71c883e23e5ae94c74b14790b1331f
Reciphers for ciphertext: 0
Decipheredtext:           00000000000000000000000000000000
RESULT CIPHER-DECIPHER: -----OK-----


Test: 33
Hash algorithm: 2
Symmetric key bit length: 256
IV bit length:            128
Plaintext bit length:     128
Symmetric key:            0000000000000000000000000000000000000000000000000000000000000000
IV:                       00000000400000000000000000000000
Plaintext:                00000000000000000000000000000000
Ciphertext:               09ac6dcff4dacff1651e2ba212a292a33eeb653003ab5224f280e3d7c7ce408bad8ec92672e433d80d80264349c8ba02
Reciphers for ciphertext: 0
Decipheredtext:           00000000000000000000000000000000
RESULT CIPHER-DECIPHER: -----OK-----


Test: 34
Hash algorithm: 5
Symmetric key bit length: 256
IV bit length:            128
Plaintext bit length:     128
Symmetric key:            0000000000000000000000000000000000000000000000000000000000000000
IV:                       00000000200000000000000000000000
Plaintext:                00000000000000000000000000000000
Ciphertext:               b283617e318d99af83a05d9810ba89f7eb5d27fa8c7299e995e8eb9beda0e153a3f7c048da0c3d9a76e26249
Reciphers for ciphertext: 0
Decipheredtext:           00000000000000000000000000000000
RESULT CIPHER-DECIPHER: -----OK-----


Test: 35
Hash algorithm: 8
Symmetric key bit length: 256
IV bit length:            128
Plaintext bit length:     128
Symmetric key:            0000000000000000000000000000000000000000000000000000000000000000
IV:                       00000000100000000000000000000000
Plaintext:                00000000000000000000000000000000
Ciphertext:               0b5f70ccb40b0ef2538ae9b4a9770b35f9297c45fc71450287f5857801a18220b8627c65
Reciphers for ciphertext: 0
Decipheredtext:           00000000000000000000000000000000
RESULT CIPHER-DECIPHER: -----OK-----


Test: 36
Hash algorithm: 3
Symmetric key bit length: 256
IV bit length:            128
Plaintext bit length:     128
Symmetric key:            0000000000000000000000000000000000000000000000000000000000000000
IV:                       00000000080000000000000000000000
Plaintext:                00000000000000000000000000000000
Ciphertext:               43282bf180248fb517839b37f4ddaae4ed684e6c213db36bdf5cdc7caaebeb8ed087d608c4484d4ea0cebe5a5314daabb7a30020df78be5a211184abce3183fe
Reciphers for ciphertext: 0
Decipheredtext:           00000000000000000000000000000000
RESULT CIPHER-DECIPHER: -----OK-----


Test: 37
Hash algorithm: 13
Symmetric key bit length: 256
IV bit length:            128
Plaintext bit length:     128
Symmetric key:            0000000000000000000000000000000000000000000000000000000000000000
IV:                       00000000040000000000000000000000
Plaintext:                00000000000000000000000000000000
Ciphertext:               ddbd534c8b2e6d30a268f88c55ad765b975a407a6f65948fdbba8da276e56efe
Reciphers for ciphertext: 0
Decipheredtext:           00000000000000000000000000000000
RESULT CIPHER-DECIPHER: -----OK-----


Test: 38
Hash algorithm: 6
Symmetric key bit length: 256
IV bit length:            128
Plaintext bit length:     128
Symmetric key:            0000000000000000000000000000000000000000000000000000000000000000
IV:                       00000000020000000000000000000000
Plaintext:                00000000000000000000000000000000
Ciphertext:               a41a164e50ec2d9f175e752b755e0b5c4006802ee0ab3952e07aea24a3b8ce092081374d5fd4c1f011ef81fe10a853d5
Reciphers for ciphertext: 0
Decipheredtext:           00000000000000000000000000000000
RESULT CIPHER-DECIPHER: -----OK-----


Test: 39
Hash algorithm: 9
Symmetric key bit length: 256
IV bit length:            128
Plaintext bit length:     128
Symmetric key:            0000000000000000000000000000000000000000000000000000000000000000
IV:                       00000000010000000000000000000000
Plaintext:                00000000000000000000000000000000
Ciphertext:               37bff99ff2f7aa97779e4adf6f13fb10f14e08ddadb4872ac5d04a88f59815acd4e2ff351d5ec60a07c60799cb71766e
Reciphers for ciphertext: 0
Decipheredtext:           00000000000000000000000000000000
RESULT CIPHER-DECIPHER: -----OK-----


Test: 40
Hash algorithm: 10
Symmetric key bit length: 256
IV bit length:            128
Plaintext bit length:     128
Symmetric key:            0000000000000000000000000000000000000000000000000000000000000000
IV:                       00000000008000000000000000000000
Plaintext:                00000000000000000000000000000000
Ciphertext:               9ba4f7bd298152903a683c4cec6692165ad72b00bff0391bd40167226dcf1dd54a6c5c47f9c1c3470d2dc6a499c5613fe37f971bdf1b3dff
Reciphers for ciphertext: 0
Decipheredtext:           00000000000000000000000000000000
RESULT CIPHER-DECIPHER: -----OK-----


Test: 41
Hash algorithm: 13
Symmetric key bit length: 256
IV bit length:            128
Plaintext bit length:     128
Symmetric key:            0000000000000000000000000000000000000000000000000000000000000000
IV:                       00000000004000000000000000000000
Plaintext:                00000000000000000000000000000000
Ciphertext:               5fb750c7ce10de7b4504248914d0da06155043f12a5b27c43cd651a73798c2a3
Reciphers for ciphertext: 0
Decipheredtext:           00000000000000000000000000000000
RESULT CIPHER-DECIPHER: -----OK-----


Test: 42
Hash algorithm: 0
Symmetric key bit length: 256
IV bit length:            128
Plaintext bit length:     128
Symmetric key:            0000000000000000000000000000000000000000000000000000000000000000
IV:                       00000000002000000000000000000000
Plaintext:                00000000000000000000000000000000
Ciphertext:               3e748bfa108e086f51d56ec74a9e0fb9df5d7986418db433959ea337ebc019b4ae84ac6a
Reciphers for ciphertext: 0
Decipheredtext:           00000000000000000000000000000000
RESULT CIPHER-DECIPHER: -----OK-----


Test: 43
Hash algorithm: 3
Symmetric key bit length: 256
IV bit length:            128
Plaintext bit length:     128
Symmetric key:            0000000000000000000000000000000000000000000000000000000000000000
IV:                       00000000001000000000000000000000
Plaintext:                00000000000000000000000000000000
Ciphertext:               31d4e56b99f5b73c1b8437df332afb989f9480f638ec8be2d35b70946d1cbaf209f39331bcc88a32e100dcd0f678410d698bd29dd04cc5586cfbe99da3a6d5bb
Reciphers for ciphertext: 0
Decipheredtext:           00000000000000000000000000000000
RESULT CIPHER-DECIPHER: -----OK-----


Test: 44
Hash algorithm: 12
Symmetric key bit length: 256
IV bit length:            128
Plaintext bit length:     128
Symmetric key:            0000000000000000000000000000000000000000000000000000000000000000
IV:                       00000000000800000000000000000000
Plaintext:                00000000000000000000000000000000
Ciphertext:               9dc6717b84fc55d266e7b1d9b5c52a5fd5ba4e25aff13fab54a97c6729d03c30
Reciphers for ciphertext: 0
Decipheredtext:           00000000000000000000000000000000
RESULT CIPHER-DECIPHER: -----OK-----


Test: 45
Hash algorithm: 0
Symmetric key bit length: 256
IV bit length:            128
Plaintext bit length:     128
Symmetric key:            0000000000000000000000000000000000000000000000000000000000000000
IV:                       00000000000400000000000000000000
Plaintext:                00000000000000000000000000000000
Ciphertext:               8ef8ba007f23c0a50fc120e07041bccd6fd1487c2e207cf9cb8aed10d11faac07c9ce97c
Reciphers for ciphertext: 0
Decipheredtext:           00000000000000000000000000000000
RESULT CIPHER-DECIPHER: -----OK-----


Test: 46
Hash algorithm: 10
Symmetric key bit length: 256
IV bit length:            128
Plaintext bit length:     128
Symmetric key:            0000000000000000000000000000000000000000000000000000000000000000
IV:                       00000000000200000000000000000000
Plaintext:                00000000000000000000000000000000
Ciphertext:               c58f38e1839fc1918a12b8c9e88c66b604fce45c15eeaa1a647be3a76925e975abc938f3ffa76962c4d3d461bd3dd80056376f63786da7fe
Reciphers for ciphertext: 0
Decipheredtext:           00000000000000000000000000000000
RESULT CIPHER-DECIPHER: -----OK-----


Test: 47
Hash algorithm: 12
Symmetric key bit length: 256
IV bit length:            128
Plaintext bit length:     128
Symmetric key:            0000000000000000000000000000000000000000000000000000000000000000
IV:                       00000000000100000000000000000000
Plaintext:                00000000000000000000000000000000
Ciphertext:               b695d72a3fcf508c4050e12e40061c2dfee9e87414c23af5721e2c90dc130a42
Reciphers for ciphertext: 0
Decipheredtext:           00000000000000000000000000000000
RESULT CIPHER-DECIPHER: -----OK-----


Test: 48
Hash algorithm: 8
Symmetric key bit length: 256
IV bit length:            128
Plaintext bit length:     128
Symmetric key:            0000000000000000000000000000000000000000000000000000000000000000
IV:                       00000000000080000000000000000000
Plaintext:                00000000000000000000000000000000
Ciphertext:               5d2736ad478a50583bc8c11beff16d7aaf513a240ff01ba8efb7add74727e46f7e74a12a
Reciphers for ciphertext: 0
Decipheredtext:           00000000000000000000000000000000
RESULT CIPHER-DECIPHER: -----OK-----


Test: 49
Hash algorithm: 0
Symmetric key bit length: 256
IV bit length:            128
Plaintext bit length:     128
Symmetric key:            0000000000000000000000000000000000000000000000000000000000000000
IV:                       00000000000040000000000000000000
Plaintext:                00000000000000000000000000000000
Ciphertext:               df0eaca8f17847ad41f9578f14c7b56b3e275ed4a07bfbf185b29a7fb599a366cfe4fcc2
Reciphers for ciphertext: 0
Decipheredtext:           00000000000000000000000000000000
RESULT CIPHER-DECIPHER: -----OK-----


Test: 50
Hash algorithm: 11
Symmetric key bit length: 256
IV bit length:            128
Plaintext bit length:     128
Symmetric key:            0000000000000000000000000000000000000000000000000000000000000000
IV:                       00000000000020000000000000000000
Plaintext:                00000000000000000000000000000000
Ciphertext:               e5aa14ad48ad0a3c47cc35d5f8020e51db98eac151382afc8d833b59d0ed29d7
Reciphers for ciphertext: 0
Decipheredtext:           00000000000000000000000000000000
RESULT CIPHER-DECIPHER: -----OK-----


Test: 51
Hash algorithm: 7
Symmetric key bit length: 256
IV bit length:            128
Plaintext bit length:     128
Symmetric key:            0000000000000000000000000000000000000000000000000000000000000000
IV:                       00000000000010000000000000000000
Plaintext:                00000000000000000000000000000000
Ciphertext:               11be6c8f58ebd8cef1a53f591a68e8ce657d5fe624aae541c8a9ce783e2f640d
Reciphers for ciphertext: 0
Decipheredtext:           00000000000000000000000000000000
RESULT CIPHER-DECIPHER: -----OK-----


Test: 52
Hash algorithm: 6
Symmetric key bit length: 256
IV bit length:            128
Plaintext bit length:     128
Symmetric key:            0000000000000000000000000000000000000000000000000000000000000000
IV:                       00000000000008000000000000000000
Plaintext:                00000000000000000000000000000000
Ciphertext:               ecfe7bafcbf42c1fee015488770b305308e2edcf7bb338d21925cb87a1edf50639fd14a77bd751411d53f2bd365de6a1
Reciphers for ciphertext: 0
Decipheredtext:           00000000000000000000000000000000
RESULT CIPHER-DECIPHER: -----OK-----


Test: 53
Hash algorithm: 2
Symmetric key bit length: 256
IV bit length:            128
Plaintext bit length:     128
Symmetric key:            0000000000000000000000000000000000000000000000000000000000000000
IV:                       00000000000004000000000000000000
Plaintext:                00000000000000000000000000000000
Ciphertext:               e552649f8d8ec4a1e1cd6df50b6e6777d2156c607aff59747653a580de02b55f79fbe1c7ecd6ab56a3abfabba2b4b29e
Reciphers for ciphertext: 0
Decipheredtext:           00000000000000000000000000000000
RESULT CIPHER-DECIPHER: -----OK-----


Test: 54
Hash algorithm: 1
Symmetric key bit length: 256
IV bit length:            128
Plaintext bit length:     128
Symmetric key:            0000000000000000000000000000000000000000000000000000000000000000
IV:                       00000000000002000000000000000000
Plaintext:                00000000000000000000000000000000
Ciphertext:               521c0629de93b9119cdb1ddc5809ddeaa399bb104088dc87de5d313c01ebdf4b8bde35021fb62d06555e4eb6
Reciphers for ciphertext: 0
Decipheredtext:           00000000000000000000000000000000
RESULT CIPHER-DECIPHER: -----OK-----


Test: 55
Hash algorithm: 0
Symmetric key bit length: 256
IV bit length:            128
Plaintext bit length:     128
Symmetric key:            0000000000000000000000000000000000000000000000000000000000000000
IV:                       00000000000001000000000000000000
Plaintext:                00000000000000000000000000000000
Ciphertext:               cb38a62a0bab1784156ba038cba99bf62a1154565aa8abd8d1206dc86af78dfb3c4101f4
Reciphers for ciphertext: 0
Decipheredtext:           00000000000000000000000000000000
RESULT CIPHER-DECIPHER: -----OK-----


Test: 56
Hash algorithm: 12
Symmetric key bit length: 256
IV bit length:            128
Plaintext bit length:     128
Symmetric key:            0000000000000000000000000000000000000000000000000000000000000000
IV:                       00000000000000800000000000000000
Plaintext:                00000000000000000000000000000000
Ciphertext:               76ccee8aaacd394de1eef3dda10cb54b3eb0d1d481c05334d3a03e633d19a324
Reciphers for ciphertext: 0
Decipheredtext:           00000000000000000000000000000000
RESULT CIPHER-DECIPHER: -----OK-----


Test: 57
Hash algorithm: 10
Symmetric key bit length: 256
IV bit length:            128
Plaintext bit length:     128
Symmetric key:            0000000000000000000000000000000000000000000000000000000000000000
IV:                       00000000000000400000000000000000
Plaintext:                00000000000000000000000000000000
Ciphertext:               6aff910fa1d5673140e2db59b8416049ab8c4db237a40cbaae8b803739e8ef8a43c20a8d432636ecfedc409760744740914bd825c1b6fd33
Reciphers for ciphertext: 0
Decipheredtext:           00000000000000000000000000000000
RESULT CIPHER-DECIPHER: -----OK-----


Test: 58
Hash algorithm: 10
Symmetric key bit length: 256
IV bit length:            128
Plaintext bit length:     128
Symmetric key:            0000000000000000000000000000000000000000000000000000000000000000
IV:                       00000000000000200000000000000000
Plaintext:                00000000000000000000000000000000
Ciphertext:               064a12c0ef73fb386801bf4f35f3120dc739ce7d790290b38668e421b45a9dcee4454859e10c84214ff91f8e19401e3daaf4d92c42903f55
Reciphers for ciphertext: 0
Decipheredtext:           00000000000000000000000000000000
RESULT CIPHER-DECIPHER: -----OK-----


Test: 59
Hash algorithm: 13
Symmetric key bit length: 256
IV bit length:            128
Plaintext bit length:     128
Symmetric key:            0000000000000000000000000000000000000000000000000000000000000000
IV:                       00000000000000100000000000000000
Plaintext:                00000000000000000000000000000000
Ciphertext:               2240e374929d5b1bb8ff0ffdddf640ec68a7f04276d6a2a4c12d7ad3febe5849
Reciphers for ciphertext: 0
Decipheredtext:           00000000000000000000000000000000
RESULT CIPHER-DECIPHER: -----OK-----


Test: 60
Hash algorithm: 1
Symmetric key bit length: 256
IV bit length:            128
Plaintext bit length:     128
Symmetric key:            0000000000000000000000000000000000000000000000000000000000000000
IV:                       00000000000000080000000000000000
Plaintext:                00000000000000000000000000000000
Ciphertext:               d4ba15c904c7692185de85c02052e180253fa8f09adc0cb7c758a92079b0e321dcef68074fdf815300e2709b
Reciphers for ciphertext: 0
Decipheredtext:           00000000000000000000000000000000
RESULT CIPHER-DECIPHER: -----OK-----


Test: 61
Hash algorithm: 7
Symmetric key bit length: 256
IV bit length:            128
Plaintext bit length:     128
Symmetric key:            0000000000000000000000000000000000000000000000000000000000000000
IV:                       00000000000000040000000000000000
Plaintext:                00000000000000000000000000000000
Ciphertext:               1714a315ab0166728a44cd91d4ae901863d7907cd7405bfdb3483cb0f0e91cdb
Reciphers for ciphertext: 0
Decipheredtext:           00000000000000000000000000000000
RESULT CIPHER-DECIPHER: -----OK-----


Test: 62
Hash algorithm: 1
Symmetric key bit length: 256
IV bit length:            128
Plaintext bit length:     128
Symmetric key:            0000000000000000000000000000000000000000000000000000000000000000
IV:                       00000000000000020000000000000000
Plaintext:                00000000000000000000000000000000
Ciphertext:               6c970bdd9f0e222722ea31a1d12dd0ad9d12b6e4011547b1606c1d4188cfd20c0f15a4e1e00ffb37211618c2
Reciphers for ciphertext: 0
Decipheredtext:           00000000000000000000000000000000
RESULT CIPHER-DECIPHER: -----OK-----


Test: 63
Hash algorithm: 2
Symmetric key bit length: 256
IV bit length:            128
Plaintext bit length:     128
Symmetric key:            0000000000000000000000000000000000000000000000000000000000000000
IV:                       00000000000000010000000000000000
Plaintext:                00000000000000000000000000000000
Ciphertext:               f5956edf02bd36a401bbb6ce77c3d3fbc2d26620f5ccab7196257ebba2af01d30631aa5fe7386c0c8a063e568c2da96a
Reciphers for ciphertext: 0
Decipheredtext:           00000000000000000000000000000000
RESULT CIPHER-DECIPHER: -----OK-----


Test: 64
Hash algorithm: 2
Symmetric key bit length: 256
IV bit length:            128
Plaintext bit length:     128
Symmetric key:            0000000000000000000000000000000000000000000000000000000000000000
IV:                       00000000000000008000000000000000
Plaintext:                00000000000000000000000000000000
Ciphertext:               0ca11f122ccd7c259dc597eed3df9bc43be617eddbbce1f00a5b5f9b06b349ecf902d4da6a580571de1ca4e0838f8849
Reciphers for ciphertext: 0
Decipheredtext:           00000000000000000000000000000000
RESULT CIPHER-DECIPHER: -----OK-----


Test: 65
Hash algorithm: 8
Symmetric key bit length: 256
IV bit length:            128
Plaintext bit length:     128
Symmetric key:            0000000000000000000000000000000000000000000000000000000000000000
IV:                       00000000000000004000000000000000
Plaintext:                00000000000000000000000000000000
Ciphertext:               50109ab4912ad2560b206f331b62eb6ca266963dd95099a6df5f03ffb3b46279c739f746
Reciphers for ciphertext: 0
Decipheredtext:           00000000000000000000000000000000
RESULT CIPHER-DECIPHER: -----OK-----


Test: 66
Hash algorithm: 6
Symmetric key bit length: 256
IV bit length:            128
Plaintext bit length:     128
Symmetric key:            0000000000000000000000000000000000000000000000000000000000000000
IV:                       00000000000000002000000000000000
Plaintext:                00000000000000000000000000000000
Ciphertext:               dbe7c91a4175614889a2d4befd64845e3ffb5f7af13275857e864bb12b82410b29dc5e5d0984b359b0fba0738c4810ac
Reciphers for ciphertext: 0
Decipheredtext:           00000000000000000000000000000000
RESULT CIPHER-DECIPHER: -----OK-----


Test: 67
Hash algorithm: 11
Symmetric key bit length: 256
IV bit length:            128
Plaintext bit length:     128
Symmetric key:            0000000000000000000000000000000000000000000000000000000000000000
IV:                       00000000000000001000000000000000
Plaintext:                00000000000000000000000000000000
Ciphertext:               0d3322853a571a6b46b79c0228e0dd253301dce923c23aab8cf8928e000ffaa3
Reciphers for ciphertext: 0
Decipheredtext:           00000000000000000000000000000000
RESULT CIPHER-DECIPHER: -----OK-----


Test: 68
Hash algorithm: 8
Symmetric key bit length: 256
IV bit length:            128
Plaintext bit length:     128
Symmetric key:            0000000000000000000000000000000000000000000000000000000000000000
IV:                       00000000000000000800000000000000
Plaintext:                00000000000000000000000000000000
Ciphertext:               96e4ee0bb9a11c6fb8522f285baddeb66492e282f1db579f6c2d43e4f37b57a39e162ca6
Reciphers for ciphertext: 0
Decipheredtext:           00000000000000000000000000000000
RESULT CIPHER-DECIPHER: -----OK-----


Test: 69
Hash algorithm: 4
Symmetric key bit length: 256
IV bit length:            128
Plaintext bit length:     128
Symmetric key:            0000000000000000000000000000000000000000000000000000000000000000
IV:                       00000000000000000400000000000000
Plaintext:                00000000000000000000000000000000
Ciphertext:               96705c52d2cfce82e630c93477c79c499d1ce69aea1029769891743987c95ecbb67d07e31a562b67dc2537169dd1dab43c404a07738cf53e69e76eb8ef3af282e01af6531b8c22a2f66d9e0445bf6b27
Reciphers for ciphertext: 0
Decipheredtext:           00000000000000000000000000000000
RESULT CIPHER-DECIPHER: -----OK-----


Test: 70
Hash algorithm: 10
Symmetric key bit length: 256
IV bit length:            128
Plaintext bit length:     128
Symmetric key:            0000000000000000000000000000000000000000000000000000000000000000
IV:                       00000000000000000200000000000000
Plaintext:                00000000000000000000000000000000
Ciphertext:               c50130aed6a126149d71f3888c83c2320472ec1340d04d9f7318a8e60d2a4df1e29be6b17085d7e3322ae6c54f2991c88728540aca5dfd69
Reciphers for ciphertext: 0
Decipheredtext:           00000000000000000000000000000000
RESULT CIPHER-DECIPHER: -----OK-----


Test: 71
Hash algorithm: 1
Symmetric key bit length: 256
IV bit length:            128
Plaintext bit length:     128
Symmetric key:            0000000000000000000000000000000000000000000000000000000000000000
IV:                       00000000000000000100000000000000
Plaintext:                00000000000000000000000000000000
Ciphertext:               4816efe3deb380566eba0c17bf582090b99352da40a8e5c02c3c20f7e6ba22319dd3c20209f29ee567f05660
Reciphers for ciphertext: 0
Decipheredtext:           00000000000000000000000000000000
RESULT CIPHER-DECIPHER: -----OK-----


Test: 72
Hash algorithm: 8
Symmetric key bit length: 256
IV bit length:            128
Plaintext bit length:     128
Symmetric key:            0000000000000000000000000000000000000000000000000000000000000000
IV:                       00000000000000000080000000000000
Plaintext:                00000000000000000000000000000000
Ciphertext:               0390857b4c8c98e4cf7a2b6f3394c507f1e689f204f6d3141b0547a39b424c1237c1cd9a
Reciphers for ciphertext: 0
Decipheredtext:           00000000000000000000000000000000
RESULT CIPHER-DECIPHER: -----OK-----


Test: 73
Hash algorithm: 0
Symmetric key bit length: 256
IV bit length:            128
Plaintext bit length:     128
Symmetric key:            0000000000000000000000000000000000000000000000000000000000000000
IV:                       00000000000000000040000000000000
Plaintext:                00000000000000000000000000000000
Ciphertext:               422e73a02025ebe8b8b5d6e0fa24fcb2a30781dc712657b47cfe1b105b7aeabf84f59fa0
Reciphers for ciphertext: 0
Decipheredtext:           00000000000000000000000000000000
RESULT CIPHER-DECIPHER: -----OK-----


Test: 74
Hash algorithm: 10
Symmetric key bit length: 256
IV bit length:            128
Plaintext bit length:     128
Symmetric key:            0000000000000000000000000000000000000000000000000000000000000000
IV:                       00000000000000000020000000000000
Plaintext:                00000000000000000000000000000000
Ciphertext:               3271aa7f4bf1d7c38050a43076d4ff76f30276c2dd80bc486e39ff5ef77d70b58dcc0953814ce47a48a7f20ebe0bde78fef18d73ab74ab14
Reciphers for ciphertext: 0
Decipheredtext:           00000000000000000000000000000000
RESULT CIPHER-DECIPHER: -----OK-----


Test: 75
Hash algorithm: 4
Symmetric key bit length: 256
IV bit length:            128
Plaintext bit length:     128
Symmetric key:            0000000000000000000000000000000000000000000000000000000000000000
IV:                       00000000000000000010000000000000
Plaintext:                00000000000000000000000000000000
Ciphertext:               d2074946f0d37b8975607bfc2e70234cd96bf38ec80c9c7d0bc1c6f1de7ee1cec428ea1aeccc1143b4f0f542c22249473ee6c4efcefb7de669f453f12706691a646a0c6bb52ee12547a4e8fb3ed39915
Reciphers for ciphertext: 0
Decipheredtext:           00000000000000000000000000000000
RESULT CIPHER-DECIPHER: -----OK-----


Test: 76
Hash algorithm: 3
Symmetric key bit length: 256
IV bit length:            128
Plaintext bit length:     128
Symmetric key:            0000000000000000000000000000000000000000000000000000000000000000
IV:                       00000000000000000008000000000000
Plaintext:                00000000000000000000000000000000
Ciphertext:               1a509194c1270ab92e5a42d3a9f8d98bb410f409603e3667e6850598f7ce98e1d7b8cba68db9a45e6c3540c76cefe583ffb2462268ca66c35afab3a80a546d0f
Reciphers for ciphertext: 0
Decipheredtext:           00000000000000000000000000000000
RESULT CIPHER-DECIPHER: -----OK-----


Test: 77
Hash algorithm: 10
Symmetric key bit length: 256
IV bit length:            128
Plaintext bit length:     128
Symmetric key:            0000000000000000000000000000000000000000000000000000000000000000
IV:                       00000000000000000004000000000000
Plaintext:                00000000000000000000000000000000
Ciphertext:               512438946360ccc4a5c6d73f6eed71309057e429f511a74f4baf8c51ef44fef3b47d972d6ee7984b473e66fb6c14a3b35b7d863a60a0a84b
Reciphers for ciphertext: 0
Decipheredtext:           00000000000000000000000000000000
RESULT CIPHER-DECIPHER: -----OK-----


Test: 78
Hash algorithm: 5
Symmetric key bit length: 256
IV bit length:            128
Plaintext bit length:     128
Symmetric key:            0000000000000000000000000000000000000000000000000000000000000000
IV:                       00000000000000000002000000000000
Plaintext:                00000000000000000000000000000000
Ciphertext:               98cfcdec46ebea1a286b3004f2746a0dc1118b68fb14ea5c3e2386070f6e02a9e936afaf225ae677a40cf1fb
Reciphers for ciphertext: 0
Decipheredtext:           00000000000000000000000000000000
RESULT CIPHER-DECIPHER: -----OK-----


Test: 79
Hash algorithm: 7
Symmetric key bit length: 256
IV bit length:            128
Plaintext bit length:     128
Symmetric key:            0000000000000000000000000000000000000000000000000000000000000000
IV:                       00000000000000000001000000000000
Plaintext:                00000000000000000000000000000000
Ciphertext:               a1cf369949677a3af3d58e3eabf2741bd50c05f0352647b5cad97f1f8fb5f8d8
Reciphers for ciphertext: 0
Decipheredtext:           00000000000000000000000000000000
RESULT CIPHER-DECIPHER: -----OK-----


Test: 80
Hash algorithm: 1
Symmetric key bit length: 256
IV bit length:            128
Plaintext bit length:     128
Symmetric key:            0000000000000000000000000000000000000000000000000000000000000000
IV:                       00000000000000000000800000000000
Plaintext:                00000000000000000000000000000000
Ciphertext:               d84c2e1a0e4a52166fa8ff6889d1e5e229c99323905137802d2ed388d033e743a980e04944934c1f4d5d014b
Reciphers for ciphertext: 0
Decipheredtext:           00000000000000000000000000000000
RESULT CIPHER-DECIPHER: -----OK-----


Test: 81
Hash algorithm: 5
Symmetric key bit length: 256
IV bit length:            128
Plaintext bit length:     128
Symmetric key:            0000000000000000000000000000000000000000000000000000000000000000
IV:                       00000000000000000000400000000000
Plaintext:                00000000000000000000000000000000
Ciphertext:               4ad91cceef60119b5078fd162d2735de13075a4a529f11dd46304b15d03d5d7a2c2aecb7e4099ada7e1f372d
Reciphers for ciphertext: 0
Decipheredtext:           00000000000000000000000000000000
RESULT CIPHER-DECIPHER: -----OK-----


Test: 82
Hash algorithm: 7
Symmetric key bit length: 256
IV bit length:            128
Plaintext bit length:     128
Symmetric key:            0000000000000000000000000000000000000000000000000000000000000000
IV:                       00000000000000000000200000000000
Plaintext:                00000000000000000000000000000000
Ciphertext:               2860793d818e97aaff1d339d7702438d5ca34a54fdcfaa25c611c2bc5345cf4e
Reciphers for ciphertext: 0
Decipheredtext:           00000000000000000000000000000000
RESULT CIPHER-DECIPHER: -----OK-----


Test: 83
Hash algorithm: 0
Symmetric key bit length: 256
IV bit length:            128
Plaintext bit length:     128
Symmetric key:            0000000000000000000000000000000000000000000000000000000000000000
IV:                       00000000000000000000100000000000
Plaintext:                00000000000000000000000000000000
Ciphertext:               6f9068be73364ae250d89d78a6c9ce6f8eb99ac22235f6be949350880797d8622f505307
Reciphers for ciphertext: 0
Decipheredtext:           00000000000000000000000000000000
RESULT CIPHER-DECIPHER: -----OK-----


Test: 84
Hash algorithm: 4
Symmetric key bit length: 256
IV bit length:            128
Plaintext bit length:     128
Symmetric key:            0000000000000000000000000000000000000000000000000000000000000000
IV:                       00000000000000000000080000000000
Plaintext:                00000000000000000000000000000000
Ciphertext:               024fc3fef4883feb1a8dd005305fecce09237936cc57d81f642c6d08c0512e4c59d7fbe5b40c44b75183038b4d9e02ff1a36c5dad53d4e13f0ad759ccdca2528a422953fcc8a6df8471cf5658bb6c78a
Reciphers for ciphertext: 0
Decipheredtext:           00000000000000000000000000000000
RESULT CIPHER-DECIPHER: -----OK-----


Test: 85
Hash algorithm: 9
Symmetric key bit length: 256
IV bit length:            128
Plaintext bit length:     128
Symmetric key:            0000000000000000000000000000000000000000000000000000000000000000
IV:                       00000000000000000000040000000000
Plaintext:                00000000000000000000000000000000
Ciphertext:               08a61fe0816d75ea15eb3c9fb9ccded6ce57eea2de2e5857a7a53cc82347306a7cc2a1cbaa072ca62981bba6ae142269
Reciphers for ciphertext: 0
Decipheredtext:           00000000000000000000000000000000
RESULT CIPHER-DECIPHER: -----OK-----


Test: 86
Hash algorithm: 9
Symmetric key bit length: 256
IV bit length:            128
Plaintext bit length:     128
Symmetric key:            0000000000000000000000000000000000000000000000000000000000000000
IV:                       00000000000000000000020000000000
Plaintext:                00000000000000000000000000000000
Ciphertext:               449c86dfa13f260175ce39797686ffa4826d779dfe7c0bbcc780392eec0d1118a349339b94b73a32f76862f53a2b791a
Reciphers for ciphertext: 0
Decipheredtext:           00000000000000000000000000000000
RESULT CIPHER-DECIPHER: -----OK-----


Test: 87
Hash algorithm: 7
Symmetric key bit length: 256
IV bit length:            128
Plaintext bit length:     128
Symmetric key:            0000000000000000000000000000000000000000000000000000000000000000
IV:                       00000000000000000000010000000000
Plaintext:                00000000000000000000000000000000
Ciphertext:               4ffffc29a59858e1133f2bfb1a8a48173b3ccf40d9d9656e2a33dada3ecdc4d4
Reciphers for ciphertext: 0
Decipheredtext:           00000000000000000000000000000000
RESULT CIPHER-DECIPHER: -----OK-----


Test: 88
Hash algorithm: 9
Symmetric key bit length: 256
IV bit length:            128
Plaintext bit length:     128
Symmetric key:            0000000000000000000000000000000000000000000000000000000000000000
IV:                       00000000000000000000008000000000
Plaintext:                00000000000000000000000000000000
Ciphertext:               19425d1f6480b25096561295697dc2b7dfb3ac5d3bc39fed241812c2f3f62c0b96b3e9b9db979966b220132efcf1a0c6
Reciphers for ciphertext: 0
Decipheredtext:           00000000000000000000000000000000
RESULT CIPHER-DECIPHER: -----OK-----


Test: 89
Hash algorithm: 4
Symmetric key bit length: 256
IV bit length:            128
Plaintext bit length:     128
Symmetric key:            0000000000000000000000000000000000000000000000000000000000000000
IV:                       00000000000000000000004000000000
Plaintext:                00000000000000000000000000000000
Ciphertext:               31974727ecdd2c77c3a428fc3a8cb3fc3afbfdefd402cb83bd0595f1ca82717ec9e2c36f96e4e4066440e99f9e298ba57bf1945eb7e1b0d5cc2252ce83f6f5a89215d0bc6028f284739e15a53a7a728a
Reciphers for ciphertext: 0
Decipheredtext:           00000000000000000000000000000000
RESULT CIPHER-DECIPHER: -----OK-----


Test: 90
Hash algorithm: 0
Symmetric key bit length: 256
IV bit length:            128
Plaintext bit length:     128
Symmetric key:            0000000000000000000000000000000000000000000000000000000000000000
IV:                       00000000000000000000002000000000
Plaintext:                00000000000000000000000000000000
Ciphertext:               a57cd704b3c95e744d08df443458f2f544552578e2cae228894312b49506e4f8f33f62b0
Reciphers for ciphertext: 0
Decipheredtext:           00000000000000000000000000000000
RESULT CIPHER-DECIPHER: -----OK-----


Test: 91
Hash algorithm: 3
Symmetric key bit length: 256
IV bit length:            128
Plaintext bit length:     128
Symmetric key:            0000000000000000000000000000000000000000000000000000000000000000
IV:                       00000000000000000000001000000000
Plaintext:                00000000000000000000000000000000
Ciphertext:               486d8c193db1ed73acb17990442fc40be62de9849ca8d1ad646e3edb1a198561dd8894b575dce7548ff336079f2ee8ee1df7f615ef56665578e38149fdd36924
Reciphers for ciphertext: 0
Decipheredtext:           00000000000000000000000000000000
RESULT CIPHER-DECIPHER: -----OK-----


Test: 92
Hash algorithm: 5
Symmetric key bit length: 256
IV bit length:            128
Plaintext bit length:     128
Symmetric key:            0000000000000000000000000000000000000000000000000000000000000000
IV:                       00000000000000000000000800000000
Plaintext:                00000000000000000000000000000000
Ciphertext:               5e4dbf4e83ab3bc055b9fcc7a6b3a7630793f9ca3e543b8643f14ac45ba9cfc7100af3450b9880e795ccd8da
Reciphers for ciphertext: 0
Decipheredtext:           00000000000000000000000000000000
RESULT CIPHER-DECIPHER: -----OK-----


Test: 93
Hash algorithm: 7
Symmetric key bit length: 256
IV bit length:            128
Plaintext bit length:     128
Symmetric key:            0000000000000000000000000000000000000000000000000000000000000000
IV:                       00000000000000000000000400000000
Plaintext:                00000000000000000000000000000000
Ciphertext:               acf2e0a693fbbcba4d41b861e0d89e37d831d3cfefba8135744d4940c49f12f4
Reciphers for ciphertext: 0
Decipheredtext:           00000000000000000000000000000000
RESULT CIPHER-DECIPHER: -----OK-----


Test: 94
Hash algorithm: 12
Symmetric key bit length: 256
IV bit length:            128
Plaintext bit length:     128
Symmetric key:            0000000000000000000000000000000000000000000000000000000000000000
IV:                       00000000000000000000000200000000
Plaintext:                00000000000000000000000000000000
Ciphertext:               32a7cb2ae066a51d2b78fc4b4cfcb6087adbf474cb6bcf64193631f5d0e9a067
Reciphers for ciphertext: 0
Decipheredtext:           00000000000000000000000000000000
RESULT CIPHER-DECIPHER: -----OK-----


Test: 95
Hash algorithm: 3
Symmetric key bit length: 256
IV bit length:            128
Plaintext bit length:     128
Symmetric key:            0000000000000000000000000000000000000000000000000000000000000000
IV:                       00000000000000000000000100000000
Plaintext:                00000000000000000000000000000000
Ciphertext:               677d494dbb73caf55c1990158da12f14c93d2cd01a6af62b94c6d75ed3976e7e0d91abf8a1b0a119c18b6af71087045c8b6408e18a3a26d886ae2373bc52367e
Reciphers for ciphertext: 0
Decipheredtext:           00000000000000000000000000000000
RESULT CIPHER-DECIPHER: -----OK-----


Test: 96
Hash algorithm: 13
Symmetric key bit length: 256
IV bit length:            128
Plaintext bit length:     128
Symmetric key:            0000000000000000000000000000000000000000000000000000000000000000
IV:                       00000000000000000000000080000000
Plaintext:                00000000000000000000000000000000
Ciphertext:               082a0d2367512adf0d75a151bfbe0a1742cd1e15831ad36074a7d47f9cf612b2
Reciphers for ciphertext: 0
Decipheredtext:           00000000000000000000000000000000
RESULT CIPHER-DECIPHER: -----OK-----


Test: 97
Hash algorithm: 8
Symmetric key bit length: 256
IV bit length:            128
Plaintext bit length:     128
Symmetric key:            0000000000000000000000000000000000000000000000000000000000000000
IV:                       00000000000000000000000040000000
Plaintext:                00000000000000000000000000000000
Ciphertext:               5e5bb7337923c482ce8cba249e6a8c7dac2dbbba31598f721af3d6e836bc0568f59748b6
Reciphers for ciphertext: 0
Decipheredtext:           00000000000000000000000000000000
RESULT CIPHER-DECIPHER: -----OK-----


Test: 98
Hash algorithm: 1
Symmetric key bit length: 256
IV bit length:            128
Plaintext bit length:     128
Symmetric key:            0000000000000000000000000000000000000000000000000000000000000000
IV:                       00000000000000000000000020000000
Plaintext:                00000000000000000000000000000000
Ciphertext:               d3001ba7c7026ee3e5003179530afcfc2285a69e59190b75a7861d990ae8fe5d43defa05363e4f411798a8ca
Reciphers for ciphertext: 0
Decipheredtext:           00000000000000000000000000000000
RESULT CIPHER-DECIPHER: -----OK-----


Test: 99
Hash algorithm: 8
Symmetric key bit length: 256
IV bit length:            128
Plaintext bit length:     128
Symmetric key:            0000000000000000000000000000000000000000000000000000000000000000
IV:                       00000000000000000000000010000000
Plaintext:                00000000000000000000000000000000
Ciphertext:               46ec44f8931e629fe8fd8961312edde1b49a4871db64296f3c82e5ad99f854f4bd3f8344
Reciphers for ciphertext: 0
Decipheredtext:           00000000000000000000000000000000
RESULT CIPHER-DECIPHER: -----OK-----


Test: 100
Hash algorithm: 7
Symmetric key bit length: 256
IV bit length:            128
Plaintext bit length:     128
Symmetric key:            0000000000000000000000000000000000000000000000000000000000000000
IV:                       00000000000000000000000008000000
Plaintext:                00000000000000000000000000000000
Ciphertext:               c5f8ecd79c7b30e81d17e32079969310b13bdfbee03a0d67241b12015dd11fd3
Reciphers for ciphertext: 0
Decipheredtext:           00000000000000000000000000000000
RESULT CIPHER-DECIPHER: -----OK-----


Test: 101
Hash algorithm: 12
Symmetric key bit length: 256
IV bit length:            128
Plaintext bit length:     128
Symmetric key:            0000000000000000000000000000000000000000000000000000000000000000
IV:                       00000000000000000000000004000000
Plaintext:                00000000000000000000000000000000
Ciphertext:               5b8ad6919e24caebcc55401aee0c980213f6e9cfb529a092fe1b8da472198e6d
Reciphers for ciphertext: 0
Decipheredtext:           00000000000000000000000000000000
RESULT CIPHER-DECIPHER: -----OK-----


Test: 102
Hash algorithm: 4
Symmetric key bit length: 256
IV bit length:            128
Plaintext bit length:     128
Symmetric key:            0000000000000000000000000000000000000000000000000000000000000000
IV:                       00000000000000000000000002000000
Plaintext:                00000000000000000000000000000000
Ciphertext:               c2302b7e701b5cc7f8b29e3516dbbfa6c95c91b648c4bb3386132338e6d57d24bc26a85a0765a0c2b1532a88a95d97e6da91ed24a2cd64bb5be76f0db09f462dcd369d42c1aab35cc1d2eb667fd530d5
Reciphers for ciphertext: 0
Decipheredtext:           00000000000000000000000000000000
RESULT CIPHER-DECIPHER: -----OK-----


Test: 103
Hash algorithm: 3
Symmetric key bit length: 256
IV bit length:            128
Plaintext bit length:     128
Symmetric key:            0000000000000000000000000000000000000000000000000000000000000000
IV:                       00000000000000000000000001000000
Plaintext:                00000000000000000000000000000000
Ciphertext:               a1d04d6a76f9f7a94d49faa64a87f2440f9028f7d7e0cb778596bded14b1b32e7b94206c7dba57131cb6a36b507633152dd3627b3fbee1c7dfffc41bd1dd7e55
Reciphers for ciphertext: 0
Decipheredtext:           00000000000000000000000000000000
RESULT CIPHER-DECIPHER: -----OK-----


Test: 104
Hash algorithm: 11
Symmetric key bit length: 256
IV bit length:            128
Plaintext bit length:     128
Symmetric key:            0000000000000000000000000000000000000000000000000000000000000000
IV:                       00000000000000000000000000800000
Plaintext:                00000000000000000000000000000000
Ciphertext:               7fb6f92d35b5cb6c631600edb9e860ba418407412c20ebaca9590e619107473c
Reciphers for ciphertext: 0
Decipheredtext:           00000000000000000000000000000000
RESULT CIPHER-DECIPHER: -----OK-----


Test: 105
Hash algorithm: 0
Symmetric key bit length: 256
IV bit length:            128
Plaintext bit length:     128
Symmetric key:            0000000000000000000000000000000000000000000000000000000000000000
IV:                       00000000000000000000000000400000
Plaintext:                00000000000000000000000000000000
Ciphertext:               b2ef7078bcface07aeec3f9b48830eb353c68204edf9725b6aa7f26be9dd18be99af1327
Reciphers for ciphertext: 0
Decipheredtext:           00000000000000000000000000000000
RESULT CIPHER-DECIPHER: -----OK-----


Test: 106
Hash algorithm: 13
Symmetric key bit length: 256
IV bit length:            128
Plaintext bit length:     128
Symmetric key:            0000000000000000000000000000000000000000000000000000000000000000
IV:                       00000000000000000000000000200000
Plaintext:                00000000000000000000000000000000
Ciphertext:               f475a7493d24c7036e53390374c378b3be92b47fd96f3ebc17814c2d578b6016
Reciphers for ciphertext: 0
Decipheredtext:           00000000000000000000000000000000
RESULT CIPHER-DECIPHER: -----OK-----


Test: 107
Hash algorithm: 10
Symmetric key bit length: 256
IV bit length:            128
Plaintext bit length:     128
Symmetric key:            0000000000000000000000000000000000000000000000000000000000000000
IV:                       00000000000000000000000000100000
Plaintext:                00000000000000000000000000000000
Ciphertext:               b36802ac987377a37bd8eadc97c57d60721bde110e021c2895b1b1b2166cf2a3c165c3d7918917163753bb313f73035516bee6e84ecf58a8
Reciphers for ciphertext: 0
Decipheredtext:           00000000000000000000000000000000
RESULT CIPHER-DECIPHER: -----OK-----


Test: 108
Hash algorithm: 4
Symmetric key bit length: 256
IV bit length:            128
Plaintext bit length:     128
Symmetric key:            0000000000000000000000000000000000000000000000000000000000000000
IV:                       00000000000000000000000000080000
Plaintext:                00000000000000000000000000000000
Ciphertext:               addcd3d19689c4ddc738ce5f69dc9505a6b06919ae562329b999735299d25787bc1a9d04f4fe9c24d204fa827a1b7e9a085840fdd39892cfe871068d6e9ffb8a8a6949f7d6ff436503e7381e28a8ae40
Reciphers for ciphertext: 0
Decipheredtext:           00000000000000000000000000000000
RESULT CIPHER-DECIPHER: -----OK-----


Test: 109
Hash algorithm: 13
Symmetric key bit length: 256
IV bit length:            128
Plaintext bit length:     128
Symmetric key:            0000000000000000000000000000000000000000000000000000000000000000
IV:                       00000000000000000000000000040000
Plaintext:                00000000000000000000000000000000
Ciphertext:               0daf8ca22884915403c0f0bb1f4bd74f47489f94cccf68eb7a1285953c03cfea
Reciphers for ciphertext: 0
Decipheredtext:           00000000000000000000000000000000
RESULT CIPHER-DECIPHER: -----OK-----


Test: 110
Hash algorithm: 5
Symmetric key bit length: 256
IV bit length:            128
Plaintext bit length:     128
Symmetric key:            0000000000000000000000000000000000000000000000000000000000000000
IV:                       00000000000000000000000000020000
Plaintext:                00000000000000000000000000000000
Ciphertext:               4af36bae2660503b3248e4685059fd05132d2d2a9b9f507d2400526bad4395a1fdc27b87854bdbd3b7e85f23
Reciphers for ciphertext: 0
Decipheredtext:           00000000000000000000000000000000
RESULT CIPHER-DECIPHER: -----OK-----


Test: 111
Hash algorithm: 9
Symmetric key bit length: 256
IV bit length:            128
Plaintext bit length:     128
Symmetric key:            0000000000000000000000000000000000000000000000000000000000000000
IV:                       00000000000000000000000000010000
Plaintext:                00000000000000000000000000000000
Ciphertext:               7d5631814dd8e917d97a0d514c743971bba7c0c3129bc4aa6b340d06d6ffd7cd97e3a26763498520773a1a80a7104dac
Reciphers for ciphertext: 0
Decipheredtext:           00000000000000000000000000000000
RESULT CIPHER-DECIPHER: -----OK-----


Test: 112
Hash algorithm: 7
Symmetric key bit length: 256
IV bit length:            128
Plaintext bit length:     128
Symmetric key:            0000000000000000000000000000000000000000000000000000000000000000
IV:                       00000000000000000000000000008000
Plaintext:                00000000000000000000000000000000
Ciphertext:               bc3352500fc0cbb9db5b5f6b491c1be8c8f061397381f636e257ae4a6d5b972b
Reciphers for ciphertext: 0
Decipheredtext:           00000000000000000000000000000000
RESULT CIPHER-DECIPHER: -----OK-----


Test: 113
Hash algorithm: 12
Symmetric key bit length: 256
IV bit length:            128
Plaintext bit length:     128
Symmetric key:            0000000000000000000000000000000000000000000000000000000000000000
IV:                       00000000000000000000000000004000
Plaintext:                00000000000000000000000000000000
Ciphertext:               6a4a30ba87e87af65c90aeb7afedc76b22360fe4ace5108f6ede630933f8d104
Reciphers for ciphertext: 0
Decipheredtext:           00000000000000000000000000000000
RESULT CIPHER-DECIPHER: -----OK-----


Test: 114
Hash algorithm: 10
Symmetric key bit length: 256
IV bit length:            128
Plaintext bit length:     128
Symmetric key:            0000000000000000000000000000000000000000000000000000000000000000
IV:                       00000000000000000000000000002000
Plaintext:                00000000000000000000000000000000
Ciphertext:               77e6125897668ac8e73e8c79a6ff8336b695cee50117e1430957d71727560cf515cfa401978f5c69477e7a2b835af1e38af0abd5088e1c4c
Reciphers for ciphertext: 0
Decipheredtext:           00000000000000000000000000000000
RESULT CIPHER-DECIPHER: -----OK-----


Test: 115
Hash algorithm: 13
Symmetric key bit length: 256
IV bit length:            128
Plaintext bit length:     128
Symmetric key:            0000000000000000000000000000000000000000000000000000000000000000
IV:                       00000000000000000000000000001000
Plaintext:                00000000000000000000000000000000
Ciphertext:               3fa9d39104ebb323c7aaaa248960dd1e754ec0a7e0a04a9cbe78df0aaa28c5bb
Reciphers for ciphertext: 0
Decipheredtext:           00000000000000000000000000000000
RESULT CIPHER-DECIPHER: -----OK-----


Test: 116
Hash algorithm: 1
Symmetric key bit length: 256
IV bit length:            128
Plaintext bit length:     128
Symmetric key:            0000000000000000000000000000000000000000000000000000000000000000
IV:                       00000000000000000000000000000800
Plaintext:                00000000000000000000000000000000
Ciphertext:               fad75ad76ab10adc49036b250e229d390b52e7eef4aa6f4a0b8547c557c09f9832cfe90cc58ef46fb7b45616
Reciphers for ciphertext: 0
Decipheredtext:           00000000000000000000000000000000
RESULT CIPHER-DECIPHER: -----OK-----


Test: 117
Hash algorithm: 13
Symmetric key bit length: 256
IV bit length:            128
Plaintext bit length:     128
Symmetric key:            0000000000000000000000000000000000000000000000000000000000000000
IV:                       00000000000000000000000000000400
Plaintext:                00000000000000000000000000000000
Ciphertext:               2facaa5fe35b228a16ac74088d702ec4654bb9690710db356f7e0126ae383661
Reciphers for ciphertext: 0
Decipheredtext:           00000000000000000000000000000000
RESULT CIPHER-DECIPHER: -----OK-----


Test: 118
Hash algorithm: 9
Symmetric key bit length: 256
IV bit length:            128
Plaintext bit length:     128
Symmetric key:            0000000000000000000000000000000000000000000000000000000000000000
IV:                       00000000000000000000000000000200
Plaintext:                00000000000000000000000000000000
Ciphertext:               88b6cbcfdfef8ad91720a1bb69a1f33e4e473a8d80aca764a56ea1ecf32a1d82c08574c2096cf7dc6793e752a22a5719
Reciphers for ciphertext: 0
Decipheredtext:           00000000000000000000000000000000
RESULT CIPHER-DECIPHER: -----OK-----


Test: 119
Hash algorithm: 8
Symmetric key bit length: 256
IV bit length:            128
Plaintext bit length:     128
Symmetric key:            0000000000000000000000000000000000000000000000000000000000000000
IV:                       00000000000000000000000000000100
Plaintext:                00000000000000000000000000000000
Ciphertext:               c7e9d250998632d444356242ef04058d359fded9d1fc7924904a0e8e47d28c98f770bd0f
Reciphers for ciphertext: 0
Decipheredtext:           00000000000000000000000000000000
RESULT CIPHER-DECIPHER: -----OK-----


Test: 120
Hash algorithm: 1
Symmetric key bit length: 256
IV bit length:            128
Plaintext bit length:     128
Symmetric key:            0000000000000000000000000000000000000000000000000000000000000000
IV:                       00000000000000000000000000000080
Plaintext:                00000000000000000000000000000000
Ciphertext:               b14dad8d3d9153f46c0d3a1ad63c7a0540c810b4a38a36622e8b16fa8fde78a4de8e1ed9f419fe0a9d4eb28d
Reciphers for ciphertext: 0
Decipheredtext:           00000000000000000000000000000000
RESULT CIPHER-DECIPHER: -----OK-----


Test: 121
Hash algorithm: 4
Symmetric key bit length: 256
IV bit length:            128
Plaintext bit length:     128
Symmetric key:            0000000000000000000000000000000000000000000000000000000000000000
IV:                       00000000000000000000000000000040
Plaintext:                00000000000000000000000000000000
Ciphertext:               60aba678a506608d0845966d29b5f7906bc71cb09dd9877976e42b60d9bb35123a3266468d556cc927f8c8fc796adc7fe1c574816b458911d86e6d96cd80365785e02eb10d507f2ece779535bd3430f2
Reciphers for ciphertext: 0
Decipheredtext:           00000000000000000000000000000000
RESULT CIPHER-DECIPHER: -----OK-----


Test: 122
Hash algorithm: 13
Symmetric key bit length: 256
IV bit length:            128
Plaintext bit length:     128
Symmetric key:            0000000000000000000000000000000000000000000000000000000000000000
IV:                       00000000000000000000000000000020
Plaintext:                00000000000000000000000000000000
Ciphertext:               482dc43f2388ef25d24144e144bd834e02cad709c7c3169aab9331cf67f59beb
Reciphers for ciphertext: 0
Decipheredtext:           00000000000000000000000000000000
RESULT CIPHER-DECIPHER: -----OK-----


Test: 123
Hash algorithm: 11
Symmetric key bit length: 256
IV bit length:            128
Plaintext bit length:     128
Symmetric key:            0000000000000000000000000000000000000000000000000000000000000000
IV:                       00000000000000000000000000000010
Plaintext:                00000000000000000000000000000000
Ciphertext:               1490a05a7cee43bde98b56e309dc01262aa25e36657b637d23c4586f213326a0
Reciphers for ciphertext: 0
Decipheredtext:           00000000000000000000000000000000
RESULT CIPHER-DECIPHER: -----OK-----


Test: 124
Hash algorithm: 3
Symmetric key bit length: 256
IV bit length:            128
Plaintext bit length:     128
Symmetric key:            0000000000000000000000000000000000000000000000000000000000000000
IV:                       00000000000000000000000000000008
Plaintext:                00000000000000000000000000000000
Ciphertext:               abfa77cd6e85da245fb0bdc5e52cfc2905ba1250cf9ce6fa976ffa8ebb1abd43a2554035edae9c35023272bdedb91b1786a0f18f90727082a8c537323ecee9a2
Reciphers for ciphertext: 0
Decipheredtext:           00000000000000000000000000000000
RESULT CIPHER-DECIPHER: -----OK-----


Test: 125
Hash algorithm: 0
Symmetric key bit length: 256
IV bit length:            128
Plaintext bit length:     128
Symmetric key:            0000000000000000000000000000000000000000000000000000000000000000
IV:                       00000000000000000000000000000004
Plaintext:                00000000000000000000000000000000
Ciphertext:               dd4ab1284d4ae17b41e85924470c36f73c6343541c495d2785a394d4e65220fabb04ae6b
Reciphers for ciphertext: 0
Decipheredtext:           00000000000000000000000000000000
RESULT CIPHER-DECIPHER: -----OK-----


Test: 126
Hash algorithm: 13
Symmetric key bit length: 256
IV bit length:            128
Plaintext bit length:     128
Symmetric key:            0000000000000000000000000000000000000000000000000000000000000000
IV:                       00000000000000000000000000000002
Plaintext:                00000000000000000000000000000000
Ciphertext:               cea7403d4d606b6e074ec5d3baf39d188440530ba92b92d17e9cb0fd99bb85bd
Reciphers for ciphertext: 0
Decipheredtext:           00000000000000000000000000000000
RESULT CIPHER-DECIPHER: -----OK-----


Test: 127
Hash algorithm: 12
Symmetric key bit length: 256
IV bit length:            128
Plaintext bit length:     128
Symmetric key:            0000000000000000000000000000000000000000000000000000000000000000
IV:                       00000000000000000000000000000001
Plaintext:                00000000000000000000000000000000
Ciphertext:               530f8afbc74536b9a963b4f1c4cb738b1b73b5a5ec485cc09b2d794f58de65e4
Reciphers for ciphertext: 0
Decipheredtext:           00000000000000000000000000000000
RESULT CIPHER-DECIPHER: -----OK-----


 DATA SHA1 (hexadecimal): 17f6060dd4f1279adda27fddec5d052f931be4c7

