
DiceLock 9.0.0.1

 TEST COMPONENTS:
 ----------------
 DiceLock:           DiceLockIVDigested class
 Operation Mode:     CFB_Mode class
 Block Cipher:       Twofish256 class
 Hash algorithms:     0 - Sha1 class
                      1 - Sha224 class
                      2 - Sha256 class
                      3 - Sha384 class
                      4 - Sha512 class
                      5 - Sha512_224 class
                      6 - Sha512_256 class
                      7 - Ripemd128 class
                      8 - Ripemd160 class
                      9 - Ripemd256 class
                     10 - Ripemd320 class
                     11 - MD2 class
                     12 - MD4 class
                     13 - MD5 class
 Key Modifier:       DecreaseKeyModifier_6_0_0_1 class
 Random tests:       RandomTestSuite class
                     FrequencyTest class
                     BlockFrequencyTest class
                     CumulativeSumForwardTest class
                     LongestRunOfOnesTest class
                     RunsTest class
 Random alpha:       0.001

 VECTOR TEST: Test vector 1 - Changing IV, shifting 1 bit set


##### INDIVIDUAL TESTS #####

Number tests: 128


Test: 0
Hash algorithm: 7
Symmetric key bit length: 256
IV bit length:            128
Plaintext bit length:     136
Symmetric key:            0000000000000000000000000000000000000000000000000000000000000000
IV:                       80000000000000000000000000000000
Plaintext:                0000000000000000000000000000000000
Ciphertext:               23a385f617f313dac05bcb7eabd618078c4eb23596781f1714101c01d40823b078
Reciphers for ciphertext: 0
Decipheredtext:           0000000000000000000000000000000000
RESULT CIPHER-DECIPHER: -----OK-----


Test: 1
Hash algorithm: 2
Symmetric key bit length: 256
IV bit length:            128
Plaintext bit length:     136
Symmetric key:            0000000000000000000000000000000000000000000000000000000000000000
IV:                       40000000000000000000000000000000
Plaintext:                0000000000000000000000000000000000
Ciphertext:               35be2b4738602a1da3de5c9e7e871923903f363a5f6a6976b3a78d1c74618c3eba02442dcd1553fa5b9f436536de5cf9c7
Reciphers for ciphertext: 0
Decipheredtext:           0000000000000000000000000000000000
RESULT CIPHER-DECIPHER: -----OK-----


Test: 2
Hash algorithm: 4
Symmetric key bit length: 256
IV bit length:            128
Plaintext bit length:     136
Symmetric key:            0000000000000000000000000000000000000000000000000000000000000000
IV:                       20000000000000000000000000000000
Plaintext:                0000000000000000000000000000000000
Ciphertext:               03e8bb7a568e95ba792dce77d5523c2b461ef560dc2aefd6c93f230387cd02559f65cfd62e1d22b507b484ee5963193eda6ce1d9fbeeb7c2a32cf4274a87922e1930149a70338b2fb4caff78fd16168257
Reciphers for ciphertext: 0
Decipheredtext:           0000000000000000000000000000000000
RESULT CIPHER-DECIPHER: -----OK-----


Test: 3
Hash algorithm: 7
Symmetric key bit length: 256
IV bit length:            128
Plaintext bit length:     136
Symmetric key:            0000000000000000000000000000000000000000000000000000000000000000
IV:                       10000000000000000000000000000000
Plaintext:                0000000000000000000000000000000000
Ciphertext:               d3acbe92c482d2e806fd837e41dbb2889bbebd0ef2ab6ed626d6ba49d4e22e1af7
Reciphers for ciphertext: 0
Decipheredtext:           0000000000000000000000000000000000
RESULT CIPHER-DECIPHER: -----OK-----


Test: 4
Hash algorithm: 9
Symmetric key bit length: 256
IV bit length:            128
Plaintext bit length:     136
Symmetric key:            0000000000000000000000000000000000000000000000000000000000000000
IV:                       08000000000000000000000000000000
Plaintext:                0000000000000000000000000000000000
Ciphertext:               dc3b1c37c69b4059eaadf03fcd016eb4bd36c21ef9350df85f18ebbc9e7c770fa714ce8db3ac50384d64141885528a45fb
Reciphers for ciphertext: 0
Decipheredtext:           0000000000000000000000000000000000
RESULT CIPHER-DECIPHER: -----OK-----


Test: 5
Hash algorithm: 9
Symmetric key bit length: 256
IV bit length:            128
Plaintext bit length:     136
Symmetric key:            0000000000000000000000000000000000000000000000000000000000000000
IV:                       04000000000000000000000000000000
Plaintext:                0000000000000000000000000000000000
Ciphertext:               3c9d9bd904e0e6916089a4bac35e536860d6649917f7765e9792cfe81b7228327b010c21eb674c5afa677e5d45ed909eba
Reciphers for ciphertext: 0
Decipheredtext:           0000000000000000000000000000000000
RESULT CIPHER-DECIPHER: -----OK-----


Test: 6
Hash algorithm: 3
Symmetric key bit length: 256
IV bit length:            128
Plaintext bit length:     136
Symmetric key:            0000000000000000000000000000000000000000000000000000000000000000
IV:                       02000000000000000000000000000000
Plaintext:                0000000000000000000000000000000000
Ciphertext:               c47da045701b93a388e76fcbcd349f22336e491085410843ebb23bed60caa2863dd7ed00fd3461afad09cf46c7d3771f0b679aa53e2b01a9a12bb2b7a709012992
Reciphers for ciphertext: 0
Decipheredtext:           0000000000000000000000000000000000
RESULT CIPHER-DECIPHER: -----OK-----


Test: 7
Hash algorithm: 7
Symmetric key bit length: 256
IV bit length:            128
Plaintext bit length:     136
Symmetric key:            0000000000000000000000000000000000000000000000000000000000000000
IV:                       01000000000000000000000000000000
Plaintext:                0000000000000000000000000000000000
Ciphertext:               52f264b196925a345ca5adc57c234b969b3fe3d4d1f97e5efa8ce2676fdfd6e3e9
Reciphers for ciphertext: 0
Decipheredtext:           0000000000000000000000000000000000
RESULT CIPHER-DECIPHER: -----OK-----


Test: 8
Hash algorithm: 1
Symmetric key bit length: 256
IV bit length:            128
Plaintext bit length:     136
Symmetric key:            0000000000000000000000000000000000000000000000000000000000000000
IV:                       00800000000000000000000000000000
Plaintext:                0000000000000000000000000000000000
Ciphertext:               c923754c5ad2e3f842d01705a716be8a9b208dded543394c16074ce16ea54e4188eff9726344be92321cdc4bbe
Reciphers for ciphertext: 0
Decipheredtext:           0000000000000000000000000000000000
RESULT CIPHER-DECIPHER: -----OK-----


Test: 9
Hash algorithm: 1
Symmetric key bit length: 256
IV bit length:            128
Plaintext bit length:     136
Symmetric key:            0000000000000000000000000000000000000000000000000000000000000000
IV:                       00400000000000000000000000000000
Plaintext:                0000000000000000000000000000000000
Ciphertext:               630075c7563cdbacdfeadb781cc9467c638aaede5e4fd774429a762d131e91b97e681d9c05fbf213d6eacc3675
Reciphers for ciphertext: 0
Decipheredtext:           0000000000000000000000000000000000
RESULT CIPHER-DECIPHER: -----OK-----


Test: 10
Hash algorithm: 13
Symmetric key bit length: 256
IV bit length:            128
Plaintext bit length:     136
Symmetric key:            0000000000000000000000000000000000000000000000000000000000000000
IV:                       00200000000000000000000000000000
Plaintext:                0000000000000000000000000000000000
Ciphertext:               cb4f69bcc76a2499c6fcfbbe4ceb8cfbdd3887d40a7eb56316e48609702d23295a
Reciphers for ciphertext: 0
Decipheredtext:           0000000000000000000000000000000000
RESULT CIPHER-DECIPHER: -----OK-----


Test: 11
Hash algorithm: 5
Symmetric key bit length: 256
IV bit length:            128
Plaintext bit length:     136
Symmetric key:            0000000000000000000000000000000000000000000000000000000000000000
IV:                       00100000000000000000000000000000
Plaintext:                0000000000000000000000000000000000
Ciphertext:               0442f15ea2bd6d9eb773f9b99804df56fa6ed7ed09942115909efe8206224b3f0de04c929ce1ee20d5bda9831b
Reciphers for ciphertext: 0
Decipheredtext:           0000000000000000000000000000000000
RESULT CIPHER-DECIPHER: -----OK-----


Test: 12
Hash algorithm: 4
Symmetric key bit length: 256
IV bit length:            128
Plaintext bit length:     136
Symmetric key:            0000000000000000000000000000000000000000000000000000000000000000
IV:                       00080000000000000000000000000000
Plaintext:                0000000000000000000000000000000000
Ciphertext:               9ce6896c15c3cc00e2aa1944d7117b984481fb52ca69a28f73a4a4d4b4cf41122c2a60515fc727c3f8819acbe77ca48ca2b3ef86447be9a463c1400118d34e8a97cc1df4eb70cba2298d114abe5b9d741d
Reciphers for ciphertext: 0
Decipheredtext:           0000000000000000000000000000000000
RESULT CIPHER-DECIPHER: -----OK-----


Test: 13
Hash algorithm: 3
Symmetric key bit length: 256
IV bit length:            128
Plaintext bit length:     136
Symmetric key:            0000000000000000000000000000000000000000000000000000000000000000
IV:                       00040000000000000000000000000000
Plaintext:                0000000000000000000000000000000000
Ciphertext:               e934066740023616b349f45582442647ae4300b6a77111e65e899576fe85d23f58092894513920c409745e4fde3cc0c8a969d317cf66ddae3b29058568faa56964
Reciphers for ciphertext: 0
Decipheredtext:           0000000000000000000000000000000000
RESULT CIPHER-DECIPHER: -----OK-----


Test: 14
Hash algorithm: 6
Symmetric key bit length: 256
IV bit length:            128
Plaintext bit length:     136
Symmetric key:            0000000000000000000000000000000000000000000000000000000000000000
IV:                       00020000000000000000000000000000
Plaintext:                0000000000000000000000000000000000
Ciphertext:               d08ef37a59d94ed645b1d1b160e3e81649d86c093ec9d72a7f3b02ebf13ab923ff75e7dd15699c30249ece9877eaf58d7d
Reciphers for ciphertext: 0
Decipheredtext:           0000000000000000000000000000000000
RESULT CIPHER-DECIPHER: -----OK-----


Test: 15
Hash algorithm: 2
Symmetric key bit length: 256
IV bit length:            128
Plaintext bit length:     136
Symmetric key:            0000000000000000000000000000000000000000000000000000000000000000
IV:                       00010000000000000000000000000000
Plaintext:                0000000000000000000000000000000000
Ciphertext:               e91891cac17fe493c7167c6cb59dcb6954e39080d29376b83dc3453c86aa96ecf0dcb0bec3a6a3ee3c30777b6061faba71
Reciphers for ciphertext: 0
Decipheredtext:           0000000000000000000000000000000000
RESULT CIPHER-DECIPHER: -----OK-----


Test: 16
Hash algorithm: 0
Symmetric key bit length: 256
IV bit length:            128
Plaintext bit length:     136
Symmetric key:            0000000000000000000000000000000000000000000000000000000000000000
IV:                       00008000000000000000000000000000
Plaintext:                0000000000000000000000000000000000
Ciphertext:               b27a42d2c870dc96bc6c551218c44cc40c5f5ea3fae882259612546e6edc36ffd8f3531562
Reciphers for ciphertext: 0
Decipheredtext:           0000000000000000000000000000000000
RESULT CIPHER-DECIPHER: -----OK-----


Test: 17
Hash algorithm: 0
Symmetric key bit length: 256
IV bit length:            128
Plaintext bit length:     136
Symmetric key:            0000000000000000000000000000000000000000000000000000000000000000
IV:                       00004000000000000000000000000000
Plaintext:                0000000000000000000000000000000000
Ciphertext:               ce8d23e64e6bc18208ceeb282e387326d423a9c2ce6e993882a6f6d054eacac03a4a00ab5a
Reciphers for ciphertext: 0
Decipheredtext:           0000000000000000000000000000000000
RESULT CIPHER-DECIPHER: -----OK-----


Test: 18
Hash algorithm: 1
Symmetric key bit length: 256
IV bit length:            128
Plaintext bit length:     136
Symmetric key:            0000000000000000000000000000000000000000000000000000000000000000
IV:                       00002000000000000000000000000000
Plaintext:                0000000000000000000000000000000000
Ciphertext:               36f76678a27f2f5a436073d5ada4ab3b68df59cde1bb9480b406fc85beaffc543938bd86e809a8976ed793a319
Reciphers for ciphertext: 0
Decipheredtext:           0000000000000000000000000000000000
RESULT CIPHER-DECIPHER: -----OK-----


Test: 19
Hash algorithm: 5
Symmetric key bit length: 256
IV bit length:            128
Plaintext bit length:     136
Symmetric key:            0000000000000000000000000000000000000000000000000000000000000000
IV:                       00001000000000000000000000000000
Plaintext:                0000000000000000000000000000000000
Ciphertext:               d0eaa36f9a648905b277f0bd24b1a33952ba7fbf38acf8f10b9bfa8b029efe4362b3cc2e02415e875ff9aae703
Reciphers for ciphertext: 0
Decipheredtext:           0000000000000000000000000000000000
RESULT CIPHER-DECIPHER: -----OK-----


Test: 20
Hash algorithm: 6
Symmetric key bit length: 256
IV bit length:            128
Plaintext bit length:     136
Symmetric key:            0000000000000000000000000000000000000000000000000000000000000000
IV:                       00000800000000000000000000000000
Plaintext:                0000000000000000000000000000000000
Ciphertext:               82be0e3673e7872bf79bbe2a45f4bd93718a5cf472e3e9e3828928846a1fae767a3620ae67e1afb5778f8e0fefe1eea168
Reciphers for ciphertext: 0
Decipheredtext:           0000000000000000000000000000000000
RESULT CIPHER-DECIPHER: -----OK-----


Test: 21
Hash algorithm: 5
Symmetric key bit length: 256
IV bit length:            128
Plaintext bit length:     136
Symmetric key:            0000000000000000000000000000000000000000000000000000000000000000
IV:                       00000400000000000000000000000000
Plaintext:                0000000000000000000000000000000000
Ciphertext:               013cae3986083f8d321273d68ca9784d366ba9b26eb09447831b9f086936e6981633f2986123eea32c79a11a9e
Reciphers for ciphertext: 0
Decipheredtext:           0000000000000000000000000000000000
RESULT CIPHER-DECIPHER: -----OK-----


Test: 22
Hash algorithm: 1
Symmetric key bit length: 256
IV bit length:            128
Plaintext bit length:     136
Symmetric key:            0000000000000000000000000000000000000000000000000000000000000000
IV:                       00000200000000000000000000000000
Plaintext:                0000000000000000000000000000000000
Ciphertext:               0a7fcf71dac023718153ffb761baebefb2e3d164e8c32b8c9fc4cf09dc63e214ed4e2b422552508984e5f4b7fd
Reciphers for ciphertext: 0
Decipheredtext:           0000000000000000000000000000000000
RESULT CIPHER-DECIPHER: -----OK-----


Test: 23
Hash algorithm: 0
Symmetric key bit length: 256
IV bit length:            128
Plaintext bit length:     136
Symmetric key:            0000000000000000000000000000000000000000000000000000000000000000
IV:                       00000100000000000000000000000000
Plaintext:                0000000000000000000000000000000000
Ciphertext:               c784c5ea8ce3897f153336047d2fe3e0ad2aa024c2ac11707fbb0b0d78b9dd50fc3cf36a6f
Reciphers for ciphertext: 0
Decipheredtext:           0000000000000000000000000000000000
RESULT CIPHER-DECIPHER: -----OK-----


Test: 24
Hash algorithm: 1
Symmetric key bit length: 256
IV bit length:            128
Plaintext bit length:     136
Symmetric key:            0000000000000000000000000000000000000000000000000000000000000000
IV:                       00000080000000000000000000000000
Plaintext:                0000000000000000000000000000000000
Ciphertext:               fe776b4476a4f029e5ea9293e3c1bca1d517d9c0dd6f4f5fc7a07664f8e19943a3592012ec9c1a14a1b7ce19a2
Reciphers for ciphertext: 0
Decipheredtext:           0000000000000000000000000000000000
RESULT CIPHER-DECIPHER: -----OK-----


Test: 25
Hash algorithm: 2
Symmetric key bit length: 256
IV bit length:            128
Plaintext bit length:     136
Symmetric key:            0000000000000000000000000000000000000000000000000000000000000000
IV:                       00000040000000000000000000000000
Plaintext:                0000000000000000000000000000000000
Ciphertext:               302a5f9a73b07d83699eb9de1d86db7ba43aa24e8221b9212d6dcdf934028dfce2b8e1e15f068801b9a6aa1d7f8d3f1618
Reciphers for ciphertext: 0
Decipheredtext:           0000000000000000000000000000000000
RESULT CIPHER-DECIPHER: -----OK-----


Test: 26
Hash algorithm: 9
Symmetric key bit length: 256
IV bit length:            128
Plaintext bit length:     136
Symmetric key:            0000000000000000000000000000000000000000000000000000000000000000
IV:                       00000020000000000000000000000000
Plaintext:                0000000000000000000000000000000000
Ciphertext:               e6c43f6f62f1eee0bdb3484f325053b66a0c3d3da1916756e64ff504ee832632a544df3b91224603b42cedacb2ecc19a9a
Reciphers for ciphertext: 0
Decipheredtext:           0000000000000000000000000000000000
RESULT CIPHER-DECIPHER: -----OK-----


Test: 27
Hash algorithm: 10
Symmetric key bit length: 256
IV bit length:            128
Plaintext bit length:     136
Symmetric key:            0000000000000000000000000000000000000000000000000000000000000000
IV:                       00000010000000000000000000000000
Plaintext:                0000000000000000000000000000000000
Ciphertext:               c5579556f710eacfad9319aa85b89f6fe6d04461bb89f102616662517de91e4e984816c6a2e685e0b2ffd21a255f98752a5a21381d5afaed1f
Reciphers for ciphertext: 0
Decipheredtext:           0000000000000000000000000000000000
RESULT CIPHER-DECIPHER: -----OK-----


Test: 28
Hash algorithm: 0
Symmetric key bit length: 256
IV bit length:            128
Plaintext bit length:     136
Symmetric key:            0000000000000000000000000000000000000000000000000000000000000000
IV:                       00000008000000000000000000000000
Plaintext:                0000000000000000000000000000000000
Ciphertext:               96c88e46c1c2ba0b583f30fe0248a794787bec6f6ee130430bf6070b82c6ba14889ac1e0b2
Reciphers for ciphertext: 0
Decipheredtext:           0000000000000000000000000000000000
RESULT CIPHER-DECIPHER: -----OK-----


Test: 29
Hash algorithm: 6
Symmetric key bit length: 256
IV bit length:            128
Plaintext bit length:     136
Symmetric key:            0000000000000000000000000000000000000000000000000000000000000000
IV:                       00000004000000000000000000000000
Plaintext:                0000000000000000000000000000000000
Ciphertext:               287d27fb1ca40821294b1afc868f3a6fc7209fddbf8caa6c8857f820bcdcd5f1868872ca0bff73da1ed1ae08c01f165308
Reciphers for ciphertext: 0
Decipheredtext:           0000000000000000000000000000000000
RESULT CIPHER-DECIPHER: -----OK-----


Test: 30
Hash algorithm: 4
Symmetric key bit length: 256
IV bit length:            128
Plaintext bit length:     136
Symmetric key:            0000000000000000000000000000000000000000000000000000000000000000
IV:                       00000002000000000000000000000000
Plaintext:                0000000000000000000000000000000000
Ciphertext:               f4602df76a24010de5a1353043cf178ea5e97df6511645427ea3aff8c05b9f7e3a698ec225a971665cbc1ba68a860a04b8a7365e6c34f9b457987ba226045eea11b06320cee7ef0acb434d73f49c192f16
Reciphers for ciphertext: 0
Decipheredtext:           0000000000000000000000000000000000
RESULT CIPHER-DECIPHER: -----OK-----


Test: 31
Hash algorithm: 0
Symmetric key bit length: 256
IV bit length:            128
Plaintext bit length:     136
Symmetric key:            0000000000000000000000000000000000000000000000000000000000000000
IV:                       00000001000000000000000000000000
Plaintext:                0000000000000000000000000000000000
Ciphertext:               47f98aa9df5e7314d3d5571ef6b9528406aadd6b81ffac8a147ded6c62324be198f84a86a5
Reciphers for ciphertext: 0
Decipheredtext:           0000000000000000000000000000000000
RESULT CIPHER-DECIPHER: -----OK-----


Test: 32
Hash algorithm: 0
Symmetric key bit length: 256
IV bit length:            128
Plaintext bit length:     136
Symmetric key:            0000000000000000000000000000000000000000000000000000000000000000
IV:                       00000000800000000000000000000000
Plaintext:                0000000000000000000000000000000000
Ciphertext:               77cbf7dca60f913fd9c82ac65212ebb2f29aef16f486fd683f77f011ba96e058ae6781a943
Reciphers for ciphertext: 0
Decipheredtext:           0000000000000000000000000000000000
RESULT CIPHER-DECIPHER: -----OK-----


Test: 33
Hash algorithm: 13
Symmetric key bit length: 256
IV bit length:            128
Plaintext bit length:     136
Symmetric key:            0000000000000000000000000000000000000000000000000000000000000000
IV:                       00000000400000000000000000000000
Plaintext:                0000000000000000000000000000000000
Ciphertext:               beb1c2bc4b5c363fcf5a0466883079a9734d797f0af28371b0ed20f6a8e9f8dc08
Reciphers for ciphertext: 0
Decipheredtext:           0000000000000000000000000000000000
RESULT CIPHER-DECIPHER: -----OK-----


Test: 34
Hash algorithm: 13
Symmetric key bit length: 256
IV bit length:            128
Plaintext bit length:     136
Symmetric key:            0000000000000000000000000000000000000000000000000000000000000000
IV:                       00000000200000000000000000000000
Plaintext:                0000000000000000000000000000000000
Ciphertext:               2ab8b9254adbdce17f0a719815deff7e46d9700493f3049b6e5d70835674165adf
Reciphers for ciphertext: 0
Decipheredtext:           0000000000000000000000000000000000
RESULT CIPHER-DECIPHER: -----OK-----


Test: 35
Hash algorithm: 13
Symmetric key bit length: 256
IV bit length:            128
Plaintext bit length:     136
Symmetric key:            0000000000000000000000000000000000000000000000000000000000000000
IV:                       00000000100000000000000000000000
Plaintext:                0000000000000000000000000000000000
Ciphertext:               75a30ceaa03af66e44a85dc66deb20c9f8866bb15c19e5b1e166d2af080c238568
Reciphers for ciphertext: 0
Decipheredtext:           0000000000000000000000000000000000
RESULT CIPHER-DECIPHER: -----OK-----


Test: 36
Hash algorithm: 7
Symmetric key bit length: 256
IV bit length:            128
Plaintext bit length:     136
Symmetric key:            0000000000000000000000000000000000000000000000000000000000000000
IV:                       00000000080000000000000000000000
Plaintext:                0000000000000000000000000000000000
Ciphertext:               c37e64ce86b615573c4c42bbe71dacd8adae6fd4aee95a1199ec0b881144e804a7
Reciphers for ciphertext: 0
Decipheredtext:           0000000000000000000000000000000000
RESULT CIPHER-DECIPHER: -----OK-----


Test: 37
Hash algorithm: 6
Symmetric key bit length: 256
IV bit length:            128
Plaintext bit length:     136
Symmetric key:            0000000000000000000000000000000000000000000000000000000000000000
IV:                       00000000040000000000000000000000
Plaintext:                0000000000000000000000000000000000
Ciphertext:               284cb50259a96cced1c1c64d8b603024d920ae4f46c9a70867af72fc0dd13afbcd2a9cbc7ca8cfacacf10561851add083a
Reciphers for ciphertext: 0
Decipheredtext:           0000000000000000000000000000000000
RESULT CIPHER-DECIPHER: -----OK-----


Test: 38
Hash algorithm: 1
Symmetric key bit length: 256
IV bit length:            128
Plaintext bit length:     136
Symmetric key:            0000000000000000000000000000000000000000000000000000000000000000
IV:                       00000000020000000000000000000000
Plaintext:                0000000000000000000000000000000000
Ciphertext:               be346b07869425cbca54f93d7a1f403502579ac09e9f7f8a258fc80f567847bf372b94997a51a21442ca860dc6
Reciphers for ciphertext: 0
Decipheredtext:           0000000000000000000000000000000000
RESULT CIPHER-DECIPHER: -----OK-----


Test: 39
Hash algorithm: 3
Symmetric key bit length: 256
IV bit length:            128
Plaintext bit length:     136
Symmetric key:            0000000000000000000000000000000000000000000000000000000000000000
IV:                       00000000010000000000000000000000
Plaintext:                0000000000000000000000000000000000
Ciphertext:               60ee2023b03033a972e28e4a21c7005f56cada90e38123e3e1483e0ce12651194018d251738796b8785884e219344bd2ca9947660017a7907f2161bb6b0e92ed2d
Reciphers for ciphertext: 0
Decipheredtext:           0000000000000000000000000000000000
RESULT CIPHER-DECIPHER: -----OK-----


Test: 40
Hash algorithm: 1
Symmetric key bit length: 256
IV bit length:            128
Plaintext bit length:     136
Symmetric key:            0000000000000000000000000000000000000000000000000000000000000000
IV:                       00000000008000000000000000000000
Plaintext:                0000000000000000000000000000000000
Ciphertext:               4e1fd4bc99aea3bcc6b9066ec6329d43b7a7b17f2580450c528325f005c46a6241d4cee1c8d0549261bc98429b
Reciphers for ciphertext: 0
Decipheredtext:           0000000000000000000000000000000000
RESULT CIPHER-DECIPHER: -----OK-----


Test: 41
Hash algorithm: 9
Symmetric key bit length: 256
IV bit length:            128
Plaintext bit length:     136
Symmetric key:            0000000000000000000000000000000000000000000000000000000000000000
IV:                       00000000004000000000000000000000
Plaintext:                0000000000000000000000000000000000
Ciphertext:               76f5971f6ca56d5697d39e03a053bda2959c0c95d19f33d5506595d2a21125dcb1a95100a532f10f34259be185aae2e864
Reciphers for ciphertext: 1
Decipheredtext:           0000000000000000000000000000000000
RESULT CIPHER-DECIPHER: -----OK-----


Test: 42
Hash algorithm: 8
Symmetric key bit length: 256
IV bit length:            128
Plaintext bit length:     136
Symmetric key:            0000000000000000000000000000000000000000000000000000000000000000
IV:                       00000000002000000000000000000000
Plaintext:                0000000000000000000000000000000000
Ciphertext:               6b933d9914169c2a704e52ec6d7e4e1deb779cdfbaaf7af2462ee84cca0751dba7e27b0f75
Reciphers for ciphertext: 0
Decipheredtext:           0000000000000000000000000000000000
RESULT CIPHER-DECIPHER: -----OK-----


Test: 43
Hash algorithm: 5
Symmetric key bit length: 256
IV bit length:            128
Plaintext bit length:     136
Symmetric key:            0000000000000000000000000000000000000000000000000000000000000000
IV:                       00000000001000000000000000000000
Plaintext:                0000000000000000000000000000000000
Ciphertext:               fd854a50372e5d301367d8e98cc88028f29710560701b2253e3aeaa3563687607340dd6ae0c081aa20915b9304
Reciphers for ciphertext: 0
Decipheredtext:           0000000000000000000000000000000000
RESULT CIPHER-DECIPHER: -----OK-----


Test: 44
Hash algorithm: 3
Symmetric key bit length: 256
IV bit length:            128
Plaintext bit length:     136
Symmetric key:            0000000000000000000000000000000000000000000000000000000000000000
IV:                       00000000000800000000000000000000
Plaintext:                0000000000000000000000000000000000
Ciphertext:               8ce94a2c43b01825ce5f271135481bb22e26ddfaec72a3c86df483a5ba32de02adfb5e1716ed0521221381cb9016a66cdd057b9eba9da3d61a10f792dd8aaeb568
Reciphers for ciphertext: 0
Decipheredtext:           0000000000000000000000000000000000
RESULT CIPHER-DECIPHER: -----OK-----


Test: 45
Hash algorithm: 13
Symmetric key bit length: 256
IV bit length:            128
Plaintext bit length:     136
Symmetric key:            0000000000000000000000000000000000000000000000000000000000000000
IV:                       00000000000400000000000000000000
Plaintext:                0000000000000000000000000000000000
Ciphertext:               73a43c713898ba7d7d2b6bc8673a7aaa84806c81c78147fdf25f51990606f2df0b
Reciphers for ciphertext: 0
Decipheredtext:           0000000000000000000000000000000000
RESULT CIPHER-DECIPHER: -----OK-----


Test: 46
Hash algorithm: 6
Symmetric key bit length: 256
IV bit length:            128
Plaintext bit length:     136
Symmetric key:            0000000000000000000000000000000000000000000000000000000000000000
IV:                       00000000000200000000000000000000
Plaintext:                0000000000000000000000000000000000
Ciphertext:               13873cfbded482c0b7b435025a9f1cf4061b65c6bf4edae669c9070f4200c5d71d910cac55aa1e3c3282e82198861515b2
Reciphers for ciphertext: 0
Decipheredtext:           0000000000000000000000000000000000
RESULT CIPHER-DECIPHER: -----OK-----


Test: 47
Hash algorithm: 0
Symmetric key bit length: 256
IV bit length:            128
Plaintext bit length:     136
Symmetric key:            0000000000000000000000000000000000000000000000000000000000000000
IV:                       00000000000100000000000000000000
Plaintext:                0000000000000000000000000000000000
Ciphertext:               3f168cd782896f22c56a92a09ea7e1621cd2326dffa27b96226b52a9dc5a55527e4b6490d0
Reciphers for ciphertext: 0
Decipheredtext:           0000000000000000000000000000000000
RESULT CIPHER-DECIPHER: -----OK-----


Test: 48
Hash algorithm: 10
Symmetric key bit length: 256
IV bit length:            128
Plaintext bit length:     136
Symmetric key:            0000000000000000000000000000000000000000000000000000000000000000
IV:                       00000000000080000000000000000000
Plaintext:                0000000000000000000000000000000000
Ciphertext:               bcdf1c8686e68810fe90b16ecab4614793a9cce86bf80760be3561f9b9a612b0b0d3360d22d1c7e6c046714c95414ad8b53e4ed0ad451d20a6
Reciphers for ciphertext: 0
Decipheredtext:           0000000000000000000000000000000000
RESULT CIPHER-DECIPHER: -----OK-----


Test: 49
Hash algorithm: 13
Symmetric key bit length: 256
IV bit length:            128
Plaintext bit length:     136
Symmetric key:            0000000000000000000000000000000000000000000000000000000000000000
IV:                       00000000000040000000000000000000
Plaintext:                0000000000000000000000000000000000
Ciphertext:               95c18eba59e3cb6359de7cce9e8751f9e46609330ce03c8cec7ba48e00ff4ff458
Reciphers for ciphertext: 0
Decipheredtext:           0000000000000000000000000000000000
RESULT CIPHER-DECIPHER: -----OK-----


Test: 50
Hash algorithm: 11
Symmetric key bit length: 256
IV bit length:            128
Plaintext bit length:     136
Symmetric key:            0000000000000000000000000000000000000000000000000000000000000000
IV:                       00000000000020000000000000000000
Plaintext:                0000000000000000000000000000000000
Ciphertext:               03cfea7d36d56552cdef806215ea75960992d263f4a4362b42ff80799e57543868
Reciphers for ciphertext: 0
Decipheredtext:           0000000000000000000000000000000000
RESULT CIPHER-DECIPHER: -----OK-----


Test: 51
Hash algorithm: 3
Symmetric key bit length: 256
IV bit length:            128
Plaintext bit length:     136
Symmetric key:            0000000000000000000000000000000000000000000000000000000000000000
IV:                       00000000000010000000000000000000
Plaintext:                0000000000000000000000000000000000
Ciphertext:               cc189a2e8f529eb139dca2033109f40b92662c2aeebe414ef9030020a8369fed145a3417462e8fd201d2c09a4345378e98352c6494777a42904398849d599877e5
Reciphers for ciphertext: 0
Decipheredtext:           0000000000000000000000000000000000
RESULT CIPHER-DECIPHER: -----OK-----


Test: 52
Hash algorithm: 1
Symmetric key bit length: 256
IV bit length:            128
Plaintext bit length:     136
Symmetric key:            0000000000000000000000000000000000000000000000000000000000000000
IV:                       00000000000008000000000000000000
Plaintext:                0000000000000000000000000000000000
Ciphertext:               453912532144ced54b7d4049bc8b8cf2a4ac97b9ca38af613b0ee1b622bed373f0d6ebe5201a09f97bb7b9ae41
Reciphers for ciphertext: 0
Decipheredtext:           0000000000000000000000000000000000
RESULT CIPHER-DECIPHER: -----OK-----


Test: 53
Hash algorithm: 4
Symmetric key bit length: 256
IV bit length:            128
Plaintext bit length:     136
Symmetric key:            0000000000000000000000000000000000000000000000000000000000000000
IV:                       00000000000004000000000000000000
Plaintext:                0000000000000000000000000000000000
Ciphertext:               c6dbbf405a056a80ca788267538fe8f053dbc664e6266429f38c764f974bdf8144a4a8b4d6a7b999ee3cc13354ffc507cdf7ab70068b3eb5546852dcaa2a5a4b07d264273a9ae74cb5deb0ff899beb6fd9
Reciphers for ciphertext: 0
Decipheredtext:           0000000000000000000000000000000000
RESULT CIPHER-DECIPHER: -----OK-----


Test: 54
Hash algorithm: 13
Symmetric key bit length: 256
IV bit length:            128
Plaintext bit length:     136
Symmetric key:            0000000000000000000000000000000000000000000000000000000000000000
IV:                       00000000000002000000000000000000
Plaintext:                0000000000000000000000000000000000
Ciphertext:               2eb5e272874ce244a328ba6410480b4c86dd7d5fc43e93a5cb815248aa7180aeed
Reciphers for ciphertext: 0
Decipheredtext:           0000000000000000000000000000000000
RESULT CIPHER-DECIPHER: -----OK-----


Test: 55
Hash algorithm: 0
Symmetric key bit length: 256
IV bit length:            128
Plaintext bit length:     136
Symmetric key:            0000000000000000000000000000000000000000000000000000000000000000
IV:                       00000000000001000000000000000000
Plaintext:                0000000000000000000000000000000000
Ciphertext:               263bfb611cbd9d9c7ff6b1a9e3276696d1cb1f1a493c4f649cd1ce8ad527d5d58a79ba810c
Reciphers for ciphertext: 0
Decipheredtext:           0000000000000000000000000000000000
RESULT CIPHER-DECIPHER: -----OK-----


Test: 56
Hash algorithm: 2
Symmetric key bit length: 256
IV bit length:            128
Plaintext bit length:     136
Symmetric key:            0000000000000000000000000000000000000000000000000000000000000000
IV:                       00000000000000800000000000000000
Plaintext:                0000000000000000000000000000000000
Ciphertext:               9cc3eb61a9907f5f22251239a9eb38ede9964bfa79fb9923f1267652d3b6e01f742cbaac8e96c57552dc48342de840bc25
Reciphers for ciphertext: 0
Decipheredtext:           0000000000000000000000000000000000
RESULT CIPHER-DECIPHER: -----OK-----


Test: 57
Hash algorithm: 3
Symmetric key bit length: 256
IV bit length:            128
Plaintext bit length:     136
Symmetric key:            0000000000000000000000000000000000000000000000000000000000000000
IV:                       00000000000000400000000000000000
Plaintext:                0000000000000000000000000000000000
Ciphertext:               726a3ee922edfe52206c2191e1f045f490d85e8e2913fe2e1a1ab0a33ae6665cebc84638fa76d3831e2b0499a707aed8f792ec3f4fa8702ec0f2b27111e6e7c12e
Reciphers for ciphertext: 0
Decipheredtext:           0000000000000000000000000000000000
RESULT CIPHER-DECIPHER: -----OK-----


Test: 58
Hash algorithm: 13
Symmetric key bit length: 256
IV bit length:            128
Plaintext bit length:     136
Symmetric key:            0000000000000000000000000000000000000000000000000000000000000000
IV:                       00000000000000200000000000000000
Plaintext:                0000000000000000000000000000000000
Ciphertext:               1344c1e04a9d97668a240d82396ac02133e08c7c56f342d0e9a85eff4c58a26580
Reciphers for ciphertext: 0
Decipheredtext:           0000000000000000000000000000000000
RESULT CIPHER-DECIPHER: -----OK-----


Test: 59
Hash algorithm: 1
Symmetric key bit length: 256
IV bit length:            128
Plaintext bit length:     136
Symmetric key:            0000000000000000000000000000000000000000000000000000000000000000
IV:                       00000000000000100000000000000000
Plaintext:                0000000000000000000000000000000000
Ciphertext:               9067baa44c264e9a2aec292390a6f492eb79c9113d55cde1746f70df4892fe0b90d21ebdc1f73f6d2117ea686c
Reciphers for ciphertext: 0
Decipheredtext:           0000000000000000000000000000000000
RESULT CIPHER-DECIPHER: -----OK-----


Test: 60
Hash algorithm: 12
Symmetric key bit length: 256
IV bit length:            128
Plaintext bit length:     136
Symmetric key:            0000000000000000000000000000000000000000000000000000000000000000
IV:                       00000000000000080000000000000000
Plaintext:                0000000000000000000000000000000000
Ciphertext:               1176621bd24d35670b08d6a065806b02ebde4346e093f17923a37d919cf76af19c
Reciphers for ciphertext: 0
Decipheredtext:           0000000000000000000000000000000000
RESULT CIPHER-DECIPHER: -----OK-----


Test: 61
Hash algorithm: 2
Symmetric key bit length: 256
IV bit length:            128
Plaintext bit length:     136
Symmetric key:            0000000000000000000000000000000000000000000000000000000000000000
IV:                       00000000000000040000000000000000
Plaintext:                0000000000000000000000000000000000
Ciphertext:               df0d31d14d81fd086e8e32479919fdbcb1d58520c91f88a1a66add72ad8612da25adc06763840dfdd9a6aa4c7a5c0669d5
Reciphers for ciphertext: 0
Decipheredtext:           0000000000000000000000000000000000
RESULT CIPHER-DECIPHER: -----OK-----


Test: 62
Hash algorithm: 13
Symmetric key bit length: 256
IV bit length:            128
Plaintext bit length:     136
Symmetric key:            0000000000000000000000000000000000000000000000000000000000000000
IV:                       00000000000000020000000000000000
Plaintext:                0000000000000000000000000000000000
Ciphertext:               44bad80b0ba01e971adc4139d6de0c360cb77265bdb27f591838a6b3f7b716a997
Reciphers for ciphertext: 0
Decipheredtext:           0000000000000000000000000000000000
RESULT CIPHER-DECIPHER: -----OK-----


Test: 63
Hash algorithm: 7
Symmetric key bit length: 256
IV bit length:            128
Plaintext bit length:     136
Symmetric key:            0000000000000000000000000000000000000000000000000000000000000000
IV:                       00000000000000010000000000000000
Plaintext:                0000000000000000000000000000000000
Ciphertext:               76c59131effae14058d99e22698b602db81bd421518016e58e889e5488ca7ec852
Reciphers for ciphertext: 0
Decipheredtext:           0000000000000000000000000000000000
RESULT CIPHER-DECIPHER: -----OK-----


Test: 64
Hash algorithm: 4
Symmetric key bit length: 256
IV bit length:            128
Plaintext bit length:     136
Symmetric key:            0000000000000000000000000000000000000000000000000000000000000000
IV:                       00000000000000008000000000000000
Plaintext:                0000000000000000000000000000000000
Ciphertext:               7604d9f3110f8440917abcea49710adaff6b1902556d6ec733d774711a5121636e797149a766108a1b6da8d2d451fdfa6bd4ed2136fb16debb1a36e310a5a7c2e724873a2efab88c295135e06781315c18
Reciphers for ciphertext: 0
Decipheredtext:           0000000000000000000000000000000000
RESULT CIPHER-DECIPHER: -----OK-----


Test: 65
Hash algorithm: 3
Symmetric key bit length: 256
IV bit length:            128
Plaintext bit length:     136
Symmetric key:            0000000000000000000000000000000000000000000000000000000000000000
IV:                       00000000000000004000000000000000
Plaintext:                0000000000000000000000000000000000
Ciphertext:               4584fcbb487171176c4318082efefdf7c4efb04c7b7962a15f569f9aa32968e4e899dc4a3db98c3290a723c166c85932b6838d5720059425e37a9117ce581ed096
Reciphers for ciphertext: 0
Decipheredtext:           0000000000000000000000000000000000
RESULT CIPHER-DECIPHER: -----OK-----


Test: 66
Hash algorithm: 1
Symmetric key bit length: 256
IV bit length:            128
Plaintext bit length:     136
Symmetric key:            0000000000000000000000000000000000000000000000000000000000000000
IV:                       00000000000000002000000000000000
Plaintext:                0000000000000000000000000000000000
Ciphertext:               019d3b42fa31a9f9175759e6c3193a078de83390dbe3da061752cbaf8dc141c5052eeaf43a66ab791c06b03b25
Reciphers for ciphertext: 0
Decipheredtext:           0000000000000000000000000000000000
RESULT CIPHER-DECIPHER: -----OK-----


Test: 67
Hash algorithm: 9
Symmetric key bit length: 256
IV bit length:            128
Plaintext bit length:     136
Symmetric key:            0000000000000000000000000000000000000000000000000000000000000000
IV:                       00000000000000001000000000000000
Plaintext:                0000000000000000000000000000000000
Ciphertext:               c324ff5f71a974f13f5d83226441e3bd0129ddfd91823fccf7cd1bcf83d53782aeda85440f1f7c472d55893d956acefeeb
Reciphers for ciphertext: 0
Decipheredtext:           0000000000000000000000000000000000
RESULT CIPHER-DECIPHER: -----OK-----


Test: 68
Hash algorithm: 10
Symmetric key bit length: 256
IV bit length:            128
Plaintext bit length:     136
Symmetric key:            0000000000000000000000000000000000000000000000000000000000000000
IV:                       00000000000000000800000000000000
Plaintext:                0000000000000000000000000000000000
Ciphertext:               d9df41408dff80de7c9571706b39038f92ccccb5adf31e6870b76439a7079fd278aac185b8940fd3cba909e6f605131583af5bdb8e8752324f
Reciphers for ciphertext: 0
Decipheredtext:           0000000000000000000000000000000000
RESULT CIPHER-DECIPHER: -----OK-----


Test: 69
Hash algorithm: 4
Symmetric key bit length: 256
IV bit length:            128
Plaintext bit length:     136
Symmetric key:            0000000000000000000000000000000000000000000000000000000000000000
IV:                       00000000000000000400000000000000
Plaintext:                0000000000000000000000000000000000
Ciphertext:               fbb99a524ac23d74047d814ec0aedbe2d8e6a441f436a37e0742734cbed8feb2569e88295c8e8b576dbe8ed8a967b296445f0ec761c38375790be205a38f30b9930a65c35bb56316ec3e1a5bfe57148abc
Reciphers for ciphertext: 0
Decipheredtext:           0000000000000000000000000000000000
RESULT CIPHER-DECIPHER: -----OK-----


Test: 70
Hash algorithm: 4
Symmetric key bit length: 256
IV bit length:            128
Plaintext bit length:     136
Symmetric key:            0000000000000000000000000000000000000000000000000000000000000000
IV:                       00000000000000000200000000000000
Plaintext:                0000000000000000000000000000000000
Ciphertext:               877c855e25345f6c7db4237ecf64c874939a615ef859551c1f3bbaee8ed734a1c0ba334b373e7654573e8526abb685ed61d5c6cb953e3126022d355170b16a41f728d02fda77c8d1f679a599d4fbfa75dc
Reciphers for ciphertext: 0
Decipheredtext:           0000000000000000000000000000000000
RESULT CIPHER-DECIPHER: -----OK-----


Test: 71
Hash algorithm: 3
Symmetric key bit length: 256
IV bit length:            128
Plaintext bit length:     136
Symmetric key:            0000000000000000000000000000000000000000000000000000000000000000
IV:                       00000000000000000100000000000000
Plaintext:                0000000000000000000000000000000000
Ciphertext:               206500f822c1305f9d61f49fc57afbf2e08a51b03813d2e017a7bd7634c2ece2ed84198fb1cff2f2e7410cb18bdad9a69c3ed2a56c33c431a6235432971a9fc330
Reciphers for ciphertext: 0
Decipheredtext:           0000000000000000000000000000000000
RESULT CIPHER-DECIPHER: -----OK-----


Test: 72
Hash algorithm: 11
Symmetric key bit length: 256
IV bit length:            128
Plaintext bit length:     136
Symmetric key:            0000000000000000000000000000000000000000000000000000000000000000
IV:                       00000000000000000080000000000000
Plaintext:                0000000000000000000000000000000000
Ciphertext:               c7538d97a78844c3c00740865e26755bdb564e041e356b0ad3f268b97a1c9838a5
Reciphers for ciphertext: 0
Decipheredtext:           0000000000000000000000000000000000
RESULT CIPHER-DECIPHER: -----OK-----


Test: 73
Hash algorithm: 7
Symmetric key bit length: 256
IV bit length:            128
Plaintext bit length:     136
Symmetric key:            0000000000000000000000000000000000000000000000000000000000000000
IV:                       00000000000000000040000000000000
Plaintext:                0000000000000000000000000000000000
Ciphertext:               fadbc4a6e4564041ada094c603cabaa43c97ca74c68bba448f7de75e6ca03f12db
Reciphers for ciphertext: 0
Decipheredtext:           0000000000000000000000000000000000
RESULT CIPHER-DECIPHER: -----OK-----


Test: 74
Hash algorithm: 13
Symmetric key bit length: 256
IV bit length:            128
Plaintext bit length:     136
Symmetric key:            0000000000000000000000000000000000000000000000000000000000000000
IV:                       00000000000000000020000000000000
Plaintext:                0000000000000000000000000000000000
Ciphertext:               04c482e0707de6dc1917727d00c4fa6b8df70c3f56c9a2a1533b6d80b3610c5fca
Reciphers for ciphertext: 0
Decipheredtext:           0000000000000000000000000000000000
RESULT CIPHER-DECIPHER: -----OK-----


Test: 75
Hash algorithm: 12
Symmetric key bit length: 256
IV bit length:            128
Plaintext bit length:     136
Symmetric key:            0000000000000000000000000000000000000000000000000000000000000000
IV:                       00000000000000000010000000000000
Plaintext:                0000000000000000000000000000000000
Ciphertext:               ee36b8996aff98bea6e2115b9d173321a521039c622b43d4fa0e9756670ffda9bf
Reciphers for ciphertext: 0
Decipheredtext:           0000000000000000000000000000000000
RESULT CIPHER-DECIPHER: -----OK-----


Test: 76
Hash algorithm: 3
Symmetric key bit length: 256
IV bit length:            128
Plaintext bit length:     136
Symmetric key:            0000000000000000000000000000000000000000000000000000000000000000
IV:                       00000000000000000008000000000000
Plaintext:                0000000000000000000000000000000000
Ciphertext:               dba4a5f38b104985d796ecddd812b6057771901533ba0399cded4a6e76df84af1a8b564d29aa858b496c846ad13bbd0c4b39fa331d2b1d8d0307b718ecb543702b
Reciphers for ciphertext: 0
Decipheredtext:           0000000000000000000000000000000000
RESULT CIPHER-DECIPHER: -----OK-----


Test: 77
Hash algorithm: 5
Symmetric key bit length: 256
IV bit length:            128
Plaintext bit length:     136
Symmetric key:            0000000000000000000000000000000000000000000000000000000000000000
IV:                       00000000000000000004000000000000
Plaintext:                0000000000000000000000000000000000
Ciphertext:               1dc0f910cd5af1e5734169459e170192cf7755e547fbc689eb5acc12fa2458e1c99f36aa2ce49322d8967e8656
Reciphers for ciphertext: 0
Decipheredtext:           0000000000000000000000000000000000
RESULT CIPHER-DECIPHER: -----OK-----


Test: 78
Hash algorithm: 11
Symmetric key bit length: 256
IV bit length:            128
Plaintext bit length:     136
Symmetric key:            0000000000000000000000000000000000000000000000000000000000000000
IV:                       00000000000000000002000000000000
Plaintext:                0000000000000000000000000000000000
Ciphertext:               c3b7d6914052503d377b01db4e3a630de752aa5f18d2b11e2d0514f8270c842ef3
Reciphers for ciphertext: 0
Decipheredtext:           0000000000000000000000000000000000
RESULT CIPHER-DECIPHER: -----OK-----


Test: 79
Hash algorithm: 10
Symmetric key bit length: 256
IV bit length:            128
Plaintext bit length:     136
Symmetric key:            0000000000000000000000000000000000000000000000000000000000000000
IV:                       00000000000000000001000000000000
Plaintext:                0000000000000000000000000000000000
Ciphertext:               54d807506602ecf7d6b8c4d923317738a241cbf3bd18e304591d498c0e4f97a6cfca2215208b463111f349dfd8f50ef6736a25658827c12966
Reciphers for ciphertext: 0
Decipheredtext:           0000000000000000000000000000000000
RESULT CIPHER-DECIPHER: -----OK-----


Test: 80
Hash algorithm: 0
Symmetric key bit length: 256
IV bit length:            128
Plaintext bit length:     136
Symmetric key:            0000000000000000000000000000000000000000000000000000000000000000
IV:                       00000000000000000000800000000000
Plaintext:                0000000000000000000000000000000000
Ciphertext:               ace4949143d4d1441aa854331e7f511b6541c075b963262844b4906f4fda8de20742984603
Reciphers for ciphertext: 0
Decipheredtext:           0000000000000000000000000000000000
RESULT CIPHER-DECIPHER: -----OK-----


Test: 81
Hash algorithm: 10
Symmetric key bit length: 256
IV bit length:            128
Plaintext bit length:     136
Symmetric key:            0000000000000000000000000000000000000000000000000000000000000000
IV:                       00000000000000000000400000000000
Plaintext:                0000000000000000000000000000000000
Ciphertext:               f7ba140aed4756b26789498a17ebf62de1e2a9e0e793a6be1cac78015d7b4d27da2dd794db81e60d2083fe7c464028b9390454ad9395f01dcc
Reciphers for ciphertext: 0
Decipheredtext:           0000000000000000000000000000000000
RESULT CIPHER-DECIPHER: -----OK-----


Test: 82
Hash algorithm: 11
Symmetric key bit length: 256
IV bit length:            128
Plaintext bit length:     136
Symmetric key:            0000000000000000000000000000000000000000000000000000000000000000
IV:                       00000000000000000000200000000000
Plaintext:                0000000000000000000000000000000000
Ciphertext:               f23e08b81acb75fe2326a94ecc5968ac6b6323813188283bee114950b28ee72552
Reciphers for ciphertext: 0
Decipheredtext:           0000000000000000000000000000000000
RESULT CIPHER-DECIPHER: -----OK-----


Test: 83
Hash algorithm: 9
Symmetric key bit length: 256
IV bit length:            128
Plaintext bit length:     136
Symmetric key:            0000000000000000000000000000000000000000000000000000000000000000
IV:                       00000000000000000000100000000000
Plaintext:                0000000000000000000000000000000000
Ciphertext:               4cf26f088604368b17ddc09ff9d0146d89a60b6dc675928e8de59b8c3e48a6757e3ff59abb5c9db59877f97836e162f570
Reciphers for ciphertext: 0
Decipheredtext:           0000000000000000000000000000000000
RESULT CIPHER-DECIPHER: -----OK-----


Test: 84
Hash algorithm: 10
Symmetric key bit length: 256
IV bit length:            128
Plaintext bit length:     136
Symmetric key:            0000000000000000000000000000000000000000000000000000000000000000
IV:                       00000000000000000000080000000000
Plaintext:                0000000000000000000000000000000000
Ciphertext:               e93aeb7ad76a6ad0af4092f363421f1bb6fc291f97a98b827e64b1da240fe4ceecf07020a0248e4e110c704cd6af4de3c93c533dfbe59ee5be
Reciphers for ciphertext: 0
Decipheredtext:           0000000000000000000000000000000000
RESULT CIPHER-DECIPHER: -----OK-----


Test: 85
Hash algorithm: 0
Symmetric key bit length: 256
IV bit length:            128
Plaintext bit length:     136
Symmetric key:            0000000000000000000000000000000000000000000000000000000000000000
IV:                       00000000000000000000040000000000
Plaintext:                0000000000000000000000000000000000
Ciphertext:               3d234c0f78ecbefccdce1ea6ec98c14518d007ad27581e47fc63f625da286a7259aa2ade9b
Reciphers for ciphertext: 0
Decipheredtext:           0000000000000000000000000000000000
RESULT CIPHER-DECIPHER: -----OK-----


Test: 86
Hash algorithm: 8
Symmetric key bit length: 256
IV bit length:            128
Plaintext bit length:     136
Symmetric key:            0000000000000000000000000000000000000000000000000000000000000000
IV:                       00000000000000000000020000000000
Plaintext:                0000000000000000000000000000000000
Ciphertext:               ba300b0234f0c96125d33123cdd7d6a4f6a63fe9218f9ca70d7b752f05a7f8431efa7daca3
Reciphers for ciphertext: 0
Decipheredtext:           0000000000000000000000000000000000
RESULT CIPHER-DECIPHER: -----OK-----


Test: 87
Hash algorithm: 3
Symmetric key bit length: 256
IV bit length:            128
Plaintext bit length:     136
Symmetric key:            0000000000000000000000000000000000000000000000000000000000000000
IV:                       00000000000000000000010000000000
Plaintext:                0000000000000000000000000000000000
Ciphertext:               1cf1a160fad7e744f08ba1454a999211a0b6c511a0cbc4370cca5723ee4d0f8b0effdbdb6be7faf7b45c48b623727b18ecbb6bf9d18105133dc760a5d9c4b4bf10
Reciphers for ciphertext: 0
Decipheredtext:           0000000000000000000000000000000000
RESULT CIPHER-DECIPHER: -----OK-----


Test: 88
Hash algorithm: 6
Symmetric key bit length: 256
IV bit length:            128
Plaintext bit length:     136
Symmetric key:            0000000000000000000000000000000000000000000000000000000000000000
IV:                       00000000000000000000008000000000
Plaintext:                0000000000000000000000000000000000
Ciphertext:               8c12ff1518afb7aee1728f9be0ed5bf1e884f0055188a1d3079fc1b5dbbab79018e239472da8148202599d696931dd0a20
Reciphers for ciphertext: 1
Decipheredtext:           0000000000000000000000000000000000
RESULT CIPHER-DECIPHER: -----OK-----


Test: 89
Hash algorithm: 4
Symmetric key bit length: 256
IV bit length:            128
Plaintext bit length:     136
Symmetric key:            0000000000000000000000000000000000000000000000000000000000000000
IV:                       00000000000000000000004000000000
Plaintext:                0000000000000000000000000000000000
Ciphertext:               22d29cfef3a6dc0ec67a9ea8523d6158143fcf47588fc79f7d807453584a6d08ec81cea0c90ab6de15c9a6e8af624898dd7d8700c4ca9d8e3323c4c05067ed7d1583197fb88537963813e7e72d44615a63
Reciphers for ciphertext: 0
Decipheredtext:           0000000000000000000000000000000000
RESULT CIPHER-DECIPHER: -----OK-----


Test: 90
Hash algorithm: 11
Symmetric key bit length: 256
IV bit length:            128
Plaintext bit length:     136
Symmetric key:            0000000000000000000000000000000000000000000000000000000000000000
IV:                       00000000000000000000002000000000
Plaintext:                0000000000000000000000000000000000
Ciphertext:               513971f979fc906fadd982d7f08e4f05dec024f870eb1fde7f9fb67b2bb23002fb
Reciphers for ciphertext: 0
Decipheredtext:           0000000000000000000000000000000000
RESULT CIPHER-DECIPHER: -----OK-----


Test: 91
Hash algorithm: 5
Symmetric key bit length: 256
IV bit length:            128
Plaintext bit length:     136
Symmetric key:            0000000000000000000000000000000000000000000000000000000000000000
IV:                       00000000000000000000001000000000
Plaintext:                0000000000000000000000000000000000
Ciphertext:               6a95c07d7facf2cd36df362116a2dd5f6f0000dc2a49308ac31f524d9eaced3d04d9a0dccdb4b37525d3c27e24
Reciphers for ciphertext: 0
Decipheredtext:           0000000000000000000000000000000000
RESULT CIPHER-DECIPHER: -----OK-----


Test: 92
Hash algorithm: 11
Symmetric key bit length: 256
IV bit length:            128
Plaintext bit length:     136
Symmetric key:            0000000000000000000000000000000000000000000000000000000000000000
IV:                       00000000000000000000000800000000
Plaintext:                0000000000000000000000000000000000
Ciphertext:               cd62ad57393a38607436faf0985c2d505d5c7f24deabd976704659030cdae260ae
Reciphers for ciphertext: 0
Decipheredtext:           0000000000000000000000000000000000
RESULT CIPHER-DECIPHER: -----OK-----


Test: 93
Hash algorithm: 12
Symmetric key bit length: 256
IV bit length:            128
Plaintext bit length:     136
Symmetric key:            0000000000000000000000000000000000000000000000000000000000000000
IV:                       00000000000000000000000400000000
Plaintext:                0000000000000000000000000000000000
Ciphertext:               5209ade137b93ba0963528e3e1a40f2a309d3c891a760577e43e406fdf734e95b4
Reciphers for ciphertext: 0
Decipheredtext:           0000000000000000000000000000000000
RESULT CIPHER-DECIPHER: -----OK-----


Test: 94
Hash algorithm: 1
Symmetric key bit length: 256
IV bit length:            128
Plaintext bit length:     136
Symmetric key:            0000000000000000000000000000000000000000000000000000000000000000
IV:                       00000000000000000000000200000000
Plaintext:                0000000000000000000000000000000000
Ciphertext:               545bde9d1c11239ed70d93060f24e397eebdf5750405fa8c709291656d0d7c1c9585ab21b6a49d4e9eae744d22
Reciphers for ciphertext: 0
Decipheredtext:           0000000000000000000000000000000000
RESULT CIPHER-DECIPHER: -----OK-----


Test: 95
Hash algorithm: 0
Symmetric key bit length: 256
IV bit length:            128
Plaintext bit length:     136
Symmetric key:            0000000000000000000000000000000000000000000000000000000000000000
IV:                       00000000000000000000000100000000
Plaintext:                0000000000000000000000000000000000
Ciphertext:               720622f5194578b3c24b5dddc7e30327649f22c3dd39b781b36c7366a10311b03b2d8b7601
Reciphers for ciphertext: 0
Decipheredtext:           0000000000000000000000000000000000
RESULT CIPHER-DECIPHER: -----OK-----


Test: 96
Hash algorithm: 9
Symmetric key bit length: 256
IV bit length:            128
Plaintext bit length:     136
Symmetric key:            0000000000000000000000000000000000000000000000000000000000000000
IV:                       00000000000000000000000080000000
Plaintext:                0000000000000000000000000000000000
Ciphertext:               9e12338bf484106249754eaa6c441192c874eb31450712a864bb33020bdd327081af51f89e161759db70cec3072049218c
Reciphers for ciphertext: 0
Decipheredtext:           0000000000000000000000000000000000
RESULT CIPHER-DECIPHER: -----OK-----


Test: 97
Hash algorithm: 10
Symmetric key bit length: 256
IV bit length:            128
Plaintext bit length:     136
Symmetric key:            0000000000000000000000000000000000000000000000000000000000000000
IV:                       00000000000000000000000040000000
Plaintext:                0000000000000000000000000000000000
Ciphertext:               f13303dc759ca65097ec87f8d854163c4ee420f7310b7d4efe5c1dcf2fb4f2c7cb7060b48993a67f33185e87662659a2e1379b535386131771
Reciphers for ciphertext: 0
Decipheredtext:           0000000000000000000000000000000000
RESULT CIPHER-DECIPHER: -----OK-----


Test: 98
Hash algorithm: 1
Symmetric key bit length: 256
IV bit length:            128
Plaintext bit length:     136
Symmetric key:            0000000000000000000000000000000000000000000000000000000000000000
IV:                       00000000000000000000000020000000
Plaintext:                0000000000000000000000000000000000
Ciphertext:               4a2a6eb6845723c1c790d693b596cde315a384c52f9dbc8c2f820c20f8b7ce32e11a27b7bbeb8d531ec113f41f
Reciphers for ciphertext: 0
Decipheredtext:           0000000000000000000000000000000000
RESULT CIPHER-DECIPHER: -----OK-----


Test: 99
Hash algorithm: 3
Symmetric key bit length: 256
IV bit length:            128
Plaintext bit length:     136
Symmetric key:            0000000000000000000000000000000000000000000000000000000000000000
IV:                       00000000000000000000000010000000
Plaintext:                0000000000000000000000000000000000
Ciphertext:               ef3d7c67417ca1feef03ef71441bddfe854509cca7706f71b6d5df6dda438dc4e1367e2e022bdc498cd22a03c6bd73ba544c1902c06b21a1049ec8542fb2ae53d2
Reciphers for ciphertext: 0
Decipheredtext:           0000000000000000000000000000000000
RESULT CIPHER-DECIPHER: -----OK-----


Test: 100
Hash algorithm: 3
Symmetric key bit length: 256
IV bit length:            128
Plaintext bit length:     136
Symmetric key:            0000000000000000000000000000000000000000000000000000000000000000
IV:                       00000000000000000000000008000000
Plaintext:                0000000000000000000000000000000000
Ciphertext:               214fb38a7511a87cf160f59cca2b8e33c28b7b034a44027834cbbc7737cdbd972ca3abe43164015c23aacc725a004e639cab7c3c260bef399d2f211ec727a62e9a
Reciphers for ciphertext: 0
Decipheredtext:           0000000000000000000000000000000000
RESULT CIPHER-DECIPHER: -----OK-----


Test: 101
Hash algorithm: 13
Symmetric key bit length: 256
IV bit length:            128
Plaintext bit length:     136
Symmetric key:            0000000000000000000000000000000000000000000000000000000000000000
IV:                       00000000000000000000000004000000
Plaintext:                0000000000000000000000000000000000
Ciphertext:               dcffdb5e44574d0d593a70ada4c79474b32f3766e8fd880a827b408263c50f31d5
Reciphers for ciphertext: 0
Decipheredtext:           0000000000000000000000000000000000
RESULT CIPHER-DECIPHER: -----OK-----


Test: 102
Hash algorithm: 7
Symmetric key bit length: 256
IV bit length:            128
Plaintext bit length:     136
Symmetric key:            0000000000000000000000000000000000000000000000000000000000000000
IV:                       00000000000000000000000002000000
Plaintext:                0000000000000000000000000000000000
Ciphertext:               ac9d55d4a4fbb80c9b79c9077ba381b14bc18ce5b4cb17bcc24b3e03add85629ce
Reciphers for ciphertext: 0
Decipheredtext:           0000000000000000000000000000000000
RESULT CIPHER-DECIPHER: -----OK-----


Test: 103
Hash algorithm: 0
Symmetric key bit length: 256
IV bit length:            128
Plaintext bit length:     136
Symmetric key:            0000000000000000000000000000000000000000000000000000000000000000
IV:                       00000000000000000000000001000000
Plaintext:                0000000000000000000000000000000000
Ciphertext:               05c6d61b75312924e0bcedcb4b8d55dd32e8e2373355c3d0244e84d6b78f7fe6c1e1cbbe2a
Reciphers for ciphertext: 0
Decipheredtext:           0000000000000000000000000000000000
RESULT CIPHER-DECIPHER: -----OK-----


Test: 104
Hash algorithm: 0
Symmetric key bit length: 256
IV bit length:            128
Plaintext bit length:     136
Symmetric key:            0000000000000000000000000000000000000000000000000000000000000000
IV:                       00000000000000000000000000800000
Plaintext:                0000000000000000000000000000000000
Ciphertext:               e650cb445af48a77e8db6e2efbce6fa7190b742a6c7a06737746e355523f3cdcbbc39d0979
Reciphers for ciphertext: 0
Decipheredtext:           0000000000000000000000000000000000
RESULT CIPHER-DECIPHER: -----OK-----


Test: 105
Hash algorithm: 9
Symmetric key bit length: 256
IV bit length:            128
Plaintext bit length:     136
Symmetric key:            0000000000000000000000000000000000000000000000000000000000000000
IV:                       00000000000000000000000000400000
Plaintext:                0000000000000000000000000000000000
Ciphertext:               4c9902e89253d7a172babfa87db948160ba660002661c56fa780fcf309cccf29053d149c2cb7c18188dd2f486368d1ab6c
Reciphers for ciphertext: 0
Decipheredtext:           0000000000000000000000000000000000
RESULT CIPHER-DECIPHER: -----OK-----


Test: 106
Hash algorithm: 10
Symmetric key bit length: 256
IV bit length:            128
Plaintext bit length:     136
Symmetric key:            0000000000000000000000000000000000000000000000000000000000000000
IV:                       00000000000000000000000000200000
Plaintext:                0000000000000000000000000000000000
Ciphertext:               5af4f5e8491ee7f87eb809d82aec12db124fe7010537ff0f56b549410f464ac32c72b7af53dff7bd7be8af38df717093d3b815c020f53805c6
Reciphers for ciphertext: 0
Decipheredtext:           0000000000000000000000000000000000
RESULT CIPHER-DECIPHER: -----OK-----


Test: 107
Hash algorithm: 12
Symmetric key bit length: 256
IV bit length:            128
Plaintext bit length:     136
Symmetric key:            0000000000000000000000000000000000000000000000000000000000000000
IV:                       00000000000000000000000000100000
Plaintext:                0000000000000000000000000000000000
Ciphertext:               1c11730d62bca6f847b1457b5287bd124cd32457f62300eabcefc40247c06d278c
Reciphers for ciphertext: 0
Decipheredtext:           0000000000000000000000000000000000
RESULT CIPHER-DECIPHER: -----OK-----


Test: 108
Hash algorithm: 3
Symmetric key bit length: 256
IV bit length:            128
Plaintext bit length:     136
Symmetric key:            0000000000000000000000000000000000000000000000000000000000000000
IV:                       00000000000000000000000000080000
Plaintext:                0000000000000000000000000000000000
Ciphertext:               bef65a32ff7383cfdb5a90c2f3b938375914c2eaf2ce605387e1861269f42f2128dff851c19bad89973839de552bfea2549624e8df6da1c0ef12302670540bd3bf
Reciphers for ciphertext: 0
Decipheredtext:           0000000000000000000000000000000000
RESULT CIPHER-DECIPHER: -----OK-----


Test: 109
Hash algorithm: 11
Symmetric key bit length: 256
IV bit length:            128
Plaintext bit length:     136
Symmetric key:            0000000000000000000000000000000000000000000000000000000000000000
IV:                       00000000000000000000000000040000
Plaintext:                0000000000000000000000000000000000
Ciphertext:               2f3aa68ffe3b99dc92621782f3f9ed67a9be272f066cd8d7cca00dee7eb147a099
Reciphers for ciphertext: 0
Decipheredtext:           0000000000000000000000000000000000
RESULT CIPHER-DECIPHER: -----OK-----


Test: 110
Hash algorithm: 3
Symmetric key bit length: 256
IV bit length:            128
Plaintext bit length:     136
Symmetric key:            0000000000000000000000000000000000000000000000000000000000000000
IV:                       00000000000000000000000000020000
Plaintext:                0000000000000000000000000000000000
Ciphertext:               18bd598bfa2c77e21dbd594ee0e5cdcbd6b289e94bcb3fa7aa2761dbe5e773d4d4e01b57b3b70d327489eaf687adc53c34bed29d0a0e891e9a2066f9cdb2fc49a4
Reciphers for ciphertext: 0
Decipheredtext:           0000000000000000000000000000000000
RESULT CIPHER-DECIPHER: -----OK-----


Test: 111
Hash algorithm: 7
Symmetric key bit length: 256
IV bit length:            128
Plaintext bit length:     136
Symmetric key:            0000000000000000000000000000000000000000000000000000000000000000
IV:                       00000000000000000000000000010000
Plaintext:                0000000000000000000000000000000000
Ciphertext:               248cf533016a6ab1f84f85b2c5cd41a793499d45536e866e7f28084f186638e9d8
Reciphers for ciphertext: 0
Decipheredtext:           0000000000000000000000000000000000
RESULT CIPHER-DECIPHER: -----OK-----


Test: 112
Hash algorithm: 12
Symmetric key bit length: 256
IV bit length:            128
Plaintext bit length:     136
Symmetric key:            0000000000000000000000000000000000000000000000000000000000000000
IV:                       00000000000000000000000000008000
Plaintext:                0000000000000000000000000000000000
Ciphertext:               a3b12f578353514ccc500add6c495a6c446c840bacc2ef1d0864254de1fea3c0f2
Reciphers for ciphertext: 0
Decipheredtext:           0000000000000000000000000000000000
RESULT CIPHER-DECIPHER: -----OK-----


Test: 113
Hash algorithm: 4
Symmetric key bit length: 256
IV bit length:            128
Plaintext bit length:     136
Symmetric key:            0000000000000000000000000000000000000000000000000000000000000000
IV:                       00000000000000000000000000004000
Plaintext:                0000000000000000000000000000000000
Ciphertext:               ee2dc099b37d200b4d3930a6de07208e09f3301b3fcf1c63780b37fd56c657493afc7a82427bca996067bc54286bdb031a257a8af859b1a88b0f33864637b62add5327797c30ee93d052b09823a3a7bbb9
Reciphers for ciphertext: 0
Decipheredtext:           0000000000000000000000000000000000
RESULT CIPHER-DECIPHER: -----OK-----


Test: 114
Hash algorithm: 5
Symmetric key bit length: 256
IV bit length:            128
Plaintext bit length:     136
Symmetric key:            0000000000000000000000000000000000000000000000000000000000000000
IV:                       00000000000000000000000000002000
Plaintext:                0000000000000000000000000000000000
Ciphertext:               412c9f198d58a0f01f66df07cf211636732bb9834ebbc4d8fe36eba4b8756ef66dd29876a1bb5124d9a0f952d7
Reciphers for ciphertext: 0
Decipheredtext:           0000000000000000000000000000000000
RESULT CIPHER-DECIPHER: -----OK-----


Test: 115
Hash algorithm: 11
Symmetric key bit length: 256
IV bit length:            128
Plaintext bit length:     136
Symmetric key:            0000000000000000000000000000000000000000000000000000000000000000
IV:                       00000000000000000000000000001000
Plaintext:                0000000000000000000000000000000000
Ciphertext:               5b3532ba46716b02e761339dbafbaab02dca28bb33d4922512d50eca61f845e74e
Reciphers for ciphertext: 0
Decipheredtext:           0000000000000000000000000000000000
RESULT CIPHER-DECIPHER: -----OK-----


Test: 116
Hash algorithm: 3
Symmetric key bit length: 256
IV bit length:            128
Plaintext bit length:     136
Symmetric key:            0000000000000000000000000000000000000000000000000000000000000000
IV:                       00000000000000000000000000000800
Plaintext:                0000000000000000000000000000000000
Ciphertext:               0148187ca72ec46b522e4fe7e12615225bab7ca8bc963d142368f2cd4ce6b00c3d02cbf08518a4db6a219b2ff6fde521e99ccaa7853a67ae779f2a5fca11e0645b
Reciphers for ciphertext: 0
Decipheredtext:           0000000000000000000000000000000000
RESULT CIPHER-DECIPHER: -----OK-----


Test: 117
Hash algorithm: 12
Symmetric key bit length: 256
IV bit length:            128
Plaintext bit length:     136
Symmetric key:            0000000000000000000000000000000000000000000000000000000000000000
IV:                       00000000000000000000000000000400
Plaintext:                0000000000000000000000000000000000
Ciphertext:               84c529cc4e23683ab90a24a6690662ed484bf00d370f9f247e117f639afbecf873
Reciphers for ciphertext: 0
Decipheredtext:           0000000000000000000000000000000000
RESULT CIPHER-DECIPHER: -----OK-----


Test: 118
Hash algorithm: 0
Symmetric key bit length: 256
IV bit length:            128
Plaintext bit length:     136
Symmetric key:            0000000000000000000000000000000000000000000000000000000000000000
IV:                       00000000000000000000000000000200
Plaintext:                0000000000000000000000000000000000
Ciphertext:               0d1ef0481593a3d95f0361c776d9a4d241e03a116035615ad9f13b5abbb22b17ce07cc4477
Reciphers for ciphertext: 0
Decipheredtext:           0000000000000000000000000000000000
RESULT CIPHER-DECIPHER: -----OK-----


Test: 119
Hash algorithm: 4
Symmetric key bit length: 256
IV bit length:            128
Plaintext bit length:     136
Symmetric key:            0000000000000000000000000000000000000000000000000000000000000000
IV:                       00000000000000000000000000000100
Plaintext:                0000000000000000000000000000000000
Ciphertext:               d622171c73726db6620ffda6540d510e53cb3fccba0f132ec5240130564c5d38ba8bc271ad692d66fab46878650d7572fbb538c50909a935e35d4dd7f7a72a9c3dafbd8bb02559176bfa47953974533c77
Reciphers for ciphertext: 0
Decipheredtext:           0000000000000000000000000000000000
RESULT CIPHER-DECIPHER: -----OK-----


Test: 120
Hash algorithm: 0
Symmetric key bit length: 256
IV bit length:            128
Plaintext bit length:     136
Symmetric key:            0000000000000000000000000000000000000000000000000000000000000000
IV:                       00000000000000000000000000000080
Plaintext:                0000000000000000000000000000000000
Ciphertext:               f218d92aed363c6829f7fa3ba346e0fb6c1f3c3802cdc4c56887cfc14767b453e7d28f6e07
Reciphers for ciphertext: 0
Decipheredtext:           0000000000000000000000000000000000
RESULT CIPHER-DECIPHER: -----OK-----


Test: 121
Hash algorithm: 8
Symmetric key bit length: 256
IV bit length:            128
Plaintext bit length:     136
Symmetric key:            0000000000000000000000000000000000000000000000000000000000000000
IV:                       00000000000000000000000000000040
Plaintext:                0000000000000000000000000000000000
Ciphertext:               40cd83a5f0bfd0e1d7fe14299cecfb7c955cc261864bd3be8d89580a0ff6c36ec6c822d071
Reciphers for ciphertext: 0
Decipheredtext:           0000000000000000000000000000000000
RESULT CIPHER-DECIPHER: -----OK-----


Test: 122
Hash algorithm: 9
Symmetric key bit length: 256
IV bit length:            128
Plaintext bit length:     136
Symmetric key:            0000000000000000000000000000000000000000000000000000000000000000
IV:                       00000000000000000000000000000020
Plaintext:                0000000000000000000000000000000000
Ciphertext:               512f022157aef0015e93f3737911a35e3fbbd600efa4384807acd5bfd2c867c24daba602e8efc787804d38ffbcf9b23e84
Reciphers for ciphertext: 0
Decipheredtext:           0000000000000000000000000000000000
RESULT CIPHER-DECIPHER: -----OK-----


Test: 123
Hash algorithm: 2
Symmetric key bit length: 256
IV bit length:            128
Plaintext bit length:     136
Symmetric key:            0000000000000000000000000000000000000000000000000000000000000000
IV:                       00000000000000000000000000000010
Plaintext:                0000000000000000000000000000000000
Ciphertext:               c7a5a88356152e95f36739ab5ef9f63f7acd2db99b041c723bf734794141f2d1a6f934337d35a325f9c8c3cd9bf04a85a5
Reciphers for ciphertext: 0
Decipheredtext:           0000000000000000000000000000000000
RESULT CIPHER-DECIPHER: -----OK-----


Test: 124
Hash algorithm: 6
Symmetric key bit length: 256
IV bit length:            128
Plaintext bit length:     136
Symmetric key:            0000000000000000000000000000000000000000000000000000000000000000
IV:                       00000000000000000000000000000008
Plaintext:                0000000000000000000000000000000000
Ciphertext:               8fd0f15e2504a8f4fd751ca7799ffb1d2187320b1ab50acc5d83c626e723c530f4d0c43258a958fe0ca18797502c1f37d2
Reciphers for ciphertext: 0
Decipheredtext:           0000000000000000000000000000000000
RESULT CIPHER-DECIPHER: -----OK-----


Test: 125
Hash algorithm: 1
Symmetric key bit length: 256
IV bit length:            128
Plaintext bit length:     136
Symmetric key:            0000000000000000000000000000000000000000000000000000000000000000
IV:                       00000000000000000000000000000004
Plaintext:                0000000000000000000000000000000000
Ciphertext:               0137c87257a8cbd18c218a867b3ab5f8c3e89963eb4e43643fc9bd7ced79624afaf16863acb49861114d271631
Reciphers for ciphertext: 0
Decipheredtext:           0000000000000000000000000000000000
RESULT CIPHER-DECIPHER: -----OK-----


Test: 126
Hash algorithm: 8
Symmetric key bit length: 256
IV bit length:            128
Plaintext bit length:     136
Symmetric key:            0000000000000000000000000000000000000000000000000000000000000000
IV:                       00000000000000000000000000000002
Plaintext:                0000000000000000000000000000000000
Ciphertext:               3db0f1674f187df1cb036db33a05a0d7b021bf1344f474139d95a57395502a356dc0fec321
Reciphers for ciphertext: 0
Decipheredtext:           0000000000000000000000000000000000
RESULT CIPHER-DECIPHER: -----OK-----


Test: 127
Hash algorithm: 5
Symmetric key bit length: 256
IV bit length:            128
Plaintext bit length:     136
Symmetric key:            0000000000000000000000000000000000000000000000000000000000000000
IV:                       00000000000000000000000000000001
Plaintext:                0000000000000000000000000000000000
Ciphertext:               23d1247eff4ca8cbb378df118369821ebe49443829c9d0d0c59af5a4ae392662457614fe646cd446097c569e46
Reciphers for ciphertext: 0
Decipheredtext:           0000000000000000000000000000000000
RESULT CIPHER-DECIPHER: -----OK-----


 DATA SHA1 (hexadecimal): c9ffdf397d709d8d8fe6467a837a0251342bdc40

