
DiceLock 9.0.0.1

 TEST COMPONENTS:
 ----------------
 DiceLock:           DiceLockIVDigested class
 Operation Mode:     OFB_Mode class
 Block Cipher:       Serpent192 class
 Hash algorithms:     0 - Sha1 class
                      1 - Sha224 class
                      2 - Sha256 class
                      3 - Sha384 class
                      4 - Sha512 class
                      5 - Sha512_224 class
                      6 - Sha512_256 class
                      7 - Ripemd128 class
                      8 - Ripemd160 class
                      9 - Ripemd256 class
                     10 - Ripemd320 class
                     11 - MD2 class
                     12 - MD4 class
                     13 - MD5 class
 Key Modifier:       DecreaseKeyModifier_6_0_0_1 class
 Random tests:       RandomTestSuite class
                     FrequencyTest class
                     BlockFrequencyTest class
                     CumulativeSumForwardTest class
                     LongestRunOfOnesTest class
                     RunsTest class
 Random alpha:       0.001

 VECTOR TEST: Test vector 3 - Changing symmetric key, IV and plaintext, shifting 1 bit set


##### INDIVIDUAL TESTS #####

Number tests: 128


Test: 0
Hash algorithm: 9
Symmetric key bit length: 192
IV bit length:            128
Plaintext bit length:     128
Symmetric key:            000000000000000080000000000000000000000000000000
IV:                       80000000000000000000000000000000
Plaintext:                80000000000000000000000000000000
Ciphertext:               87cc675d10690c2cda7472e7e98d612c52e46e8b2ffc788ef4f1c5af3b95745fd569a513adb97e330711db48d32d4361
Reciphers for ciphertext: 0
Decipheredtext:           80000000000000000000000000000000
RESULT CIPHER-DECIPHER: -----OK-----


Test: 1
Hash algorithm: 3
Symmetric key bit length: 192
IV bit length:            128
Plaintext bit length:     128
Symmetric key:            000000000000000040000000000000000000000000000000
IV:                       40000000000000000000000000000000
Plaintext:                40000000000000000000000000000000
Ciphertext:               5e1b083b86e3c4fd7c7817d24e1a3f502ba3774ebaba83ee4672aed4a9c2789f370592d76ee1e654b482cdaf3d6d36340b83ac78e46456abb5235b53863a23c7
Reciphers for ciphertext: 0
Decipheredtext:           40000000000000000000000000000000
RESULT CIPHER-DECIPHER: -----OK-----


Test: 2
Hash algorithm: 10
Symmetric key bit length: 192
IV bit length:            128
Plaintext bit length:     128
Symmetric key:            000000000000000020000000000000000000000000000000
IV:                       20000000000000000000000000000000
Plaintext:                20000000000000000000000000000000
Ciphertext:               c094f4501d04a527809d415ac4e70181742ed6650b21316e7649bc24fdde9c357bc893221937e25d0f38c6e37fc36ebc97fd1fd77688a1bb
Reciphers for ciphertext: 0
Decipheredtext:           20000000000000000000000000000000
RESULT CIPHER-DECIPHER: -----OK-----


Test: 3
Hash algorithm: 13
Symmetric key bit length: 192
IV bit length:            128
Plaintext bit length:     128
Symmetric key:            000000000000000010000000000000000000000000000000
IV:                       10000000000000000000000000000000
Plaintext:                10000000000000000000000000000000
Ciphertext:               4be60af798ab7eb6204e6d3ebee831453c9e83e999e471d7ed7bc24357bd37e2
Reciphers for ciphertext: 0
Decipheredtext:           10000000000000000000000000000000
RESULT CIPHER-DECIPHER: -----OK-----


Test: 4
Hash algorithm: 1
Symmetric key bit length: 192
IV bit length:            128
Plaintext bit length:     128
Symmetric key:            000000000000000008000000000000000000000000000000
IV:                       08000000000000000000000000000000
Plaintext:                08000000000000000000000000000000
Ciphertext:               6f678c1b1883288d8f385ddc284202e730ba2f720a456abac6f6158bf03af97d72af7f2232930340c40e1986
Reciphers for ciphertext: 0
Decipheredtext:           08000000000000000000000000000000
RESULT CIPHER-DECIPHER: -----OK-----


Test: 5
Hash algorithm: 4
Symmetric key bit length: 192
IV bit length:            128
Plaintext bit length:     128
Symmetric key:            000000000000000004000000000000000000000000000000
IV:                       04000000000000000000000000000000
Plaintext:                04000000000000000000000000000000
Ciphertext:               419d01b389c64aeabc940b8b4f98c9853b2680403c954b4d6be08e727ecfa82d9ec90a7b75134fd8bc777d84886ef93f04655c239053648ac30e124ebcf415ae7cab39e414e0388100179581504f82b1
Reciphers for ciphertext: 0
Decipheredtext:           04000000000000000000000000000000
RESULT CIPHER-DECIPHER: -----OK-----


Test: 6
Hash algorithm: 11
Symmetric key bit length: 192
IV bit length:            128
Plaintext bit length:     128
Symmetric key:            000000000000000002000000000000000000000000000000
IV:                       02000000000000000000000000000000
Plaintext:                02000000000000000000000000000000
Ciphertext:               1a2ddb40d3f4e70633322b5a6fdaba6d28bbded8583ab6f4ab8be8d15610d583
Reciphers for ciphertext: 0
Decipheredtext:           02000000000000000000000000000000
RESULT CIPHER-DECIPHER: -----OK-----


Test: 7
Hash algorithm: 1
Symmetric key bit length: 192
IV bit length:            128
Plaintext bit length:     128
Symmetric key:            000000000000000001000000000000000000000000000000
IV:                       01000000000000000000000000000000
Plaintext:                01000000000000000000000000000000
Ciphertext:               3cf4105007e81cc698f6108b8112faf5e758bac6ac851a42e75e16e7e2cd56028365572ae482bce7cede771d
Reciphers for ciphertext: 0
Decipheredtext:           01000000000000000000000000000000
RESULT CIPHER-DECIPHER: -----OK-----


Test: 8
Hash algorithm: 5
Symmetric key bit length: 192
IV bit length:            128
Plaintext bit length:     128
Symmetric key:            000000000000000000800000000000000000000000000000
IV:                       00800000000000000000000000000000
Plaintext:                00800000000000000000000000000000
Ciphertext:               ec5ad14c76e75f8f5cf658dcc9d9ce4f976e33f47ef319d85106a21b745bd4a08e631768ca075b61eccdd402
Reciphers for ciphertext: 0
Decipheredtext:           00800000000000000000000000000000
RESULT CIPHER-DECIPHER: -----OK-----


Test: 9
Hash algorithm: 9
Symmetric key bit length: 192
IV bit length:            128
Plaintext bit length:     128
Symmetric key:            000000000000000000400000000000000000000000000000
IV:                       00400000000000000000000000000000
Plaintext:                00400000000000000000000000000000
Ciphertext:               58e15db885655047ddde651d68e0bb1791c53b8a16333a226749f46ef50dd6987151c8145315afd0b11488acffa2ccb0
Reciphers for ciphertext: 0
Decipheredtext:           00400000000000000000000000000000
RESULT CIPHER-DECIPHER: -----OK-----


Test: 10
Hash algorithm: 1
Symmetric key bit length: 192
IV bit length:            128
Plaintext bit length:     128
Symmetric key:            000000000000000000200000000000000000000000000000
IV:                       00200000000000000000000000000000
Plaintext:                00200000000000000000000000000000
Ciphertext:               dd7bc97e5c62a86590cabe53d62144a214da9b62071e6787350b455e6b068695541e9030d1a6172b812b1e0b
Reciphers for ciphertext: 0
Decipheredtext:           00200000000000000000000000000000
RESULT CIPHER-DECIPHER: -----OK-----


Test: 11
Hash algorithm: 10
Symmetric key bit length: 192
IV bit length:            128
Plaintext bit length:     128
Symmetric key:            000000000000000000100000000000000000000000000000
IV:                       00100000000000000000000000000000
Plaintext:                00100000000000000000000000000000
Ciphertext:               c7a32c9e1c92a87dc2e94c25da12ad5cca82c963f2f0ecc039cbd1a9ab64e021a8f99ae00200c056e49f7bfdc8ee902b6c8b99bb20afcf73
Reciphers for ciphertext: 0
Decipheredtext:           00100000000000000000000000000000
RESULT CIPHER-DECIPHER: -----OK-----


Test: 12
Hash algorithm: 12
Symmetric key bit length: 192
IV bit length:            128
Plaintext bit length:     128
Symmetric key:            000000000000000000080000000000000000000000000000
IV:                       00080000000000000000000000000000
Plaintext:                00080000000000000000000000000000
Ciphertext:               ab0f405bbd99912a9fd088a17d1391fa34cdb82091bc4c79deba6796d8e8d356
Reciphers for ciphertext: 0
Decipheredtext:           00080000000000000000000000000000
RESULT CIPHER-DECIPHER: -----OK-----


Test: 13
Hash algorithm: 0
Symmetric key bit length: 192
IV bit length:            128
Plaintext bit length:     128
Symmetric key:            000000000000000000040000000000000000000000000000
IV:                       00040000000000000000000000000000
Plaintext:                00040000000000000000000000000000
Ciphertext:               91879515e1d77f7c29131d97bfb87cbcce217adaf9b93c8d3a8a90b18389990814644bab
Reciphers for ciphertext: 0
Decipheredtext:           00040000000000000000000000000000
RESULT CIPHER-DECIPHER: -----OK-----


Test: 14
Hash algorithm: 13
Symmetric key bit length: 192
IV bit length:            128
Plaintext bit length:     128
Symmetric key:            000000000000000000020000000000000000000000000000
IV:                       00020000000000000000000000000000
Plaintext:                00020000000000000000000000000000
Ciphertext:               017b3fcb69f3f335755be06c09ed8c0cab8ce9561b5a7f47ec6ad61a6216825f
Reciphers for ciphertext: 0
Decipheredtext:           00020000000000000000000000000000
RESULT CIPHER-DECIPHER: -----OK-----


Test: 15
Hash algorithm: 5
Symmetric key bit length: 192
IV bit length:            128
Plaintext bit length:     128
Symmetric key:            000000000000000000010000000000000000000000000000
IV:                       00010000000000000000000000000000
Plaintext:                00010000000000000000000000000000
Ciphertext:               afb51a99da86fd341c4355450774c0931f92f4e43f7f228ca7497d4cb6c23fe6a59ef8ea3047350c55a3faf7
Reciphers for ciphertext: 0
Decipheredtext:           00010000000000000000000000000000
RESULT CIPHER-DECIPHER: -----OK-----


Test: 16
Hash algorithm: 5
Symmetric key bit length: 192
IV bit length:            128
Plaintext bit length:     128
Symmetric key:            000000000000000000008000000000000000000000000000
IV:                       00008000000000000000000000000000
Plaintext:                00008000000000000000000000000000
Ciphertext:               2db0216512ba4c56bc8cd465faeadf1c5b99320a8777110a4336247b5f66e298fdad915b4930679cdc39cb62
Reciphers for ciphertext: 0
Decipheredtext:           00008000000000000000000000000000
RESULT CIPHER-DECIPHER: -----OK-----


Test: 17
Hash algorithm: 0
Symmetric key bit length: 192
IV bit length:            128
Plaintext bit length:     128
Symmetric key:            000000000000000000004000000000000000000000000000
IV:                       00004000000000000000000000000000
Plaintext:                00004000000000000000000000000000
Ciphertext:               44d1bd7c812e653a669dd7b3b5108fad969a260613b8d3880690156c2348ddfaf9adffbf
Reciphers for ciphertext: 0
Decipheredtext:           00004000000000000000000000000000
RESULT CIPHER-DECIPHER: -----OK-----


Test: 18
Hash algorithm: 2
Symmetric key bit length: 192
IV bit length:            128
Plaintext bit length:     128
Symmetric key:            000000000000000000002000000000000000000000000000
IV:                       00002000000000000000000000000000
Plaintext:                00002000000000000000000000000000
Ciphertext:               17653c425b3789f213a1dcea47cdde33749ca3f37fb1b4f7ded0e997738429d0ed5c373602a776b50d8ebc05dec1a8b0
Reciphers for ciphertext: 0
Decipheredtext:           00002000000000000000000000000000
RESULT CIPHER-DECIPHER: -----OK-----


Test: 19
Hash algorithm: 11
Symmetric key bit length: 192
IV bit length:            128
Plaintext bit length:     128
Symmetric key:            000000000000000000001000000000000000000000000000
IV:                       00001000000000000000000000000000
Plaintext:                00001000000000000000000000000000
Ciphertext:               b8d4aac751b48ada7e35550aa495010ac20db67ee89ea92e990b41151eb85a3d
Reciphers for ciphertext: 0
Decipheredtext:           00001000000000000000000000000000
RESULT CIPHER-DECIPHER: -----OK-----


Test: 20
Hash algorithm: 0
Symmetric key bit length: 192
IV bit length:            128
Plaintext bit length:     128
Symmetric key:            000000000000000000000800000000000000000000000000
IV:                       00000800000000000000000000000000
Plaintext:                00000800000000000000000000000000
Ciphertext:               a5cd3424c49bbbdfd88e486b929a822dc0b60600591f773760ba153a95e9a0bcb24653d7
Reciphers for ciphertext: 0
Decipheredtext:           00000800000000000000000000000000
RESULT CIPHER-DECIPHER: -----OK-----


Test: 21
Hash algorithm: 2
Symmetric key bit length: 192
IV bit length:            128
Plaintext bit length:     128
Symmetric key:            000000000000000000000400000000000000000000000000
IV:                       00000400000000000000000000000000
Plaintext:                00000400000000000000000000000000
Ciphertext:               306a9e05878255d401f33a129cead7ec08118d3b21742464f474a0db644721bf4f576f0cb4dbd7b7a4406eedcb676198
Reciphers for ciphertext: 0
Decipheredtext:           00000400000000000000000000000000
RESULT CIPHER-DECIPHER: -----OK-----


Test: 22
Hash algorithm: 8
Symmetric key bit length: 192
IV bit length:            128
Plaintext bit length:     128
Symmetric key:            000000000000000000000200000000000000000000000000
IV:                       00000200000000000000000000000000
Plaintext:                00000200000000000000000000000000
Ciphertext:               c361cac7ec463ba1bdb83f5a94afddaa7e02880075444aed7bd83d5b7bd37b2db32f97d1
Reciphers for ciphertext: 0
Decipheredtext:           00000200000000000000000000000000
RESULT CIPHER-DECIPHER: -----OK-----


Test: 23
Hash algorithm: 9
Symmetric key bit length: 192
IV bit length:            128
Plaintext bit length:     128
Symmetric key:            000000000000000000000100000000000000000000000000
IV:                       00000100000000000000000000000000
Plaintext:                00000100000000000000000000000000
Ciphertext:               a7c1796cbca7c7b73f137f9b5022f9189cd83204c34d32d52bb6b5c179ffff5d1143cf8dd849f1340a5ccc28b823c530
Reciphers for ciphertext: 0
Decipheredtext:           00000100000000000000000000000000
RESULT CIPHER-DECIPHER: -----OK-----


Test: 24
Hash algorithm: 0
Symmetric key bit length: 192
IV bit length:            128
Plaintext bit length:     128
Symmetric key:            000000000000000000000080000000000000000000000000
IV:                       00000080000000000000000000000000
Plaintext:                00000080000000000000000000000000
Ciphertext:               d72674b75b322b717b10855ba1c32b8b04c9b31a5b9f53d1653aee69efc2dbba6eda6bda
Reciphers for ciphertext: 0
Decipheredtext:           00000080000000000000000000000000
RESULT CIPHER-DECIPHER: -----OK-----


Test: 25
Hash algorithm: 0
Symmetric key bit length: 192
IV bit length:            128
Plaintext bit length:     128
Symmetric key:            000000000000000000000040000000000000000000000000
IV:                       00000040000000000000000000000000
Plaintext:                00000040000000000000000000000000
Ciphertext:               449fe1365c75088e901c976ce43115538e796ff3195406c8ebcd95ac1f8952260bf3a155
Reciphers for ciphertext: 0
Decipheredtext:           00000040000000000000000000000000
RESULT CIPHER-DECIPHER: -----OK-----


Test: 26
Hash algorithm: 7
Symmetric key bit length: 192
IV bit length:            128
Plaintext bit length:     128
Symmetric key:            000000000000000000000020000000000000000000000000
IV:                       00000020000000000000000000000000
Plaintext:                00000020000000000000000000000000
Ciphertext:               addbe9dad98b365c412ad97159cd7ee6efb2ba2dd39ce54ab19f079dbba17b09
Reciphers for ciphertext: 0
Decipheredtext:           00000020000000000000000000000000
RESULT CIPHER-DECIPHER: -----OK-----


Test: 27
Hash algorithm: 2
Symmetric key bit length: 192
IV bit length:            128
Plaintext bit length:     128
Symmetric key:            000000000000000000000010000000000000000000000000
IV:                       00000010000000000000000000000000
Plaintext:                00000010000000000000000000000000
Ciphertext:               6aedbf894c336b7fc74407b780bcb54ca8e6321d38b8a8697b5c39a6d79c007677a4c298d1a8e6457ba678ffd2d491bf
Reciphers for ciphertext: 0
Decipheredtext:           00000010000000000000000000000000
RESULT CIPHER-DECIPHER: -----OK-----


Test: 28
Hash algorithm: 9
Symmetric key bit length: 192
IV bit length:            128
Plaintext bit length:     128
Symmetric key:            000000000000000000000008000000000000000000000000
IV:                       00000008000000000000000000000000
Plaintext:                00000008000000000000000000000000
Ciphertext:               87282e249684861642a451ec41f359709924f9536def137b2175df1a62f944d3bc24413acd9b4c03de6664fb2d6f7bbd
Reciphers for ciphertext: 0
Decipheredtext:           00000008000000000000000000000000
RESULT CIPHER-DECIPHER: -----OK-----


Test: 29
Hash algorithm: 13
Symmetric key bit length: 192
IV bit length:            128
Plaintext bit length:     128
Symmetric key:            000000000000000000000004000000000000000000000000
IV:                       00000004000000000000000000000000
Plaintext:                00000004000000000000000000000000
Ciphertext:               80c7e768cef6c9fa89d8209c3b265fca3b278945200ef8c8d5558704026170a2
Reciphers for ciphertext: 0
Decipheredtext:           00000004000000000000000000000000
RESULT CIPHER-DECIPHER: -----OK-----


Test: 30
Hash algorithm: 8
Symmetric key bit length: 192
IV bit length:            128
Plaintext bit length:     128
Symmetric key:            000000000000000000000002000000000000000000000000
IV:                       00000002000000000000000000000000
Plaintext:                00000002000000000000000000000000
Ciphertext:               03f9951b9a01bd130b47c33f312f1c3ba0d5ffac857da35c263c71d79890c19b8d7e9229
Reciphers for ciphertext: 0
Decipheredtext:           00000002000000000000000000000000
RESULT CIPHER-DECIPHER: -----OK-----


Test: 31
Hash algorithm: 2
Symmetric key bit length: 192
IV bit length:            128
Plaintext bit length:     128
Symmetric key:            000000000000000000000001000000000000000000000000
IV:                       00000001000000000000000000000000
Plaintext:                00000001000000000000000000000000
Ciphertext:               5777609b58d1ef790dc880bc929b1f489b280b2fb2fbb65fb8deffd6e5f761224a6b4228a341f051719fb3073cb49685
Reciphers for ciphertext: 0
Decipheredtext:           00000001000000000000000000000000
RESULT CIPHER-DECIPHER: -----OK-----


Test: 32
Hash algorithm: 5
Symmetric key bit length: 192
IV bit length:            128
Plaintext bit length:     128
Symmetric key:            000000000000000000000000800000000000000000000000
IV:                       00000000800000000000000000000000
Plaintext:                00000000800000000000000000000000
Ciphertext:               485b96d03b7325ee73df360556fed5464cacb5582f574caf303f44124172b08f6be25b59490a3a9a37f8d2d4
Reciphers for ciphertext: 0
Decipheredtext:           00000000800000000000000000000000
RESULT CIPHER-DECIPHER: -----OK-----


Test: 33
Hash algorithm: 11
Symmetric key bit length: 192
IV bit length:            128
Plaintext bit length:     128
Symmetric key:            000000000000000000000000400000000000000000000000
IV:                       00000000400000000000000000000000
Plaintext:                00000000400000000000000000000000
Ciphertext:               52266440feccb42828a2065998c7e02607926ad4b1e8cb142ffc40008b67629a
Reciphers for ciphertext: 0
Decipheredtext:           00000000400000000000000000000000
RESULT CIPHER-DECIPHER: -----OK-----


Test: 34
Hash algorithm: 13
Symmetric key bit length: 192
IV bit length:            128
Plaintext bit length:     128
Symmetric key:            000000000000000000000000200000000000000000000000
IV:                       00000000200000000000000000000000
Plaintext:                00000000200000000000000000000000
Ciphertext:               0dbe45e556a7375ac3e11cf96b53f843bf48f0f6ed5b547b502e2cf25c3f393e
Reciphers for ciphertext: 0
Decipheredtext:           00000000200000000000000000000000
RESULT CIPHER-DECIPHER: -----OK-----


Test: 35
Hash algorithm: 10
Symmetric key bit length: 192
IV bit length:            128
Plaintext bit length:     128
Symmetric key:            000000000000000000000000100000000000000000000000
IV:                       00000000100000000000000000000000
Plaintext:                00000000100000000000000000000000
Ciphertext:               50be66256bc7fef05748f6385136e98c872fae67617265802797290c02c89874ef476e0d79c51f28a68fce73d901222abdbe3cb708f7bd68
Reciphers for ciphertext: 0
Decipheredtext:           00000000100000000000000000000000
RESULT CIPHER-DECIPHER: -----OK-----


Test: 36
Hash algorithm: 13
Symmetric key bit length: 192
IV bit length:            128
Plaintext bit length:     128
Symmetric key:            000000000000000000000000080000000000000000000000
IV:                       00000000080000000000000000000000
Plaintext:                00000000080000000000000000000000
Ciphertext:               e2452a8a3fb4fc21744cdd032ba6ee26bc2e1db1545397d488eb7fc8ec14bfb1
Reciphers for ciphertext: 0
Decipheredtext:           00000000080000000000000000000000
RESULT CIPHER-DECIPHER: -----OK-----


Test: 37
Hash algorithm: 11
Symmetric key bit length: 192
IV bit length:            128
Plaintext bit length:     128
Symmetric key:            000000000000000000000000040000000000000000000000
IV:                       00000000040000000000000000000000
Plaintext:                00000000040000000000000000000000
Ciphertext:               ac82983b8a3e9ca568a5ed14a713743eabee25f2863ec6a7dd9c3c90cd5f3baf
Reciphers for ciphertext: 0
Decipheredtext:           00000000040000000000000000000000
RESULT CIPHER-DECIPHER: -----OK-----


Test: 38
Hash algorithm: 13
Symmetric key bit length: 192
IV bit length:            128
Plaintext bit length:     128
Symmetric key:            000000000000000000000000020000000000000000000000
IV:                       00000000020000000000000000000000
Plaintext:                00000000020000000000000000000000
Ciphertext:               848fdc9b02aa5b8c9bc33f532c80adcd5a7f41bf0cbfdb98a3550a64f86d68d9
Reciphers for ciphertext: 0
Decipheredtext:           00000000020000000000000000000000
RESULT CIPHER-DECIPHER: -----OK-----


Test: 39
Hash algorithm: 8
Symmetric key bit length: 192
IV bit length:            128
Plaintext bit length:     128
Symmetric key:            000000000000000000000000010000000000000000000000
IV:                       00000000010000000000000000000000
Plaintext:                00000000010000000000000000000000
Ciphertext:               72efc198df78886492401deaa904884e6a48af2d1281f0954d48d8bb435b11089bf5fb8e
Reciphers for ciphertext: 0
Decipheredtext:           00000000010000000000000000000000
RESULT CIPHER-DECIPHER: -----OK-----


Test: 40
Hash algorithm: 12
Symmetric key bit length: 192
IV bit length:            128
Plaintext bit length:     128
Symmetric key:            000000000000000000000000008000000000000000000000
IV:                       00000000008000000000000000000000
Plaintext:                00000000008000000000000000000000
Ciphertext:               487b17ef34f8e9d10d4ebcc0b6e8dd63fad479aabf97184db1d0be31c9b67ef4
Reciphers for ciphertext: 0
Decipheredtext:           00000000008000000000000000000000
RESULT CIPHER-DECIPHER: -----OK-----


Test: 41
Hash algorithm: 2
Symmetric key bit length: 192
IV bit length:            128
Plaintext bit length:     128
Symmetric key:            000000000000000000000000004000000000000000000000
IV:                       00000000004000000000000000000000
Plaintext:                00000000004000000000000000000000
Ciphertext:               c42291d2482228362d5bb8514bad1c9e972904dbbf5a811f7defdaceaa1fb49a7f4ff47509c2e49aa4f2740f2c54fcf8
Reciphers for ciphertext: 0
Decipheredtext:           00000000004000000000000000000000
RESULT CIPHER-DECIPHER: -----OK-----


Test: 42
Hash algorithm: 8
Symmetric key bit length: 192
IV bit length:            128
Plaintext bit length:     128
Symmetric key:            000000000000000000000000002000000000000000000000
IV:                       00000000002000000000000000000000
Plaintext:                00000000002000000000000000000000
Ciphertext:               9848c42c6f5828c76d8b419cb3c560500f9b697e8f436e420bccaea84ec14349d4d15633
Reciphers for ciphertext: 0
Decipheredtext:           00000000002000000000000000000000
RESULT CIPHER-DECIPHER: -----OK-----


Test: 43
Hash algorithm: 1
Symmetric key bit length: 192
IV bit length:            128
Plaintext bit length:     128
Symmetric key:            000000000000000000000000001000000000000000000000
IV:                       00000000001000000000000000000000
Plaintext:                00000000001000000000000000000000
Ciphertext:               a4274e5bff1e697e6693d61c0edc4c2950643b0d0de076461b81860408bb3a3b0b0e826a974e450d51653b17
Reciphers for ciphertext: 0
Decipheredtext:           00000000001000000000000000000000
RESULT CIPHER-DECIPHER: -----OK-----


Test: 44
Hash algorithm: 6
Symmetric key bit length: 192
IV bit length:            128
Plaintext bit length:     128
Symmetric key:            000000000000000000000000000800000000000000000000
IV:                       00000000000800000000000000000000
Plaintext:                00000000000800000000000000000000
Ciphertext:               b933a32dc5ee387f29395e98be5e3d7dddabc878605fc769ba06a329ea97d821f4eee64b301518900f9a69a6469e955f
Reciphers for ciphertext: 0
Decipheredtext:           00000000000800000000000000000000
RESULT CIPHER-DECIPHER: -----OK-----


Test: 45
Hash algorithm: 9
Symmetric key bit length: 192
IV bit length:            128
Plaintext bit length:     128
Symmetric key:            000000000000000000000000000400000000000000000000
IV:                       00000000000400000000000000000000
Plaintext:                00000000000400000000000000000000
Ciphertext:               717526c38dc1f4dd1b63c31710e90bdeba0b3ad2391db1c6adf27da5e4ad5aced5270573419d9a6f88f0305a22734899
Reciphers for ciphertext: 0
Decipheredtext:           00000000000400000000000000000000
RESULT CIPHER-DECIPHER: -----OK-----


Test: 46
Hash algorithm: 12
Symmetric key bit length: 192
IV bit length:            128
Plaintext bit length:     128
Symmetric key:            000000000000000000000000000200000000000000000000
IV:                       00000000000200000000000000000000
Plaintext:                00000000000200000000000000000000
Ciphertext:               228dc24354f3b1416fc2c801ac8532ebfe392a7c5f3b4f1247a4a9be5f5e79a3
Reciphers for ciphertext: 0
Decipheredtext:           00000000000200000000000000000000
RESULT CIPHER-DECIPHER: -----OK-----


Test: 47
Hash algorithm: 5
Symmetric key bit length: 192
IV bit length:            128
Plaintext bit length:     128
Symmetric key:            000000000000000000000000000100000000000000000000
IV:                       00000000000100000000000000000000
Plaintext:                00000000000100000000000000000000
Ciphertext:               c29254a75fa97cdd4e79111b119188117858cdd088af7fed8093975359bfcf560184647ffe68903520bac1e0
Reciphers for ciphertext: 0
Decipheredtext:           00000000000100000000000000000000
RESULT CIPHER-DECIPHER: -----OK-----


Test: 48
Hash algorithm: 8
Symmetric key bit length: 192
IV bit length:            128
Plaintext bit length:     128
Symmetric key:            000000000000000000000000000080000000000000000000
IV:                       00000000000080000000000000000000
Plaintext:                00000000000080000000000000000000
Ciphertext:               522b4cc130b7573b15277dcfa33f9056e2d1aed2966ff17b715ea8b5e0564567b30a3fe2
Reciphers for ciphertext: 0
Decipheredtext:           00000000000080000000000000000000
RESULT CIPHER-DECIPHER: -----OK-----


Test: 49
Hash algorithm: 8
Symmetric key bit length: 192
IV bit length:            128
Plaintext bit length:     128
Symmetric key:            000000000000000000000000000040000000000000000000
IV:                       00000000000040000000000000000000
Plaintext:                00000000000040000000000000000000
Ciphertext:               6424c42341de922db410ddf21a45f9edf1017b423b0c7be8484296ab91d8418b0e108df6
Reciphers for ciphertext: 0
Decipheredtext:           00000000000040000000000000000000
RESULT CIPHER-DECIPHER: -----OK-----


Test: 50
Hash algorithm: 12
Symmetric key bit length: 192
IV bit length:            128
Plaintext bit length:     128
Symmetric key:            000000000000000000000000000020000000000000000000
IV:                       00000000000020000000000000000000
Plaintext:                00000000000020000000000000000000
Ciphertext:               5c8f16efbc2247b420f677698390dd7a8b126c3ff3ccba00ddaec7d0f6f3276f
Reciphers for ciphertext: 0
Decipheredtext:           00000000000020000000000000000000
RESULT CIPHER-DECIPHER: -----OK-----


Test: 51
Hash algorithm: 6
Symmetric key bit length: 192
IV bit length:            128
Plaintext bit length:     128
Symmetric key:            000000000000000000000000000010000000000000000000
IV:                       00000000000010000000000000000000
Plaintext:                00000000000010000000000000000000
Ciphertext:               6ea875af260484674387c9eece96e3e1a6525d4ee34c2324b17aa2b388a115ad33c3a8cb7cd746bd515b85c228aee722
Reciphers for ciphertext: 0
Decipheredtext:           00000000000010000000000000000000
RESULT CIPHER-DECIPHER: -----OK-----


Test: 52
Hash algorithm: 2
Symmetric key bit length: 192
IV bit length:            128
Plaintext bit length:     128
Symmetric key:            000000000000000000000000000008000000000000000000
IV:                       00000000000008000000000000000000
Plaintext:                00000000000008000000000000000000
Ciphertext:               953aab3d081c796674a1694fa1a4e74366b9100541679f73e2336a42a12c34ac80d6d247a1266603cf0b024eea5c93fc
Reciphers for ciphertext: 0
Decipheredtext:           00000000000008000000000000000000
RESULT CIPHER-DECIPHER: -----OK-----


Test: 53
Hash algorithm: 1
Symmetric key bit length: 192
IV bit length:            128
Plaintext bit length:     128
Symmetric key:            000000000000000000000000000004000000000000000000
IV:                       00000000000004000000000000000000
Plaintext:                00000000000004000000000000000000
Ciphertext:               c8bd2bfa0b0873ba39dc06e9c6aceb98efed9506271a8ea16da718214450a8a96610d8f79d0b39d86f807c64
Reciphers for ciphertext: 0
Decipheredtext:           00000000000004000000000000000000
RESULT CIPHER-DECIPHER: -----OK-----


Test: 54
Hash algorithm: 0
Symmetric key bit length: 192
IV bit length:            128
Plaintext bit length:     128
Symmetric key:            000000000000000000000000000002000000000000000000
IV:                       00000000000002000000000000000000
Plaintext:                00000000000002000000000000000000
Ciphertext:               e4a5b3b053b3ca87dbfba0ccca32e441509af439262c754eecdd6bed86a6de7c5dfcf896
Reciphers for ciphertext: 0
Decipheredtext:           00000000000002000000000000000000
RESULT CIPHER-DECIPHER: -----OK-----


Test: 55
Hash algorithm: 2
Symmetric key bit length: 192
IV bit length:            128
Plaintext bit length:     128
Symmetric key:            000000000000000000000000000001000000000000000000
IV:                       00000000000001000000000000000000
Plaintext:                00000000000001000000000000000000
Ciphertext:               2f94575f4d473541d2f43dbb2e33f4008c26fb66e921a3644c0f66fd6039acec888d09a7af1ac8cc21e52e2d85eedd67
Reciphers for ciphertext: 0
Decipheredtext:           00000000000001000000000000000000
RESULT CIPHER-DECIPHER: -----OK-----


Test: 56
Hash algorithm: 2
Symmetric key bit length: 192
IV bit length:            128
Plaintext bit length:     128
Symmetric key:            000000000000000000000000000000800000000000000000
IV:                       00000000000000800000000000000000
Plaintext:                00000000000000800000000000000000
Ciphertext:               396dba7192ceb783f8f73882a62d586d9d223ceae0c5509e5748e1c1242e33166e827f4504841e2d75023c8fc5140ab3
Reciphers for ciphertext: 0
Decipheredtext:           00000000000000800000000000000000
RESULT CIPHER-DECIPHER: -----OK-----


Test: 57
Hash algorithm: 8
Symmetric key bit length: 192
IV bit length:            128
Plaintext bit length:     128
Symmetric key:            000000000000000000000000000000400000000000000000
IV:                       00000000000000400000000000000000
Plaintext:                00000000000000400000000000000000
Ciphertext:               4cf43799c3a5a1dfa3ab6cb69d1a2e61ee94380241ddfc2046d4e85355a18c790f981db9
Reciphers for ciphertext: 0
Decipheredtext:           00000000000000400000000000000000
RESULT CIPHER-DECIPHER: -----OK-----


Test: 58
Hash algorithm: 10
Symmetric key bit length: 192
IV bit length:            128
Plaintext bit length:     128
Symmetric key:            000000000000000000000000000000200000000000000000
IV:                       00000000000000200000000000000000
Plaintext:                00000000000000200000000000000000
Ciphertext:               ec6ee8d944e4108ae3edda59eb77dc38e2a8a85cd27a801f0bb5759743a621fecd4518d874662b777744b19bac133bcc8c801c6e6b5cb01d
Reciphers for ciphertext: 0
Decipheredtext:           00000000000000200000000000000000
RESULT CIPHER-DECIPHER: -----OK-----


Test: 59
Hash algorithm: 6
Symmetric key bit length: 192
IV bit length:            128
Plaintext bit length:     128
Symmetric key:            000000000000000000000000000000100000000000000000
IV:                       00000000000000100000000000000000
Plaintext:                00000000000000100000000000000000
Ciphertext:               1f848733025068db25b203f1615be28f5e83f9465819eceb329965e6ed1c66135a854efb433925358c7754552b220d17
Reciphers for ciphertext: 0
Decipheredtext:           00000000000000100000000000000000
RESULT CIPHER-DECIPHER: -----OK-----


Test: 60
Hash algorithm: 6
Symmetric key bit length: 192
IV bit length:            128
Plaintext bit length:     128
Symmetric key:            000000000000000000000000000000080000000000000000
IV:                       00000000000000080000000000000000
Plaintext:                00000000000000080000000000000000
Ciphertext:               8de3fccfcf49690a92a0c65f6102972be07db8191ff445f7ea6b46bb93b983c0168d0aa05c0df82383e24324aae82c5c
Reciphers for ciphertext: 0
Decipheredtext:           00000000000000080000000000000000
RESULT CIPHER-DECIPHER: -----OK-----


Test: 61
Hash algorithm: 10
Symmetric key bit length: 192
IV bit length:            128
Plaintext bit length:     128
Symmetric key:            000000000000000000000000000000040000000000000000
IV:                       00000000000000040000000000000000
Plaintext:                00000000000000040000000000000000
Ciphertext:               420b90bf42a14575642820b91c16662e83ad903d639446678a123148b14ef9d580ef3bb066b7c6e6f414e6ae35dbc33bcd99a5e663ff0d5e
Reciphers for ciphertext: 0
Decipheredtext:           00000000000000040000000000000000
RESULT CIPHER-DECIPHER: -----OK-----


Test: 62
Hash algorithm: 12
Symmetric key bit length: 192
IV bit length:            128
Plaintext bit length:     128
Symmetric key:            000000000000000000000000000000020000000000000000
IV:                       00000000000000020000000000000000
Plaintext:                00000000000000020000000000000000
Ciphertext:               85205213f27cc9ebe191ba0ac04020c3cb096921afaab7f53a0a9384467083a7
Reciphers for ciphertext: 0
Decipheredtext:           00000000000000020000000000000000
RESULT CIPHER-DECIPHER: -----OK-----


Test: 63
Hash algorithm: 10
Symmetric key bit length: 192
IV bit length:            128
Plaintext bit length:     128
Symmetric key:            000000000000000000000000000000010000000000000000
IV:                       00000000000000010000000000000000
Plaintext:                00000000000000010000000000000000
Ciphertext:               b80ab319916c09af3900bcb01dc5680420bb330ac23d47d1ebee8c7894becd07d68eba1aefd3c2a92001edb3ca36c5fb48bb4acec6297a07
Reciphers for ciphertext: 0
Decipheredtext:           00000000000000010000000000000000
RESULT CIPHER-DECIPHER: -----OK-----


Test: 64
Hash algorithm: 7
Symmetric key bit length: 192
IV bit length:            128
Plaintext bit length:     128
Symmetric key:            000000000000000000000000000000008000000000000000
IV:                       00000000000000008000000000000000
Plaintext:                00000000000000008000000000000000
Ciphertext:               5571c24830139fd81e53ae0d48829b22729d73839e61efd9e0a82c13bd567953
Reciphers for ciphertext: 0
Decipheredtext:           00000000000000008000000000000000
RESULT CIPHER-DECIPHER: -----OK-----


Test: 65
Hash algorithm: 7
Symmetric key bit length: 192
IV bit length:            128
Plaintext bit length:     128
Symmetric key:            000000000000000000000000000000004000000000000000
IV:                       00000000000000004000000000000000
Plaintext:                00000000000000004000000000000000
Ciphertext:               847a916a6ad438c506ff80cee7293896e02f0e872b915c5672f807ba526f9922
Reciphers for ciphertext: 0
Decipheredtext:           00000000000000004000000000000000
RESULT CIPHER-DECIPHER: -----OK-----


Test: 66
Hash algorithm: 12
Symmetric key bit length: 192
IV bit length:            128
Plaintext bit length:     128
Symmetric key:            000000000000000000000000000000002000000000000000
IV:                       00000000000000002000000000000000
Plaintext:                00000000000000002000000000000000
Ciphertext:               d2f2b0a0cf6767a86bc9b26935be63f47b1ea4621a2bca57de204b44ac4d7982
Reciphers for ciphertext: 0
Decipheredtext:           00000000000000002000000000000000
RESULT CIPHER-DECIPHER: -----OK-----


Test: 67
Hash algorithm: 9
Symmetric key bit length: 192
IV bit length:            128
Plaintext bit length:     128
Symmetric key:            000000000000000000000000000000001000000000000000
IV:                       00000000000000001000000000000000
Plaintext:                00000000000000001000000000000000
Ciphertext:               7300612cb37d1a8c8c299841871841d0163ff91c080d769606aa50af205cd73f3a5d209ad0053c2546b5945a26f30cd6
Reciphers for ciphertext: 0
Decipheredtext:           00000000000000001000000000000000
RESULT CIPHER-DECIPHER: -----OK-----


Test: 68
Hash algorithm: 4
Symmetric key bit length: 192
IV bit length:            128
Plaintext bit length:     128
Symmetric key:            000000000000000000000000000000000800000000000000
IV:                       00000000000000000800000000000000
Plaintext:                00000000000000000800000000000000
Ciphertext:               dc48d7dd138512f23a145e59e346d47c77a21b65706cb2e3fd57f0c05d6f0a392c842c0cc5e4683b8010624204d5a522a0debb08136b78435b170009122a03418f227345fb08c580c514dd80923cd334
Reciphers for ciphertext: 0
Decipheredtext:           00000000000000000800000000000000
RESULT CIPHER-DECIPHER: -----OK-----


Test: 69
Hash algorithm: 10
Symmetric key bit length: 192
IV bit length:            128
Plaintext bit length:     128
Symmetric key:            000000000000000000000000000000000400000000000000
IV:                       00000000000000000400000000000000
Plaintext:                00000000000000000400000000000000
Ciphertext:               56436ffc35caaa0b83b318be4e9f4749e64995bd769c5eab5a7a9b8f4e148640796b4e5fa8c6b5af6fe834393b215666f80190026758c437
Reciphers for ciphertext: 0
Decipheredtext:           00000000000000000400000000000000
RESULT CIPHER-DECIPHER: -----OK-----


Test: 70
Hash algorithm: 0
Symmetric key bit length: 192
IV bit length:            128
Plaintext bit length:     128
Symmetric key:            000000000000000000000000000000000200000000000000
IV:                       00000000000000000200000000000000
Plaintext:                00000000000000000200000000000000
Ciphertext:               c3bc29ed3af762c70f51c2c69ad125d9564e8c5f15d65d76ef3b0d06386123788a36eab6
Reciphers for ciphertext: 0
Decipheredtext:           00000000000000000200000000000000
RESULT CIPHER-DECIPHER: -----OK-----


Test: 71
Hash algorithm: 1
Symmetric key bit length: 192
IV bit length:            128
Plaintext bit length:     128
Symmetric key:            000000000000000000000000000000000100000000000000
IV:                       00000000000000000100000000000000
Plaintext:                00000000000000000100000000000000
Ciphertext:               a9b4b2869ab466aff894d31587d1e69ed5d34f506a71f4846e19d045592eb918c8f6956d3ffee785a6dd72bb
Reciphers for ciphertext: 0
Decipheredtext:           00000000000000000100000000000000
RESULT CIPHER-DECIPHER: -----OK-----


Test: 72
Hash algorithm: 0
Symmetric key bit length: 192
IV bit length:            128
Plaintext bit length:     128
Symmetric key:            000000000000000000000000000000000080000000000000
IV:                       00000000000000000080000000000000
Plaintext:                00000000000000000080000000000000
Ciphertext:               5221b2c6a04dddd23aa696022752f9dd367559275fc9f511912f3863e950a093b1bb6ee9
Reciphers for ciphertext: 0
Decipheredtext:           00000000000000000080000000000000
RESULT CIPHER-DECIPHER: -----OK-----


Test: 73
Hash algorithm: 5
Symmetric key bit length: 192
IV bit length:            128
Plaintext bit length:     128
Symmetric key:            000000000000000000000000000000000040000000000000
IV:                       00000000000000000040000000000000
Plaintext:                00000000000000000040000000000000
Ciphertext:               6bf806894b33f1351f1562c405340ec96bffb4365ae8c6b754b7e0ac5cd598edbd735db554e765c16c02135c
Reciphers for ciphertext: 0
Decipheredtext:           00000000000000000040000000000000
RESULT CIPHER-DECIPHER: -----OK-----


Test: 74
Hash algorithm: 1
Symmetric key bit length: 192
IV bit length:            128
Plaintext bit length:     128
Symmetric key:            000000000000000000000000000000000020000000000000
IV:                       00000000000000000020000000000000
Plaintext:                00000000000000000020000000000000
Ciphertext:               b3bdaddf3b9af4b1469215912a408192a20872918ac5d69583d7e93c24a9f825b40daf031f485ce5b490dd71
Reciphers for ciphertext: 0
Decipheredtext:           00000000000000000020000000000000
RESULT CIPHER-DECIPHER: -----OK-----


Test: 75
Hash algorithm: 8
Symmetric key bit length: 192
IV bit length:            128
Plaintext bit length:     128
Symmetric key:            000000000000000000000000000000000010000000000000
IV:                       00000000000000000010000000000000
Plaintext:                00000000000000000010000000000000
Ciphertext:               faa9cf81b16cfe04ffafca706d76ce1fe012b34f80e89feabbe4a696d0e02c55b6de3922
Reciphers for ciphertext: 0
Decipheredtext:           00000000000000000010000000000000
RESULT CIPHER-DECIPHER: -----OK-----


Test: 76
Hash algorithm: 12
Symmetric key bit length: 192
IV bit length:            128
Plaintext bit length:     128
Symmetric key:            000000000000000000000000000000000008000000000000
IV:                       00000000000000000008000000000000
Plaintext:                00000000000000000008000000000000
Ciphertext:               4a17660dab07c12f293ac95e4734bcc7ba174eae348fec1f0813510f275391d0
Reciphers for ciphertext: 0
Decipheredtext:           00000000000000000008000000000000
RESULT CIPHER-DECIPHER: -----OK-----


Test: 77
Hash algorithm: 6
Symmetric key bit length: 192
IV bit length:            128
Plaintext bit length:     128
Symmetric key:            000000000000000000000000000000000004000000000000
IV:                       00000000000000000004000000000000
Plaintext:                00000000000000000004000000000000
Ciphertext:               b6392d723f995110da1a25a836d80a493e729858376a05bba18d01047f8e32ee101581611105db08a849c9945841b5a6
Reciphers for ciphertext: 0
Decipheredtext:           00000000000000000004000000000000
RESULT CIPHER-DECIPHER: -----OK-----


Test: 78
Hash algorithm: 0
Symmetric key bit length: 192
IV bit length:            128
Plaintext bit length:     128
Symmetric key:            000000000000000000000000000000000002000000000000
IV:                       00000000000000000002000000000000
Plaintext:                00000000000000000002000000000000
Ciphertext:               3c16dbca6279c4712e16036bfc93400e064a9d723426540018ef311c32b065a0c8f3a7f1
Reciphers for ciphertext: 0
Decipheredtext:           00000000000000000002000000000000
RESULT CIPHER-DECIPHER: -----OK-----


Test: 79
Hash algorithm: 4
Symmetric key bit length: 192
IV bit length:            128
Plaintext bit length:     128
Symmetric key:            000000000000000000000000000000000001000000000000
IV:                       00000000000000000001000000000000
Plaintext:                00000000000000000001000000000000
Ciphertext:               3a766f99b6e1fc6dbbff02c9972da89de848f13cf94a177138f6c670f24a57bcb0e3c57e616394e69e5f3daffdabe2a925e4b4b928884a1d345b11774c17fc5d3cb89d9dd7f45084baf4171912a65038
Reciphers for ciphertext: 0
Decipheredtext:           00000000000000000001000000000000
RESULT CIPHER-DECIPHER: -----OK-----


Test: 80
Hash algorithm: 0
Symmetric key bit length: 192
IV bit length:            128
Plaintext bit length:     128
Symmetric key:            000000000000000000000000000000000000800000000000
IV:                       00000000000000000000800000000000
Plaintext:                00000000000000000000800000000000
Ciphertext:               a82887bcee9f690562ea125dff9c4a417309c37666e91954b355839cc054304bd9b83498
Reciphers for ciphertext: 0
Decipheredtext:           00000000000000000000800000000000
RESULT CIPHER-DECIPHER: -----OK-----


Test: 81
Hash algorithm: 8
Symmetric key bit length: 192
IV bit length:            128
Plaintext bit length:     128
Symmetric key:            000000000000000000000000000000000000400000000000
IV:                       00000000000000000000400000000000
Plaintext:                00000000000000000000400000000000
Ciphertext:               fa63a0b53631b12752233fa24f358627624b119b611e4c4f4f113d40501dd6ebf3468d64
Reciphers for ciphertext: 0
Decipheredtext:           00000000000000000000400000000000
RESULT CIPHER-DECIPHER: -----OK-----


Test: 82
Hash algorithm: 10
Symmetric key bit length: 192
IV bit length:            128
Plaintext bit length:     128
Symmetric key:            000000000000000000000000000000000000200000000000
IV:                       00000000000000000000200000000000
Plaintext:                00000000000000000000200000000000
Ciphertext:               e9d1ef92643dbe0fa1d04054adc400b6c092642ddad657f1653bc4358a323b367efcbab903e4e4143b27ab736be970472a399cc113c31d92
Reciphers for ciphertext: 0
Decipheredtext:           00000000000000000000200000000000
RESULT CIPHER-DECIPHER: -----OK-----


Test: 83
Hash algorithm: 2
Symmetric key bit length: 192
IV bit length:            128
Plaintext bit length:     128
Symmetric key:            000000000000000000000000000000000000100000000000
IV:                       00000000000000000000100000000000
Plaintext:                00000000000000000000100000000000
Ciphertext:               b80f8a8c967456e95754d5fc7756216fa98807118403f1de947d2efbad2e7cb74a4fc57764fcd43e59e1b1d4a7e06ac6
Reciphers for ciphertext: 0
Decipheredtext:           00000000000000000000100000000000
RESULT CIPHER-DECIPHER: -----OK-----


Test: 84
Hash algorithm: 13
Symmetric key bit length: 192
IV bit length:            128
Plaintext bit length:     128
Symmetric key:            000000000000000000000000000000000000080000000000
IV:                       00000000000000000000080000000000
Plaintext:                00000000000000000000080000000000
Ciphertext:               a447245c1ab7b2443fb3092d6e6e1474325a3bbb1a6d98b06b782d9cc55608d2
Reciphers for ciphertext: 0
Decipheredtext:           00000000000000000000080000000000
RESULT CIPHER-DECIPHER: -----OK-----


Test: 85
Hash algorithm: 3
Symmetric key bit length: 192
IV bit length:            128
Plaintext bit length:     128
Symmetric key:            000000000000000000000000000000000000040000000000
IV:                       00000000000000000000040000000000
Plaintext:                00000000000000000000040000000000
Ciphertext:               3c57911e738efb28ec034b20d18966905499fa34d4015d01644692e2135431ba30725fd5051765e69b9c5b8edcaf32f02928e29f8c8e92b308b6b214c6bd84d4
Reciphers for ciphertext: 0
Decipheredtext:           00000000000000000000040000000000
RESULT CIPHER-DECIPHER: -----OK-----


Test: 86
Hash algorithm: 8
Symmetric key bit length: 192
IV bit length:            128
Plaintext bit length:     128
Symmetric key:            000000000000000000000000000000000000020000000000
IV:                       00000000000000000000020000000000
Plaintext:                00000000000000000000020000000000
Ciphertext:               aeb98e0f8effd9b8ed6dcf610cbd235a47c549f58c3c4a66d749cb36880ab375ed506cb2
Reciphers for ciphertext: 0
Decipheredtext:           00000000000000000000020000000000
RESULT CIPHER-DECIPHER: -----OK-----


Test: 87
Hash algorithm: 3
Symmetric key bit length: 192
IV bit length:            128
Plaintext bit length:     128
Symmetric key:            000000000000000000000000000000000000010000000000
IV:                       00000000000000000000010000000000
Plaintext:                00000000000000000000010000000000
Ciphertext:               317da751723752c301e1820593d094dbbf087037f0e268785a45377b4225d941b60e7fd243cd6bee68f525f9e465b66481a59a26fda2c71ec8cd1eb10ecb668a
Reciphers for ciphertext: 0
Decipheredtext:           00000000000000000000010000000000
RESULT CIPHER-DECIPHER: -----OK-----


Test: 88
Hash algorithm: 12
Symmetric key bit length: 192
IV bit length:            128
Plaintext bit length:     128
Symmetric key:            000000000000000000000000000000000000008000000000
IV:                       00000000000000000000008000000000
Plaintext:                00000000000000000000008000000000
Ciphertext:               a45e57a35dea7d49a5cf7cf76a30d4b2e362667d9ae9aedca2f5587ee7df3ee9
Reciphers for ciphertext: 0
Decipheredtext:           00000000000000000000008000000000
RESULT CIPHER-DECIPHER: -----OK-----


Test: 89
Hash algorithm: 0
Symmetric key bit length: 192
IV bit length:            128
Plaintext bit length:     128
Symmetric key:            000000000000000000000000000000000000004000000000
IV:                       00000000000000000000004000000000
Plaintext:                00000000000000000000004000000000
Ciphertext:               98a620020dbe9dccdd3ad9c53713809b49c9cf2160411542cd3534380b204fceb467f080
Reciphers for ciphertext: 0
Decipheredtext:           00000000000000000000004000000000
RESULT CIPHER-DECIPHER: -----OK-----


Test: 90
Hash algorithm: 0
Symmetric key bit length: 192
IV bit length:            128
Plaintext bit length:     128
Symmetric key:            000000000000000000000000000000000000002000000000
IV:                       00000000000000000000002000000000
Plaintext:                00000000000000000000002000000000
Ciphertext:               59591be8a30013d3653cb11caa341d8dc2f65ee09aa59cf6c198e8dadeda6c8c33ba892e
Reciphers for ciphertext: 0
Decipheredtext:           00000000000000000000002000000000
RESULT CIPHER-DECIPHER: -----OK-----


Test: 91
Hash algorithm: 10
Symmetric key bit length: 192
IV bit length:            128
Plaintext bit length:     128
Symmetric key:            000000000000000000000000000000000000001000000000
IV:                       00000000000000000000001000000000
Plaintext:                00000000000000000000001000000000
Ciphertext:               679ccb0cc9b0041aaabef426bba9dd6c942bd98c384904e9fea335eda44131a045c2a609a3354db1497901b4333d572e9941b361fb0e45c0
Reciphers for ciphertext: 0
Decipheredtext:           00000000000000000000001000000000
RESULT CIPHER-DECIPHER: -----OK-----


Test: 92
Hash algorithm: 9
Symmetric key bit length: 192
IV bit length:            128
Plaintext bit length:     128
Symmetric key:            000000000000000000000000000000000000000800000000
IV:                       00000000000000000000000800000000
Plaintext:                00000000000000000000000800000000
Ciphertext:               84a3360c1c2d4d8a999b1585ca9096dd9bbc9583846ae614563510051769ea56daf36f8ffc743b7a0f1298b0c2ba0952
Reciphers for ciphertext: 0
Decipheredtext:           00000000000000000000000800000000
RESULT CIPHER-DECIPHER: -----OK-----


Test: 93
Hash algorithm: 8
Symmetric key bit length: 192
IV bit length:            128
Plaintext bit length:     128
Symmetric key:            000000000000000000000000000000000000000400000000
IV:                       00000000000000000000000400000000
Plaintext:                00000000000000000000000400000000
Ciphertext:               1d0c67ca883cb7ceaa639bdfa2447229bf6a356559989f3f39b53e4139b34e51581a174d
Reciphers for ciphertext: 0
Decipheredtext:           00000000000000000000000400000000
RESULT CIPHER-DECIPHER: -----OK-----


Test: 94
Hash algorithm: 2
Symmetric key bit length: 192
IV bit length:            128
Plaintext bit length:     128
Symmetric key:            000000000000000000000000000000000000000200000000
IV:                       00000000000000000000000200000000
Plaintext:                00000000000000000000000200000000
Ciphertext:               8d410699d8cf70e1fe05a529a25f1c3000366af2dabb625705387530c4197be399c65b1b37108aa842bbe17baa554127
Reciphers for ciphertext: 0
Decipheredtext:           00000000000000000000000200000000
RESULT CIPHER-DECIPHER: -----OK-----


Test: 95
Hash algorithm: 9
Symmetric key bit length: 192
IV bit length:            128
Plaintext bit length:     128
Symmetric key:            000000000000000000000000000000000000000100000000
IV:                       00000000000000000000000100000000
Plaintext:                00000000000000000000000100000000
Ciphertext:               f131b7ad03677f46b349253e65d257e994b4c7562bb2e9504a37daf490942d57e7a3ede06e9491e3afd1d7cc0da62d8f
Reciphers for ciphertext: 0
Decipheredtext:           00000000000000000000000100000000
RESULT CIPHER-DECIPHER: -----OK-----


Test: 96
Hash algorithm: 11
Symmetric key bit length: 192
IV bit length:            128
Plaintext bit length:     128
Symmetric key:            000000000000000000000000000000000000000080000000
IV:                       00000000000000000000000080000000
Plaintext:                00000000000000000000000080000000
Ciphertext:               1939e385108c05e31f786e0f8db4d82e9519275fd7495055be165aefbf029f9f
Reciphers for ciphertext: 0
Decipheredtext:           00000000000000000000000080000000
RESULT CIPHER-DECIPHER: -----OK-----


Test: 97
Hash algorithm: 0
Symmetric key bit length: 192
IV bit length:            128
Plaintext bit length:     128
Symmetric key:            000000000000000000000000000000000000000040000000
IV:                       00000000000000000000000040000000
Plaintext:                00000000000000000000000040000000
Ciphertext:               d1f70ad1a412b5ea0d770d275fd102721f2256b9454db76062981490c2a0fc233b7b740a
Reciphers for ciphertext: 0
Decipheredtext:           00000000000000000000000040000000
RESULT CIPHER-DECIPHER: -----OK-----


Test: 98
Hash algorithm: 13
Symmetric key bit length: 192
IV bit length:            128
Plaintext bit length:     128
Symmetric key:            000000000000000000000000000000000000000020000000
IV:                       00000000000000000000000020000000
Plaintext:                00000000000000000000000020000000
Ciphertext:               209ffc5269914b269d6b443c13f1ca2595555a3aed18130eae8dc754e4fbc3d8
Reciphers for ciphertext: 0
Decipheredtext:           00000000000000000000000020000000
RESULT CIPHER-DECIPHER: -----OK-----


Test: 99
Hash algorithm: 9
Symmetric key bit length: 192
IV bit length:            128
Plaintext bit length:     128
Symmetric key:            000000000000000000000000000000000000000010000000
IV:                       00000000000000000000000010000000
Plaintext:                00000000000000000000000010000000
Ciphertext:               253b8fa989f7c52a136908859860cec63fcc2458bce68ad9c4036a132caf493efe004b8c07a8394077ff6d17db95b416
Reciphers for ciphertext: 0
Decipheredtext:           00000000000000000000000010000000
RESULT CIPHER-DECIPHER: -----OK-----


Test: 100
Hash algorithm: 2
Symmetric key bit length: 192
IV bit length:            128
Plaintext bit length:     128
Symmetric key:            000000000000000000000000000000000000000008000000
IV:                       00000000000000000000000008000000
Plaintext:                00000000000000000000000008000000
Ciphertext:               95d298cc53b33721585819ff23ba82c8037a20782fd7c65e73a4277ae1cd3b62f0bd55e833ffeab2cea4692ee0cd4fdf
Reciphers for ciphertext: 0
Decipheredtext:           00000000000000000000000008000000
RESULT CIPHER-DECIPHER: -----OK-----


Test: 101
Hash algorithm: 13
Symmetric key bit length: 192
IV bit length:            128
Plaintext bit length:     128
Symmetric key:            000000000000000000000000000000000000000004000000
IV:                       00000000000000000000000004000000
Plaintext:                00000000000000000000000004000000
Ciphertext:               aa0a3c4e1265b4e44f973fbdb5bc4fe8ac6cc949a4f05a4bb517c3580dd41392
Reciphers for ciphertext: 0
Decipheredtext:           00000000000000000000000004000000
RESULT CIPHER-DECIPHER: -----OK-----


Test: 102
Hash algorithm: 6
Symmetric key bit length: 192
IV bit length:            128
Plaintext bit length:     128
Symmetric key:            000000000000000000000000000000000000000002000000
IV:                       00000000000000000000000002000000
Plaintext:                00000000000000000000000002000000
Ciphertext:               c4d8e22c692ca826ed2c839bb39436e452505d45c90b7719429c46e3c6a6489cd431a64828a02addc3d0794a56a6b1f8
Reciphers for ciphertext: 0
Decipheredtext:           00000000000000000000000002000000
RESULT CIPHER-DECIPHER: -----OK-----


Test: 103
Hash algorithm: 2
Symmetric key bit length: 192
IV bit length:            128
Plaintext bit length:     128
Symmetric key:            000000000000000000000000000000000000000001000000
IV:                       00000000000000000000000001000000
Plaintext:                00000000000000000000000001000000
Ciphertext:               b9bf62063966607a85fe76be96c61792cda65bca801fbf773ac76cdbdf3e984beb2e58176496ea19c1a9b3309266da10
Reciphers for ciphertext: 0
Decipheredtext:           00000000000000000000000001000000
RESULT CIPHER-DECIPHER: -----OK-----


Test: 104
Hash algorithm: 5
Symmetric key bit length: 192
IV bit length:            128
Plaintext bit length:     128
Symmetric key:            000000000000000000000000000000000000000000800000
IV:                       00000000000000000000000000800000
Plaintext:                00000000000000000000000000800000
Ciphertext:               0a2a6d2e7351c5a20471902469d0c6d3b88a27224e86fa5f7492cd850c90f8b64d4c31717bf587044999747e
Reciphers for ciphertext: 0
Decipheredtext:           00000000000000000000000000800000
RESULT CIPHER-DECIPHER: -----OK-----


Test: 105
Hash algorithm: 10
Symmetric key bit length: 192
IV bit length:            128
Plaintext bit length:     128
Symmetric key:            000000000000000000000000000000000000000000400000
IV:                       00000000000000000000000000400000
Plaintext:                00000000000000000000000000400000
Ciphertext:               8dd1e9ad95078999c7be1aff4bde50b4e8a8a1fc86ec51bfed421dd67995aff78ed6b847e62d8e32ac52bf4d73310379f7a351dd4f992f79
Reciphers for ciphertext: 0
Decipheredtext:           00000000000000000000000000400000
RESULT CIPHER-DECIPHER: -----OK-----


Test: 106
Hash algorithm: 10
Symmetric key bit length: 192
IV bit length:            128
Plaintext bit length:     128
Symmetric key:            000000000000000000000000000000000000000000200000
IV:                       00000000000000000000000000200000
Plaintext:                00000000000000000000000000200000
Ciphertext:               33bd414ad80aa7771b04f4ae93dcb5e64c79bf7d1407d37ad564a977b4494aec939b702c321eb79aa4a673962d468760af9ac28e7c06293d
Reciphers for ciphertext: 0
Decipheredtext:           00000000000000000000000000200000
RESULT CIPHER-DECIPHER: -----OK-----


Test: 107
Hash algorithm: 11
Symmetric key bit length: 192
IV bit length:            128
Plaintext bit length:     128
Symmetric key:            000000000000000000000000000000000000000000100000
IV:                       00000000000000000000000000100000
Plaintext:                00000000000000000000000000100000
Ciphertext:               e857e1d830461f314a594df8c38bc7ea794ba23337e6baaca9fd6ed7b7eb2d44
Reciphers for ciphertext: 0
Decipheredtext:           00000000000000000000000000100000
RESULT CIPHER-DECIPHER: -----OK-----


Test: 108
Hash algorithm: 4
Symmetric key bit length: 192
IV bit length:            128
Plaintext bit length:     128
Symmetric key:            000000000000000000000000000000000000000000080000
IV:                       00000000000000000000000000080000
Plaintext:                00000000000000000000000000080000
Ciphertext:               5ed7692ca53eebcaff2f0a4238e999d30b1147cec22e744e389d65df7f00dd7f0ad242c5b03d06bb128a9a51f2f8f2467ff7984cd6c36db34d55ca634bc148a7a9f9e28bb5754464bf8c6cbfd7ba2521
Reciphers for ciphertext: 0
Decipheredtext:           00000000000000000000000000080000
RESULT CIPHER-DECIPHER: -----OK-----


Test: 109
Hash algorithm: 10
Symmetric key bit length: 192
IV bit length:            128
Plaintext bit length:     128
Symmetric key:            000000000000000000000000000000000000000000040000
IV:                       00000000000000000000000000040000
Plaintext:                00000000000000000000000000040000
Ciphertext:               482d6567d562ae87fe3dc9d4ae520b00d58de7577e7eeb098b2d03dc1da2cf4149d7e25d819884ce0474919ad5bb21968e960d4b6c619344
Reciphers for ciphertext: 0
Decipheredtext:           00000000000000000000000000040000
RESULT CIPHER-DECIPHER: -----OK-----


Test: 110
Hash algorithm: 11
Symmetric key bit length: 192
IV bit length:            128
Plaintext bit length:     128
Symmetric key:            000000000000000000000000000000000000000000020000
IV:                       00000000000000000000000000020000
Plaintext:                00000000000000000000000000020000
Ciphertext:               5ed5af3db7b3e4b4d6ce7cbd090b1be208c53c6ea3c07589c75e08c3a48548a7
Reciphers for ciphertext: 0
Decipheredtext:           00000000000000000000000000020000
RESULT CIPHER-DECIPHER: -----OK-----


Test: 111
Hash algorithm: 0
Symmetric key bit length: 192
IV bit length:            128
Plaintext bit length:     128
Symmetric key:            000000000000000000000000000000000000000000010000
IV:                       00000000000000000000000000010000
Plaintext:                00000000000000000000000000010000
Ciphertext:               d0bbb0c07cb5c20145ae493b9be9e96a11dc83b432abea0143031f2a0262648fe51998c5
Reciphers for ciphertext: 0
Decipheredtext:           00000000000000000000000000010000
RESULT CIPHER-DECIPHER: -----OK-----


Test: 112
Hash algorithm: 4
Symmetric key bit length: 192
IV bit length:            128
Plaintext bit length:     128
Symmetric key:            000000000000000000000000000000000000000000008000
IV:                       00000000000000000000000000008000
Plaintext:                00000000000000000000000000008000
Ciphertext:               730d366cdbeee86943f2ac17c1f13fd450ba981e2e381b1654642e4530de9b3fd1007f9fc4992d6b44cff40a6e31203b169e7b03eb234a8ac6146f7ab6c1819caf780394861b4ff0b2bb626229a8c158
Reciphers for ciphertext: 0
Decipheredtext:           00000000000000000000000000008000
RESULT CIPHER-DECIPHER: -----OK-----


Test: 113
Hash algorithm: 9
Symmetric key bit length: 192
IV bit length:            128
Plaintext bit length:     128
Symmetric key:            000000000000000000000000000000000000000000004000
IV:                       00000000000000000000000000004000
Plaintext:                00000000000000000000000000004000
Ciphertext:               f46e93bcf700d3e932dc323541851e7d22d756eb4bda5d9514129d5c5e9ca87c1c5c1a7337f30e614cc39aea9cc5c73e
Reciphers for ciphertext: 0
Decipheredtext:           00000000000000000000000000004000
RESULT CIPHER-DECIPHER: -----OK-----


Test: 114
Hash algorithm: 12
Symmetric key bit length: 192
IV bit length:            128
Plaintext bit length:     128
Symmetric key:            000000000000000000000000000000000000000000002000
IV:                       00000000000000000000000000002000
Plaintext:                00000000000000000000000000002000
Ciphertext:               f78704cddc5cb8008242a6049d7023656131cea784cd23ae040164dc66dd8718
Reciphers for ciphertext: 0
Decipheredtext:           00000000000000000000000000002000
RESULT CIPHER-DECIPHER: -----OK-----


Test: 115
Hash algorithm: 11
Symmetric key bit length: 192
IV bit length:            128
Plaintext bit length:     128
Symmetric key:            000000000000000000000000000000000000000000001000
IV:                       00000000000000000000000000001000
Plaintext:                00000000000000000000000000001000
Ciphertext:               0d4063bbdbe4b37589afee8cb7d2a892f7edf274656204b1c245b2a149d292af
Reciphers for ciphertext: 0
Decipheredtext:           00000000000000000000000000001000
RESULT CIPHER-DECIPHER: -----OK-----


Test: 116
Hash algorithm: 0
Symmetric key bit length: 192
IV bit length:            128
Plaintext bit length:     128
Symmetric key:            000000000000000000000000000000000000000000000800
IV:                       00000000000000000000000000000800
Plaintext:                00000000000000000000000000000800
Ciphertext:               ff25725c342ab623ec5e613a944deabb32414ab462ec1d770928dea1c4bf5d94bde94475
Reciphers for ciphertext: 0
Decipheredtext:           00000000000000000000000000000800
RESULT CIPHER-DECIPHER: -----OK-----


Test: 117
Hash algorithm: 7
Symmetric key bit length: 192
IV bit length:            128
Plaintext bit length:     128
Symmetric key:            000000000000000000000000000000000000000000000400
IV:                       00000000000000000000000000000400
Plaintext:                00000000000000000000000000000400
Ciphertext:               05027f1b6553049b7f1edc3700440a64f0c5adcf08374c7b3674783d12955f6c
Reciphers for ciphertext: 0
Decipheredtext:           00000000000000000000000000000400
RESULT CIPHER-DECIPHER: -----OK-----


Test: 118
Hash algorithm: 6
Symmetric key bit length: 192
IV bit length:            128
Plaintext bit length:     128
Symmetric key:            000000000000000000000000000000000000000000000200
IV:                       00000000000000000000000000000200
Plaintext:                00000000000000000000000000000200
Ciphertext:               eb10454c49a896459a51351ca31594bb6e4fe91bd9e18fc98e4dbe8b7495600fa2809a2317fa6f6c49dc93be711047d4
Reciphers for ciphertext: 0
Decipheredtext:           00000000000000000000000000000200
RESULT CIPHER-DECIPHER: -----OK-----


Test: 119
Hash algorithm: 5
Symmetric key bit length: 192
IV bit length:            128
Plaintext bit length:     128
Symmetric key:            000000000000000000000000000000000000000000000100
IV:                       00000000000000000000000000000100
Plaintext:                00000000000000000000000000000100
Ciphertext:               68b646aff23984f27838400ec2622b892aa68c043869e39730d2e43674592ffa8d615a19d4d25838a20db2f0
Reciphers for ciphertext: 0
Decipheredtext:           00000000000000000000000000000100
RESULT CIPHER-DECIPHER: -----OK-----


Test: 120
Hash algorithm: 0
Symmetric key bit length: 192
IV bit length:            128
Plaintext bit length:     128
Symmetric key:            000000000000000000000000000000000000000000000080
IV:                       00000000000000000000000000000080
Plaintext:                00000000000000000000000000000080
Ciphertext:               7f5e92f6157489c15276535d5c6936911ecb01b805879966b039209bb2378497cda9b7b8
Reciphers for ciphertext: 0
Decipheredtext:           00000000000000000000000000000080
RESULT CIPHER-DECIPHER: -----OK-----


Test: 121
Hash algorithm: 11
Symmetric key bit length: 192
IV bit length:            128
Plaintext bit length:     128
Symmetric key:            000000000000000000000000000000000000000000000040
IV:                       00000000000000000000000000000040
Plaintext:                00000000000000000000000000000040
Ciphertext:               ffc697ce69f73f7c2d55ec092555cd8ce7c9c5720d48420e936438525979bc8b
Reciphers for ciphertext: 0
Decipheredtext:           00000000000000000000000000000040
RESULT CIPHER-DECIPHER: -----OK-----


Test: 122
Hash algorithm: 1
Symmetric key bit length: 192
IV bit length:            128
Plaintext bit length:     128
Symmetric key:            000000000000000000000000000000000000000000000020
IV:                       00000000000000000000000000000020
Plaintext:                00000000000000000000000000000020
Ciphertext:               f0604bf1677e48f0fdde5766ed8e2b6c5c94a811276cdcf09f556032e70f97482f68b3862f7d703cce62cae2
Reciphers for ciphertext: 0
Decipheredtext:           00000000000000000000000000000020
RESULT CIPHER-DECIPHER: -----OK-----


Test: 123
Hash algorithm: 0
Symmetric key bit length: 192
IV bit length:            128
Plaintext bit length:     128
Symmetric key:            000000000000000000000000000000000000000000000010
IV:                       00000000000000000000000000000010
Plaintext:                00000000000000000000000000000010
Ciphertext:               4cc9f40da8efb28756e2d478f416d1787fdd421ebe79629f0d36a50b8c021dc3522e28ab
Reciphers for ciphertext: 0
Decipheredtext:           00000000000000000000000000000010
RESULT CIPHER-DECIPHER: -----OK-----


Test: 124
Hash algorithm: 5
Symmetric key bit length: 192
IV bit length:            128
Plaintext bit length:     128
Symmetric key:            000000000000000000000000000000000000000000000008
IV:                       00000000000000000000000000000008
Plaintext:                00000000000000000000000000000008
Ciphertext:               bcbe44a24653375fba68234bcda640b6cd01ec723d72701c51650dd94a915223bb7e010fd0ff76f9213c22b4
Reciphers for ciphertext: 0
Decipheredtext:           00000000000000000000000000000008
RESULT CIPHER-DECIPHER: -----OK-----


Test: 125
Hash algorithm: 4
Symmetric key bit length: 192
IV bit length:            128
Plaintext bit length:     128
Symmetric key:            000000000000000000000000000000000000000000000004
IV:                       00000000000000000000000000000004
Plaintext:                00000000000000000000000000000004
Ciphertext:               642fab78b9a6c9e50d54232fd169630cd2b1b468d41e22ea46d1f5a58d41cc03657648c960c5aaa62448d4e771dcefbe59ea2ac830f96183dea3dad0f55d85ec0f175ef2adb47a3ed12bd757eb11a10d
Reciphers for ciphertext: 0
Decipheredtext:           00000000000000000000000000000004
RESULT CIPHER-DECIPHER: -----OK-----


Test: 126
Hash algorithm: 11
Symmetric key bit length: 192
IV bit length:            128
Plaintext bit length:     128
Symmetric key:            000000000000000000000000000000000000000000000002
IV:                       00000000000000000000000000000002
Plaintext:                00000000000000000000000000000002
Ciphertext:               a5df4bd0d6673d656e30f8e5c5c5083f1fdc9a2f26423b3dec2aa885bc2f4e72
Reciphers for ciphertext: 0
Decipheredtext:           00000000000000000000000000000002
RESULT CIPHER-DECIPHER: -----OK-----


Test: 127
Hash algorithm: 12
Symmetric key bit length: 192
IV bit length:            128
Plaintext bit length:     128
Symmetric key:            000000000000000000000000000000000000000000000001
IV:                       00000000000000000000000000000001
Plaintext:                00000000000000000000000000000001
Ciphertext:               c30416e9338b4bab5879718d31df43d182207825547a52f061c3c2230fb7b265
Reciphers for ciphertext: 0
Decipheredtext:           00000000000000000000000000000001
RESULT CIPHER-DECIPHER: -----OK-----


 DATA SHA1 (hexadecimal): 33221fdbf2176f78e18aa08e7b2b3e6764b1bf2a

