
DiceLock 9.0.0.1

 TEST COMPONENTS:
 ----------------
 DiceLock:           DiceLockIVDigested class
 Operation Mode:     OFB_Mode class
 Block Cipher:       Camellia192 class
 Hash algorithms:     0 - Sha1 class
                      1 - Sha224 class
                      2 - Sha256 class
                      3 - Sha384 class
                      4 - Sha512 class
                      5 - Sha512_224 class
                      6 - Sha512_256 class
                      7 - Ripemd128 class
                      8 - Ripemd160 class
                      9 - Ripemd256 class
                     10 - Ripemd320 class
                     11 - MD2 class
                     12 - MD4 class
                     13 - MD5 class
 Key Modifier:       IncreaseKeyModifier_6_0_0_1 class
 Random tests:       RandomTestSuite class
                     FrequencyTest class
                     BlockFrequencyTest class
                     CumulativeSumForwardTest class
                     LongestRunOfOnesTest class
                     RunsTest class
 Random alpha:       0.001

 VECTOR TEST: Test vector 3 - Changing symmetric key, IV and plaintext, shifting 1 bit set


##### INDIVIDUAL TESTS #####

Number tests: 128


Test: 0
Hash algorithm: 11
Symmetric key bit length: 192
IV bit length:            128
Plaintext bit length:     128
Symmetric key:            000000000000000080000000000000000000000000000000
IV:                       80000000000000000000000000000000
Plaintext:                80000000000000000000000000000000
Ciphertext:               0338cad1c53d76ef89d62f2c8ae5585c5171bbba0a3e298f0dd7e52945e87182
Reciphers for ciphertext: 0
Decipheredtext:           80000000000000000000000000000000
RESULT CIPHER-DECIPHER: -----OK-----


Test: 1
Hash algorithm: 5
Symmetric key bit length: 192
IV bit length:            128
Plaintext bit length:     128
Symmetric key:            000000000000000040000000000000000000000000000000
IV:                       40000000000000000000000000000000
Plaintext:                40000000000000000000000000000000
Ciphertext:               03768586b31680569dcc2074c5bd4f1b42f8e013e69ccd7e6c77e7b2b4c383e14a989baf846227867b232489
Reciphers for ciphertext: 0
Decipheredtext:           40000000000000000000000000000000
RESULT CIPHER-DECIPHER: -----OK-----


Test: 2
Hash algorithm: 10
Symmetric key bit length: 192
IV bit length:            128
Plaintext bit length:     128
Symmetric key:            000000000000000020000000000000000000000000000000
IV:                       20000000000000000000000000000000
Plaintext:                20000000000000000000000000000000
Ciphertext:               6f5f12d62483181b95141f8acd622850dbe530e332a68c5263c0e2f4f45bb5e46c0cc4a15794080db35eb5c860f3e44bf76a1e4c409f1509
Reciphers for ciphertext: 0
Decipheredtext:           20000000000000000000000000000000
RESULT CIPHER-DECIPHER: -----OK-----


Test: 3
Hash algorithm: 0
Symmetric key bit length: 192
IV bit length:            128
Plaintext bit length:     128
Symmetric key:            000000000000000010000000000000000000000000000000
IV:                       10000000000000000000000000000000
Plaintext:                10000000000000000000000000000000
Ciphertext:               b81f40fedf0d2db7742cc7b480e9af9d08c98f62c39bc0eee5f1e66943315b0355e73ff4
Reciphers for ciphertext: 0
Decipheredtext:           10000000000000000000000000000000
RESULT CIPHER-DECIPHER: -----OK-----


Test: 4
Hash algorithm: 6
Symmetric key bit length: 192
IV bit length:            128
Plaintext bit length:     128
Symmetric key:            000000000000000008000000000000000000000000000000
IV:                       08000000000000000000000000000000
Plaintext:                08000000000000000000000000000000
Ciphertext:               69aac4d09a73b51e7ef7ad4f6fd646d444297055747a0eb7ba771172d6f55c7270e15725a871cbcfdcc48323a0af2ac4
Reciphers for ciphertext: 0
Decipheredtext:           08000000000000000000000000000000
RESULT CIPHER-DECIPHER: -----OK-----


Test: 5
Hash algorithm: 7
Symmetric key bit length: 192
IV bit length:            128
Plaintext bit length:     128
Symmetric key:            000000000000000004000000000000000000000000000000
IV:                       04000000000000000000000000000000
Plaintext:                04000000000000000000000000000000
Ciphertext:               502f0e230426a84b3f32fa914a220c5a7522a2015ec792faf43fd6bd2479b013
Reciphers for ciphertext: 0
Decipheredtext:           04000000000000000000000000000000
RESULT CIPHER-DECIPHER: -----OK-----


Test: 6
Hash algorithm: 10
Symmetric key bit length: 192
IV bit length:            128
Plaintext bit length:     128
Symmetric key:            000000000000000002000000000000000000000000000000
IV:                       02000000000000000000000000000000
Plaintext:                02000000000000000000000000000000
Ciphertext:               691b7d78cb737f5967f639fac2bbca31a504ff4d0e54eba26d2f867f3b3c4e72040dcf3fb46285e84c220299e3de76826793f1e59a209311
Reciphers for ciphertext: 0
Decipheredtext:           02000000000000000000000000000000
RESULT CIPHER-DECIPHER: -----OK-----


Test: 7
Hash algorithm: 8
Symmetric key bit length: 192
IV bit length:            128
Plaintext bit length:     128
Symmetric key:            000000000000000001000000000000000000000000000000
IV:                       01000000000000000000000000000000
Plaintext:                01000000000000000000000000000000
Ciphertext:               465fe06c0201ddc769bc687cf4330fd6bbf060cb1add9a695b10325339bca499b5eaac94
Reciphers for ciphertext: 0
Decipheredtext:           01000000000000000000000000000000
RESULT CIPHER-DECIPHER: -----OK-----


Test: 8
Hash algorithm: 1
Symmetric key bit length: 192
IV bit length:            128
Plaintext bit length:     128
Symmetric key:            000000000000000000800000000000000000000000000000
IV:                       00800000000000000000000000000000
Plaintext:                00800000000000000000000000000000
Ciphertext:               6113aad6a4bd36627f93035fa654a370dca8059daaeaca26611933e6e4cf407b1ea9685743aec2dd4f07e1bc
Reciphers for ciphertext: 0
Decipheredtext:           00800000000000000000000000000000
RESULT CIPHER-DECIPHER: -----OK-----


Test: 9
Hash algorithm: 7
Symmetric key bit length: 192
IV bit length:            128
Plaintext bit length:     128
Symmetric key:            000000000000000000400000000000000000000000000000
IV:                       00400000000000000000000000000000
Plaintext:                00400000000000000000000000000000
Ciphertext:               0bd1885e24441776bc623beab62fd89d13b0f0aa1aa5b51957ff642232b1bde3
Reciphers for ciphertext: 0
Decipheredtext:           00400000000000000000000000000000
RESULT CIPHER-DECIPHER: -----OK-----


Test: 10
Hash algorithm: 11
Symmetric key bit length: 192
IV bit length:            128
Plaintext bit length:     128
Symmetric key:            000000000000000000200000000000000000000000000000
IV:                       00200000000000000000000000000000
Plaintext:                00200000000000000000000000000000
Ciphertext:               d9fcc6eacbaf3656b1106f2ca7e4ab6b85c5258af2a700cd7224301c5f206865
Reciphers for ciphertext: 0
Decipheredtext:           00200000000000000000000000000000
RESULT CIPHER-DECIPHER: -----OK-----


Test: 11
Hash algorithm: 10
Symmetric key bit length: 192
IV bit length:            128
Plaintext bit length:     128
Symmetric key:            000000000000000000100000000000000000000000000000
IV:                       00100000000000000000000000000000
Plaintext:                00100000000000000000000000000000
Ciphertext:               125e3afb212d104d6ca660968aa451491f7fdf06cf4f54f09784fd1afbd21c34d82e02a5e507fd44bccafbb0ef47e540e96d29f277fb76b6
Reciphers for ciphertext: 0
Decipheredtext:           00100000000000000000000000000000
RESULT CIPHER-DECIPHER: -----OK-----


Test: 12
Hash algorithm: 1
Symmetric key bit length: 192
IV bit length:            128
Plaintext bit length:     128
Symmetric key:            000000000000000000080000000000000000000000000000
IV:                       00080000000000000000000000000000
Plaintext:                00080000000000000000000000000000
Ciphertext:               73c04cfe9d15ed961ffea8779338870c4fbb99b87ae5444c008c66c721ab279f06de2fc3263632550fc32a5d
Reciphers for ciphertext: 0
Decipheredtext:           00080000000000000000000000000000
RESULT CIPHER-DECIPHER: -----OK-----


Test: 13
Hash algorithm: 5
Symmetric key bit length: 192
IV bit length:            128
Plaintext bit length:     128
Symmetric key:            000000000000000000040000000000000000000000000000
IV:                       00040000000000000000000000000000
Plaintext:                00040000000000000000000000000000
Ciphertext:               302c973ab5666681f60cbc4f0b8c2ad554e6315f0cac39e3934005c8bb4f10002290e578b37098492d47c12b
Reciphers for ciphertext: 0
Decipheredtext:           00040000000000000000000000000000
RESULT CIPHER-DECIPHER: -----OK-----


Test: 14
Hash algorithm: 6
Symmetric key bit length: 192
IV bit length:            128
Plaintext bit length:     128
Symmetric key:            000000000000000000020000000000000000000000000000
IV:                       00020000000000000000000000000000
Plaintext:                00020000000000000000000000000000
Ciphertext:               1e9b230b02cd0219c7d88d8fe9189882ef85f04dcd1c02ff8832a9de9395b2d776b442f8df8bb98a19f364774c466f3a
Reciphers for ciphertext: 0
Decipheredtext:           00020000000000000000000000000000
RESULT CIPHER-DECIPHER: -----OK-----


Test: 15
Hash algorithm: 0
Symmetric key bit length: 192
IV bit length:            128
Plaintext bit length:     128
Symmetric key:            000000000000000000010000000000000000000000000000
IV:                       00010000000000000000000000000000
Plaintext:                00010000000000000000000000000000
Ciphertext:               2ed23710ddf22e7906022401e95108e5a9b98bba9e70071630d57626919397b245581400
Reciphers for ciphertext: 0
Decipheredtext:           00010000000000000000000000000000
RESULT CIPHER-DECIPHER: -----OK-----


Test: 16
Hash algorithm: 5
Symmetric key bit length: 192
IV bit length:            128
Plaintext bit length:     128
Symmetric key:            000000000000000000008000000000000000000000000000
IV:                       00008000000000000000000000000000
Plaintext:                00008000000000000000000000000000
Ciphertext:               e086ab87150b44b747073423dbcddffb96afb8e880c619ebb8bdc43d7e41e27f16b2466a534ee75fc29f1110
Reciphers for ciphertext: 0
Decipheredtext:           00008000000000000000000000000000
RESULT CIPHER-DECIPHER: -----OK-----


Test: 17
Hash algorithm: 0
Symmetric key bit length: 192
IV bit length:            128
Plaintext bit length:     128
Symmetric key:            000000000000000000004000000000000000000000000000
IV:                       00004000000000000000000000000000
Plaintext:                00004000000000000000000000000000
Ciphertext:               3338335eb6bbf3bf68fb2b11df87ab11e173a824242d450d08f6e9ce49dff946d2558bd7
Reciphers for ciphertext: 0
Decipheredtext:           00004000000000000000000000000000
RESULT CIPHER-DECIPHER: -----OK-----


Test: 18
Hash algorithm: 12
Symmetric key bit length: 192
IV bit length:            128
Plaintext bit length:     128
Symmetric key:            000000000000000000002000000000000000000000000000
IV:                       00002000000000000000000000000000
Plaintext:                00002000000000000000000000000000
Ciphertext:               26ef2f82cb5f081bfc445238e5ea1b2fdae77e1b10e79877b8c47817b5f41ca0
Reciphers for ciphertext: 0
Decipheredtext:           00002000000000000000000000000000
RESULT CIPHER-DECIPHER: -----OK-----


Test: 19
Hash algorithm: 5
Symmetric key bit length: 192
IV bit length:            128
Plaintext bit length:     128
Symmetric key:            000000000000000000001000000000000000000000000000
IV:                       00001000000000000000000000000000
Plaintext:                00001000000000000000000000000000
Ciphertext:               1ce971b20da4a6b12cf4864fb08231d2733990e254418e95dab96533437889b44a175873fa4687f4d8d049b9
Reciphers for ciphertext: 0
Decipheredtext:           00001000000000000000000000000000
RESULT CIPHER-DECIPHER: -----OK-----


Test: 20
Hash algorithm: 6
Symmetric key bit length: 192
IV bit length:            128
Plaintext bit length:     128
Symmetric key:            000000000000000000000800000000000000000000000000
IV:                       00000800000000000000000000000000
Plaintext:                00000800000000000000000000000000
Ciphertext:               3bdcd07daf269e6f820f8133d412863b7444e7f4ca1e435152f156287da3c0f497cee2d4ac001398a6569963a9d593ac
Reciphers for ciphertext: 0
Decipheredtext:           00000800000000000000000000000000
RESULT CIPHER-DECIPHER: -----OK-----


Test: 21
Hash algorithm: 4
Symmetric key bit length: 192
IV bit length:            128
Plaintext bit length:     128
Symmetric key:            000000000000000000000400000000000000000000000000
IV:                       00000400000000000000000000000000
Plaintext:                00000400000000000000000000000000
Ciphertext:               72a394e842dece7e4dc327b061fc5c86738a3e651e83feb99fd6332d2a23f835cca0b87189a8e4fcb81cb74654009b75dd1f3630f5170017571f0c5c4739ab2e784aea63c8a1a48eb08ae41830582d48
Reciphers for ciphertext: 0
Decipheredtext:           00000400000000000000000000000000
RESULT CIPHER-DECIPHER: -----OK-----


Test: 22
Hash algorithm: 12
Symmetric key bit length: 192
IV bit length:            128
Plaintext bit length:     128
Symmetric key:            000000000000000000000200000000000000000000000000
IV:                       00000200000000000000000000000000
Plaintext:                00000200000000000000000000000000
Ciphertext:               bc3c55bce216715517832d5771284d5324c62a987df41784cfcadfc7b547a447
Reciphers for ciphertext: 0
Decipheredtext:           00000200000000000000000000000000
RESULT CIPHER-DECIPHER: -----OK-----


Test: 23
Hash algorithm: 4
Symmetric key bit length: 192
IV bit length:            128
Plaintext bit length:     128
Symmetric key:            000000000000000000000100000000000000000000000000
IV:                       00000100000000000000000000000000
Plaintext:                00000100000000000000000000000000
Ciphertext:               154ac941b08e76bc51a06517a430007af49a060c0c3943da0b862da23a7543f99c13a33fbb953f12b88136a731ec12f140fca435b648f8034f1cc988f513aa22aeb1f69667b5bf97cbe6da03d782ef32
Reciphers for ciphertext: 0
Decipheredtext:           00000100000000000000000000000000
RESULT CIPHER-DECIPHER: -----OK-----


Test: 24
Hash algorithm: 12
Symmetric key bit length: 192
IV bit length:            128
Plaintext bit length:     128
Symmetric key:            000000000000000000000080000000000000000000000000
IV:                       00000080000000000000000000000000
Plaintext:                00000080000000000000000000000000
Ciphertext:               4f0881026c8da1b0ce02f8e6b188fe6d36f790d41171c2700cefbb03133141b3
Reciphers for ciphertext: 0
Decipheredtext:           00000080000000000000000000000000
RESULT CIPHER-DECIPHER: -----OK-----


Test: 25
Hash algorithm: 6
Symmetric key bit length: 192
IV bit length:            128
Plaintext bit length:     128
Symmetric key:            000000000000000000000040000000000000000000000000
IV:                       00000040000000000000000000000000
Plaintext:                00000040000000000000000000000000
Ciphertext:               8e610f7fd4e2e0156da56cc5d9fa7c52943f53c23a05570d6b84e8ef7e6615bbc6deb03b6678ebc6c0512e9468db8984
Reciphers for ciphertext: 0
Decipheredtext:           00000040000000000000000000000000
RESULT CIPHER-DECIPHER: -----OK-----


Test: 26
Hash algorithm: 2
Symmetric key bit length: 192
IV bit length:            128
Plaintext bit length:     128
Symmetric key:            000000000000000000000020000000000000000000000000
IV:                       00000020000000000000000000000000
Plaintext:                00000020000000000000000000000000
Ciphertext:               b7d6d3b119deeee57b70f75ddeb3fa1a826ec20549ef2be4cf80e921b83eda71e0474939618a90a7ae6e380e875fad10
Reciphers for ciphertext: 0
Decipheredtext:           00000020000000000000000000000000
RESULT CIPHER-DECIPHER: -----OK-----


Test: 27
Hash algorithm: 1
Symmetric key bit length: 192
IV bit length:            128
Plaintext bit length:     128
Symmetric key:            000000000000000000000010000000000000000000000000
IV:                       00000010000000000000000000000000
Plaintext:                00000010000000000000000000000000
Ciphertext:               222bcead62ee54e755c0fe3e5d2135e9fb331ab8a58268f338113f2693f3cd02374665fceb681ed2e2f37706
Reciphers for ciphertext: 0
Decipheredtext:           00000010000000000000000000000000
RESULT CIPHER-DECIPHER: -----OK-----


Test: 28
Hash algorithm: 9
Symmetric key bit length: 192
IV bit length:            128
Plaintext bit length:     128
Symmetric key:            000000000000000000000008000000000000000000000000
IV:                       00000008000000000000000000000000
Plaintext:                00000008000000000000000000000000
Ciphertext:               8ed47cc553b52454287b1b591e50b07a90d8abb2a8deb1394baa95af3d5aadd9af929069e41a0c8764f4f82d6a8bc0ab
Reciphers for ciphertext: 0
Decipheredtext:           00000008000000000000000000000000
RESULT CIPHER-DECIPHER: -----OK-----


Test: 29
Hash algorithm: 9
Symmetric key bit length: 192
IV bit length:            128
Plaintext bit length:     128
Symmetric key:            000000000000000000000004000000000000000000000000
IV:                       00000004000000000000000000000000
Plaintext:                00000004000000000000000000000000
Ciphertext:               f09ac006593a0d6e8c68dda49d30d92b04277fbf3951fac8b2d53eb4a79b1b3df894d7682d78f895ccdfca879db42aa0
Reciphers for ciphertext: 0
Decipheredtext:           00000004000000000000000000000000
RESULT CIPHER-DECIPHER: -----OK-----


Test: 30
Hash algorithm: 9
Symmetric key bit length: 192
IV bit length:            128
Plaintext bit length:     128
Symmetric key:            000000000000000000000002000000000000000000000000
IV:                       00000002000000000000000000000000
Plaintext:                00000002000000000000000000000000
Ciphertext:               95f471279d82dd08f3a48565467a98af83a6c1a841802ce54f5d2594f474656a0e4bb4de9aebad836c4b3c1b7fc9dea9
Reciphers for ciphertext: 0
Decipheredtext:           00000002000000000000000000000000
RESULT CIPHER-DECIPHER: -----OK-----


Test: 31
Hash algorithm: 12
Symmetric key bit length: 192
IV bit length:            128
Plaintext bit length:     128
Symmetric key:            000000000000000000000001000000000000000000000000
IV:                       00000001000000000000000000000000
Plaintext:                00000001000000000000000000000000
Ciphertext:               7a5231e560d106dd92ebd92bb10ea37e92dfbb5b3240a99326153d7e20d70895
Reciphers for ciphertext: 0
Decipheredtext:           00000001000000000000000000000000
RESULT CIPHER-DECIPHER: -----OK-----


Test: 32
Hash algorithm: 0
Symmetric key bit length: 192
IV bit length:            128
Plaintext bit length:     128
Symmetric key:            000000000000000000000000800000000000000000000000
IV:                       00000000800000000000000000000000
Plaintext:                00000000800000000000000000000000
Ciphertext:               13dcc521d7d4c2ed21376d5e1dd9434cc9bfb5e70a1bcd655c515e9b0c6599cc2bda1ac5
Reciphers for ciphertext: 0
Decipheredtext:           00000000800000000000000000000000
RESULT CIPHER-DECIPHER: -----OK-----


Test: 33
Hash algorithm: 0
Symmetric key bit length: 192
IV bit length:            128
Plaintext bit length:     128
Symmetric key:            000000000000000000000000400000000000000000000000
IV:                       00000000400000000000000000000000
Plaintext:                00000000400000000000000000000000
Ciphertext:               ed03d96010409ff65826ebc02e3a66e7373c1c1805591f4570e52087a5c879856f0de136
Reciphers for ciphertext: 0
Decipheredtext:           00000000400000000000000000000000
RESULT CIPHER-DECIPHER: -----OK-----


Test: 34
Hash algorithm: 6
Symmetric key bit length: 192
IV bit length:            128
Plaintext bit length:     128
Symmetric key:            000000000000000000000000200000000000000000000000
IV:                       00000000200000000000000000000000
Plaintext:                00000000200000000000000000000000
Ciphertext:               b85e2bf5f9d73c7d8794826671bc5ee59472eeae2bdbd2fa4570fef3fd33709211fcc8e480f285930078a10150604bbb
Reciphers for ciphertext: 0
Decipheredtext:           00000000200000000000000000000000
RESULT CIPHER-DECIPHER: -----OK-----


Test: 35
Hash algorithm: 3
Symmetric key bit length: 192
IV bit length:            128
Plaintext bit length:     128
Symmetric key:            000000000000000000000000100000000000000000000000
IV:                       00000000100000000000000000000000
Plaintext:                00000000100000000000000000000000
Ciphertext:               d7beb90637968bde81b71e90999d6d6407d416939f2bc5eb1f12e5a2e3485507e4a98332c1e92ed5d70ff34816dca6449adf91cfb8d2da313e0ed02aadeb509c
Reciphers for ciphertext: 0
Decipheredtext:           00000000100000000000000000000000
RESULT CIPHER-DECIPHER: -----OK-----


Test: 36
Hash algorithm: 3
Symmetric key bit length: 192
IV bit length:            128
Plaintext bit length:     128
Symmetric key:            000000000000000000000000080000000000000000000000
IV:                       00000000080000000000000000000000
Plaintext:                00000000080000000000000000000000
Ciphertext:               614fcaa6bc004c10958622e3f82b248d19f23890aa9af2ebc124f0ad65b3d5ef3e67e654b49474d00dadcba83a614430b4b04109b4d03845913be0b410d2aef7
Reciphers for ciphertext: 0
Decipheredtext:           00000000080000000000000000000000
RESULT CIPHER-DECIPHER: -----OK-----


Test: 37
Hash algorithm: 13
Symmetric key bit length: 192
IV bit length:            128
Plaintext bit length:     128
Symmetric key:            000000000000000000000000040000000000000000000000
IV:                       00000000040000000000000000000000
Plaintext:                00000000040000000000000000000000
Ciphertext:               e948464f4b4feeb2096f3c9690a95edc4b79c4aa5eb1d3bd854fc090e302fbfb
Reciphers for ciphertext: 0
Decipheredtext:           00000000040000000000000000000000
RESULT CIPHER-DECIPHER: -----OK-----


Test: 38
Hash algorithm: 5
Symmetric key bit length: 192
IV bit length:            128
Plaintext bit length:     128
Symmetric key:            000000000000000000000000020000000000000000000000
IV:                       00000000020000000000000000000000
Plaintext:                00000000020000000000000000000000
Ciphertext:               fd1c2886e74c74fdf16ad00a844827755545257aeed366e31714d2cee18e8051473130535e762f5db174941c
Reciphers for ciphertext: 0
Decipheredtext:           00000000020000000000000000000000
RESULT CIPHER-DECIPHER: -----OK-----


Test: 39
Hash algorithm: 1
Symmetric key bit length: 192
IV bit length:            128
Plaintext bit length:     128
Symmetric key:            000000000000000000000000010000000000000000000000
IV:                       00000000010000000000000000000000
Plaintext:                00000000010000000000000000000000
Ciphertext:               002a1fc20a3a75fa742365428dde4223e1a41ddc7a9025de7e8e2b98740f224904cf61e6df39b915f47f1abd
Reciphers for ciphertext: 0
Decipheredtext:           00000000010000000000000000000000
RESULT CIPHER-DECIPHER: -----OK-----


Test: 40
Hash algorithm: 10
Symmetric key bit length: 192
IV bit length:            128
Plaintext bit length:     128
Symmetric key:            000000000000000000000000008000000000000000000000
IV:                       00000000008000000000000000000000
Plaintext:                00000000008000000000000000000000
Ciphertext:               74b7e7dc80f101c3aebb4e5428950894b9f0a78a145870ced9ea011861a1a27eba7812125d4032cfb505ce3e4ba84914eca37fce40e96f61
Reciphers for ciphertext: 0
Decipheredtext:           00000000008000000000000000000000
RESULT CIPHER-DECIPHER: -----OK-----


Test: 41
Hash algorithm: 10
Symmetric key bit length: 192
IV bit length:            128
Plaintext bit length:     128
Symmetric key:            000000000000000000000000004000000000000000000000
IV:                       00000000004000000000000000000000
Plaintext:                00000000004000000000000000000000
Ciphertext:               5afa80904a5d6e87181376ee2f7a9fda8dc33a94b7a9bd9e878c38f7112c6cbe013cba9598a0d0cd64d434df764f54ae800e78f465446ae1
Reciphers for ciphertext: 0
Decipheredtext:           00000000004000000000000000000000
RESULT CIPHER-DECIPHER: -----OK-----


Test: 42
Hash algorithm: 12
Symmetric key bit length: 192
IV bit length:            128
Plaintext bit length:     128
Symmetric key:            000000000000000000000000002000000000000000000000
IV:                       00000000002000000000000000000000
Plaintext:                00000000002000000000000000000000
Ciphertext:               a9cb2e8ea4a0b50ca00a40e62a1542efec666bacb4584d36773cdcf9c95329dd
Reciphers for ciphertext: 0
Decipheredtext:           00000000002000000000000000000000
RESULT CIPHER-DECIPHER: -----OK-----


Test: 43
Hash algorithm: 5
Symmetric key bit length: 192
IV bit length:            128
Plaintext bit length:     128
Symmetric key:            000000000000000000000000001000000000000000000000
IV:                       00000000001000000000000000000000
Plaintext:                00000000001000000000000000000000
Ciphertext:               cfc0dd3921313c1cf950ab1635cce2b0301bb15639c972d94545f18c32f5a0f3dfe88968d7544f7697da56f1
Reciphers for ciphertext: 0
Decipheredtext:           00000000001000000000000000000000
RESULT CIPHER-DECIPHER: -----OK-----


Test: 44
Hash algorithm: 13
Symmetric key bit length: 192
IV bit length:            128
Plaintext bit length:     128
Symmetric key:            000000000000000000000000000800000000000000000000
IV:                       00000000000800000000000000000000
Plaintext:                00000000000800000000000000000000
Ciphertext:               100174b4d69cd8c650f8e54466eb642c32ee16dd72352cf8f2b20fa05256d5c1
Reciphers for ciphertext: 0
Decipheredtext:           00000000000800000000000000000000
RESULT CIPHER-DECIPHER: -----OK-----


Test: 45
Hash algorithm: 2
Symmetric key bit length: 192
IV bit length:            128
Plaintext bit length:     128
Symmetric key:            000000000000000000000000000400000000000000000000
IV:                       00000000000400000000000000000000
Plaintext:                00000000000400000000000000000000
Ciphertext:               80e8941dd9a6666089cbeead78ce2886663d96301bfece34c17ee7fab4bf9e5ae8dd9ee90f82c444e0b4677f08ba5402
Reciphers for ciphertext: 0
Decipheredtext:           00000000000400000000000000000000
RESULT CIPHER-DECIPHER: -----OK-----


Test: 46
Hash algorithm: 8
Symmetric key bit length: 192
IV bit length:            128
Plaintext bit length:     128
Symmetric key:            000000000000000000000000000200000000000000000000
IV:                       00000000000200000000000000000000
Plaintext:                00000000000200000000000000000000
Ciphertext:               1c9d3639decd8191cf1460671dcd0f6ba721d897a21ed1cf46b7bd85f679cb132096f120
Reciphers for ciphertext: 0
Decipheredtext:           00000000000200000000000000000000
RESULT CIPHER-DECIPHER: -----OK-----


Test: 47
Hash algorithm: 4
Symmetric key bit length: 192
IV bit length:            128
Plaintext bit length:     128
Symmetric key:            000000000000000000000000000100000000000000000000
IV:                       00000000000100000000000000000000
Plaintext:                00000000000100000000000000000000
Ciphertext:               448740c3617681ebad555c039c708946c308334a1447bb6f7275d102ced0a5752818b2ec071f3e4908d9a02c34b5ba39820fd234033e92e682da4f94ecab93d6dced63eebfff4e79b8090189b380c2e9
Reciphers for ciphertext: 0
Decipheredtext:           00000000000100000000000000000000
RESULT CIPHER-DECIPHER: -----OK-----


Test: 48
Hash algorithm: 9
Symmetric key bit length: 192
IV bit length:            128
Plaintext bit length:     128
Symmetric key:            000000000000000000000000000080000000000000000000
IV:                       00000000000080000000000000000000
Plaintext:                00000000000080000000000000000000
Ciphertext:               268a9aa733275a55a6f21cf50570235ab233aede099e4bcad72d34d487262d47e41f6f0d4b7b2a18ec86838e2ad51273
Reciphers for ciphertext: 0
Decipheredtext:           00000000000080000000000000000000
RESULT CIPHER-DECIPHER: -----OK-----


Test: 49
Hash algorithm: 2
Symmetric key bit length: 192
IV bit length:            128
Plaintext bit length:     128
Symmetric key:            000000000000000000000000000040000000000000000000
IV:                       00000000000040000000000000000000
Plaintext:                00000000000040000000000000000000
Ciphertext:               f4c49cac707aafd422162a86d2dde26221f47c62834a499680c12d33153ffa12f3e108e2a1b113440ec0fc06ebe6ba8b
Reciphers for ciphertext: 0
Decipheredtext:           00000000000040000000000000000000
RESULT CIPHER-DECIPHER: -----OK-----


Test: 50
Hash algorithm: 5
Symmetric key bit length: 192
IV bit length:            128
Plaintext bit length:     128
Symmetric key:            000000000000000000000000000020000000000000000000
IV:                       00000000000020000000000000000000
Plaintext:                00000000000020000000000000000000
Ciphertext:               7a35f75426a1ac243ca5f1ed60e60a30809b6d017fa0605cc895427a0343fff8e428e08fd9a3c524e527dfad
Reciphers for ciphertext: 0
Decipheredtext:           00000000000020000000000000000000
RESULT CIPHER-DECIPHER: -----OK-----


Test: 51
Hash algorithm: 3
Symmetric key bit length: 192
IV bit length:            128
Plaintext bit length:     128
Symmetric key:            000000000000000000000000000010000000000000000000
IV:                       00000000000010000000000000000000
Plaintext:                00000000000010000000000000000000
Ciphertext:               46883570d9e5c725f34e864b23af1339a2b6683ede8df752815e0fe9c54e7637076dabba99ffe7ebeb79bf26a70f49a8ffce83bfea262bb2e1e835467f144eb6
Reciphers for ciphertext: 0
Decipheredtext:           00000000000010000000000000000000
RESULT CIPHER-DECIPHER: -----OK-----


Test: 52
Hash algorithm: 7
Symmetric key bit length: 192
IV bit length:            128
Plaintext bit length:     128
Symmetric key:            000000000000000000000000000008000000000000000000
IV:                       00000000000008000000000000000000
Plaintext:                00000000000008000000000000000000
Ciphertext:               309aa45051e9f78cd063d9f18347bbeb3ad43d8d7307380fdbb72e2fc8d93c8f
Reciphers for ciphertext: 1
Decipheredtext:           00000000000008000000000000000000
RESULT CIPHER-DECIPHER: -----OK-----


Test: 53
Hash algorithm: 12
Symmetric key bit length: 192
IV bit length:            128
Plaintext bit length:     128
Symmetric key:            000000000000000000000000000004000000000000000000
IV:                       00000000000004000000000000000000
Plaintext:                00000000000004000000000000000000
Ciphertext:               09b6b76deb81ff8bb77470e806f8151881b61e110640e9b99ebba4d6246639b6
Reciphers for ciphertext: 0
Decipheredtext:           00000000000004000000000000000000
RESULT CIPHER-DECIPHER: -----OK-----


Test: 54
Hash algorithm: 4
Symmetric key bit length: 192
IV bit length:            128
Plaintext bit length:     128
Symmetric key:            000000000000000000000000000002000000000000000000
IV:                       00000000000002000000000000000000
Plaintext:                00000000000002000000000000000000
Ciphertext:               023dd8f7eb910c06ba9afe86a54cfc7aa8457d0e92302332328b2e1a293c08945ae78fd5a8ae7ba1b4f7b1ddf96e7b463b6c23f9082fdb0b327c231e955c0b15964000e66523dbb694086723770d42d1
Reciphers for ciphertext: 0
Decipheredtext:           00000000000002000000000000000000
RESULT CIPHER-DECIPHER: -----OK-----


Test: 55
Hash algorithm: 8
Symmetric key bit length: 192
IV bit length:            128
Plaintext bit length:     128
Symmetric key:            000000000000000000000000000001000000000000000000
IV:                       00000000000001000000000000000000
Plaintext:                00000000000001000000000000000000
Ciphertext:               15c2a4a3fd8f0d128237a7b2694c91cedaaa371df926be614582db592fa66b378e767643
Reciphers for ciphertext: 0
Decipheredtext:           00000000000001000000000000000000
RESULT CIPHER-DECIPHER: -----OK-----


Test: 56
Hash algorithm: 1
Symmetric key bit length: 192
IV bit length:            128
Plaintext bit length:     128
Symmetric key:            000000000000000000000000000000800000000000000000
IV:                       00000000000000800000000000000000
Plaintext:                00000000000000800000000000000000
Ciphertext:               d6bad0732bed281908756c19c10991faa8c4002ce152faf51744bcfd9f834d0c88aedd44f279c5953f2237a9
Reciphers for ciphertext: 0
Decipheredtext:           00000000000000800000000000000000
RESULT CIPHER-DECIPHER: -----OK-----


Test: 57
Hash algorithm: 11
Symmetric key bit length: 192
IV bit length:            128
Plaintext bit length:     128
Symmetric key:            000000000000000000000000000000400000000000000000
IV:                       00000000000000400000000000000000
Plaintext:                00000000000000400000000000000000
Ciphertext:               a02cccc1f503c346b77f31a1c8d235fe3cd93c2b8dad1fe09b2a8e55b93d3d3b
Reciphers for ciphertext: 0
Decipheredtext:           00000000000000400000000000000000
RESULT CIPHER-DECIPHER: -----OK-----


Test: 58
Hash algorithm: 0
Symmetric key bit length: 192
IV bit length:            128
Plaintext bit length:     128
Symmetric key:            000000000000000000000000000000200000000000000000
IV:                       00000000000000200000000000000000
Plaintext:                00000000000000200000000000000000
Ciphertext:               c813281713b1991ea47f8ef9ff3560226123f44e65e172f8488504b233a8e2fc8c45e813
Reciphers for ciphertext: 0
Decipheredtext:           00000000000000200000000000000000
RESULT CIPHER-DECIPHER: -----OK-----


Test: 59
Hash algorithm: 12
Symmetric key bit length: 192
IV bit length:            128
Plaintext bit length:     128
Symmetric key:            000000000000000000000000000000100000000000000000
IV:                       00000000000000100000000000000000
Plaintext:                00000000000000100000000000000000
Ciphertext:               85ea1fc27a5839df5858614be5937109a88d8a3e5d4ac278d542b5a1d9d29835
Reciphers for ciphertext: 0
Decipheredtext:           00000000000000100000000000000000
RESULT CIPHER-DECIPHER: -----OK-----


Test: 60
Hash algorithm: 5
Symmetric key bit length: 192
IV bit length:            128
Plaintext bit length:     128
Symmetric key:            000000000000000000000000000000080000000000000000
IV:                       00000000000000080000000000000000
Plaintext:                00000000000000080000000000000000
Ciphertext:               6ede00201b83ccc474ee2a95516bd59e9e6f6bc6413bdb00dfd5bda1a2070a562d7290bdea9416db13775d4c
Reciphers for ciphertext: 0
Decipheredtext:           00000000000000080000000000000000
RESULT CIPHER-DECIPHER: -----OK-----


Test: 61
Hash algorithm: 12
Symmetric key bit length: 192
IV bit length:            128
Plaintext bit length:     128
Symmetric key:            000000000000000000000000000000040000000000000000
IV:                       00000000000000040000000000000000
Plaintext:                00000000000000040000000000000000
Ciphertext:               e48329db3944ecb353cbcc92b2cd8201c9cc14e4989acdfa2e5986a97ab05815
Reciphers for ciphertext: 0
Decipheredtext:           00000000000000040000000000000000
RESULT CIPHER-DECIPHER: -----OK-----


Test: 62
Hash algorithm: 2
Symmetric key bit length: 192
IV bit length:            128
Plaintext bit length:     128
Symmetric key:            000000000000000000000000000000020000000000000000
IV:                       00000000000000020000000000000000
Plaintext:                00000000000000020000000000000000
Ciphertext:               cb065f5c171bf4041df415bd46329378d80ff363595aa52e3d0fe7e4e87bb8cecb95625abd9bb31d0a2e5750fdc76aa8
Reciphers for ciphertext: 0
Decipheredtext:           00000000000000020000000000000000
RESULT CIPHER-DECIPHER: -----OK-----


Test: 63
Hash algorithm: 2
Symmetric key bit length: 192
IV bit length:            128
Plaintext bit length:     128
Symmetric key:            000000000000000000000000000000010000000000000000
IV:                       00000000000000010000000000000000
Plaintext:                00000000000000010000000000000000
Ciphertext:               6e1d614e7a42fa2c3c94a40a25ea8319162544cc502d644fe6b534e20d0e4acbc7b575ab5e7cf6a8c368bae7379814c2
Reciphers for ciphertext: 0
Decipheredtext:           00000000000000010000000000000000
RESULT CIPHER-DECIPHER: -----OK-----


Test: 64
Hash algorithm: 4
Symmetric key bit length: 192
IV bit length:            128
Plaintext bit length:     128
Symmetric key:            000000000000000000000000000000008000000000000000
IV:                       00000000000000008000000000000000
Plaintext:                00000000000000008000000000000000
Ciphertext:               f79a5a46348a027572f6245056a1642a32faad5c330462fd942c061a24f3504a6f18f99a4a0ebc01f9271a3b7a85985efef8afb6bf3d0316671b8ac1d6eba390808efa313c5cac88b3f4b0b9c8e155a0
Reciphers for ciphertext: 0
Decipheredtext:           00000000000000008000000000000000
RESULT CIPHER-DECIPHER: -----OK-----


Test: 65
Hash algorithm: 13
Symmetric key bit length: 192
IV bit length:            128
Plaintext bit length:     128
Symmetric key:            000000000000000000000000000000004000000000000000
IV:                       00000000000000004000000000000000
Plaintext:                00000000000000004000000000000000
Ciphertext:               11df41a0b5f533f95db05cbb70539cd42bb0ceb7cf0e30b3716c154faed41072
Reciphers for ciphertext: 0
Decipheredtext:           00000000000000004000000000000000
RESULT CIPHER-DECIPHER: -----OK-----


Test: 66
Hash algorithm: 4
Symmetric key bit length: 192
IV bit length:            128
Plaintext bit length:     128
Symmetric key:            000000000000000000000000000000002000000000000000
IV:                       00000000000000002000000000000000
Plaintext:                00000000000000002000000000000000
Ciphertext:               d358e28e86f9df3ea5278f5aedbe1bae65c59194c3c82db0e99705970fe351b0e9aa1fa430670610f548e34441e6f58348a0eba0b23c03bf8af00d44268e973b70e90bc32d8212b9b06260bf51da1451
Reciphers for ciphertext: 0
Decipheredtext:           00000000000000002000000000000000
RESULT CIPHER-DECIPHER: -----OK-----


Test: 67
Hash algorithm: 13
Symmetric key bit length: 192
IV bit length:            128
Plaintext bit length:     128
Symmetric key:            000000000000000000000000000000001000000000000000
IV:                       00000000000000001000000000000000
Plaintext:                00000000000000001000000000000000
Ciphertext:               775262760e4220b838c2003de3bde4773c0ce6289192401b6d1b2c5b13dcd255
Reciphers for ciphertext: 0
Decipheredtext:           00000000000000001000000000000000
RESULT CIPHER-DECIPHER: -----OK-----


Test: 68
Hash algorithm: 13
Symmetric key bit length: 192
IV bit length:            128
Plaintext bit length:     128
Symmetric key:            000000000000000000000000000000000800000000000000
IV:                       00000000000000000800000000000000
Plaintext:                00000000000000000800000000000000
Ciphertext:               6e381a553299610fc03f7521d74c634deb1154c3f23ec783f7f1794e733f1f35
Reciphers for ciphertext: 0
Decipheredtext:           00000000000000000800000000000000
RESULT CIPHER-DECIPHER: -----OK-----


Test: 69
Hash algorithm: 12
Symmetric key bit length: 192
IV bit length:            128
Plaintext bit length:     128
Symmetric key:            000000000000000000000000000000000400000000000000
IV:                       00000000000000000400000000000000
Plaintext:                00000000000000000400000000000000
Ciphertext:               d42555cdfc3eb1dc42fe9126bd7690a2378846aa51ec2e4aeb2c885a0a9f8740
Reciphers for ciphertext: 0
Decipheredtext:           00000000000000000400000000000000
RESULT CIPHER-DECIPHER: -----OK-----


Test: 70
Hash algorithm: 9
Symmetric key bit length: 192
IV bit length:            128
Plaintext bit length:     128
Symmetric key:            000000000000000000000000000000000200000000000000
IV:                       00000000000000000200000000000000
Plaintext:                00000000000000000200000000000000
Ciphertext:               0746b851ce2d2f098987bf885e367228d245df75806c536e0bd64397f64d7b2b207c768e38740754f6fa6d0642461046
Reciphers for ciphertext: 0
Decipheredtext:           00000000000000000200000000000000
RESULT CIPHER-DECIPHER: -----OK-----


Test: 71
Hash algorithm: 6
Symmetric key bit length: 192
IV bit length:            128
Plaintext bit length:     128
Symmetric key:            000000000000000000000000000000000100000000000000
IV:                       00000000000000000100000000000000
Plaintext:                00000000000000000100000000000000
Ciphertext:               e265c8614eb2e908c339a5adf1e9f67507290ca3ac085148cc876603d7dc8bd21046a2e24cb9d2eae956684531f3ff43
Reciphers for ciphertext: 0
Decipheredtext:           00000000000000000100000000000000
RESULT CIPHER-DECIPHER: -----OK-----


Test: 72
Hash algorithm: 9
Symmetric key bit length: 192
IV bit length:            128
Plaintext bit length:     128
Symmetric key:            000000000000000000000000000000000080000000000000
IV:                       00000000000000000080000000000000
Plaintext:                00000000000000000080000000000000
Ciphertext:               64ce7ac729e99667994f741799cfe99950c21973f1ee64fb8bb585347c762911de691fd84b1b05f0eeefce5569cd6752
Reciphers for ciphertext: 0
Decipheredtext:           00000000000000000080000000000000
RESULT CIPHER-DECIPHER: -----OK-----


Test: 73
Hash algorithm: 0
Symmetric key bit length: 192
IV bit length:            128
Plaintext bit length:     128
Symmetric key:            000000000000000000000000000000000040000000000000
IV:                       00000000000000000040000000000000
Plaintext:                00000000000000000040000000000000
Ciphertext:               37d2673931c1575249960eaf6f00641778bcf8f95f117941de3b14f937ef7f1b84e3e169
Reciphers for ciphertext: 0
Decipheredtext:           00000000000000000040000000000000
RESULT CIPHER-DECIPHER: -----OK-----


Test: 74
Hash algorithm: 1
Symmetric key bit length: 192
IV bit length:            128
Plaintext bit length:     128
Symmetric key:            000000000000000000000000000000000020000000000000
IV:                       00000000000000000020000000000000
Plaintext:                00000000000000000020000000000000
Ciphertext:               c36810596a5145f219fdb5893ee40461d2ddcf17db0e67d6dcb84924300d7dd65975ce4636443304cbc9bfb7
Reciphers for ciphertext: 0
Decipheredtext:           00000000000000000020000000000000
RESULT CIPHER-DECIPHER: -----OK-----


Test: 75
Hash algorithm: 3
Symmetric key bit length: 192
IV bit length:            128
Plaintext bit length:     128
Symmetric key:            000000000000000000000000000000000010000000000000
IV:                       00000000000000000010000000000000
Plaintext:                00000000000000000010000000000000
Ciphertext:               e5e1093ea5ee90f5063f545062d8036fa8c5d10570cef876d5d7a685a740378a5f81d268ce40cba2feacc91fecbbee4dae322e0e3c98656bbc8be2681d246e93
Reciphers for ciphertext: 0
Decipheredtext:           00000000000000000010000000000000
RESULT CIPHER-DECIPHER: -----OK-----


Test: 76
Hash algorithm: 4
Symmetric key bit length: 192
IV bit length:            128
Plaintext bit length:     128
Symmetric key:            000000000000000000000000000000000008000000000000
IV:                       00000000000000000008000000000000
Plaintext:                00000000000000000008000000000000
Ciphertext:               bc11016089548983c1ffd2496947bc1023b98e887d4dea06b59985e17c39d9e7c9270977213fbedca3e7f2a609ba20780dcd1a858b435b637306c14016405dd68a60cc5325ba3fa1c71b7ab98e2d9415
Reciphers for ciphertext: 0
Decipheredtext:           00000000000000000008000000000000
RESULT CIPHER-DECIPHER: -----OK-----


Test: 77
Hash algorithm: 8
Symmetric key bit length: 192
IV bit length:            128
Plaintext bit length:     128
Symmetric key:            000000000000000000000000000000000004000000000000
IV:                       00000000000000000004000000000000
Plaintext:                00000000000000000004000000000000
Ciphertext:               b1e6132a9a79bade8d966255133fc4bb58ef8e78b09faef3a9a696b79454a0d5450cb101
Reciphers for ciphertext: 0
Decipheredtext:           00000000000000000004000000000000
RESULT CIPHER-DECIPHER: -----OK-----


Test: 78
Hash algorithm: 3
Symmetric key bit length: 192
IV bit length:            128
Plaintext bit length:     128
Symmetric key:            000000000000000000000000000000000002000000000000
IV:                       00000000000000000002000000000000
Plaintext:                00000000000000000002000000000000
Ciphertext:               3f8dc512b3e066d6529de74d693be0d0a0f104d8f0110fd629bf5c820205f8a1029819f6c0091ca7b0372498ab7bbe392805f9d47c80f10c8246e1e5604cbb40
Reciphers for ciphertext: 0
Decipheredtext:           00000000000000000002000000000000
RESULT CIPHER-DECIPHER: -----OK-----


Test: 79
Hash algorithm: 7
Symmetric key bit length: 192
IV bit length:            128
Plaintext bit length:     128
Symmetric key:            000000000000000000000000000000000001000000000000
IV:                       00000000000000000001000000000000
Plaintext:                00000000000000000001000000000000
Ciphertext:               2aaf470776d3f09c6a021b00943694d22f88175de3b642b45bbf9d6d4cf2af1a
Reciphers for ciphertext: 0
Decipheredtext:           00000000000000000001000000000000
RESULT CIPHER-DECIPHER: -----OK-----


Test: 80
Hash algorithm: 12
Symmetric key bit length: 192
IV bit length:            128
Plaintext bit length:     128
Symmetric key:            000000000000000000000000000000000000800000000000
IV:                       00000000000000000000800000000000
Plaintext:                00000000000000000000800000000000
Ciphertext:               cc715275f3e830c225b706258af27d0be3cd9de402297890396b71b13a8c1691
Reciphers for ciphertext: 0
Decipheredtext:           00000000000000000000800000000000
RESULT CIPHER-DECIPHER: -----OK-----


Test: 81
Hash algorithm: 13
Symmetric key bit length: 192
IV bit length:            128
Plaintext bit length:     128
Symmetric key:            000000000000000000000000000000000000400000000000
IV:                       00000000000000000000400000000000
Plaintext:                00000000000000000000400000000000
Ciphertext:               d3a001cc12387a5dc85c0c6706dd2aa333dd738a5f2f2a6effb41f22fd586274
Reciphers for ciphertext: 0
Decipheredtext:           00000000000000000000400000000000
RESULT CIPHER-DECIPHER: -----OK-----


Test: 82
Hash algorithm: 3
Symmetric key bit length: 192
IV bit length:            128
Plaintext bit length:     128
Symmetric key:            000000000000000000000000000000000000200000000000
IV:                       00000000000000000000200000000000
Plaintext:                00000000000000000000200000000000
Ciphertext:               aaa16af3fa35b65f84d2785010e469756e76018771e5f29c8b8d155f4c27d61dd189822d33054d2b3659cd5babbcb029269d0f47b69a3545ee8c7f3243cc9e8e
Reciphers for ciphertext: 0
Decipheredtext:           00000000000000000000200000000000
RESULT CIPHER-DECIPHER: -----OK-----


Test: 83
Hash algorithm: 1
Symmetric key bit length: 192
IV bit length:            128
Plaintext bit length:     128
Symmetric key:            000000000000000000000000000000000000100000000000
IV:                       00000000000000000000100000000000
Plaintext:                00000000000000000000100000000000
Ciphertext:               3565e7ee1b2fd38621589126c31c637614e7c58a3708b49c14ab077c50797f4a12f3d8351575bcc2c4633bb1
Reciphers for ciphertext: 0
Decipheredtext:           00000000000000000000100000000000
RESULT CIPHER-DECIPHER: -----OK-----


Test: 84
Hash algorithm: 5
Symmetric key bit length: 192
IV bit length:            128
Plaintext bit length:     128
Symmetric key:            000000000000000000000000000000000000080000000000
IV:                       00000000000000000000080000000000
Plaintext:                00000000000000000000080000000000
Ciphertext:               5d00754cd9eb702daba39de13a9fde69161a16beba6a0ffd3a06a2f0fb8f9cc9d9af0fbef6ae37f783bfef2b
Reciphers for ciphertext: 0
Decipheredtext:           00000000000000000000080000000000
RESULT CIPHER-DECIPHER: -----OK-----


Test: 85
Hash algorithm: 8
Symmetric key bit length: 192
IV bit length:            128
Plaintext bit length:     128
Symmetric key:            000000000000000000000000000000000000040000000000
IV:                       00000000000000000000040000000000
Plaintext:                00000000000000000000040000000000
Ciphertext:               e077b498101c9b4f9123db208fd2b5674175aef4f7ec6e5c1a21bfbb27a9f1aadd9bf32a
Reciphers for ciphertext: 0
Decipheredtext:           00000000000000000000040000000000
RESULT CIPHER-DECIPHER: -----OK-----


Test: 86
Hash algorithm: 0
Symmetric key bit length: 192
IV bit length:            128
Plaintext bit length:     128
Symmetric key:            000000000000000000000000000000000000020000000000
IV:                       00000000000000000000020000000000
Plaintext:                00000000000000000000020000000000
Ciphertext:               0644cb9902e375a79e279b7b099acafb6304710e3fe3a055d11606ddecef751080a359cb
Reciphers for ciphertext: 0
Decipheredtext:           00000000000000000000020000000000
RESULT CIPHER-DECIPHER: -----OK-----


Test: 87
Hash algorithm: 5
Symmetric key bit length: 192
IV bit length:            128
Plaintext bit length:     128
Symmetric key:            000000000000000000000000000000000000010000000000
IV:                       00000000000000000000010000000000
Plaintext:                00000000000000000000010000000000
Ciphertext:               9fda89e01d325ab7e1fe29550cdeb18e57d3ebcde4cf482d783af0ee412083181053be865b0208388c3edaf0
Reciphers for ciphertext: 0
Decipheredtext:           00000000000000000000010000000000
RESULT CIPHER-DECIPHER: -----OK-----


Test: 88
Hash algorithm: 3
Symmetric key bit length: 192
IV bit length:            128
Plaintext bit length:     128
Symmetric key:            000000000000000000000000000000000000008000000000
IV:                       00000000000000000000008000000000
Plaintext:                00000000000000000000008000000000
Ciphertext:               98a48c443a5bf2ed9b381b55c6b04d0564642d10352f85b6552a7fcfd46cae3a50454406500db721fd2164440b16e907b871fb1dd97f0b6dec9c1d7dd4537e3f
Reciphers for ciphertext: 0
Decipheredtext:           00000000000000000000008000000000
RESULT CIPHER-DECIPHER: -----OK-----


Test: 89
Hash algorithm: 9
Symmetric key bit length: 192
IV bit length:            128
Plaintext bit length:     128
Symmetric key:            000000000000000000000000000000000000004000000000
IV:                       00000000000000000000004000000000
Plaintext:                00000000000000000000004000000000
Ciphertext:               eddc5d599d0140af72471202b89531667ca7d335f753aad4c820660c44048f87b6c38378aeb9f332c445292ccc5d22f5
Reciphers for ciphertext: 0
Decipheredtext:           00000000000000000000004000000000
RESULT CIPHER-DECIPHER: -----OK-----


Test: 90
Hash algorithm: 6
Symmetric key bit length: 192
IV bit length:            128
Plaintext bit length:     128
Symmetric key:            000000000000000000000000000000000000002000000000
IV:                       00000000000000000000002000000000
Plaintext:                00000000000000000000002000000000
Ciphertext:               f102de5670fb6d6f939746ad2f13d11e0bac79d5b1a7338b9cd7765062af54e06478ab5a30ea7e55dbe41df878d520a8
Reciphers for ciphertext: 0
Decipheredtext:           00000000000000000000002000000000
RESULT CIPHER-DECIPHER: -----OK-----


Test: 91
Hash algorithm: 5
Symmetric key bit length: 192
IV bit length:            128
Plaintext bit length:     128
Symmetric key:            000000000000000000000000000000000000001000000000
IV:                       00000000000000000000001000000000
Plaintext:                00000000000000000000001000000000
Ciphertext:               88f52af48e601eb1e4805ace8c811a571d06868ac2d4520098c43a15898c08b47b891687154aed214e11c1bd
Reciphers for ciphertext: 0
Decipheredtext:           00000000000000000000001000000000
RESULT CIPHER-DECIPHER: -----OK-----


Test: 92
Hash algorithm: 1
Symmetric key bit length: 192
IV bit length:            128
Plaintext bit length:     128
Symmetric key:            000000000000000000000000000000000000000800000000
IV:                       00000000000000000000000800000000
Plaintext:                00000000000000000000000800000000
Ciphertext:               f4d45f6c87a46829751cfe302cf32a7b8858879bc07182b9aa522c9132d9c6bfd6b0a872fe83a50bf93cb11f
Reciphers for ciphertext: 0
Decipheredtext:           00000000000000000000000800000000
RESULT CIPHER-DECIPHER: -----OK-----


Test: 93
Hash algorithm: 11
Symmetric key bit length: 192
IV bit length:            128
Plaintext bit length:     128
Symmetric key:            000000000000000000000000000000000000000400000000
IV:                       00000000000000000000000400000000
Plaintext:                00000000000000000000000400000000
Ciphertext:               e80666f97211518ed967a7d61340445906f2fef31814d373603041f98a2e0ba5
Reciphers for ciphertext: 0
Decipheredtext:           00000000000000000000000400000000
RESULT CIPHER-DECIPHER: -----OK-----


Test: 94
Hash algorithm: 8
Symmetric key bit length: 192
IV bit length:            128
Plaintext bit length:     128
Symmetric key:            000000000000000000000000000000000000000200000000
IV:                       00000000000000000000000200000000
Plaintext:                00000000000000000000000200000000
Ciphertext:               3a17ca8e0fbd69bc70ebd0fb20efb7c512080b206a5740b7e771eea037a4ff0d368f7486
Reciphers for ciphertext: 0
Decipheredtext:           00000000000000000000000200000000
RESULT CIPHER-DECIPHER: -----OK-----


Test: 95
Hash algorithm: 6
Symmetric key bit length: 192
IV bit length:            128
Plaintext bit length:     128
Symmetric key:            000000000000000000000000000000000000000100000000
IV:                       00000000000000000000000100000000
Plaintext:                00000000000000000000000100000000
Ciphertext:               221f672ebdc9ba90a44fdcd45435fac6070edbf9706572a2073ed38f8a8feec07e672a1e00f6d31006b063377c76fa0a
Reciphers for ciphertext: 0
Decipheredtext:           00000000000000000000000100000000
RESULT CIPHER-DECIPHER: -----OK-----


Test: 96
Hash algorithm: 4
Symmetric key bit length: 192
IV bit length:            128
Plaintext bit length:     128
Symmetric key:            000000000000000000000000000000000000000080000000
IV:                       00000000000000000000000080000000
Plaintext:                00000000000000000000000080000000
Ciphertext:               f195b9614cb10790b9103a656dfda004d2e6c4211cb76b2a4fc7fb3b73cf16a9860f6a93b63346a57a6070810641f3293da0075b3cae0f2c1ccdbcd2ef470fc8a8ae53374e37305741c720ed908c32db
Reciphers for ciphertext: 0
Decipheredtext:           00000000000000000000000080000000
RESULT CIPHER-DECIPHER: -----OK-----


Test: 97
Hash algorithm: 12
Symmetric key bit length: 192
IV bit length:            128
Plaintext bit length:     128
Symmetric key:            000000000000000000000000000000000000000040000000
IV:                       00000000000000000000000040000000
Plaintext:                00000000000000000000000040000000
Ciphertext:               60ca64ee64d165827304827fccc65b9eca5ff2e84db9d771c3093eb69366c6a6
Reciphers for ciphertext: 0
Decipheredtext:           00000000000000000000000040000000
RESULT CIPHER-DECIPHER: -----OK-----


Test: 98
Hash algorithm: 12
Symmetric key bit length: 192
IV bit length:            128
Plaintext bit length:     128
Symmetric key:            000000000000000000000000000000000000000020000000
IV:                       00000000000000000000000020000000
Plaintext:                00000000000000000000000020000000
Ciphertext:               777f37067d8df78e66578d16248d8bf22c7abec7c1e10aa05428b7a0e3fd5cc5
Reciphers for ciphertext: 0
Decipheredtext:           00000000000000000000000020000000
RESULT CIPHER-DECIPHER: -----OK-----


Test: 99
Hash algorithm: 13
Symmetric key bit length: 192
IV bit length:            128
Plaintext bit length:     128
Symmetric key:            000000000000000000000000000000000000000010000000
IV:                       00000000000000000000000010000000
Plaintext:                00000000000000000000000010000000
Ciphertext:               8c65e009582d12d1a61b07d8c3f327599dd41ffe34470b0235ccc275d17498f6
Reciphers for ciphertext: 0
Decipheredtext:           00000000000000000000000010000000
RESULT CIPHER-DECIPHER: -----OK-----


Test: 100
Hash algorithm: 2
Symmetric key bit length: 192
IV bit length:            128
Plaintext bit length:     128
Symmetric key:            000000000000000000000000000000000000000008000000
IV:                       00000000000000000000000008000000
Plaintext:                00000000000000000000000008000000
Ciphertext:               c61261b42864e94b8e36b99c0397e6b450bad90054001834a5ca8719c1e05f1e1c71ae2f17ae32fcb173beaa7fdb9198
Reciphers for ciphertext: 0
Decipheredtext:           00000000000000000000000008000000
RESULT CIPHER-DECIPHER: -----OK-----


Test: 101
Hash algorithm: 5
Symmetric key bit length: 192
IV bit length:            128
Plaintext bit length:     128
Symmetric key:            000000000000000000000000000000000000000004000000
IV:                       00000000000000000000000004000000
Plaintext:                00000000000000000000000004000000
Ciphertext:               7ed8757bd446c9630b23d63edb40786243a33c27c262de3d968ad0fa08b4a63834fbf8f664fffa02cb64c215
Reciphers for ciphertext: 0
Decipheredtext:           00000000000000000000000004000000
RESULT CIPHER-DECIPHER: -----OK-----


Test: 102
Hash algorithm: 12
Symmetric key bit length: 192
IV bit length:            128
Plaintext bit length:     128
Symmetric key:            000000000000000000000000000000000000000002000000
IV:                       00000000000000000000000002000000
Plaintext:                00000000000000000000000002000000
Ciphertext:               b3e33d7b30caa4c21e6ea3402660346b89faa37e818ac57aa996f2b3944e0ae6
Reciphers for ciphertext: 0
Decipheredtext:           00000000000000000000000002000000
RESULT CIPHER-DECIPHER: -----OK-----


Test: 103
Hash algorithm: 0
Symmetric key bit length: 192
IV bit length:            128
Plaintext bit length:     128
Symmetric key:            000000000000000000000000000000000000000001000000
IV:                       00000000000000000000000001000000
Plaintext:                00000000000000000000000001000000
Ciphertext:               ddad3c1a2b6b9f9d017d428dc5eb2fcc09715b0fd1e661e47927678621e05f84d42c0f32
Reciphers for ciphertext: 0
Decipheredtext:           00000000000000000000000001000000
RESULT CIPHER-DECIPHER: -----OK-----


Test: 104
Hash algorithm: 3
Symmetric key bit length: 192
IV bit length:            128
Plaintext bit length:     128
Symmetric key:            000000000000000000000000000000000000000000800000
IV:                       00000000000000000000000000800000
Plaintext:                00000000000000000000000000800000
Ciphertext:               bd348a3931427f669419014051bf1258263ef88a8aba3377c2a65c3130cc89be1855a2a373db2c5e05c65ed5e5d8b130b610b11f57ea837f1e11f18345c2f02e
Reciphers for ciphertext: 0
Decipheredtext:           00000000000000000000000000800000
RESULT CIPHER-DECIPHER: -----OK-----


Test: 105
Hash algorithm: 5
Symmetric key bit length: 192
IV bit length:            128
Plaintext bit length:     128
Symmetric key:            000000000000000000000000000000000000000000400000
IV:                       00000000000000000000000000400000
Plaintext:                00000000000000000000000000400000
Ciphertext:               2673e21dc93c2aaf2348cc11b6022634179f76d65f616d89aac903e71168dc9411fe5814abd4a4b6cea35932
Reciphers for ciphertext: 0
Decipheredtext:           00000000000000000000000000400000
RESULT CIPHER-DECIPHER: -----OK-----


Test: 106
Hash algorithm: 11
Symmetric key bit length: 192
IV bit length:            128
Plaintext bit length:     128
Symmetric key:            000000000000000000000000000000000000000000200000
IV:                       00000000000000000000000000200000
Plaintext:                00000000000000000000000000200000
Ciphertext:               8e989aba3e9103fc2184aa8852c1e420c751f5293c8246db2fe6b5d0aeaa6a19
Reciphers for ciphertext: 0
Decipheredtext:           00000000000000000000000000200000
RESULT CIPHER-DECIPHER: -----OK-----


Test: 107
Hash algorithm: 2
Symmetric key bit length: 192
IV bit length:            128
Plaintext bit length:     128
Symmetric key:            000000000000000000000000000000000000000000100000
IV:                       00000000000000000000000000100000
Plaintext:                00000000000000000000000000100000
Ciphertext:               f1b89975413cb7c602367a119ec6ce7599dcb37c3975fb0d4785a3ca155c88d6fa9d311855e7b0a99601f520bb222ca3
Reciphers for ciphertext: 0
Decipheredtext:           00000000000000000000000000100000
RESULT CIPHER-DECIPHER: -----OK-----


Test: 108
Hash algorithm: 5
Symmetric key bit length: 192
IV bit length:            128
Plaintext bit length:     128
Symmetric key:            000000000000000000000000000000000000000000080000
IV:                       00000000000000000000000000080000
Plaintext:                00000000000000000000000000080000
Ciphertext:               298b8ac9309e5527cbdb6d629f3ab54202f78f2d18dff3a23fb9549ecc8e6581708024306ce858f22610c02d
Reciphers for ciphertext: 0
Decipheredtext:           00000000000000000000000000080000
RESULT CIPHER-DECIPHER: -----OK-----


Test: 109
Hash algorithm: 1
Symmetric key bit length: 192
IV bit length:            128
Plaintext bit length:     128
Symmetric key:            000000000000000000000000000000000000000000040000
IV:                       00000000000000000000000000040000
Plaintext:                00000000000000000000000000040000
Ciphertext:               0504bff41c4b3525b4edcc13e44665dae6daa1ebdb2fdd364e7b5eac74a555ebd3e4e05c349c7bb3fa73db18
Reciphers for ciphertext: 0
Decipheredtext:           00000000000000000000000000040000
RESULT CIPHER-DECIPHER: -----OK-----


Test: 110
Hash algorithm: 3
Symmetric key bit length: 192
IV bit length:            128
Plaintext bit length:     128
Symmetric key:            000000000000000000000000000000000000000000020000
IV:                       00000000000000000000000000020000
Plaintext:                00000000000000000000000000020000
Ciphertext:               c776fe8732f16daff04a9d4878115ad2be2468ad1354517903e4f4eebde83d012070e42853f5844a70e7994fafe1c863cc91f2b23078e52b96494da983e29ed5
Reciphers for ciphertext: 0
Decipheredtext:           00000000000000000000000000020000
RESULT CIPHER-DECIPHER: -----OK-----


Test: 111
Hash algorithm: 13
Symmetric key bit length: 192
IV bit length:            128
Plaintext bit length:     128
Symmetric key:            000000000000000000000000000000000000000000010000
IV:                       00000000000000000000000000010000
Plaintext:                00000000000000000000000000010000
Ciphertext:               e0cd43d93a80794ce52ca20883a4fdf0787b1db15a832d8fe778bb6ac20bd4f2
Reciphers for ciphertext: 0
Decipheredtext:           00000000000000000000000000010000
RESULT CIPHER-DECIPHER: -----OK-----


Test: 112
Hash algorithm: 7
Symmetric key bit length: 192
IV bit length:            128
Plaintext bit length:     128
Symmetric key:            000000000000000000000000000000000000000000008000
IV:                       00000000000000000000000000008000
Plaintext:                00000000000000000000000000008000
Ciphertext:               32d9cede63595729c40b38782220a0c112b54af3077e3afdaa857cd157b2a132
Reciphers for ciphertext: 0
Decipheredtext:           00000000000000000000000000008000
RESULT CIPHER-DECIPHER: -----OK-----


Test: 113
Hash algorithm: 10
Symmetric key bit length: 192
IV bit length:            128
Plaintext bit length:     128
Symmetric key:            000000000000000000000000000000000000000000004000
IV:                       00000000000000000000000000004000
Plaintext:                00000000000000000000000000004000
Ciphertext:               a03ada753360585e021da6e9fd0ac6d0c7d086c6fe8aacc69543f4a84725433a3dbdc0662cf22d1e1e6e1ffc341b1a9cfe78e4f9303304a7
Reciphers for ciphertext: 0
Decipheredtext:           00000000000000000000000000004000
RESULT CIPHER-DECIPHER: -----OK-----


Test: 114
Hash algorithm: 11
Symmetric key bit length: 192
IV bit length:            128
Plaintext bit length:     128
Symmetric key:            000000000000000000000000000000000000000000002000
IV:                       00000000000000000000000000002000
Plaintext:                00000000000000000000000000002000
Ciphertext:               82b220739353093551757049ff4bfefaa938f5ffe2180620f2d977b663c2753c
Reciphers for ciphertext: 0
Decipheredtext:           00000000000000000000000000002000
RESULT CIPHER-DECIPHER: -----OK-----


Test: 115
Hash algorithm: 6
Symmetric key bit length: 192
IV bit length:            128
Plaintext bit length:     128
Symmetric key:            000000000000000000000000000000000000000000001000
IV:                       00000000000000000000000000001000
Plaintext:                00000000000000000000000000001000
Ciphertext:               10b1e82e4ec80c3ed8d7a07b387244f37f0b956364591cabcc308b1ffab721d64416ee45f4ea273926e9507554905e75
Reciphers for ciphertext: 0
Decipheredtext:           00000000000000000000000000001000
RESULT CIPHER-DECIPHER: -----OK-----


Test: 116
Hash algorithm: 7
Symmetric key bit length: 192
IV bit length:            128
Plaintext bit length:     128
Symmetric key:            000000000000000000000000000000000000000000000800
IV:                       00000000000000000000000000000800
Plaintext:                00000000000000000000000000000800
Ciphertext:               16c7e0752c591ab72a4f082560459fbae177514758a9729796822dd2b8e2cd65
Reciphers for ciphertext: 0
Decipheredtext:           00000000000000000000000000000800
RESULT CIPHER-DECIPHER: -----OK-----


Test: 117
Hash algorithm: 2
Symmetric key bit length: 192
IV bit length:            128
Plaintext bit length:     128
Symmetric key:            000000000000000000000000000000000000000000000400
IV:                       00000000000000000000000000000400
Plaintext:                00000000000000000000000000000400
Ciphertext:               5ec9956c3ccc3c2198a6970cc054b7c1bbdf1446be4d01e589bf7941b51a43fb1e04f0ad32edfd034f09b133ce8f6e1e
Reciphers for ciphertext: 0
Decipheredtext:           00000000000000000000000000000400
RESULT CIPHER-DECIPHER: -----OK-----


Test: 118
Hash algorithm: 7
Symmetric key bit length: 192
IV bit length:            128
Plaintext bit length:     128
Symmetric key:            000000000000000000000000000000000000000000000200
IV:                       00000000000000000000000000000200
Plaintext:                00000000000000000000000000000200
Ciphertext:               eb14aa3d85e5ca03970d5c98bf393e406c9d83f0ae7dc70c8e0b421c274d6528
Reciphers for ciphertext: 0
Decipheredtext:           00000000000000000000000000000200
RESULT CIPHER-DECIPHER: -----OK-----


Test: 119
Hash algorithm: 0
Symmetric key bit length: 192
IV bit length:            128
Plaintext bit length:     128
Symmetric key:            000000000000000000000000000000000000000000000100
IV:                       00000000000000000000000000000100
Plaintext:                00000000000000000000000000000100
Ciphertext:               85937ff04cdcfcee810572ed8d512218907ba4f8f31eafaa72034553c43f75ec8f63896a
Reciphers for ciphertext: 0
Decipheredtext:           00000000000000000000000000000100
RESULT CIPHER-DECIPHER: -----OK-----


Test: 120
Hash algorithm: 4
Symmetric key bit length: 192
IV bit length:            128
Plaintext bit length:     128
Symmetric key:            000000000000000000000000000000000000000000000080
IV:                       00000000000000000000000000000080
Plaintext:                00000000000000000000000000000080
Ciphertext:               89e337010de18187f6c98396cc0fa0baa0b996f7c2a1a9f835587477ff7f8273eed55d12df019351a8d3b76a8e1000230302f9100532eff2c23eaf1b2a0f0f9d53fe97d1164a693a3f54165bcbe38dda
Reciphers for ciphertext: 0
Decipheredtext:           00000000000000000000000000000080
RESULT CIPHER-DECIPHER: -----OK-----


Test: 121
Hash algorithm: 1
Symmetric key bit length: 192
IV bit length:            128
Plaintext bit length:     128
Symmetric key:            000000000000000000000000000000000000000000000040
IV:                       00000000000000000000000000000040
Plaintext:                00000000000000000000000000000040
Ciphertext:               33fa8bf9bd46804159acca90a1355bbc2ce6edebec1f653ca6f8de9c9df0a5306aab3db87df22a03ea696f04
Reciphers for ciphertext: 0
Decipheredtext:           00000000000000000000000000000040
RESULT CIPHER-DECIPHER: -----OK-----


Test: 122
Hash algorithm: 5
Symmetric key bit length: 192
IV bit length:            128
Plaintext bit length:     128
Symmetric key:            000000000000000000000000000000000000000000000020
IV:                       00000000000000000000000000000020
Plaintext:                00000000000000000000000000000020
Ciphertext:               a2da5d9ad9425682e264bc722d3760bb5a6ecb9c35b13d6232f2713ea3d1584cfc4801f0fe3062e20cc14846
Reciphers for ciphertext: 0
Decipheredtext:           00000000000000000000000000000020
RESULT CIPHER-DECIPHER: -----OK-----


Test: 123
Hash algorithm: 3
Symmetric key bit length: 192
IV bit length:            128
Plaintext bit length:     128
Symmetric key:            000000000000000000000000000000000000000000000010
IV:                       00000000000000000000000000000010
Plaintext:                00000000000000000000000000000010
Ciphertext:               f4e66ad40b3725e12b76598feb54c189cb0a052de3004e2defbdc05b020439a65c9327b8ce8ef0d0e1b195b5767134c9406f29b9bc1a86f80973f8ac1b077a98
Reciphers for ciphertext: 0
Decipheredtext:           00000000000000000000000000000010
RESULT CIPHER-DECIPHER: -----OK-----


Test: 124
Hash algorithm: 8
Symmetric key bit length: 192
IV bit length:            128
Plaintext bit length:     128
Symmetric key:            000000000000000000000000000000000000000000000008
IV:                       00000000000000000000000000000008
Plaintext:                00000000000000000000000000000008
Ciphertext:               857b8f13187280b68b4278f564707ec91a9008a494fb814574262ff9e603552d3c59a020
Reciphers for ciphertext: 0
Decipheredtext:           00000000000000000000000000000008
RESULT CIPHER-DECIPHER: -----OK-----


Test: 125
Hash algorithm: 7
Symmetric key bit length: 192
IV bit length:            128
Plaintext bit length:     128
Symmetric key:            000000000000000000000000000000000000000000000004
IV:                       00000000000000000000000000000004
Plaintext:                00000000000000000000000000000004
Ciphertext:               312ccb3b7a6b4a109e2707204f4ed2d8a5b979f0df73dbfe54233ff54d1dec4a
Reciphers for ciphertext: 0
Decipheredtext:           00000000000000000000000000000004
RESULT CIPHER-DECIPHER: -----OK-----


Test: 126
Hash algorithm: 1
Symmetric key bit length: 192
IV bit length:            128
Plaintext bit length:     128
Symmetric key:            000000000000000000000000000000000000000000000002
IV:                       00000000000000000000000000000002
Plaintext:                00000000000000000000000000000002
Ciphertext:               21b6fd31bdba222e857422472c639bf297172335a5bd76325cc3af910ae7d56da8433b7e3352ba6afa48f90c
Reciphers for ciphertext: 0
Decipheredtext:           00000000000000000000000000000002
RESULT CIPHER-DECIPHER: -----OK-----


Test: 127
Hash algorithm: 5
Symmetric key bit length: 192
IV bit length:            128
Plaintext bit length:     128
Symmetric key:            000000000000000000000000000000000000000000000001
IV:                       00000000000000000000000000000001
Plaintext:                00000000000000000000000000000001
Ciphertext:               cd6ad148cec72eed92bc8d0e7964a607acc8be534824bb9a710ca2127bf5a1a304356be16db303bc1f73637b
Reciphers for ciphertext: 0
Decipheredtext:           00000000000000000000000000000001
RESULT CIPHER-DECIPHER: -----OK-----


 DATA SHA1 (hexadecimal): 94c2239ee3173c8c65d3a97a27279c75902d9d3d

