
DiceLock 9.0.0.1

 TEST COMPONENTS:
 ----------------
 DiceLock:           DiceLockIVDigested class
 Operation Mode:     OFB_Mode class
 Block Cipher:       Serpent256 class
 Hash algorithms:     0 - Sha1 class
                      1 - Sha224 class
                      2 - Sha256 class
                      3 - Sha384 class
                      4 - Sha512 class
                      5 - Sha512_224 class
                      6 - Sha512_256 class
                      7 - Ripemd128 class
                      8 - Ripemd160 class
                      9 - Ripemd256 class
                     10 - Ripemd320 class
                     11 - MD2 class
                     12 - MD4 class
                     13 - MD5 class
 Key Modifier:       IncreaseKeyModifier_6_0_0_1 class
 Random tests:       RandomTestSuite class
                     FrequencyTest class
                     BlockFrequencyTest class
                     CumulativeSumForwardTest class
                     LongestRunOfOnesTest class
                     RunsTest class
 Random alpha:       0.001

 VECTOR TEST: Test vector 6 - Plaintext all byte value 0xXX


##### INDIVIDUAL TESTS #####

Number tests: 128


Test: 0
Hash algorithm: 6
Symmetric key bit length: 256
IV bit length:            128
Plaintext bit length:     128
Symmetric key:            0000000000000000000000000000000000000000000000000000000000000000
IV:                       00000000000000000000000000000000
Plaintext:                00000000000000000000000000000000
Ciphertext:               8910494504181950f98dd998a82b67496d0cdf25b45f0d9d0ea946977ecda21c0fd91f2e68c6041259f0fa887cd16be4
Reciphers for ciphertext: 0
Decipheredtext:           00000000000000000000000000000000
RESULT CIPHER-DECIPHER: -----OK-----


Test: 1
Hash algorithm: 0
Symmetric key bit length: 256
IV bit length:            128
Plaintext bit length:     128
Symmetric key:            0000000000000000000000000000000000000000000000000000000000000000
IV:                       00000000000000000000000000000000
Plaintext:                01010101010101010101010101010101
Ciphertext:               8811484405191851f88cd899a92a6648bd4c47d29c63061ee26e5779cfa13859014f7bcf
Reciphers for ciphertext: 0
Decipheredtext:           01010101010101010101010101010101
RESULT CIPHER-DECIPHER: -----OK-----


Test: 2
Hash algorithm: 1
Symmetric key bit length: 256
IV bit length:            128
Plaintext bit length:     128
Symmetric key:            0000000000000000000000000000000000000000000000000000000000000000
IV:                       00000000000000000000000000000000
Plaintext:                02020202020202020202020202020202
Ciphertext:               8b124b47061a1b52fb8fdb9aaa29654b041f9718098df43fd524b67d865da466f5f5d7ce177c60736ef8bc98
Reciphers for ciphertext: 0
Decipheredtext:           02020202020202020202020202020202
RESULT CIPHER-DECIPHER: -----OK-----


Test: 3
Hash algorithm: 12
Symmetric key bit length: 256
IV bit length:            128
Plaintext bit length:     128
Symmetric key:            0000000000000000000000000000000000000000000000000000000000000000
IV:                       00000000000000000000000000000000
Plaintext:                03030303030303030303030303030303
Ciphertext:               8a134a46071b1a53fa8eda9bab28644a8da54381b68151ce6ca309808133f647
Reciphers for ciphertext: 0
Decipheredtext:           03030303030303030303030303030303
RESULT CIPHER-DECIPHER: -----OK-----


Test: 4
Hash algorithm: 5
Symmetric key bit length: 256
IV bit length:            128
Plaintext bit length:     128
Symmetric key:            0000000000000000000000000000000000000000000000000000000000000000
IV:                       00000000000000000000000000000000
Plaintext:                04040404040404040404040404040404
Ciphertext:               8d144d41001c1d54fd89dd9cac2f634dd0edefbb711406f6df3dc0c3fa27884a705fcc800aaf79fcb2be0596
Reciphers for ciphertext: 0
Decipheredtext:           04040404040404040404040404040404
RESULT CIPHER-DECIPHER: -----OK-----


Test: 5
Hash algorithm: 2
Symmetric key bit length: 256
IV bit length:            128
Plaintext bit length:     128
Symmetric key:            0000000000000000000000000000000000000000000000000000000000000000
IV:                       00000000000000000000000000000000
Plaintext:                05050505050505050505050505050505
Ciphertext:               8c154c40011d1c55fc88dc9dad2e624c709a1009126054eeab3c956ff4a0c38d7cdc539147fd452c19e9346a5e770c8c
Reciphers for ciphertext: 0
Decipheredtext:           05050505050505050505050505050505
RESULT CIPHER-DECIPHER: -----OK-----


Test: 6
Hash algorithm: 1
Symmetric key bit length: 256
IV bit length:            128
Plaintext bit length:     128
Symmetric key:            0000000000000000000000000000000000000000000000000000000000000000
IV:                       00000000000000000000000000000000
Plaintext:                06060606060606060606060606060606
Ciphertext:               8f164f43021e1f56ff8bdf9eae2d614f52c62147c65e260025e862f82ef9f23655fe43ac46b2d64e267d9ec5
Reciphers for ciphertext: 0
Decipheredtext:           06060606060606060606060606060606
RESULT CIPHER-DECIPHER: -----OK-----


Test: 7
Hash algorithm: 5
Symmetric key bit length: 256
IV bit length:            128
Plaintext bit length:     128
Symmetric key:            0000000000000000000000000000000000000000000000000000000000000000
IV:                       00000000000000000000000000000000
Plaintext:                07070707070707070707070707070707
Ciphertext:               8e174e42031f1e57fe8ade9faf2c604ee70d768ac3c38a9ed934426f65b7bddca5d4331e0602263bce7271f4
Reciphers for ciphertext: 0
Decipheredtext:           07070707070707070707070707070707
RESULT CIPHER-DECIPHER: -----OK-----


Test: 8
Hash algorithm: 2
Symmetric key bit length: 256
IV bit length:            128
Plaintext bit length:     128
Symmetric key:            0000000000000000000000000000000000000000000000000000000000000000
IV:                       00000000000000000000000000000000
Plaintext:                08080808080808080808080808080808
Ciphertext:               8118414d0c101158f185d190a0236f418e84641a69c58604846ea62f3a839f53a524b401cfe6d65dc651746fe528c166
Reciphers for ciphertext: 0
Decipheredtext:           08080808080808080808080808080808
RESULT CIPHER-DECIPHER: -----OK-----


Test: 9
Hash algorithm: 9
Symmetric key bit length: 256
IV bit length:            128
Plaintext bit length:     128
Symmetric key:            0000000000000000000000000000000000000000000000000000000000000000
IV:                       00000000000000000000000000000000
Plaintext:                09090909090909090909090909090909
Ciphertext:               3de42d2acc95c0c943bccfc038f451911c80e576ce591f45c92dc0824ad1b903caea56c72290b2ab71e574468c1a199c
Reciphers for ciphertext: 1
Decipheredtext:           09090909090909090909090909090909
RESULT CIPHER-DECIPHER: -----OK-----


Test: 10
Hash algorithm: 10
Symmetric key bit length: 256
IV bit length:            128
Plaintext bit length:     128
Symmetric key:            0000000000000000000000000000000000000000000000000000000000000000
IV:                       00000000000000000000000000000000
Plaintext:                0a0a0a0a0a0a0a0a0a0a0a0a0a0a0a0a
Ciphertext:               831a434f0e12135af387d392a2216d434ceac7b45b2c2e0e629ba5ece6de58170efef91f7dda440e1e4518e7fa71dbf144d01b4c8a095496
Reciphers for ciphertext: 0
Decipheredtext:           0a0a0a0a0a0a0a0a0a0a0a0a0a0a0a0a
RESULT CIPHER-DECIPHER: -----OK-----


Test: 11
Hash algorithm: 13
Symmetric key bit length: 256
IV bit length:            128
Plaintext bit length:     128
Symmetric key:            0000000000000000000000000000000000000000000000000000000000000000
IV:                       00000000000000000000000000000000
Plaintext:                0b0b0b0b0b0b0b0b0b0b0b0b0b0b0b0b
Ciphertext:               821b424e0f13125bf286d293a3206c42f2adcd6d72a3eabc498bf6c3c79546f3
Reciphers for ciphertext: 0
Decipheredtext:           0b0b0b0b0b0b0b0b0b0b0b0b0b0b0b0b
RESULT CIPHER-DECIPHER: -----OK-----


Test: 12
Hash algorithm: 5
Symmetric key bit length: 256
IV bit length:            128
Plaintext bit length:     128
Symmetric key:            0000000000000000000000000000000000000000000000000000000000000000
IV:                       00000000000000000000000000000000
Plaintext:                0c0c0c0c0c0c0c0c0c0c0c0c0c0c0c0c
Ciphertext:               851c45490814155cf581d594a4276b45d124a67c62306204f5a048e8a9ef0b57e08808298b627615c1ae50b2
Reciphers for ciphertext: 0
Decipheredtext:           0c0c0c0c0c0c0c0c0c0c0c0c0c0c0c0c
RESULT CIPHER-DECIPHER: -----OK-----


Test: 13
Hash algorithm: 1
Symmetric key bit length: 256
IV bit length:            128
Plaintext bit length:     128
Symmetric key:            0000000000000000000000000000000000000000000000000000000000000000
IV:                       00000000000000000000000000000000
Plaintext:                0d0d0d0d0d0d0d0d0d0d0d0d0d0d0d0d
Ciphertext:               841d44480915145df480d495a5266a44f14c35032e5b31b71c4c34b18e8718cd9b44067706a40739665c4753
Reciphers for ciphertext: 0
Decipheredtext:           0d0d0d0d0d0d0d0d0d0d0d0d0d0d0d0d
RESULT CIPHER-DECIPHER: -----OK-----


Test: 14
Hash algorithm: 10
Symmetric key bit length: 256
IV bit length:            128
Plaintext bit length:     128
Symmetric key:            0000000000000000000000000000000000000000000000000000000000000000
IV:                       00000000000000000000000000000000
Plaintext:                0e0e0e0e0e0e0e0e0e0e0e0e0e0e0e0e
Ciphertext:               871e474b0a16175ef783d796a625694765aa8c6223587094a54e0defe653c9fc2f7a3a6e3ec09c320b50efab9d3580351fc25e083377f3ee
Reciphers for ciphertext: 0
Decipheredtext:           0e0e0e0e0e0e0e0e0e0e0e0e0e0e0e0e
RESULT CIPHER-DECIPHER: -----OK-----


Test: 15
Hash algorithm: 7
Symmetric key bit length: 256
IV bit length:            128
Plaintext bit length:     128
Symmetric key:            0000000000000000000000000000000000000000000000000000000000000000
IV:                       00000000000000000000000000000000
Plaintext:                0f0f0f0f0f0f0f0f0f0f0f0f0f0f0f0f
Ciphertext:               861f464a0b17165ff682d697a72468465374d6796d194087c98adae9af595d1e
Reciphers for ciphertext: 0
Decipheredtext:           0f0f0f0f0f0f0f0f0f0f0f0f0f0f0f0f
RESULT CIPHER-DECIPHER: -----OK-----


Test: 16
Hash algorithm: 5
Symmetric key bit length: 256
IV bit length:            128
Plaintext bit length:     128
Symmetric key:            0000000000000000000000000000000000000000000000000000000000000000
IV:                       00000000000000000000000000000000
Plaintext:                10101010101010101010101010101010
Ciphertext:               9900595514080940e99dc988b83b7759ae7dc5a88490d7ef9c7b78e10fbaab298764cd17084905298e4ab182
Reciphers for ciphertext: 0
Decipheredtext:           10101010101010101010101010101010
RESULT CIPHER-DECIPHER: -----OK-----


Test: 17
Hash algorithm: 13
Symmetric key bit length: 256
IV bit length:            128
Plaintext bit length:     128
Symmetric key:            0000000000000000000000000000000000000000000000000000000000000000
IV:                       00000000000000000000000000000000
Plaintext:                11111111111111111111111111111111
Ciphertext:               9801585415090841e89cc889b93a76580947ffbbae7ac051dfaa9561121aa10b
Reciphers for ciphertext: 0
Decipheredtext:           11111111111111111111111111111111
RESULT CIPHER-DECIPHER: -----OK-----


Test: 18
Hash algorithm: 11
Symmetric key bit length: 256
IV bit length:            128
Plaintext bit length:     128
Symmetric key:            0000000000000000000000000000000000000000000000000000000000000000
IV:                       00000000000000000000000000000000
Plaintext:                12121212121212121212121212121212
Ciphertext:               9b025b57160a0b42eb9fcb8aba39755b326f6d8d9a30eed89f75f63c9c297758
Reciphers for ciphertext: 0
Decipheredtext:           12121212121212121212121212121212
RESULT CIPHER-DECIPHER: -----OK-----


Test: 19
Hash algorithm: 10
Symmetric key bit length: 256
IV bit length:            128
Plaintext bit length:     128
Symmetric key:            0000000000000000000000000000000000000000000000000000000000000000
IV:                       00000000000000000000000000000000
Plaintext:                13131313131313131313131313131313
Ciphertext:               9a035a56170b0a43ea9eca8bbb38745a739771dfa8e472e6167097f347b81b182a65c283057d468f0ade3cb9899c5ec97f9b73a2f680795c
Reciphers for ciphertext: 0
Decipheredtext:           13131313131313131313131313131313
RESULT CIPHER-DECIPHER: -----OK-----


Test: 20
Hash algorithm: 5
Symmetric key bit length: 256
IV bit length:            128
Plaintext bit length:     128
Symmetric key:            0000000000000000000000000000000000000000000000000000000000000000
IV:                       00000000000000000000000000000000
Plaintext:                14141414141414141414141414141414
Ciphertext:               9d045d51100c0d44ed99cd8cbc3f735d1e6274cebae7204fdd22bb4b431a57787c7fcf706b100e3421329308
Reciphers for ciphertext: 0
Decipheredtext:           14141414141414141414141414141414
RESULT CIPHER-DECIPHER: -----OK-----


Test: 21
Hash algorithm: 2
Symmetric key bit length: 256
IV bit length:            128
Plaintext bit length:     128
Symmetric key:            0000000000000000000000000000000000000000000000000000000000000000
IV:                       00000000000000000000000000000000
Plaintext:                15151515151515151515151515151515
Ciphertext:               9c055c50110d0c45ec98cc8dbd3e725c503145bb2384db4d3f0a3f25280999d63a69d8b2e737e485e36e847bc1d142b3
Reciphers for ciphertext: 0
Decipheredtext:           15151515151515151515151515151515
RESULT CIPHER-DECIPHER: -----OK-----


Test: 22
Hash algorithm: 5
Symmetric key bit length: 256
IV bit length:            128
Plaintext bit length:     128
Symmetric key:            0000000000000000000000000000000000000000000000000000000000000000
IV:                       00000000000000000000000000000000
Plaintext:                16161616161616161616161616161616
Ciphertext:               9f065f53120e0f46ef9bcf8ebe3d715f666ae2cb830c41549a25a309fae195d39e6bcc77a3080b5cb8f154f9
Reciphers for ciphertext: 0
Decipheredtext:           16161616161616161616161616161616
RESULT CIPHER-DECIPHER: -----OK-----


Test: 23
Hash algorithm: 4
Symmetric key bit length: 256
IV bit length:            128
Plaintext bit length:     128
Symmetric key:            0000000000000000000000000000000000000000000000000000000000000000
IV:                       00000000000000000000000000000000
Plaintext:                17171717171717171717171717171717
Ciphertext:               9e075e52130f0e47ee9ace8fbf3c705ef5c40a1f88ef4dedc850ff503ca3f163ab6d2ad6135c3960e9dba6ad300a7c4f02e6a42abefee446964e69c4079f8f17a8f01f9d9612b720f950d6ee3bd5b5f6
Reciphers for ciphertext: 0
Decipheredtext:           17171717171717171717171717171717
RESULT CIPHER-DECIPHER: -----OK-----


Test: 24
Hash algorithm: 12
Symmetric key bit length: 256
IV bit length:            128
Plaintext bit length:     128
Symmetric key:            0000000000000000000000000000000000000000000000000000000000000000
IV:                       00000000000000000000000000000000
Plaintext:                18181818181818181818181818181818
Ciphertext:               9108515d1c000148e195c180b0337f518bad6f3ce4b3a307886a6e92b66fad7c
Reciphers for ciphertext: 0
Decipheredtext:           18181818181818181818181818181818
RESULT CIPHER-DECIPHER: -----OK-----


Test: 25
Hash algorithm: 4
Symmetric key bit length: 256
IV bit length:            128
Plaintext bit length:     128
Symmetric key:            0000000000000000000000000000000000000000000000000000000000000000
IV:                       00000000000000000000000000000000
Plaintext:                19191919191919191919191919191919
Ciphertext:               9009505c1d010049e094c081b1327e50ffe561b984d9a978a59a08573166cf3d4bc67cd52ebfb5818020573ef028d78ae90cf44486e6531fc516ceef608125fbd2d5f807c14bc280515730304e4f1a38
Reciphers for ciphertext: 0
Decipheredtext:           19191919191919191919191919191919
RESULT CIPHER-DECIPHER: -----OK-----


Test: 26
Hash algorithm: 2
Symmetric key bit length: 256
IV bit length:            128
Plaintext bit length:     128
Symmetric key:            0000000000000000000000000000000000000000000000000000000000000000
IV:                       00000000000000000000000000000000
Plaintext:                1a1a1a1a1a1a1a1a1a1a1a1a1a1a1a1a
Ciphertext:               930a535f1e02034ae397c382b2317d537ff7dd2a73b5a509041ac25d6d23790cd3dd4efa4c38e48f99ca1fead0494d8b
Reciphers for ciphertext: 0
Decipheredtext:           1a1a1a1a1a1a1a1a1a1a1a1a1a1a1a1a
RESULT CIPHER-DECIPHER: -----OK-----


Test: 27
Hash algorithm: 0
Symmetric key bit length: 256
IV bit length:            128
Plaintext bit length:     128
Symmetric key:            0000000000000000000000000000000000000000000000000000000000000000
IV:                       00000000000000000000000000000000
Plaintext:                1b1b1b1b1b1b1b1b1b1b1b1b1b1b1b1b
Ciphertext:               920b525e1f03024be296c283b3307c528eba5831a70e5a196a03e83a66ac2739468592c7
Reciphers for ciphertext: 0
Decipheredtext:           1b1b1b1b1b1b1b1b1b1b1b1b1b1b1b1b
RESULT CIPHER-DECIPHER: -----OK-----


Test: 28
Hash algorithm: 9
Symmetric key bit length: 256
IV bit length:            128
Plaintext bit length:     128
Symmetric key:            0000000000000000000000000000000000000000000000000000000000000000
IV:                       00000000000000000000000000000000
Plaintext:                1c1c1c1c1c1c1c1c1c1c1c1c1c1c1c1c
Ciphertext:               950c55591804054ce591c584b4377b55cbc1decbca009ff2e7efe474ef3bd86c12499c6c59b40d6454efdcced2dc16ab
Reciphers for ciphertext: 0
Decipheredtext:           1c1c1c1c1c1c1c1c1c1c1c1c1c1c1c1c
RESULT CIPHER-DECIPHER: -----OK-----


Test: 29
Hash algorithm: 7
Symmetric key bit length: 256
IV bit length:            128
Plaintext bit length:     128
Symmetric key:            0000000000000000000000000000000000000000000000000000000000000000
IV:                       00000000000000000000000000000000
Plaintext:                1d1d1d1d1d1d1d1d1d1d1d1d1d1d1d1d
Ciphertext:               940d54581905044de490c485b5367a54b3af18a34437105304152233fe228cb6
Reciphers for ciphertext: 0
Decipheredtext:           1d1d1d1d1d1d1d1d1d1d1d1d1d1d1d1d
RESULT CIPHER-DECIPHER: -----OK-----


Test: 30
Hash algorithm: 13
Symmetric key bit length: 256
IV bit length:            128
Plaintext bit length:     128
Symmetric key:            0000000000000000000000000000000000000000000000000000000000000000
IV:                       00000000000000000000000000000000
Plaintext:                1e1e1e1e1e1e1e1e1e1e1e1e1e1e1e1e
Ciphertext:               970e575b1a06074ee793c786b6357957eab8d0c1b2019d6b0d5a7030f564eeb9
Reciphers for ciphertext: 0
Decipheredtext:           1e1e1e1e1e1e1e1e1e1e1e1e1e1e1e1e
RESULT CIPHER-DECIPHER: -----OK-----


Test: 31
Hash algorithm: 7
Symmetric key bit length: 256
IV bit length:            128
Plaintext bit length:     128
Symmetric key:            0000000000000000000000000000000000000000000000000000000000000000
IV:                       00000000000000000000000000000000
Plaintext:                1f1f1f1f1f1f1f1f1f1f1f1f1f1f1f1f
Ciphertext:               960f565a1b07064fe692c687b73478569e5a56b0625faee639abf93ce502d4cc
Reciphers for ciphertext: 0
Decipheredtext:           1f1f1f1f1f1f1f1f1f1f1f1f1f1f1f1f
RESULT CIPHER-DECIPHER: -----OK-----


Test: 32
Hash algorithm: 12
Symmetric key bit length: 256
IV bit length:            128
Plaintext bit length:     128
Symmetric key:            0000000000000000000000000000000000000000000000000000000000000000
IV:                       00000000000000000000000000000000
Plaintext:                20202020202020202020202020202020
Ciphertext:               a930696524383970d9adf9b8880b476934371b10896b592e99a03021478e9624
Reciphers for ciphertext: 0
Decipheredtext:           20202020202020202020202020202020
RESULT CIPHER-DECIPHER: -----OK-----


Test: 33
Hash algorithm: 6
Symmetric key bit length: 256
IV bit length:            128
Plaintext bit length:     128
Symmetric key:            0000000000000000000000000000000000000000000000000000000000000000
IV:                       00000000000000000000000000000000
Plaintext:                21212121212121212121212121212121
Ciphertext:               a831686425393871d8acf8b9890a4668d64800bd3b44c470ae2a51d5e5edb976f94cd54fb41d76fd0a40b623acbb880a
Reciphers for ciphertext: 0
Decipheredtext:           21212121212121212121212121212121
RESULT CIPHER-DECIPHER: -----OK-----


Test: 34
Hash algorithm: 6
Symmetric key bit length: 256
IV bit length:            128
Plaintext bit length:     128
Symmetric key:            0000000000000000000000000000000000000000000000000000000000000000
IV:                       00000000000000000000000000000000
Plaintext:                22222222222222222222222222222222
Ciphertext:               ab326b67263a3b72dbaffbba8a09456bc01d776d13a1bdeb3eebf1d448bf6b043317044955cbf0d108f6811c9a6bca6b
Reciphers for ciphertext: 0
Decipheredtext:           22222222222222222222222222222222
RESULT CIPHER-DECIPHER: -----OK-----


Test: 35
Hash algorithm: 7
Symmetric key bit length: 256
IV bit length:            128
Plaintext bit length:     128
Symmetric key:            0000000000000000000000000000000000000000000000000000000000000000
IV:                       00000000000000000000000000000000
Plaintext:                23232323232323232323232323232323
Ciphertext:               aa336a66273b3a73daaefabb8b08446a795d89e7159418dff363a4d4e53ba12b
Reciphers for ciphertext: 0
Decipheredtext:           23232323232323232323232323232323
RESULT CIPHER-DECIPHER: -----OK-----


Test: 36
Hash algorithm: 6
Symmetric key bit length: 256
IV bit length:            128
Plaintext bit length:     128
Symmetric key:            0000000000000000000000000000000000000000000000000000000000000000
IV:                       00000000000000000000000000000000
Plaintext:                24242424242424242424242424242424
Ciphertext:               ad346d61203c3d74dda9fdbc8c0f436d2221e92855adf7417ea54bf111c7433d86fddd4dd6901585fba079c105773a2c
Reciphers for ciphertext: 0
Decipheredtext:           24242424242424242424242424242424
RESULT CIPHER-DECIPHER: -----OK-----


Test: 37
Hash algorithm: 10
Symmetric key bit length: 256
IV bit length:            128
Plaintext bit length:     128
Symmetric key:            0000000000000000000000000000000000000000000000000000000000000000
IV:                       00000000000000000000000000000000
Plaintext:                25252525252525252525252525252525
Ciphertext:               ac356c60213d3c75dca8fcbd8d0e426c5799186d0dc285c314bd4732a816779b5c8ebbfea3f387657b34c8bbded2331351fa3778af1a3415
Reciphers for ciphertext: 0
Decipheredtext:           25252525252525252525252525252525
RESULT CIPHER-DECIPHER: -----OK-----


Test: 38
Hash algorithm: 1
Symmetric key bit length: 256
IV bit length:            128
Plaintext bit length:     128
Symmetric key:            0000000000000000000000000000000000000000000000000000000000000000
IV:                       00000000000000000000000000000000
Plaintext:                26262626262626262626262626262626
Ciphertext:               af366f63223e3f76dfabffbe8e0d416f22117e26e8dbdd7f973bf71c946b28081421b2aa44ce01f9075bc357
Reciphers for ciphertext: 0
Decipheredtext:           26262626262626262626262626262626
RESULT CIPHER-DECIPHER: -----OK-----


Test: 39
Hash algorithm: 13
Symmetric key bit length: 256
IV bit length:            128
Plaintext bit length:     128
Symmetric key:            0000000000000000000000000000000000000000000000000000000000000000
IV:                       00000000000000000000000000000000
Plaintext:                27272727272727272727272727272727
Ciphertext:               ae376e62233f3e77deaafebf8f0c406e05d675cb7c08ed028b7e455d37a10bbe
Reciphers for ciphertext: 0
Decipheredtext:           27272727272727272727272727272727
RESULT CIPHER-DECIPHER: -----OK-----


Test: 40
Hash algorithm: 4
Symmetric key bit length: 256
IV bit length:            128
Plaintext bit length:     128
Symmetric key:            0000000000000000000000000000000000000000000000000000000000000000
IV:                       00000000000000000000000000000000
Plaintext:                28282828282828282828282828282828
Ciphertext:               a138616d2c303178d1a5f1b080034f61111cb27b37c0917809d28825808adb7f77bbe4a213d3f4f1ea0b953dbe61891a0f251d3ab2d57af31e3cbe7b8a22c85c4296bf672547e3473a4f3d22e3111dd0
Reciphers for ciphertext: 0
Decipheredtext:           28282828282828282828282828282828
RESULT CIPHER-DECIPHER: -----OK-----


Test: 41
Hash algorithm: 5
Symmetric key bit length: 256
IV bit length:            128
Plaintext bit length:     128
Symmetric key:            0000000000000000000000000000000000000000000000000000000000000000
IV:                       00000000000000000000000000000000
Plaintext:                29292929292929292929292929292929
Ciphertext:               a039606c2d313079d0a4f0b181024e60ca870720fabb46dc67d340bdac184c864f25bf85f32ff3f713d90c05
Reciphers for ciphertext: 0
Decipheredtext:           29292929292929292929292929292929
RESULT CIPHER-DECIPHER: -----OK-----


Test: 42
Hash algorithm: 0
Symmetric key bit length: 256
IV bit length:            128
Plaintext bit length:     128
Symmetric key:            0000000000000000000000000000000000000000000000000000000000000000
IV:                       00000000000000000000000000000000
Plaintext:                2a2a2a2a2a2a2a2a2a2a2a2a2a2a2a2a
Ciphertext:               a33a636f2e32337ad3a7f3b282014d63f74a96c0c378f8a2eca5e54b622708f4a38536a6
Reciphers for ciphertext: 0
Decipheredtext:           2a2a2a2a2a2a2a2a2a2a2a2a2a2a2a2a
RESULT CIPHER-DECIPHER: -----OK-----


Test: 43
Hash algorithm: 3
Symmetric key bit length: 256
IV bit length:            128
Plaintext bit length:     128
Symmetric key:            0000000000000000000000000000000000000000000000000000000000000000
IV:                       00000000000000000000000000000000
Plaintext:                2b2b2b2b2b2b2b2b2b2b2b2b2b2b2b2b
Ciphertext:               a23b626e2f33327bd2a6f2b383004c626ded187b54d06a9e250ed1dc8c540a4fb9e91236aaf262d756ba1df05f34d86105d8115a3d3228ff551433ffa46ac495
Reciphers for ciphertext: 0
Decipheredtext:           2b2b2b2b2b2b2b2b2b2b2b2b2b2b2b2b
RESULT CIPHER-DECIPHER: -----OK-----


Test: 44
Hash algorithm: 10
Symmetric key bit length: 256
IV bit length:            128
Plaintext bit length:     128
Symmetric key:            0000000000000000000000000000000000000000000000000000000000000000
IV:                       00000000000000000000000000000000
Plaintext:                2c2c2c2c2c2c2c2c2c2c2c2c2c2c2c2c
Ciphertext:               a53c65692834357cd5a1f5b484074b65d36404d4dc1a22e86001f5f01dcd92b35c4529628953bd136be942e06be7318bb9fa6a2a2200512d
Reciphers for ciphertext: 0
Decipheredtext:           2c2c2c2c2c2c2c2c2c2c2c2c2c2c2c2c
RESULT CIPHER-DECIPHER: -----OK-----


Test: 45
Hash algorithm: 8
Symmetric key bit length: 256
IV bit length:            128
Plaintext bit length:     128
Symmetric key:            0000000000000000000000000000000000000000000000000000000000000000
IV:                       00000000000000000000000000000000
Plaintext:                2d2d2d2d2d2d2d2d2d2d2d2d2d2d2d2d
Ciphertext:               a43d64682935347dd4a0f4b585064a6477d4bc0aeaf1a580fa001bdb27068008a1c6fe87
Reciphers for ciphertext: 0
Decipheredtext:           2d2d2d2d2d2d2d2d2d2d2d2d2d2d2d2d
RESULT CIPHER-DECIPHER: -----OK-----


Test: 46
Hash algorithm: 3
Symmetric key bit length: 256
IV bit length:            128
Plaintext bit length:     128
Symmetric key:            0000000000000000000000000000000000000000000000000000000000000000
IV:                       00000000000000000000000000000000
Plaintext:                2e2e2e2e2e2e2e2e2e2e2e2e2e2e2e2e
Ciphertext:               a73e676b2a36377ed7a3f7b68605496773809e3bd907ddd9b6db8c435980dd208fade6653ecca56cf401b85df63b623c115aaddf42254552b1130066f5d859be
Reciphers for ciphertext: 0
Decipheredtext:           2e2e2e2e2e2e2e2e2e2e2e2e2e2e2e2e
RESULT CIPHER-DECIPHER: -----OK-----


Test: 47
Hash algorithm: 9
Symmetric key bit length: 256
IV bit length:            128
Plaintext bit length:     128
Symmetric key:            0000000000000000000000000000000000000000000000000000000000000000
IV:                       00000000000000000000000000000000
Plaintext:                2f2f2f2f2f2f2f2f2f2f2f2f2f2f2f2f
Ciphertext:               a63f666a2b37367fd6a2f6b787044866110a1c895463a0f673ada617f13dc62b804e472425568dcbe08e937f9b953411
Reciphers for ciphertext: 0
Decipheredtext:           2f2f2f2f2f2f2f2f2f2f2f2f2f2f2f2f
RESULT CIPHER-DECIPHER: -----OK-----


Test: 48
Hash algorithm: 2
Symmetric key bit length: 256
IV bit length:            128
Plaintext bit length:     128
Symmetric key:            0000000000000000000000000000000000000000000000000000000000000000
IV:                       00000000000000000000000000000000
Plaintext:                30303030303030303030303030303030
Ciphertext:               b920797534282960c9bde9a8981b577975cb02073b564bd3562f904fcac40da675832932e86e90090a8d6427366e17d8
Reciphers for ciphertext: 0
Decipheredtext:           30303030303030303030303030303030
RESULT CIPHER-DECIPHER: -----OK-----


Test: 49
Hash algorithm: 3
Symmetric key bit length: 256
IV bit length:            128
Plaintext bit length:     128
Symmetric key:            0000000000000000000000000000000000000000000000000000000000000000
IV:                       00000000000000000000000000000000
Plaintext:                31313131313131313131313131313131
Ciphertext:               b821787435292861c8bce8a9991a56783715041344ebf0a78ca7ad8560bb53b9f2126faaf827e55efe1adef224fdb37d07ea5ae66744bbebf89c69d38ecbdc60
Reciphers for ciphertext: 0
Decipheredtext:           31313131313131313131313131313131
RESULT CIPHER-DECIPHER: -----OK-----


Test: 50
Hash algorithm: 7
Symmetric key bit length: 256
IV bit length:            128
Plaintext bit length:     128
Symmetric key:            0000000000000000000000000000000000000000000000000000000000000000
IV:                       00000000000000000000000000000000
Plaintext:                32323232323232323232323232323232
Ciphertext:               bb227b77362a2b62cbbfebaa9a19557b079a78524b4d606795457200f9a5d2e5
Reciphers for ciphertext: 0
Decipheredtext:           32323232323232323232323232323232
RESULT CIPHER-DECIPHER: -----OK-----


Test: 51
Hash algorithm: 4
Symmetric key bit length: 256
IV bit length:            128
Plaintext bit length:     128
Symmetric key:            0000000000000000000000000000000000000000000000000000000000000000
IV:                       00000000000000000000000000000000
Plaintext:                33333333333333333333333333333333
Ciphertext:               ba237a76372b2a63cabeeaab9b18547ac21a1c394f54cdaee9dda0394ea69c34139a6ac63259e20b3aa38bc3b3e64443d6d81c11c64bdff9b70d4cc78af231601e3c25aff4c5134d17ce1581db457035
Reciphers for ciphertext: 0
Decipheredtext:           33333333333333333333333333333333
RESULT CIPHER-DECIPHER: -----OK-----


Test: 52
Hash algorithm: 4
Symmetric key bit length: 256
IV bit length:            128
Plaintext bit length:     128
Symmetric key:            0000000000000000000000000000000000000000000000000000000000000000
IV:                       00000000000000000000000000000000
Plaintext:                34343434343434343434343434343434
Ciphertext:               bd247d71302c2d64cdb9edac9c1f537d4488684d6aa5b066adc8f6be6d022be254c99c2590bc8da6c0c2ba769661c1f1c83b41f8bf02cf1c02ae17d56bd1e41410da99f4a914826c3d5d926a829dfd67
Reciphers for ciphertext: 0
Decipheredtext:           34343434343434343434343434343434
RESULT CIPHER-DECIPHER: -----OK-----


Test: 53
Hash algorithm: 6
Symmetric key bit length: 256
IV bit length:            128
Plaintext bit length:     128
Symmetric key:            0000000000000000000000000000000000000000000000000000000000000000
IV:                       00000000000000000000000000000000
Plaintext:                35353535353535353535353535353535
Ciphertext:               bc257c70312d2c65ccb8ecad9d1e527cf12e1c3fcea70b24c9f3e81b1fb6900f9e701521d1f0501fb0c6c5265506e336
Reciphers for ciphertext: 0
Decipheredtext:           35353535353535353535353535353535
RESULT CIPHER-DECIPHER: -----OK-----


Test: 54
Hash algorithm: 5
Symmetric key bit length: 256
IV bit length:            128
Plaintext bit length:     128
Symmetric key:            0000000000000000000000000000000000000000000000000000000000000000
IV:                       00000000000000000000000000000000
Plaintext:                36363636363636363636363636363636
Ciphertext:               bf267f73322e2f66cfbbefae9e1d517fca19de688f927cc4e1ffe2cd80f18541b82da5b41e56fb58128cc8ad
Reciphers for ciphertext: 0
Decipheredtext:           36363636363636363636363636363636
RESULT CIPHER-DECIPHER: -----OK-----


Test: 55
Hash algorithm: 5
Symmetric key bit length: 256
IV bit length:            128
Plaintext bit length:     128
Symmetric key:            0000000000000000000000000000000000000000000000000000000000000000
IV:                       00000000000000000000000000000000
Plaintext:                37373737373737373737373737373737
Ciphertext:               be277e72332f2e67cebaeeaf9f1c507e4a5087e0f500dc113f07643c575559a3fc6007a8cd81e9afb5d92fe2
Reciphers for ciphertext: 0
Decipheredtext:           37373737373737373737373737373737
RESULT CIPHER-DECIPHER: -----OK-----


Test: 56
Hash algorithm: 12
Symmetric key bit length: 256
IV bit length:            128
Plaintext bit length:     128
Symmetric key:            0000000000000000000000000000000000000000000000000000000000000000
IV:                       00000000000000000000000000000000
Plaintext:                38383838383838383838383838383838
Ciphertext:               b128717d3c202168c1b5e1a090135f71b868d5dffd15336153c5fdd9637e633a
Reciphers for ciphertext: 0
Decipheredtext:           38383838383838383838383838383838
RESULT CIPHER-DECIPHER: -----OK-----


Test: 57
Hash algorithm: 7
Symmetric key bit length: 256
IV bit length:            128
Plaintext bit length:     128
Symmetric key:            0000000000000000000000000000000000000000000000000000000000000000
IV:                       00000000000000000000000000000000
Plaintext:                39393939393939393939393939393939
Ciphertext:               b029707c3d212069c0b4e0a191125e70e43ba3d8889228cf4503d447f9575c7b
Reciphers for ciphertext: 0
Decipheredtext:           39393939393939393939393939393939
RESULT CIPHER-DECIPHER: -----OK-----


Test: 58
Hash algorithm: 2
Symmetric key bit length: 256
IV bit length:            128
Plaintext bit length:     128
Symmetric key:            0000000000000000000000000000000000000000000000000000000000000000
IV:                       00000000000000000000000000000000
Plaintext:                3a3a3a3a3a3a3a3a3a3a3a3a3a3a3a3a
Ciphertext:               b32a737f3e22236ac3b7e3a292115d7367ffc19f53959654ebf15bfc5e529c82f4c86c9d29bee82160d930ab52076404
Reciphers for ciphertext: 0
Decipheredtext:           3a3a3a3a3a3a3a3a3a3a3a3a3a3a3a3a
RESULT CIPHER-DECIPHER: -----OK-----


Test: 59
Hash algorithm: 5
Symmetric key bit length: 256
IV bit length:            128
Plaintext bit length:     128
Symmetric key:            0000000000000000000000000000000000000000000000000000000000000000
IV:                       00000000000000000000000000000000
Plaintext:                3b3b3b3b3b3b3b3b3b3b3b3b3b3b3b3b
Ciphertext:               b22b727e3f23226bc2b6e2a393105c72e7313e8c31a081e7cf3824f94aa65ee6f27dad3c2d1438e63f1fe519
Reciphers for ciphertext: 0
Decipheredtext:           3b3b3b3b3b3b3b3b3b3b3b3b3b3b3b3b
RESULT CIPHER-DECIPHER: -----OK-----


Test: 60
Hash algorithm: 9
Symmetric key bit length: 256
IV bit length:            128
Plaintext bit length:     128
Symmetric key:            0000000000000000000000000000000000000000000000000000000000000000
IV:                       00000000000000000000000000000000
Plaintext:                3c3c3c3c3c3c3c3c3c3c3c3c3c3c3c3c
Ciphertext:               b52c75793824256cc5b1e5a494175b75b35248081eaa427110b5a8ed4a7002393121d592dd61c52066600a64b8147775
Reciphers for ciphertext: 0
Decipheredtext:           3c3c3c3c3c3c3c3c3c3c3c3c3c3c3c3c
RESULT CIPHER-DECIPHER: -----OK-----


Test: 61
Hash algorithm: 0
Symmetric key bit length: 256
IV bit length:            128
Plaintext bit length:     128
Symmetric key:            0000000000000000000000000000000000000000000000000000000000000000
IV:                       00000000000000000000000000000000
Plaintext:                3d3d3d3d3d3d3d3d3d3d3d3d3d3d3d3d
Ciphertext:               b42d74783925246dc4b0e4a595165a74823f782474679d0d9bb3ec3940951f8b7fd92da6
Reciphers for ciphertext: 0
Decipheredtext:           3d3d3d3d3d3d3d3d3d3d3d3d3d3d3d3d
RESULT CIPHER-DECIPHER: -----OK-----


Test: 62
Hash algorithm: 12
Symmetric key bit length: 256
IV bit length:            128
Plaintext bit length:     128
Symmetric key:            0000000000000000000000000000000000000000000000000000000000000000
IV:                       00000000000000000000000000000000
Plaintext:                3e3e3e3e3e3e3e3e3e3e3e3e3e3e3e3e
Ciphertext:               b72e777b3a26276ec7b3e7a69615597785d92417bc6a30410df6c7453cefb0e0
Reciphers for ciphertext: 0
Decipheredtext:           3e3e3e3e3e3e3e3e3e3e3e3e3e3e3e3e
RESULT CIPHER-DECIPHER: -----OK-----


Test: 63
Hash algorithm: 6
Symmetric key bit length: 256
IV bit length:            128
Plaintext bit length:     128
Symmetric key:            0000000000000000000000000000000000000000000000000000000000000000
IV:                       00000000000000000000000000000000
Plaintext:                3f3f3f3f3f3f3f3f3f3f3f3f3f3f3f3f
Ciphertext:               b62f767a3b27266fc6b2e6a797145876e7c535184325a49b84896cb9fdb7127c1a505d59c504250a40dce067c6262247
Reciphers for ciphertext: 0
Decipheredtext:           3f3f3f3f3f3f3f3f3f3f3f3f3f3f3f3f
RESULT CIPHER-DECIPHER: -----OK-----


Test: 64
Hash algorithm: 11
Symmetric key bit length: 256
IV bit length:            128
Plaintext bit length:     128
Symmetric key:            0000000000000000000000000000000000000000000000000000000000000000
IV:                       00000000000000000000000000000000
Plaintext:                40404040404040404040404040404040
Ciphertext:               c950090544585910b9cd99d8e86b27093cc5130a65ba166dbef134bfa5f8ab18
Reciphers for ciphertext: 0
Decipheredtext:           40404040404040404040404040404040
RESULT CIPHER-DECIPHER: -----OK-----


Test: 65
Hash algorithm: 13
Symmetric key bit length: 256
IV bit length:            128
Plaintext bit length:     128
Symmetric key:            0000000000000000000000000000000000000000000000000000000000000000
IV:                       00000000000000000000000000000000
Plaintext:                41414141414141414141414141414141
Ciphertext:               c851080445595811b8cc98d9e96a260851b77812ca08d4c45091f9e154b1f581
Reciphers for ciphertext: 0
Decipheredtext:           41414141414141414141414141414141
RESULT CIPHER-DECIPHER: -----OK-----


Test: 66
Hash algorithm: 11
Symmetric key bit length: 256
IV bit length:            128
Plaintext bit length:     128
Symmetric key:            0000000000000000000000000000000000000000000000000000000000000000
IV:                       00000000000000000000000000000000
Plaintext:                42424242424242424242424242424242
Ciphertext:               cb520b07465a5b12bbcf9bdaea69250bc67318db580cbf7168a85bf6cfb44d75
Reciphers for ciphertext: 0
Decipheredtext:           42424242424242424242424242424242
RESULT CIPHER-DECIPHER: -----OK-----


Test: 67
Hash algorithm: 12
Symmetric key bit length: 256
IV bit length:            128
Plaintext bit length:     128
Symmetric key:            0000000000000000000000000000000000000000000000000000000000000000
IV:                       00000000000000000000000000000000
Plaintext:                43434343434343434343434343434343
Ciphertext:               ca530a06475b5a13bace9adbeb68240a62fbd3380067e16fb1f11fab96f4890d
Reciphers for ciphertext: 0
Decipheredtext:           43434343434343434343434343434343
RESULT CIPHER-DECIPHER: -----OK-----


Test: 68
Hash algorithm: 10
Symmetric key bit length: 256
IV bit length:            128
Plaintext bit length:     128
Symmetric key:            0000000000000000000000000000000000000000000000000000000000000000
IV:                       00000000000000000000000000000000
Plaintext:                44444444444444444444444444444444
Ciphertext:               cd540d01405c5d14bdc99ddcec6f230ddb24d226be0dac5f2a2adcc6051d4c450efd8c3fee0b659e14abace0d878f80d5d4a9c7ce4d0c256
Reciphers for ciphertext: 0
Decipheredtext:           44444444444444444444444444444444
RESULT CIPHER-DECIPHER: -----OK-----


Test: 69
Hash algorithm: 1
Symmetric key bit length: 256
IV bit length:            128
Plaintext bit length:     128
Symmetric key:            0000000000000000000000000000000000000000000000000000000000000000
IV:                       00000000000000000000000000000000
Plaintext:                45454545454545454545454545454545
Ciphertext:               cc550c00415d5c15bcc89cdded6e220cfc3fc81fa6e21e29e60c369f80c683c527db8c2c76b71cf962fab2a9
Reciphers for ciphertext: 0
Decipheredtext:           45454545454545454545454545454545
RESULT CIPHER-DECIPHER: -----OK-----


Test: 70
Hash algorithm: 4
Symmetric key bit length: 256
IV bit length:            128
Plaintext bit length:     128
Symmetric key:            0000000000000000000000000000000000000000000000000000000000000000
IV:                       00000000000000000000000000000000
Plaintext:                46464646464646464646464646464646
Ciphertext:               cf560f03425e5f16bfcb9fdeee6d210f51cdbeed5654c3be2e4dbd06dd21eafac3f33f7ade3a4731d2f7957d20ffbfc5c9877043c33cae1dc12d7ae89c5c83a5790434ff0cbac9127c116fef73933d13
Reciphers for ciphertext: 0
Decipheredtext:           46464646464646464646464646464646
RESULT CIPHER-DECIPHER: -----OK-----


Test: 71
Hash algorithm: 10
Symmetric key bit length: 256
IV bit length:            128
Plaintext bit length:     128
Symmetric key:            0000000000000000000000000000000000000000000000000000000000000000
IV:                       00000000000000000000000000000000
Plaintext:                47474747474747474747474747474747
Ciphertext:               ce570e02435f5e17beca9edfef6c200eb52877b37d98d8f1317018cb843fe22be1fbaec95a4eafdf58fea5d4503e67ea2b65aa4627df07ae
Reciphers for ciphertext: 0
Decipheredtext:           47474747474747474747474747474747
RESULT CIPHER-DECIPHER: -----OK-----


Test: 72
Hash algorithm: 9
Symmetric key bit length: 256
IV bit length:            128
Plaintext bit length:     128
Symmetric key:            0000000000000000000000000000000000000000000000000000000000000000
IV:                       00000000000000000000000000000000
Plaintext:                48484848484848484848484848484848
Ciphertext:               c158010d4c505118b1c591d0e0632f01eca4ad693bebc1351a2346a4d84ddba3782bf0c1a9b1a409db9358d539ae1c39
Reciphers for ciphertext: 0
Decipheredtext:           48484848484848484848484848484848
RESULT CIPHER-DECIPHER: -----OK-----


Test: 73
Hash algorithm: 9
Symmetric key bit length: 256
IV bit length:            128
Plaintext bit length:     128
Symmetric key:            0000000000000000000000000000000000000000000000000000000000000000
IV:                       00000000000000000000000000000000
Plaintext:                49494949494949494949494949494949
Ciphertext:               c059000c4d515019b0c490d1e1622e00c150c761d807963b5a23731851d4f89eb5879f95a396f3d6f321227888a610c3
Reciphers for ciphertext: 0
Decipheredtext:           49494949494949494949494949494949
RESULT CIPHER-DECIPHER: -----OK-----


Test: 74
Hash algorithm: 6
Symmetric key bit length: 256
IV bit length:            128
Plaintext bit length:     128
Symmetric key:            0000000000000000000000000000000000000000000000000000000000000000
IV:                       00000000000000000000000000000000
Plaintext:                4a4a4a4a4a4a4a4a4a4a4a4a4a4a4a4a
Ciphertext:               c35a030f4e52531ab3c793d2e2612d03eee1e7089f54086ede84b1bad7657868493db421a0ab5f15daeaf9c81116f598
Reciphers for ciphertext: 0
Decipheredtext:           4a4a4a4a4a4a4a4a4a4a4a4a4a4a4a4a
RESULT CIPHER-DECIPHER: -----OK-----


Test: 75
Hash algorithm: 8
Symmetric key bit length: 256
IV bit length:            128
Plaintext bit length:     128
Symmetric key:            0000000000000000000000000000000000000000000000000000000000000000
IV:                       00000000000000000000000000000000
Plaintext:                4b4b4b4b4b4b4b4b4b4b4b4b4b4b4b4b
Ciphertext:               c25b020e4f53521bb2c692d3e3602c029ff948a52120eb251a85a5cb1a0bb2ff49d2db8a
Reciphers for ciphertext: 0
Decipheredtext:           4b4b4b4b4b4b4b4b4b4b4b4b4b4b4b4b
RESULT CIPHER-DECIPHER: -----OK-----


Test: 76
Hash algorithm: 1
Symmetric key bit length: 256
IV bit length:            128
Plaintext bit length:     128
Symmetric key:            0000000000000000000000000000000000000000000000000000000000000000
IV:                       00000000000000000000000000000000
Plaintext:                4c4c4c4c4c4c4c4c4c4c4c4c4c4c4c4c
Ciphertext:               c55c05094854551cb5c195d4e4672b05f712e439e7f482d6d958d13eadf7ed15fd14307e124842568212adc7
Reciphers for ciphertext: 0
Decipheredtext:           4c4c4c4c4c4c4c4c4c4c4c4c4c4c4c4c
RESULT CIPHER-DECIPHER: -----OK-----


Test: 77
Hash algorithm: 9
Symmetric key bit length: 256
IV bit length:            128
Plaintext bit length:     128
Symmetric key:            0000000000000000000000000000000000000000000000000000000000000000
IV:                       00000000000000000000000000000000
Plaintext:                4d4d4d4d4d4d4d4d4d4d4d4d4d4d4d4d
Ciphertext:               c45d04084955541db4c094d5e5662a04ffbdd52f512a37a9fa8248f46d078932e794b45a66262f18cd780b26b1ca4a01
Reciphers for ciphertext: 0
Decipheredtext:           4d4d4d4d4d4d4d4d4d4d4d4d4d4d4d4d
RESULT CIPHER-DECIPHER: -----OK-----


Test: 78
Hash algorithm: 0
Symmetric key bit length: 256
IV bit length:            128
Plaintext bit length:     128
Symmetric key:            0000000000000000000000000000000000000000000000000000000000000000
IV:                       00000000000000000000000000000000
Plaintext:                4e4e4e4e4e4e4e4e4e4e4e4e4e4e4e4e
Ciphertext:               c75e070b4a56571eb7c397d6e6652907e4b6552b74fbeca014417af0a860a2b32a33350f
Reciphers for ciphertext: 0
Decipheredtext:           4e4e4e4e4e4e4e4e4e4e4e4e4e4e4e4e
RESULT CIPHER-DECIPHER: -----OK-----


Test: 79
Hash algorithm: 5
Symmetric key bit length: 256
IV bit length:            128
Plaintext bit length:     128
Symmetric key:            0000000000000000000000000000000000000000000000000000000000000000
IV:                       00000000000000000000000000000000
Plaintext:                4f4f4f4f4f4f4f4f4f4f4f4f4f4f4f4f
Ciphertext:               c65f060a4b57561fb6c296d7e7642806fbb089dae0e8eebf7e5878316a13fa22154186edcbb146e12eb3ff05
Reciphers for ciphertext: 0
Decipheredtext:           4f4f4f4f4f4f4f4f4f4f4f4f4f4f4f4f
RESULT CIPHER-DECIPHER: -----OK-----


Test: 80
Hash algorithm: 0
Symmetric key bit length: 256
IV bit length:            128
Plaintext bit length:     128
Symmetric key:            0000000000000000000000000000000000000000000000000000000000000000
IV:                       00000000000000000000000000000000
Plaintext:                50505050505050505050505050505050
Ciphertext:               d940191554484900a9dd89c8f87b37193028b408e6e9ccefa60190941ef423d1ef68d216
Reciphers for ciphertext: 0
Decipheredtext:           50505050505050505050505050505050
RESULT CIPHER-DECIPHER: -----OK-----


Test: 81
Hash algorithm: 3
Symmetric key bit length: 256
IV bit length:            128
Plaintext bit length:     128
Symmetric key:            0000000000000000000000000000000000000000000000000000000000000000
IV:                       00000000000000000000000000000000
Plaintext:                51515151515151515151515151515151
Ciphertext:               d841181455494801a8dc88c9f97a36184e785d8b7d44907d10f00e1085907d44f3dcb57723b780f82652527020adc436c87a059ad3cd6591de0fb6e87f0468ff
Reciphers for ciphertext: 0
Decipheredtext:           51515151515151515151515151515151
RESULT CIPHER-DECIPHER: -----OK-----


Test: 82
Hash algorithm: 9
Symmetric key bit length: 256
IV bit length:            128
Plaintext bit length:     128
Symmetric key:            0000000000000000000000000000000000000000000000000000000000000000
IV:                       00000000000000000000000000000000
Plaintext:                52525252525252525252525252525252
Ciphertext:               db421b17564a4b02abdf8bcafa79351bea238d4bbbcd0ee2660f72ab9dddadc2717ca4038083fbb18856e9958a9487c3
Reciphers for ciphertext: 0
Decipheredtext:           52525252525252525252525252525252
RESULT CIPHER-DECIPHER: -----OK-----


Test: 83
Hash algorithm: 0
Symmetric key bit length: 256
IV bit length:            128
Plaintext bit length:     128
Symmetric key:            0000000000000000000000000000000000000000000000000000000000000000
IV:                       00000000000000000000000000000000
Plaintext:                53535353535353535353535353535353
Ciphertext:               da431a16574b4a03aade8acbfb78341ae40f99e665e73586507b674c3ea3c00cc4152325
Reciphers for ciphertext: 0
Decipheredtext:           53535353535353535353535353535353
RESULT CIPHER-DECIPHER: -----OK-----


Test: 84
Hash algorithm: 5
Symmetric key bit length: 256
IV bit length:            128
Plaintext bit length:     128
Symmetric key:            0000000000000000000000000000000000000000000000000000000000000000
IV:                       00000000000000000000000000000000
Plaintext:                54545454545454545454545454545454
Ciphertext:               dd441d11504c4d04add98dccfc7f331d0b7fb0f54e05b3c9730556ea2c5cabb913ae07e873a8e2e0e8fb4489
Reciphers for ciphertext: 0
Decipheredtext:           54545454545454545454545454545454
RESULT CIPHER-DECIPHER: -----OK-----


Test: 85
Hash algorithm: 3
Symmetric key bit length: 256
IV bit length:            128
Plaintext bit length:     128
Symmetric key:            0000000000000000000000000000000000000000000000000000000000000000
IV:                       00000000000000000000000000000000
Plaintext:                55555555555555555555555555555555
Ciphertext:               dc451c10514d4c05acd88ccdfd7e321c2d6692e93d7a7217e43c2324ca869f2a3247d87cf8d1b664a74327b7a690cbe6e087c951312b726e841dca2e661e3a47
Reciphers for ciphertext: 0
Decipheredtext:           55555555555555555555555555555555
RESULT CIPHER-DECIPHER: -----OK-----


Test: 86
Hash algorithm: 0
Symmetric key bit length: 256
IV bit length:            128
Plaintext bit length:     128
Symmetric key:            0000000000000000000000000000000000000000000000000000000000000000
IV:                       00000000000000000000000000000000
Plaintext:                56565656565656565656565656565656
Ciphertext:               df461f13524e4f06afdb8fcefe7d311f88b11a19a8df1d89487ce8815506b128e84a3cff
Reciphers for ciphertext: 0
Decipheredtext:           56565656565656565656565656565656
RESULT CIPHER-DECIPHER: -----OK-----


Test: 87
Hash algorithm: 10
Symmetric key bit length: 256
IV bit length:            128
Plaintext bit length:     128
Symmetric key:            0000000000000000000000000000000000000000000000000000000000000000
IV:                       00000000000000000000000000000000
Plaintext:                57575757575757575757575757575757
Ciphertext:               de471e12534f4e07aeda8ecfff7c301e0782e91b9499fe8ed09451605edba7cc5ac4ff51d50e14f8680f013c19513500df823f2e9cde3d21
Reciphers for ciphertext: 0
Decipheredtext:           57575757575757575757575757575757
RESULT CIPHER-DECIPHER: -----OK-----


Test: 88
Hash algorithm: 8
Symmetric key bit length: 256
IV bit length:            128
Plaintext bit length:     128
Symmetric key:            0000000000000000000000000000000000000000000000000000000000000000
IV:                       00000000000000000000000000000000
Plaintext:                58585858585858585858585858585858
Ciphertext:               d148111d5c404108a1d581c0f0733f115bf93fadbc45b5ac1446f84f3cc75969ec7bbaa9
Reciphers for ciphertext: 0
Decipheredtext:           58585858585858585858585858585858
RESULT CIPHER-DECIPHER: -----OK-----


Test: 89
Hash algorithm: 2
Symmetric key bit length: 256
IV bit length:            128
Plaintext bit length:     128
Symmetric key:            0000000000000000000000000000000000000000000000000000000000000000
IV:                       00000000000000000000000000000000
Plaintext:                59595959595959595959595959595959
Ciphertext:               d049101c5d414009a0d480c1f1723e108a705622c79aec3f927bc3711b182fe2f6df1c5b3ca872e642d45dd6d1f67683
Reciphers for ciphertext: 0
Decipheredtext:           59595959595959595959595959595959
RESULT CIPHER-DECIPHER: -----OK-----


Test: 90
Hash algorithm: 8
Symmetric key bit length: 256
IV bit length:            128
Plaintext bit length:     128
Symmetric key:            0000000000000000000000000000000000000000000000000000000000000000
IV:                       00000000000000000000000000000000
Plaintext:                5a5a5a5a5a5a5a5a5a5a5a5a5a5a5a5a
Ciphertext:               d34a131f5e42430aa3d783c2f2713d130e4ad278e3bee5950ecb0ba41b01e05c6cfd1710
Reciphers for ciphertext: 0
Decipheredtext:           5a5a5a5a5a5a5a5a5a5a5a5a5a5a5a5a
RESULT CIPHER-DECIPHER: -----OK-----


Test: 91
Hash algorithm: 4
Symmetric key bit length: 256
IV bit length:            128
Plaintext bit length:     128
Symmetric key:            0000000000000000000000000000000000000000000000000000000000000000
IV:                       00000000000000000000000000000000
Plaintext:                5b5b5b5b5b5b5b5b5b5b5b5b5b5b5b5b
Ciphertext:               d24b121e5f43420ba2d682c3f3703c12fb6b0966db8c89c775cdbcc9138c969e7e38f8fb87734809d32de775e5a9bd9b1ec38777804ffdfb784a055d681829a8b6e495590712cb62193271a46c91d4c4
Reciphers for ciphertext: 0
Decipheredtext:           5b5b5b5b5b5b5b5b5b5b5b5b5b5b5b5b
RESULT CIPHER-DECIPHER: -----OK-----


Test: 92
Hash algorithm: 3
Symmetric key bit length: 256
IV bit length:            128
Plaintext bit length:     128
Symmetric key:            0000000000000000000000000000000000000000000000000000000000000000
IV:                       00000000000000000000000000000000
Plaintext:                5c5c5c5c5c5c5c5c5c5c5c5c5c5c5c5c
Ciphertext:               d54c15195844450ca5d185c4f4773b15877b3c1d0217a9321dec0d5bd8d3744ec4ea36fc9fc5932149bae555dc760c44ec0e328748777573a20c43d4be462a52
Reciphers for ciphertext: 0
Decipheredtext:           5c5c5c5c5c5c5c5c5c5c5c5c5c5c5c5c
RESULT CIPHER-DECIPHER: -----OK-----


Test: 93
Hash algorithm: 7
Symmetric key bit length: 256
IV bit length:            128
Plaintext bit length:     128
Symmetric key:            0000000000000000000000000000000000000000000000000000000000000000
IV:                       00000000000000000000000000000000
Plaintext:                5d5d5d5d5d5d5d5d5d5d5d5d5d5d5d5d
Ciphertext:               d44d14185945440da4d084c5f5763a146f682f3b12d739527b78a6e78ed8560a
Reciphers for ciphertext: 0
Decipheredtext:           5d5d5d5d5d5d5d5d5d5d5d5d5d5d5d5d
RESULT CIPHER-DECIPHER: -----OK-----


Test: 94
Hash algorithm: 9
Symmetric key bit length: 256
IV bit length:            128
Plaintext bit length:     128
Symmetric key:            0000000000000000000000000000000000000000000000000000000000000000
IV:                       00000000000000000000000000000000
Plaintext:                5e5e5e5e5e5e5e5e5e5e5e5e5e5e5e5e
Ciphertext:               d74e171b5a46470ea7d387c6f6753917f0ccef88fdd8988e0651505c93f94d7b5ce92d4cfac3c5fe23d18432ade0d423
Reciphers for ciphertext: 0
Decipheredtext:           5e5e5e5e5e5e5e5e5e5e5e5e5e5e5e5e
RESULT CIPHER-DECIPHER: -----OK-----


Test: 95
Hash algorithm: 10
Symmetric key bit length: 256
IV bit length:            128
Plaintext bit length:     128
Symmetric key:            0000000000000000000000000000000000000000000000000000000000000000
IV:                       00000000000000000000000000000000
Plaintext:                5f5f5f5f5f5f5f5f5f5f5f5f5f5f5f5f
Ciphertext:               d64f161a5b47460fa6d286c7f774381634e8019b8eed64a96bcf9c8e2a8a255d9f5a9c1815bb71379d17548c0edb53d6adcdc01016c2f24d
Reciphers for ciphertext: 0
Decipheredtext:           5f5f5f5f5f5f5f5f5f5f5f5f5f5f5f5f
RESULT CIPHER-DECIPHER: -----OK-----


Test: 96
Hash algorithm: 9
Symmetric key bit length: 256
IV bit length:            128
Plaintext bit length:     128
Symmetric key:            0000000000000000000000000000000000000000000000000000000000000000
IV:                       00000000000000000000000000000000
Plaintext:                60606060606060606060606060606060
Ciphertext:               e97029256478793099edb9f8c84b07298dbb097f0c77ed7988b59222caf23d6b71c4b0794901c247d5008d048569e760
Reciphers for ciphertext: 0
Decipheredtext:           60606060606060606060606060606060
RESULT CIPHER-DECIPHER: -----OK-----


Test: 97
Hash algorithm: 0
Symmetric key bit length: 256
IV bit length:            128
Plaintext bit length:     128
Symmetric key:            0000000000000000000000000000000000000000000000000000000000000000
IV:                       00000000000000000000000000000000
Plaintext:                61616161616161616161616161616161
Ciphertext:               e87128246579783198ecb8f9c94a0628bd898f4bee3a6d033ef407c854af855e892882d6
Reciphers for ciphertext: 0
Decipheredtext:           61616161616161616161616161616161
RESULT CIPHER-DECIPHER: -----OK-----


Test: 98
Hash algorithm: 13
Symmetric key bit length: 256
IV bit length:            128
Plaintext bit length:     128
Symmetric key:            0000000000000000000000000000000000000000000000000000000000000000
IV:                       00000000000000000000000000000000
Plaintext:                62626262626262626262626262626262
Ciphertext:               eb722b27667a7b329befbbfaca49052bcc9ca32b698d2a57334cccab6adfb774
Reciphers for ciphertext: 0
Decipheredtext:           62626262626262626262626262626262
RESULT CIPHER-DECIPHER: -----OK-----


Test: 99
Hash algorithm: 7
Symmetric key bit length: 256
IV bit length:            128
Plaintext bit length:     128
Symmetric key:            0000000000000000000000000000000000000000000000000000000000000000
IV:                       00000000000000000000000000000000
Plaintext:                63636363636363636363636363636363
Ciphertext:               ea732a26677b7a339aeebafbcb48042a5457295f04e35c1536fdc0679e55f2af
Reciphers for ciphertext: 0
Decipheredtext:           63636363636363636363636363636363
RESULT CIPHER-DECIPHER: -----OK-----


Test: 100
Hash algorithm: 10
Symmetric key bit length: 256
IV bit length:            128
Plaintext bit length:     128
Symmetric key:            0000000000000000000000000000000000000000000000000000000000000000
IV:                       00000000000000000000000000000000
Plaintext:                64646464646464646464646464646464
Ciphertext:               ed742d21607c7d349de9bdfccc4f032d14cef0e4541976e63901f0d145dbfd1045888c20876b8125e7d077928f7f55ded6f5f2dca49ecfb8
Reciphers for ciphertext: 0
Decipheredtext:           64646464646464646464646464646464
RESULT CIPHER-DECIPHER: -----OK-----


Test: 101
Hash algorithm: 0
Symmetric key bit length: 256
IV bit length:            128
Plaintext bit length:     128
Symmetric key:            0000000000000000000000000000000000000000000000000000000000000000
IV:                       00000000000000000000000000000000
Plaintext:                65656565656565656565656565656565
Ciphertext:               ec752c20617d7c359ce8bcfdcd4e022cc29f87c5103e3c19e5e000115bf8d9dd1ce37b29
Reciphers for ciphertext: 0
Decipheredtext:           65656565656565656565656565656565
RESULT CIPHER-DECIPHER: -----OK-----


Test: 102
Hash algorithm: 8
Symmetric key bit length: 256
IV bit length:            128
Plaintext bit length:     128
Symmetric key:            0000000000000000000000000000000000000000000000000000000000000000
IV:                       00000000000000000000000000000000
Plaintext:                66666666666666666666666666666666
Ciphertext:               ef762f23627e7f369febbffece4d012f0325b29418342fb4e1e105718b60f501a7c16365
Reciphers for ciphertext: 0
Decipheredtext:           66666666666666666666666666666666
RESULT CIPHER-DECIPHER: -----OK-----


Test: 103
Hash algorithm: 11
Symmetric key bit length: 256
IV bit length:            128
Plaintext bit length:     128
Symmetric key:            0000000000000000000000000000000000000000000000000000000000000000
IV:                       00000000000000000000000000000000
Plaintext:                67676767676767676767676767676767
Ciphertext:               ee772e22637f7e379eeabeffcf4c002ecb859f5d541178aec2df205cc50cdec3
Reciphers for ciphertext: 0
Decipheredtext:           67676767676767676767676767676767
RESULT CIPHER-DECIPHER: -----OK-----


Test: 104
Hash algorithm: 11
Symmetric key bit length: 256
IV bit length:            128
Plaintext bit length:     128
Symmetric key:            0000000000000000000000000000000000000000000000000000000000000000
IV:                       00000000000000000000000000000000
Plaintext:                68686868686868686868686868686868
Ciphertext:               e178212d6c70713891e5b1f0c0430f21625f1a4a80e1819903d637f4a348506e
Reciphers for ciphertext: 0
Decipheredtext:           68686868686868686868686868686868
RESULT CIPHER-DECIPHER: -----OK-----


Test: 105
Hash algorithm: 11
Symmetric key bit length: 256
IV bit length:            128
Plaintext bit length:     128
Symmetric key:            0000000000000000000000000000000000000000000000000000000000000000
IV:                       00000000000000000000000000000000
Plaintext:                69696969696969696969696969696969
Ciphertext:               e079202c6d71703990e4b0f1c1420e202190cda62cf849f2b3c53c34dc852544
Reciphers for ciphertext: 0
Decipheredtext:           69696969696969696969696969696969
RESULT CIPHER-DECIPHER: -----OK-----


Test: 106
Hash algorithm: 1
Symmetric key bit length: 256
IV bit length:            128
Plaintext bit length:     128
Symmetric key:            0000000000000000000000000000000000000000000000000000000000000000
IV:                       00000000000000000000000000000000
Plaintext:                6a6a6a6a6a6a6a6a6a6a6a6a6a6a6a6a
Ciphertext:               e37a232f6e72733a93e7b3f2c2410d23e0d640875eb755672bee469916dd1c5253d7f6d2baf344446ac340c9
Reciphers for ciphertext: 0
Decipheredtext:           6a6a6a6a6a6a6a6a6a6a6a6a6a6a6a6a
RESULT CIPHER-DECIPHER: -----OK-----


Test: 107
Hash algorithm: 13
Symmetric key bit length: 256
IV bit length:            128
Plaintext bit length:     128
Symmetric key:            0000000000000000000000000000000000000000000000000000000000000000
IV:                       00000000000000000000000000000000
Plaintext:                6b6b6b6b6b6b6b6b6b6b6b6b6b6b6b6b
Ciphertext:               e27b222e6f73723b92e6b2f3c3400c226cf03f27755e3496565d35bd9c134cb9
Reciphers for ciphertext: 0
Decipheredtext:           6b6b6b6b6b6b6b6b6b6b6b6b6b6b6b6b
RESULT CIPHER-DECIPHER: -----OK-----


Test: 108
Hash algorithm: 11
Symmetric key bit length: 256
IV bit length:            128
Plaintext bit length:     128
Symmetric key:            0000000000000000000000000000000000000000000000000000000000000000
IV:                       00000000000000000000000000000000
Plaintext:                6c6c6c6c6c6c6c6c6c6c6c6c6c6c6c6c
Ciphertext:               e57c25296874753c95e1b5f4c4470b25d43490dc86f3d0548d52a5cd88d34ed9
Reciphers for ciphertext: 0
Decipheredtext:           6c6c6c6c6c6c6c6c6c6c6c6c6c6c6c6c
RESULT CIPHER-DECIPHER: -----OK-----


Test: 109
Hash algorithm: 3
Symmetric key bit length: 256
IV bit length:            128
Plaintext bit length:     128
Symmetric key:            0000000000000000000000000000000000000000000000000000000000000000
IV:                       00000000000000000000000000000000
Plaintext:                6d6d6d6d6d6d6d6d6d6d6d6d6d6d6d6d
Ciphertext:               e47d24286975743d94e0b4f5c5460a24def6350187b4c7ef9eb230530fbaff2666812ea783c56fe51493a750a792b77c17b7e7bca663be8ec37e5de57d7e918f
Reciphers for ciphertext: 0
Decipheredtext:           6d6d6d6d6d6d6d6d6d6d6d6d6d6d6d6d
RESULT CIPHER-DECIPHER: -----OK-----


Test: 110
Hash algorithm: 0
Symmetric key bit length: 256
IV bit length:            128
Plaintext bit length:     128
Symmetric key:            0000000000000000000000000000000000000000000000000000000000000000
IV:                       00000000000000000000000000000000
Plaintext:                6e6e6e6e6e6e6e6e6e6e6e6e6e6e6e6e
Ciphertext:               e77e272b6a76773e97e3b7f6c6450927d3b6824040da4c4ca6278ebe3fbc9f82c1d7750d
Reciphers for ciphertext: 0
Decipheredtext:           6e6e6e6e6e6e6e6e6e6e6e6e6e6e6e6e
RESULT CIPHER-DECIPHER: -----OK-----


Test: 111
Hash algorithm: 4
Symmetric key bit length: 256
IV bit length:            128
Plaintext bit length:     128
Symmetric key:            0000000000000000000000000000000000000000000000000000000000000000
IV:                       00000000000000000000000000000000
Plaintext:                6f6f6f6f6f6f6f6f6f6f6f6f6f6f6f6f
Ciphertext:               e67f262a6b77763f96e2b6f7c74408264b2ecc005c796f2c21f5c87985f5385d7d737b57358f9370d701059a065865385f0f2151d1fbd7bdffac4b40896e10e890e7cedc5b3bdcdc1252569f39dfb589
Reciphers for ciphertext: 0
Decipheredtext:           6f6f6f6f6f6f6f6f6f6f6f6f6f6f6f6f
RESULT CIPHER-DECIPHER: -----OK-----


Test: 112
Hash algorithm: 3
Symmetric key bit length: 256
IV bit length:            128
Plaintext bit length:     128
Symmetric key:            0000000000000000000000000000000000000000000000000000000000000000
IV:                       00000000000000000000000000000000
Plaintext:                70707070707070707070707070707070
Ciphertext:               f96039357468692089fda9e8d85b173974e257bf8093403ec895f2b863c0f1261485404d3dbda89428e42383cece5efa6189d64ce4014b7728d41cf71b5eadc0
Reciphers for ciphertext: 0
Decipheredtext:           70707070707070707070707070707070
RESULT CIPHER-DECIPHER: -----OK-----


Test: 113
Hash algorithm: 6
Symmetric key bit length: 256
IV bit length:            128
Plaintext bit length:     128
Symmetric key:            0000000000000000000000000000000000000000000000000000000000000000
IV:                       00000000000000000000000000000000
Plaintext:                71717171717171717171717171717171
Ciphertext:               f86138347569682188fca8e9d95a16387ba13b430457cf48bb690b28cb893bc36a584390576f9e9ae78b1122cc9e2571
Reciphers for ciphertext: 0
Decipheredtext:           71717171717171717171717171717171
RESULT CIPHER-DECIPHER: -----OK-----


Test: 114
Hash algorithm: 13
Symmetric key bit length: 256
IV bit length:            128
Plaintext bit length:     128
Symmetric key:            0000000000000000000000000000000000000000000000000000000000000000
IV:                       00000000000000000000000000000000
Plaintext:                72727272727272727272727272727272
Ciphertext:               fb623b37766a6b228bffabeada59153b8f9d2011b2ab60520bf6756f322549e5
Reciphers for ciphertext: 0
Decipheredtext:           72727272727272727272727272727272
RESULT CIPHER-DECIPHER: -----OK-----


Test: 115
Hash algorithm: 4
Symmetric key bit length: 256
IV bit length:            128
Plaintext bit length:     128
Symmetric key:            0000000000000000000000000000000000000000000000000000000000000000
IV:                       00000000000000000000000000000000
Plaintext:                73737373737373737373737373737373
Ciphertext:               fa633a36776b6a238afeaaebdb58143a9034293f4eaf71535924787c0f98a5b9dbf61fb31cb6272973496c8f9d0f1590c3a5b686f2fb677f07c34a6aaa4a69ca02c28515cf6bf48f03a332010ae8a217
Reciphers for ciphertext: 0
Decipheredtext:           73737373737373737373737373737373
RESULT CIPHER-DECIPHER: -----OK-----


Test: 116
Hash algorithm: 11
Symmetric key bit length: 256
IV bit length:            128
Plaintext bit length:     128
Symmetric key:            0000000000000000000000000000000000000000000000000000000000000000
IV:                       00000000000000000000000000000000
Plaintext:                74747474747474747474747474747474
Ciphertext:               fd643d31706c6d248df9adecdc5f133dd32730e1fe5097bf68ffc696d2961faf
Reciphers for ciphertext: 0
Decipheredtext:           74747474747474747474747474747474
RESULT CIPHER-DECIPHER: -----OK-----


Test: 117
Hash algorithm: 5
Symmetric key bit length: 256
IV bit length:            128
Plaintext bit length:     128
Symmetric key:            0000000000000000000000000000000000000000000000000000000000000000
IV:                       00000000000000000000000000000000
Plaintext:                75757575757575757575757575757575
Ciphertext:               fc653c30716d6c258cf8aceddd5e123c7b8f5779749446c8ed9d2e9803aef21b02a638c82fde3c0ddc0dbbd2
Reciphers for ciphertext: 0
Decipheredtext:           75757575757575757575757575757575
RESULT CIPHER-DECIPHER: -----OK-----


Test: 118
Hash algorithm: 13
Symmetric key bit length: 256
IV bit length:            128
Plaintext bit length:     128
Symmetric key:            0000000000000000000000000000000000000000000000000000000000000000
IV:                       00000000000000000000000000000000
Plaintext:                76767676767676767676767676767676
Ciphertext:               ff663f33726e6f268ffbafeede5d113f017d8ac7cbde299d04167c21c1041926
Reciphers for ciphertext: 0
Decipheredtext:           76767676767676767676767676767676
RESULT CIPHER-DECIPHER: -----OK-----


Test: 119
Hash algorithm: 10
Symmetric key bit length: 256
IV bit length:            128
Plaintext bit length:     128
Symmetric key:            0000000000000000000000000000000000000000000000000000000000000000
IV:                       00000000000000000000000000000000
Plaintext:                77777777777777777777777777777777
Ciphertext:               fe673e32736f6e278efaaeefdf5c103e41f2b13d8e1375c6803702361f18cff1369e3b989d39a69868ac51d2f9b71fa9770ad81ff932c189
Reciphers for ciphertext: 0
Decipheredtext:           77777777777777777777777777777777
RESULT CIPHER-DECIPHER: -----OK-----


Test: 120
Hash algorithm: 12
Symmetric key bit length: 256
IV bit length:            128
Plaintext bit length:     128
Symmetric key:            0000000000000000000000000000000000000000000000000000000000000000
IV:                       00000000000000000000000000000000
Plaintext:                78787878787878787878787878787878
Ciphertext:               f168313d7c60612881f5a1e0d0531f3137b5b5798a8ba01a6642866b3b9b7462
Reciphers for ciphertext: 0
Decipheredtext:           78787878787878787878787878787878
RESULT CIPHER-DECIPHER: -----OK-----


Test: 121
Hash algorithm: 0
Symmetric key bit length: 256
IV bit length:            128
Plaintext bit length:     128
Symmetric key:            0000000000000000000000000000000000000000000000000000000000000000
IV:                       00000000000000000000000000000000
Plaintext:                79797979797979797979797979797979
Ciphertext:               f069303c7d61602980f4a0e1d1521e3026e9fa9ec4c8a04e6afb0de2524e7795d04bf9ec
Reciphers for ciphertext: 0
Decipheredtext:           79797979797979797979797979797979
RESULT CIPHER-DECIPHER: -----OK-----


Test: 122
Hash algorithm: 0
Symmetric key bit length: 256
IV bit length:            128
Plaintext bit length:     128
Symmetric key:            0000000000000000000000000000000000000000000000000000000000000000
IV:                       00000000000000000000000000000000
Plaintext:                7a7a7a7a7a7a7a7a7a7a7a7a7a7a7a7a
Ciphertext:               f36a333f7e62632a83f7a3e2d2511d33067ede42015fbd7b5ee7fdf785abdac7bcaf7a86
Reciphers for ciphertext: 0
Decipheredtext:           7a7a7a7a7a7a7a7a7a7a7a7a7a7a7a7a
RESULT CIPHER-DECIPHER: -----OK-----


Test: 123
Hash algorithm: 9
Symmetric key bit length: 256
IV bit length:            128
Plaintext bit length:     128
Symmetric key:            0000000000000000000000000000000000000000000000000000000000000000
IV:                       00000000000000000000000000000000
Plaintext:                7b7b7b7b7b7b7b7b7b7b7b7b7b7b7b7b
Ciphertext:               f26b323e7f63622b82f6a2e3d3501c32791b4fceff8ae865670d852d039a2ff8f7bd1286767f0c0a5e9befe8109a1ca1
Reciphers for ciphertext: 0
Decipheredtext:           7b7b7b7b7b7b7b7b7b7b7b7b7b7b7b7b
RESULT CIPHER-DECIPHER: -----OK-----


Test: 124
Hash algorithm: 13
Symmetric key bit length: 256
IV bit length:            128
Plaintext bit length:     128
Symmetric key:            0000000000000000000000000000000000000000000000000000000000000000
IV:                       00000000000000000000000000000000
Plaintext:                7c7c7c7c7c7c7c7c7c7c7c7c7c7c7c7c
Ciphertext:               f56c35397864652c85f1a5e4d4571b357978af08dedd3e66a8d2b38ca3b56b78
Reciphers for ciphertext: 0
Decipheredtext:           7c7c7c7c7c7c7c7c7c7c7c7c7c7c7c7c
RESULT CIPHER-DECIPHER: -----OK-----


Test: 125
Hash algorithm: 7
Symmetric key bit length: 256
IV bit length:            128
Plaintext bit length:     128
Symmetric key:            0000000000000000000000000000000000000000000000000000000000000000
IV:                       00000000000000000000000000000000
Plaintext:                7d7d7d7d7d7d7d7d7d7d7d7d7d7d7d7d
Ciphertext:               f46d34387965642d84f0a4e5d5561a3400f3d625fe70ff0f5f083c7eb4fc413a
Reciphers for ciphertext: 0
Decipheredtext:           7d7d7d7d7d7d7d7d7d7d7d7d7d7d7d7d
RESULT CIPHER-DECIPHER: -----OK-----


Test: 126
Hash algorithm: 3
Symmetric key bit length: 256
IV bit length:            128
Plaintext bit length:     128
Symmetric key:            0000000000000000000000000000000000000000000000000000000000000000
IV:                       00000000000000000000000000000000
Plaintext:                7e7e7e7e7e7e7e7e7e7e7e7e7e7e7e7e
Ciphertext:               f76e373b7a66672e87f3a7e6d655193760c8ad98df5db6293d8bab56da831a245f32de4384e26fd3ace0d1195ceb618759d926085cc4e7646d6950d5dd04a41f
Reciphers for ciphertext: 0
Decipheredtext:           7e7e7e7e7e7e7e7e7e7e7e7e7e7e7e7e
RESULT CIPHER-DECIPHER: -----OK-----


Test: 127
Hash algorithm: 5
Symmetric key bit length: 256
IV bit length:            128
Plaintext bit length:     128
Symmetric key:            0000000000000000000000000000000000000000000000000000000000000000
IV:                       00000000000000000000000000000000
Plaintext:                7f7f7f7f7f7f7f7f7f7f7f7f7f7f7f7f
Ciphertext:               f66f363a7b67662f86f2a6e7d7541836c087fa34d63fc2f2dc92d6f2d555b2d3f8bac990ba3762ba02e8fc24
Reciphers for ciphertext: 0
Decipheredtext:           7f7f7f7f7f7f7f7f7f7f7f7f7f7f7f7f
RESULT CIPHER-DECIPHER: -----OK-----


 DATA SHA1 (hexadecimal): 00d64423d550ab90020d8fdfbeec164b42694ba4

