
DiceLock 9.0.0.1

 TEST COMPONENTS:
 ----------------
 DiceLock:           DiceLockIVDigested class
 Operation Mode:     OFB_Mode class
 Block Cipher:       Serpent256 class
 Hash algorithms:     0 - Sha1 class
                      1 - Sha224 class
                      2 - Sha256 class
                      3 - Sha384 class
                      4 - Sha512 class
                      5 - Sha512_224 class
                      6 - Sha512_256 class
                      7 - Ripemd128 class
                      8 - Ripemd160 class
                      9 - Ripemd256 class
                     10 - Ripemd320 class
                     11 - MD2 class
                     12 - MD4 class
                     13 - MD5 class
 Key Modifier:       DecreaseKeyModifier_6_0_0_1 class
 Random tests:       RandomTestSuite class
                     FrequencyTest class
                     BlockFrequencyTest class
                     CumulativeSumForwardTest class
                     LongestRunOfOnesTest class
                     RunsTest class
 Random alpha:       0.001

 VECTOR TEST: Test vector 0 - Changing symmetric key, shifting 1 bit set


##### INDIVIDUAL TESTS #####

Number tests: 128


Test: 0
Hash algorithm: 7
Symmetric key bit length: 256
IV bit length:            128
Plaintext bit length:     136
Symmetric key:            0000000000000000000000000000000080000000000000000000000000000000
IV:                       00000000000000000000000000000000
Plaintext:                0000000000000000000000000000000000
Ciphertext:               34c79f703a62b02e6790efbbbeb07241a259d62f10558eb4e0b7d725111d45da3e
Reciphers for ciphertext: 0
Decipheredtext:           0000000000000000000000000000000000
RESULT CIPHER-DECIPHER: -----OK-----


Test: 1
Hash algorithm: 8
Symmetric key bit length: 256
IV bit length:            128
Plaintext bit length:     136
Symmetric key:            0000000000000000000000000000000040000000000000000000000000000000
IV:                       00000000000000000000000000000000
Plaintext:                0000000000000000000000000000000000
Ciphertext:               bfc96d59ae31369b0618fd78fc295826b6a3c68f7a155d58f758bee35e9606cd9c1381315e
Reciphers for ciphertext: 0
Decipheredtext:           0000000000000000000000000000000000
RESULT CIPHER-DECIPHER: -----OK-----


Test: 2
Hash algorithm: 8
Symmetric key bit length: 256
IV bit length:            128
Plaintext bit length:     136
Symmetric key:            0000000000000000000000000000000020000000000000000000000000000000
IV:                       00000000000000000000000000000000
Plaintext:                0000000000000000000000000000000000
Ciphertext:               f811a6558ce7a67bd3280ee4e3259be80de41e4476378bc8178d8e10c2890a0e52a85a8d71
Reciphers for ciphertext: 0
Decipheredtext:           0000000000000000000000000000000000
RESULT CIPHER-DECIPHER: -----OK-----


Test: 3
Hash algorithm: 11
Symmetric key bit length: 256
IV bit length:            128
Plaintext bit length:     136
Symmetric key:            0000000000000000000000000000000010000000000000000000000000000000
IV:                       00000000000000000000000000000000
Plaintext:                0000000000000000000000000000000000
Ciphertext:               8c8205692ab866bcf965dd61d595bf8e221d9f8ce0b85b28accb0a249d972bf270
Reciphers for ciphertext: 0
Decipheredtext:           0000000000000000000000000000000000
RESULT CIPHER-DECIPHER: -----OK-----


Test: 4
Hash algorithm: 13
Symmetric key bit length: 256
IV bit length:            128
Plaintext bit length:     136
Symmetric key:            0000000000000000000000000000000008000000000000000000000000000000
IV:                       00000000000000000000000000000000
Plaintext:                0000000000000000000000000000000000
Ciphertext:               098a85e6ca58293bd2298c07f86a8f8cc2fa42385073876eb4f0537ec999a22a2d
Reciphers for ciphertext: 0
Decipheredtext:           0000000000000000000000000000000000
RESULT CIPHER-DECIPHER: -----OK-----


Test: 5
Hash algorithm: 1
Symmetric key bit length: 256
IV bit length:            128
Plaintext bit length:     136
Symmetric key:            0000000000000000000000000000000004000000000000000000000000000000
IV:                       00000000000000000000000000000000
Plaintext:                0000000000000000000000000000000000
Ciphertext:               2801da2be78057706abafaab8226fa39a5c1af71b2fe6bf89e2f260cc0807e053be43871480c0f9f901a27a97a
Reciphers for ciphertext: 0
Decipheredtext:           0000000000000000000000000000000000
RESULT CIPHER-DECIPHER: -----OK-----


Test: 6
Hash algorithm: 2
Symmetric key bit length: 256
IV bit length:            128
Plaintext bit length:     136
Symmetric key:            0000000000000000000000000000000002000000000000000000000000000000
IV:                       00000000000000000000000000000000
Plaintext:                0000000000000000000000000000000000
Ciphertext:               500796a8bccee9141ab21282d6c912a8845a8f87b0eec7b5ba1ee15268c9c23531c0f82ed9e56382a11afc19114953b023
Reciphers for ciphertext: 0
Decipheredtext:           0000000000000000000000000000000000
RESULT CIPHER-DECIPHER: -----OK-----


Test: 7
Hash algorithm: 1
Symmetric key bit length: 256
IV bit length:            128
Plaintext bit length:     136
Symmetric key:            0000000000000000000000000000000001000000000000000000000000000000
IV:                       00000000000000000000000000000000
Plaintext:                0000000000000000000000000000000000
Ciphertext:               80cbe789099bdf0140da3ac157d7bf478869654c10107070ef0546ccaa558f4045c9e73224a0595e5b71c89a3e
Reciphers for ciphertext: 0
Decipheredtext:           0000000000000000000000000000000000
RESULT CIPHER-DECIPHER: -----OK-----


Test: 8
Hash algorithm: 12
Symmetric key bit length: 256
IV bit length:            128
Plaintext bit length:     136
Symmetric key:            0000000000000000000000000000000000800000000000000000000000000000
IV:                       00000000000000000000000000000000
Plaintext:                0000000000000000000000000000000000
Ciphertext:               8ce81e5dea464efaf01b3da5a6da5aa99943dd3aa6abfa02be586e7a993430c037
Reciphers for ciphertext: 0
Decipheredtext:           0000000000000000000000000000000000
RESULT CIPHER-DECIPHER: -----OK-----


Test: 9
Hash algorithm: 7
Symmetric key bit length: 256
IV bit length:            128
Plaintext bit length:     136
Symmetric key:            0000000000000000000000000000000000400000000000000000000000000000
IV:                       00000000000000000000000000000000
Plaintext:                0000000000000000000000000000000000
Ciphertext:               4aec37a4ef16b38bcdba0b01051803d1d427fd87c480fab7451dfdc1aba6edabae
Reciphers for ciphertext: 0
Decipheredtext:           0000000000000000000000000000000000
RESULT CIPHER-DECIPHER: -----OK-----


Test: 10
Hash algorithm: 10
Symmetric key bit length: 256
IV bit length:            128
Plaintext bit length:     136
Symmetric key:            0000000000000000000000000000000000200000000000000000000000000000
IV:                       00000000000000000000000000000000
Plaintext:                0000000000000000000000000000000000
Ciphertext:               e6a2f6431269aa02c93793af80436a7b35f3b102ae6c8842ac02c6db78ece5bb8cb6888275aa7659b830a792d9b2b0cb78ba31712b785d48ff
Reciphers for ciphertext: 0
Decipheredtext:           0000000000000000000000000000000000
RESULT CIPHER-DECIPHER: -----OK-----


Test: 11
Hash algorithm: 9
Symmetric key bit length: 256
IV bit length:            128
Plaintext bit length:     136
Symmetric key:            0000000000000000000000000000000000100000000000000000000000000000
IV:                       00000000000000000000000000000000
Plaintext:                0000000000000000000000000000000000
Ciphertext:               4aa9046b1fb69a6abcb8f3351d75efbd13a05006a5ec20226c4efebf94ac038eaebd885b1ff505af37aeb4867016f644c2
Reciphers for ciphertext: 0
Decipheredtext:           0000000000000000000000000000000000
RESULT CIPHER-DECIPHER: -----OK-----


Test: 12
Hash algorithm: 1
Symmetric key bit length: 256
IV bit length:            128
Plaintext bit length:     136
Symmetric key:            0000000000000000000000000000000000080000000000000000000000000000
IV:                       00000000000000000000000000000000
Plaintext:                0000000000000000000000000000000000
Ciphertext:               66b8c45fe8c254088d62d307edb9cf51f68f166fc6f129fbe6c8fe256cefe13053b79513469fa5c68d78d6300e
Reciphers for ciphertext: 0
Decipheredtext:           0000000000000000000000000000000000
RESULT CIPHER-DECIPHER: -----OK-----


Test: 13
Hash algorithm: 8
Symmetric key bit length: 256
IV bit length:            128
Plaintext bit length:     136
Symmetric key:            0000000000000000000000000000000000040000000000000000000000000000
IV:                       00000000000000000000000000000000
Plaintext:                0000000000000000000000000000000000
Ciphertext:               fddcfb5c4da597b9d887e03b8337da0cd5e1d3197ff6c9f9d58621fe1de9184fb67091e341
Reciphers for ciphertext: 0
Decipheredtext:           0000000000000000000000000000000000
RESULT CIPHER-DECIPHER: -----OK-----


Test: 14
Hash algorithm: 4
Symmetric key bit length: 256
IV bit length:            128
Plaintext bit length:     136
Symmetric key:            0000000000000000000000000000000000020000000000000000000000000000
IV:                       00000000000000000000000000000000
Plaintext:                0000000000000000000000000000000000
Ciphertext:               69042f478d87f8b6e0d149216f2e8d93507419f4e1f1e6bbc5a6df84d1777ee42725503840e86784af51bb2e4823567bcd53f4ab4cbb1d12b609fb756d2fda8f563386ea73a365d82c744a15b1b8b15897
Reciphers for ciphertext: 0
Decipheredtext:           0000000000000000000000000000000000
RESULT CIPHER-DECIPHER: -----OK-----


Test: 15
Hash algorithm: 0
Symmetric key bit length: 256
IV bit length:            128
Plaintext bit length:     136
Symmetric key:            0000000000000000000000000000000000010000000000000000000000000000
IV:                       00000000000000000000000000000000
Plaintext:                0000000000000000000000000000000000
Ciphertext:               ad8f00cdace047f3225a235fc2b05738b740abe1e58c12bef38c6218230642e424f7f077d2
Reciphers for ciphertext: 0
Decipheredtext:           0000000000000000000000000000000000
RESULT CIPHER-DECIPHER: -----OK-----


Test: 16
Hash algorithm: 4
Symmetric key bit length: 256
IV bit length:            128
Plaintext bit length:     136
Symmetric key:            0000000000000000000000000000000000008000000000000000000000000000
IV:                       00000000000000000000000000000000
Plaintext:                0000000000000000000000000000000000
Ciphertext:               6a624c0f16aaa6cd4995e01988deaa3b10777f97a96acbe5be0f9b2de9908ec38f65c2855ea2403fdf1f25e1fcdf2d23bc44d4e480668b1e0332b18614c2fd89bef1950d08acd9a5268e77199d977ea961
Reciphers for ciphertext: 0
Decipheredtext:           0000000000000000000000000000000000
RESULT CIPHER-DECIPHER: -----OK-----


Test: 17
Hash algorithm: 10
Symmetric key bit length: 256
IV bit length:            128
Plaintext bit length:     136
Symmetric key:            0000000000000000000000000000000000004000000000000000000000000000
IV:                       00000000000000000000000000000000
Plaintext:                0000000000000000000000000000000000
Ciphertext:               7d8f824eaa7dd1657a0f59a2f27b5e0f6d689c76a3d49c39cbb1fe11759edd8ff8eec8dd4f3265f187571872398c0b7fd04bf2d5538600aa2b
Reciphers for ciphertext: 0
Decipheredtext:           0000000000000000000000000000000000
RESULT CIPHER-DECIPHER: -----OK-----


Test: 18
Hash algorithm: 7
Symmetric key bit length: 256
IV bit length:            128
Plaintext bit length:     136
Symmetric key:            0000000000000000000000000000000000002000000000000000000000000000
IV:                       00000000000000000000000000000000
Plaintext:                0000000000000000000000000000000000
Ciphertext:               7015d246b39a995c11b409485e100b516e1d046226dc769d92c1f3c3e2fde5a32e
Reciphers for ciphertext: 0
Decipheredtext:           0000000000000000000000000000000000
RESULT CIPHER-DECIPHER: -----OK-----


Test: 19
Hash algorithm: 10
Symmetric key bit length: 256
IV bit length:            128
Plaintext bit length:     136
Symmetric key:            0000000000000000000000000000000000001000000000000000000000000000
IV:                       00000000000000000000000000000000
Plaintext:                0000000000000000000000000000000000
Ciphertext:               cad1a2944343525c2b9da630937cf40f81dfc256793da2baf2e06ceee7ffda25f802629ae0527ee07047e3c1a832f777ac17ae6011c054e560
Reciphers for ciphertext: 0
Decipheredtext:           0000000000000000000000000000000000
RESULT CIPHER-DECIPHER: -----OK-----


Test: 20
Hash algorithm: 4
Symmetric key bit length: 256
IV bit length:            128
Plaintext bit length:     136
Symmetric key:            0000000000000000000000000000000000000800000000000000000000000000
IV:                       00000000000000000000000000000000
Plaintext:                0000000000000000000000000000000000
Ciphertext:               c7f24334553fe63c4ab2f3ffbf0183ab5bdaef9892295ea54f0cbc3e0fa751ea1f2e0fe1ef07b83851701cb93d58272345d0934ab40460dabe748bc55416268bdfd9e7d0be582089ef05f994160b422fec
Reciphers for ciphertext: 0
Decipheredtext:           0000000000000000000000000000000000
RESULT CIPHER-DECIPHER: -----OK-----


Test: 21
Hash algorithm: 11
Symmetric key bit length: 256
IV bit length:            128
Plaintext bit length:     136
Symmetric key:            0000000000000000000000000000000000000400000000000000000000000000
IV:                       00000000000000000000000000000000
Plaintext:                0000000000000000000000000000000000
Ciphertext:               bf2da14eea8055f51636984e51f4a349f72e3028c778631be5245961b2134aeeb7
Reciphers for ciphertext: 0
Decipheredtext:           0000000000000000000000000000000000
RESULT CIPHER-DECIPHER: -----OK-----


Test: 22
Hash algorithm: 1
Symmetric key bit length: 256
IV bit length:            128
Plaintext bit length:     136
Symmetric key:            0000000000000000000000000000000000000200000000000000000000000000
IV:                       00000000000000000000000000000000
Plaintext:                0000000000000000000000000000000000
Ciphertext:               c424de5973035fad65d99e27a2ae07c0542d8a75c06ae8f0432045684ca0f6f8c2154bf310600fdaa1a8512a99
Reciphers for ciphertext: 0
Decipheredtext:           0000000000000000000000000000000000
RESULT CIPHER-DECIPHER: -----OK-----


Test: 23
Hash algorithm: 5
Symmetric key bit length: 256
IV bit length:            128
Plaintext bit length:     136
Symmetric key:            0000000000000000000000000000000000000100000000000000000000000000
IV:                       00000000000000000000000000000000
Plaintext:                0000000000000000000000000000000000
Ciphertext:               3ed7b674bcedb60523386119e2cb5fbe205442aa238a71ce0b0ab51aa65884bfe58e5f26f0d74a573a25fa4aad
Reciphers for ciphertext: 0
Decipheredtext:           0000000000000000000000000000000000
RESULT CIPHER-DECIPHER: -----OK-----


Test: 24
Hash algorithm: 4
Symmetric key bit length: 256
IV bit length:            128
Plaintext bit length:     136
Symmetric key:            0000000000000000000000000000000000000080000000000000000000000000
IV:                       00000000000000000000000000000000
Plaintext:                0000000000000000000000000000000000
Ciphertext:               f0bed60941174023ae4d07e7deb23d5f32eda30daf3d760350e843ca17c6e254eb47060849d4623b6a24296c2c7eedb4ffa9a4c7b923120901e8225065ff7d16ebe03ccdc9e76f6454175689bdf5128246
Reciphers for ciphertext: 0
Decipheredtext:           0000000000000000000000000000000000
RESULT CIPHER-DECIPHER: -----OK-----


Test: 25
Hash algorithm: 12
Symmetric key bit length: 256
IV bit length:            128
Plaintext bit length:     136
Symmetric key:            0000000000000000000000000000000000000040000000000000000000000000
IV:                       00000000000000000000000000000000
Plaintext:                0000000000000000000000000000000000
Ciphertext:               159a9d7e5a210dad034ea2e50cbc30e559daafb9851b9d41e9ab3be5d99e56aa7b
Reciphers for ciphertext: 0
Decipheredtext:           0000000000000000000000000000000000
RESULT CIPHER-DECIPHER: -----OK-----


Test: 26
Hash algorithm: 6
Symmetric key bit length: 256
IV bit length:            128
Plaintext bit length:     136
Symmetric key:            0000000000000000000000000000000000000020000000000000000000000000
IV:                       00000000000000000000000000000000
Plaintext:                0000000000000000000000000000000000
Ciphertext:               695724e11b4cea84603f935571a1f5ffda61b5dea58b428e2d1e8ca9152bfb3e1662aa57161b9f8247a292eda02cd57cfb
Reciphers for ciphertext: 0
Decipheredtext:           0000000000000000000000000000000000
RESULT CIPHER-DECIPHER: -----OK-----


Test: 27
Hash algorithm: 1
Symmetric key bit length: 256
IV bit length:            128
Plaintext bit length:     136
Symmetric key:            0000000000000000000000000000000000000010000000000000000000000000
IV:                       00000000000000000000000000000000
Plaintext:                0000000000000000000000000000000000
Ciphertext:               788ac03153fad14a7a3f8322543dca644091246ba84a117ea43fa37549566535660147c8d18eca9cf5a1b16e9a
Reciphers for ciphertext: 0
Decipheredtext:           0000000000000000000000000000000000
RESULT CIPHER-DECIPHER: -----OK-----


Test: 28
Hash algorithm: 13
Symmetric key bit length: 256
IV bit length:            128
Plaintext bit length:     136
Symmetric key:            0000000000000000000000000000000000000008000000000000000000000000
IV:                       00000000000000000000000000000000
Plaintext:                0000000000000000000000000000000000
Ciphertext:               1964e04df808496e530e6ab5f2182ce40eeaac5dfb41d70ee17174987b93d08945
Reciphers for ciphertext: 0
Decipheredtext:           0000000000000000000000000000000000
RESULT CIPHER-DECIPHER: -----OK-----


Test: 29
Hash algorithm: 11
Symmetric key bit length: 256
IV bit length:            128
Plaintext bit length:     136
Symmetric key:            0000000000000000000000000000000000000004000000000000000000000000
IV:                       00000000000000000000000000000000
Plaintext:                0000000000000000000000000000000000
Ciphertext:               18a056a20724416b3ebe7f88743d82971589bddf2b95c70f7b0cd186743683cf69
Reciphers for ciphertext: 0
Decipheredtext:           0000000000000000000000000000000000
RESULT CIPHER-DECIPHER: -----OK-----


Test: 30
Hash algorithm: 6
Symmetric key bit length: 256
IV bit length:            128
Plaintext bit length:     136
Symmetric key:            0000000000000000000000000000000000000002000000000000000000000000
IV:                       00000000000000000000000000000000
Plaintext:                0000000000000000000000000000000000
Ciphertext:               dd28593d13343349ab120f2667441d8a42d5caa379833a57e0d5a135663d1ed663fa35b556b3b001c824fe7489e62ef630
Reciphers for ciphertext: 0
Decipheredtext:           0000000000000000000000000000000000
RESULT CIPHER-DECIPHER: -----OK-----


Test: 31
Hash algorithm: 3
Symmetric key bit length: 256
IV bit length:            128
Plaintext bit length:     136
Symmetric key:            0000000000000000000000000000000000000001000000000000000000000000
IV:                       00000000000000000000000000000000
Plaintext:                0000000000000000000000000000000000
Ciphertext:               a0bf14c7d0e3336d4cd5b2b1b47f5e73bc0a8ba407e1f0e3257609301ab3e9476c46f0aaa8d2efc8d68640bbecd008cc5aa3d62e36e3f2a467cae7bc9915776da5
Reciphers for ciphertext: 0
Decipheredtext:           0000000000000000000000000000000000
RESULT CIPHER-DECIPHER: -----OK-----


Test: 32
Hash algorithm: 1
Symmetric key bit length: 256
IV bit length:            128
Plaintext bit length:     136
Symmetric key:            0000000000000000000000000000000000000000800000000000000000000000
IV:                       00000000000000000000000000000000
Plaintext:                0000000000000000000000000000000000
Ciphertext:               d467c69d25a1a02481a2e3508d014badb93dc96d043c4a0fcac43e153b8f59b4aff8fddc66c8c6203fac211a2b
Reciphers for ciphertext: 0
Decipheredtext:           0000000000000000000000000000000000
RESULT CIPHER-DECIPHER: -----OK-----


Test: 33
Hash algorithm: 11
Symmetric key bit length: 256
IV bit length:            128
Plaintext bit length:     136
Symmetric key:            0000000000000000000000000000000000000000400000000000000000000000
IV:                       00000000000000000000000000000000
Plaintext:                0000000000000000000000000000000000
Ciphertext:               3115ecf100476954f6c185250aa099c8d9a008657892a42744c4ae7cd9481ed436
Reciphers for ciphertext: 0
Decipheredtext:           0000000000000000000000000000000000
RESULT CIPHER-DECIPHER: -----OK-----


Test: 34
Hash algorithm: 5
Symmetric key bit length: 256
IV bit length:            128
Plaintext bit length:     136
Symmetric key:            0000000000000000000000000000000000000000200000000000000000000000
IV:                       00000000000000000000000000000000
Plaintext:                0000000000000000000000000000000000
Ciphertext:               6d1be89c5f75270a366e6dcfcf3de5ba08078ef4cb69e95f041fe31670757205e1a6f1e948c405c490d02c17f1
Reciphers for ciphertext: 0
Decipheredtext:           0000000000000000000000000000000000
RESULT CIPHER-DECIPHER: -----OK-----


Test: 35
Hash algorithm: 9
Symmetric key bit length: 256
IV bit length:            128
Plaintext bit length:     136
Symmetric key:            0000000000000000000000000000000000000000100000000000000000000000
IV:                       00000000000000000000000000000000
Plaintext:                0000000000000000000000000000000000
Ciphertext:               4d1686baa1be780736c35914731c186ea7a7ef84745228c001c48515b5c26a797d0930169cf2c99ddf438b10251ec1eb74
Reciphers for ciphertext: 0
Decipheredtext:           0000000000000000000000000000000000
RESULT CIPHER-DECIPHER: -----OK-----


Test: 36
Hash algorithm: 7
Symmetric key bit length: 256
IV bit length:            128
Plaintext bit length:     136
Symmetric key:            0000000000000000000000000000000000000000080000000000000000000000
IV:                       00000000000000000000000000000000
Plaintext:                0000000000000000000000000000000000
Ciphertext:               3c5db56a9a87347b5a804560dd2dfd975e514c050af56b30b58ac78fca7ed855e8
Reciphers for ciphertext: 0
Decipheredtext:           0000000000000000000000000000000000
RESULT CIPHER-DECIPHER: -----OK-----


Test: 37
Hash algorithm: 13
Symmetric key bit length: 256
IV bit length:            128
Plaintext bit length:     136
Symmetric key:            0000000000000000000000000000000000000000040000000000000000000000
IV:                       00000000000000000000000000000000
Plaintext:                0000000000000000000000000000000000
Ciphertext:               24813b7d9043df69980def2dc0617d5488d74986cb299c98e6ba771de3a1a9d8f5
Reciphers for ciphertext: 0
Decipheredtext:           0000000000000000000000000000000000
RESULT CIPHER-DECIPHER: -----OK-----


Test: 38
Hash algorithm: 1
Symmetric key bit length: 256
IV bit length:            128
Plaintext bit length:     136
Symmetric key:            0000000000000000000000000000000000000000020000000000000000000000
IV:                       00000000000000000000000000000000
Plaintext:                0000000000000000000000000000000000
Ciphertext:               5751c2eb5dd14d8823c714fc4475459e5bbeff6972443ae266665be297462dba9c1a5c754678516fea62a053e4
Reciphers for ciphertext: 0
Decipheredtext:           0000000000000000000000000000000000
RESULT CIPHER-DECIPHER: -----OK-----


Test: 39
Hash algorithm: 13
Symmetric key bit length: 256
IV bit length:            128
Plaintext bit length:     136
Symmetric key:            0000000000000000000000000000000000000000010000000000000000000000
IV:                       00000000000000000000000000000000
Plaintext:                0000000000000000000000000000000000
Ciphertext:               5b750ced85b4169116cf4e93c37e76e0b9a8bdb15b3c6b511e34b5bc5da2b6d341
Reciphers for ciphertext: 0
Decipheredtext:           0000000000000000000000000000000000
RESULT CIPHER-DECIPHER: -----OK-----


Test: 40
Hash algorithm: 8
Symmetric key bit length: 256
IV bit length:            128
Plaintext bit length:     136
Symmetric key:            0000000000000000000000000000000000000000008000000000000000000000
IV:                       00000000000000000000000000000000
Plaintext:                0000000000000000000000000000000000
Ciphertext:               4ebaddc62d252e4028bbddf02807b3b47052b53fe59649402c761dc3d64228260ed5e4f7d2
Reciphers for ciphertext: 0
Decipheredtext:           0000000000000000000000000000000000
RESULT CIPHER-DECIPHER: -----OK-----


Test: 41
Hash algorithm: 8
Symmetric key bit length: 256
IV bit length:            128
Plaintext bit length:     136
Symmetric key:            0000000000000000000000000000000000000000004000000000000000000000
IV:                       00000000000000000000000000000000
Plaintext:                0000000000000000000000000000000000
Ciphertext:               216204523a32b2dcfc612be2d974b0dd9f3d6de671815edcb0a2c735c4b35b25673ae541d2
Reciphers for ciphertext: 0
Decipheredtext:           0000000000000000000000000000000000
RESULT CIPHER-DECIPHER: -----OK-----


Test: 42
Hash algorithm: 7
Symmetric key bit length: 256
IV bit length:            128
Plaintext bit length:     136
Symmetric key:            0000000000000000000000000000000000000000002000000000000000000000
IV:                       00000000000000000000000000000000
Plaintext:                0000000000000000000000000000000000
Ciphertext:               fe995e0532b897921552c7cefebbab916b9388ee655d54935cc5150d645d4e03ee
Reciphers for ciphertext: 0
Decipheredtext:           0000000000000000000000000000000000
RESULT CIPHER-DECIPHER: -----OK-----


Test: 43
Hash algorithm: 2
Symmetric key bit length: 256
IV bit length:            128
Plaintext bit length:     136
Symmetric key:            0000000000000000000000000000000000000000001000000000000000000000
IV:                       00000000000000000000000000000000
Plaintext:                0000000000000000000000000000000000
Ciphertext:               354c096b0477ecb122c25c61f85e4125c23fc41873567eb01f26911c8be75566bc86dc608aba8db85fa109fb094c519a60
Reciphers for ciphertext: 0
Decipheredtext:           0000000000000000000000000000000000
RESULT CIPHER-DECIPHER: -----OK-----


Test: 44
Hash algorithm: 8
Symmetric key bit length: 256
IV bit length:            128
Plaintext bit length:     136
Symmetric key:            0000000000000000000000000000000000000000000800000000000000000000
IV:                       00000000000000000000000000000000
Plaintext:                0000000000000000000000000000000000
Ciphertext:               81b0c7e94e8426f4f227fa23ee5618c14a9dbf25caf5e84898ac81e40584798d7bef180f38
Reciphers for ciphertext: 0
Decipheredtext:           0000000000000000000000000000000000
RESULT CIPHER-DECIPHER: -----OK-----


Test: 45
Hash algorithm: 7
Symmetric key bit length: 256
IV bit length:            128
Plaintext bit length:     136
Symmetric key:            0000000000000000000000000000000000000000000400000000000000000000
IV:                       00000000000000000000000000000000
Plaintext:                0000000000000000000000000000000000
Ciphertext:               85c91b3e8e1dd2dac0cd310f69286f5eb5e8d8ab5ee1f1d614108afba5caddc721
Reciphers for ciphertext: 0
Decipheredtext:           0000000000000000000000000000000000
RESULT CIPHER-DECIPHER: -----OK-----


Test: 46
Hash algorithm: 11
Symmetric key bit length: 256
IV bit length:            128
Plaintext bit length:     136
Symmetric key:            0000000000000000000000000000000000000000000200000000000000000000
IV:                       00000000000000000000000000000000
Plaintext:                0000000000000000000000000000000000
Ciphertext:               db3c6cce550a8c72f67f59ab1b272d71114a21e547c7e9c262c410a0575999608f
Reciphers for ciphertext: 0
Decipheredtext:           0000000000000000000000000000000000
RESULT CIPHER-DECIPHER: -----OK-----


Test: 47
Hash algorithm: 11
Symmetric key bit length: 256
IV bit length:            128
Plaintext bit length:     136
Symmetric key:            0000000000000000000000000000000000000000000100000000000000000000
IV:                       00000000000000000000000000000000
Plaintext:                0000000000000000000000000000000000
Ciphertext:               4fae77cd8c5fbf1a7ab49785947c564a19deb3fe441ebcf10a48db6e79d6c21bb4
Reciphers for ciphertext: 0
Decipheredtext:           0000000000000000000000000000000000
RESULT CIPHER-DECIPHER: -----OK-----


Test: 48
Hash algorithm: 5
Symmetric key bit length: 256
IV bit length:            128
Plaintext bit length:     136
Symmetric key:            0000000000000000000000000000000000000000000080000000000000000000
IV:                       00000000000000000000000000000000
Plaintext:                0000000000000000000000000000000000
Ciphertext:               986d08049ce14579b756c250ad68d56e05f2f81453aa7d3d779edbb9ef17273535abe04edefe067cf5e00c408d
Reciphers for ciphertext: 0
Decipheredtext:           0000000000000000000000000000000000
RESULT CIPHER-DECIPHER: -----OK-----


Test: 49
Hash algorithm: 7
Symmetric key bit length: 256
IV bit length:            128
Plaintext bit length:     136
Symmetric key:            0000000000000000000000000000000000000000000040000000000000000000
IV:                       00000000000000000000000000000000
Plaintext:                0000000000000000000000000000000000
Ciphertext:               a9bb29db295e7364e65f687c418f39f2a8c4aa99bb46b277aa3618a2d6e27a918d
Reciphers for ciphertext: 0
Decipheredtext:           0000000000000000000000000000000000
RESULT CIPHER-DECIPHER: -----OK-----


Test: 50
Hash algorithm: 9
Symmetric key bit length: 256
IV bit length:            128
Plaintext bit length:     136
Symmetric key:            0000000000000000000000000000000000000000000020000000000000000000
IV:                       00000000000000000000000000000000
Plaintext:                0000000000000000000000000000000000
Ciphertext:               d425810268f0bec64400911d990bd2373c3edc83cc9b6606c0b646ddbc287db324924d60e88d2f0f1bc1a1582503dcba0a
Reciphers for ciphertext: 0
Decipheredtext:           0000000000000000000000000000000000
RESULT CIPHER-DECIPHER: -----OK-----


Test: 51
Hash algorithm: 11
Symmetric key bit length: 256
IV bit length:            128
Plaintext bit length:     136
Symmetric key:            0000000000000000000000000000000000000000000010000000000000000000
IV:                       00000000000000000000000000000000
Plaintext:                0000000000000000000000000000000000
Ciphertext:               621910144f7cd3432b0663ed1813723567f304999ddd9f9d5319699a115aad3fcb
Reciphers for ciphertext: 0
Decipheredtext:           0000000000000000000000000000000000
RESULT CIPHER-DECIPHER: -----OK-----


Test: 52
Hash algorithm: 9
Symmetric key bit length: 256
IV bit length:            128
Plaintext bit length:     136
Symmetric key:            0000000000000000000000000000000000000000000008000000000000000000
IV:                       00000000000000000000000000000000
Plaintext:                0000000000000000000000000000000000
Ciphertext:               a45cafd42aa19e21a7cc83d4a504a074c34ea5ad1ad9372627558acf751472c1676d40823128970b777980af1be425b332
Reciphers for ciphertext: 0
Decipheredtext:           0000000000000000000000000000000000
RESULT CIPHER-DECIPHER: -----OK-----


Test: 53
Hash algorithm: 8
Symmetric key bit length: 256
IV bit length:            128
Plaintext bit length:     136
Symmetric key:            0000000000000000000000000000000000000000000004000000000000000000
IV:                       00000000000000000000000000000000
Plaintext:                0000000000000000000000000000000000
Ciphertext:               6cb51ae713730353acd21906a8a8cebbc170baf8c4a81f6d3ff2740720c2875b01648f9051
Reciphers for ciphertext: 0
Decipheredtext:           0000000000000000000000000000000000
RESULT CIPHER-DECIPHER: -----OK-----


Test: 54
Hash algorithm: 8
Symmetric key bit length: 256
IV bit length:            128
Plaintext bit length:     136
Symmetric key:            0000000000000000000000000000000000000000000002000000000000000000
IV:                       00000000000000000000000000000000
Plaintext:                0000000000000000000000000000000000
Ciphertext:               b12b97ba267a9ccdd65cef0f4c436e64f1ad2475999d16f2a188faf129266cfbde5429c792
Reciphers for ciphertext: 0
Decipheredtext:           0000000000000000000000000000000000
RESULT CIPHER-DECIPHER: -----OK-----


Test: 55
Hash algorithm: 8
Symmetric key bit length: 256
IV bit length:            128
Plaintext bit length:     136
Symmetric key:            0000000000000000000000000000000000000000000001000000000000000000
IV:                       00000000000000000000000000000000
Plaintext:                0000000000000000000000000000000000
Ciphertext:               2711d87a5b1d5011e616975ef6d32a8ff43b1e3a59e0713e7db8b089789cfcbf35514e1158
Reciphers for ciphertext: 0
Decipheredtext:           0000000000000000000000000000000000
RESULT CIPHER-DECIPHER: -----OK-----


Test: 56
Hash algorithm: 4
Symmetric key bit length: 256
IV bit length:            128
Plaintext bit length:     136
Symmetric key:            0000000000000000000000000000000000000000000000800000000000000000
IV:                       00000000000000000000000000000000
Plaintext:                0000000000000000000000000000000000
Ciphertext:               2911f90a41b56f53e0cafffc3923c0bceb340c22ac3dd42c20a6c4320c2173a9089e61b70bdd550c7ea9271b99b611cafa4766748527a404c552e8634d537ab9174a4bc04819a4f9b7e43c46b2910e928b
Reciphers for ciphertext: 0
Decipheredtext:           0000000000000000000000000000000000
RESULT CIPHER-DECIPHER: -----OK-----


Test: 57
Hash algorithm: 0
Symmetric key bit length: 256
IV bit length:            128
Plaintext bit length:     136
Symmetric key:            0000000000000000000000000000000000000000000000400000000000000000
IV:                       00000000000000000000000000000000
Plaintext:                0000000000000000000000000000000000
Ciphertext:               beb86799fcc846a7121209dcb2026adddd539c86b1dc3abfa7bc2a32a076f0d9c19d407f1d
Reciphers for ciphertext: 0
Decipheredtext:           0000000000000000000000000000000000
RESULT CIPHER-DECIPHER: -----OK-----


Test: 58
Hash algorithm: 2
Symmetric key bit length: 256
IV bit length:            128
Plaintext bit length:     136
Symmetric key:            0000000000000000000000000000000000000000000000200000000000000000
IV:                       00000000000000000000000000000000
Plaintext:                0000000000000000000000000000000000
Ciphertext:               b9b5317d691bbef913c925e226fdb94bedb33d20653b12e257179a650839f69ed2a927d33361590eb1b768871901f297cf
Reciphers for ciphertext: 0
Decipheredtext:           0000000000000000000000000000000000
RESULT CIPHER-DECIPHER: -----OK-----


Test: 59
Hash algorithm: 3
Symmetric key bit length: 256
IV bit length:            128
Plaintext bit length:     136
Symmetric key:            0000000000000000000000000000000000000000000000100000000000000000
IV:                       00000000000000000000000000000000
Plaintext:                0000000000000000000000000000000000
Ciphertext:               cc333ef43909a98cd6a0da7043ac3b2a7c66078e34081a79c4ec7c58db443a22358600df7e78acece65762bacaff24609b08efd3be7a9d59c0d4c2c11d66e769a7
Reciphers for ciphertext: 0
Decipheredtext:           0000000000000000000000000000000000
RESULT CIPHER-DECIPHER: -----OK-----


Test: 60
Hash algorithm: 7
Symmetric key bit length: 256
IV bit length:            128
Plaintext bit length:     136
Symmetric key:            0000000000000000000000000000000000000000000000080000000000000000
IV:                       00000000000000000000000000000000
Plaintext:                0000000000000000000000000000000000
Ciphertext:               0291cc086e364c94fdb5250e07f176856f6f807c6801da485a2df2efa4a404defa
Reciphers for ciphertext: 0
Decipheredtext:           0000000000000000000000000000000000
RESULT CIPHER-DECIPHER: -----OK-----


Test: 61
Hash algorithm: 1
Symmetric key bit length: 256
IV bit length:            128
Plaintext bit length:     136
Symmetric key:            0000000000000000000000000000000000000000000000040000000000000000
IV:                       00000000000000000000000000000000
Plaintext:                0000000000000000000000000000000000
Ciphertext:               d98abd571faebeaece0d65d17ac320e665302416ce064511408b9193ba789bdfe4243afb1acc0af2ec5b69a161
Reciphers for ciphertext: 0
Decipheredtext:           0000000000000000000000000000000000
RESULT CIPHER-DECIPHER: -----OK-----


Test: 62
Hash algorithm: 6
Symmetric key bit length: 256
IV bit length:            128
Plaintext bit length:     136
Symmetric key:            0000000000000000000000000000000000000000000000020000000000000000
IV:                       00000000000000000000000000000000
Plaintext:                0000000000000000000000000000000000
Ciphertext:               dd6bb22de6b4caea4e56cb09d2ec617750d589486976baae4330e5f14988b6aa9ee83d93a2c5fa77f0d20f9ca787554172
Reciphers for ciphertext: 0
Decipheredtext:           0000000000000000000000000000000000
RESULT CIPHER-DECIPHER: -----OK-----


Test: 63
Hash algorithm: 7
Symmetric key bit length: 256
IV bit length:            128
Plaintext bit length:     136
Symmetric key:            0000000000000000000000000000000000000000000000010000000000000000
IV:                       00000000000000000000000000000000
Plaintext:                0000000000000000000000000000000000
Ciphertext:               b6bb4f3f2ae83fe4a07ba5f10c3fd26705dbaaff5f45043b2a703c6f5bafca7a18
Reciphers for ciphertext: 0
Decipheredtext:           0000000000000000000000000000000000
RESULT CIPHER-DECIPHER: -----OK-----


Test: 64
Hash algorithm: 3
Symmetric key bit length: 256
IV bit length:            128
Plaintext bit length:     136
Symmetric key:            0000000000000000000000000000000000000000000000008000000000000000
IV:                       00000000000000000000000000000000
Plaintext:                0000000000000000000000000000000000
Ciphertext:               8c590b173aa66854937f5e05e22c73d933266dbbd70bb5b81ca9a3dcaee5ba6ac6c94fc3244318c0a8eb4e12830ec6eb66e7c55f05d9a15882a38f057a07330203
Reciphers for ciphertext: 0
Decipheredtext:           0000000000000000000000000000000000
RESULT CIPHER-DECIPHER: -----OK-----


Test: 65
Hash algorithm: 11
Symmetric key bit length: 256
IV bit length:            128
Plaintext bit length:     136
Symmetric key:            0000000000000000000000000000000000000000000000004000000000000000
IV:                       00000000000000000000000000000000
Plaintext:                0000000000000000000000000000000000
Ciphertext:               bdb4f7428f37c024df2af13a6296f3e92e2ca97ecb1dd48e34ed4508c62028be17
Reciphers for ciphertext: 0
Decipheredtext:           0000000000000000000000000000000000
RESULT CIPHER-DECIPHER: -----OK-----


Test: 66
Hash algorithm: 9
Symmetric key bit length: 256
IV bit length:            128
Plaintext bit length:     136
Symmetric key:            0000000000000000000000000000000000000000000000002000000000000000
IV:                       00000000000000000000000000000000
Plaintext:                0000000000000000000000000000000000
Ciphertext:               51d5c74df6f71c146c835ae145aed598a1bb2cc5830561a4129ec51640f4d8b48b0f67d9c3ce4e800d0defd353324c5ef2
Reciphers for ciphertext: 0
Decipheredtext:           0000000000000000000000000000000000
RESULT CIPHER-DECIPHER: -----OK-----


Test: 67
Hash algorithm: 11
Symmetric key bit length: 256
IV bit length:            128
Plaintext bit length:     136
Symmetric key:            0000000000000000000000000000000000000000000000001000000000000000
IV:                       00000000000000000000000000000000
Plaintext:                0000000000000000000000000000000000
Ciphertext:               b8b86c7a65adb388d047bdd756edfbeee429a5e5f3f74efd98e228442b1453b610
Reciphers for ciphertext: 0
Decipheredtext:           0000000000000000000000000000000000
RESULT CIPHER-DECIPHER: -----OK-----


Test: 68
Hash algorithm: 8
Symmetric key bit length: 256
IV bit length:            128
Plaintext bit length:     136
Symmetric key:            0000000000000000000000000000000000000000000000000800000000000000
IV:                       00000000000000000000000000000000
Plaintext:                0000000000000000000000000000000000
Ciphertext:               084e0d8cfcfb7ad95019336fc94293a95d1441efaf479714b50ebf2d49a36d0613f8920392
Reciphers for ciphertext: 0
Decipheredtext:           0000000000000000000000000000000000
RESULT CIPHER-DECIPHER: -----OK-----


Test: 69
Hash algorithm: 10
Symmetric key bit length: 256
IV bit length:            128
Plaintext bit length:     136
Symmetric key:            0000000000000000000000000000000000000000000000000400000000000000
IV:                       00000000000000000000000000000000
Plaintext:                0000000000000000000000000000000000
Ciphertext:               516ea8aae87eee2b4f22a1c09852c325f0447d5c47969f068584d3e917f4f412d2737e0a2aa63d44877792619dc1778178e45c1ea6f12cad01
Reciphers for ciphertext: 0
Decipheredtext:           0000000000000000000000000000000000
RESULT CIPHER-DECIPHER: -----OK-----


Test: 70
Hash algorithm: 2
Symmetric key bit length: 256
IV bit length:            128
Plaintext bit length:     136
Symmetric key:            0000000000000000000000000000000000000000000000000200000000000000
IV:                       00000000000000000000000000000000
Plaintext:                0000000000000000000000000000000000
Ciphertext:               8030de81cd83227b63b2841fd72f6066148ab8cf999f8a7ed567e1c4f5c82447ff5041bf9734fac73ca5a71c3bafebb66c
Reciphers for ciphertext: 0
Decipheredtext:           0000000000000000000000000000000000
RESULT CIPHER-DECIPHER: -----OK-----


Test: 71
Hash algorithm: 0
Symmetric key bit length: 256
IV bit length:            128
Plaintext bit length:     136
Symmetric key:            0000000000000000000000000000000000000000000000000100000000000000
IV:                       00000000000000000000000000000000
Plaintext:                0000000000000000000000000000000000
Ciphertext:               c09fd5e5c061b14dfa78d90f67458ed4f72dbb34cde093484d5440e273a3b73dc8b789dd4a
Reciphers for ciphertext: 0
Decipheredtext:           0000000000000000000000000000000000
RESULT CIPHER-DECIPHER: -----OK-----


Test: 72
Hash algorithm: 10
Symmetric key bit length: 256
IV bit length:            128
Plaintext bit length:     136
Symmetric key:            0000000000000000000000000000000000000000000000000080000000000000
IV:                       00000000000000000000000000000000
Plaintext:                0000000000000000000000000000000000
Ciphertext:               4cc791c47060fb666a86f60b6289e0ecac59d465290e8113c8a177bedc0e2f311b2f672cd080367edc5d632007e8c9db5332745b108a1d31e4
Reciphers for ciphertext: 0
Decipheredtext:           0000000000000000000000000000000000
RESULT CIPHER-DECIPHER: -----OK-----


Test: 73
Hash algorithm: 13
Symmetric key bit length: 256
IV bit length:            128
Plaintext bit length:     136
Symmetric key:            0000000000000000000000000000000000000000000000000040000000000000
IV:                       00000000000000000000000000000000
Plaintext:                0000000000000000000000000000000000
Ciphertext:               fec1a2f79535ffa094ecd4720030cd36880d091f412ceab82fb69626bc61f86897
Reciphers for ciphertext: 0
Decipheredtext:           0000000000000000000000000000000000
RESULT CIPHER-DECIPHER: -----OK-----


Test: 74
Hash algorithm: 2
Symmetric key bit length: 256
IV bit length:            128
Plaintext bit length:     136
Symmetric key:            0000000000000000000000000000000000000000000000000020000000000000
IV:                       00000000000000000000000000000000
Plaintext:                0000000000000000000000000000000000
Ciphertext:               28d2784e2364f10096b516833dcb39f925225a6956716dadae92e6566922c01e60614f8531c1631774add58d04b65fb6a1
Reciphers for ciphertext: 0
Decipheredtext:           0000000000000000000000000000000000
RESULT CIPHER-DECIPHER: -----OK-----


Test: 75
Hash algorithm: 13
Symmetric key bit length: 256
IV bit length:            128
Plaintext bit length:     136
Symmetric key:            0000000000000000000000000000000000000000000000000010000000000000
IV:                       00000000000000000000000000000000
Plaintext:                0000000000000000000000000000000000
Ciphertext:               04d2f725d569186682e209608e25c6172af71a4a936cb65fe9a098fbaeefed63b6
Reciphers for ciphertext: 0
Decipheredtext:           0000000000000000000000000000000000
RESULT CIPHER-DECIPHER: -----OK-----


Test: 76
Hash algorithm: 12
Symmetric key bit length: 256
IV bit length:            128
Plaintext bit length:     136
Symmetric key:            0000000000000000000000000000000000000000000000000008000000000000
IV:                       00000000000000000000000000000000
Plaintext:                0000000000000000000000000000000000
Ciphertext:               087395ef3b31e6a948e5e2a35e2ca345b8c746b1147a8daaede090a59fccc639db
Reciphers for ciphertext: 0
Decipheredtext:           0000000000000000000000000000000000
RESULT CIPHER-DECIPHER: -----OK-----


Test: 77
Hash algorithm: 13
Symmetric key bit length: 256
IV bit length:            128
Plaintext bit length:     136
Symmetric key:            0000000000000000000000000000000000000000000000000004000000000000
IV:                       00000000000000000000000000000000
Plaintext:                0000000000000000000000000000000000
Ciphertext:               6351fd25f8a06beceb244026c65c10c2c190994093417f2c63c95eb2e8a794b563
Reciphers for ciphertext: 0
Decipheredtext:           0000000000000000000000000000000000
RESULT CIPHER-DECIPHER: -----OK-----


Test: 78
Hash algorithm: 12
Symmetric key bit length: 256
IV bit length:            128
Plaintext bit length:     136
Symmetric key:            0000000000000000000000000000000000000000000000000002000000000000
IV:                       00000000000000000000000000000000
Plaintext:                0000000000000000000000000000000000
Ciphertext:               3c61acc4a77da654cda7839816d2f38542f354883fe6c1ea1065d2c4a48438691b
Reciphers for ciphertext: 0
Decipheredtext:           0000000000000000000000000000000000
RESULT CIPHER-DECIPHER: -----OK-----


Test: 79
Hash algorithm: 0
Symmetric key bit length: 256
IV bit length:            128
Plaintext bit length:     136
Symmetric key:            0000000000000000000000000000000000000000000000000001000000000000
IV:                       00000000000000000000000000000000
Plaintext:                0000000000000000000000000000000000
Ciphertext:               c660a12d18c94d0f5c81a22ed9c7ffb56b2b444005383bb40ff2b999521d354ca92bb320aa
Reciphers for ciphertext: 0
Decipheredtext:           0000000000000000000000000000000000
RESULT CIPHER-DECIPHER: -----OK-----


Test: 80
Hash algorithm: 5
Symmetric key bit length: 256
IV bit length:            128
Plaintext bit length:     136
Symmetric key:            0000000000000000000000000000000000000000000000000000800000000000
IV:                       00000000000000000000000000000000
Plaintext:                0000000000000000000000000000000000
Ciphertext:               1f01ebc6151c8f3ea70c423f4e2c64c9f47594f7912380f7308e813980f46384925a9e8f167a9d7b40bf1f6afe
Reciphers for ciphertext: 0
Decipheredtext:           0000000000000000000000000000000000
RESULT CIPHER-DECIPHER: -----OK-----


Test: 81
Hash algorithm: 3
Symmetric key bit length: 256
IV bit length:            128
Plaintext bit length:     136
Symmetric key:            0000000000000000000000000000000000000000000000000000400000000000
IV:                       00000000000000000000000000000000
Plaintext:                0000000000000000000000000000000000
Ciphertext:               5e1231b72071ce574dfbbe66f5eed01b66f426817711621e1f77273ccdf278c9049cdf6b4c82b38a4663f906d7dfdf8da938c2ba29eae152ab8dfca46bda4043e7
Reciphers for ciphertext: 0
Decipheredtext:           0000000000000000000000000000000000
RESULT CIPHER-DECIPHER: -----OK-----


Test: 82
Hash algorithm: 7
Symmetric key bit length: 256
IV bit length:            128
Plaintext bit length:     136
Symmetric key:            0000000000000000000000000000000000000000000000000000200000000000
IV:                       00000000000000000000000000000000
Plaintext:                0000000000000000000000000000000000
Ciphertext:               da025263d62d201cad37b53dae0507cb0bb713e203b9c124d27d707f970df0afb4
Reciphers for ciphertext: 0
Decipheredtext:           0000000000000000000000000000000000
RESULT CIPHER-DECIPHER: -----OK-----


Test: 83
Hash algorithm: 3
Symmetric key bit length: 256
IV bit length:            128
Plaintext bit length:     136
Symmetric key:            0000000000000000000000000000000000000000000000000000100000000000
IV:                       00000000000000000000000000000000
Plaintext:                0000000000000000000000000000000000
Ciphertext:               1600c5e3a94b0b44a8be99c5da558fd85fbc3475239858db0c92621b6eddc396c7a597ba283bcc791abb13fa4ce0e6a4685b7e106ee8e6f0bf0b48bce71a0322d8
Reciphers for ciphertext: 0
Decipheredtext:           0000000000000000000000000000000000
RESULT CIPHER-DECIPHER: -----OK-----


Test: 84
Hash algorithm: 1
Symmetric key bit length: 256
IV bit length:            128
Plaintext bit length:     136
Symmetric key:            0000000000000000000000000000000000000000000000000000080000000000
IV:                       00000000000000000000000000000000
Plaintext:                0000000000000000000000000000000000
Ciphertext:               dfef4c129ba77381194046afc87e22ffa03641e78b824cdc6f5cdcb0c4ca26ddfde15c1903856182d9e8244e33
Reciphers for ciphertext: 0
Decipheredtext:           0000000000000000000000000000000000
RESULT CIPHER-DECIPHER: -----OK-----


Test: 85
Hash algorithm: 0
Symmetric key bit length: 256
IV bit length:            128
Plaintext bit length:     136
Symmetric key:            0000000000000000000000000000000000000000000000000000040000000000
IV:                       00000000000000000000000000000000
Plaintext:                0000000000000000000000000000000000
Ciphertext:               5a39e491cca9abe1f1436008f4a455ccaab71d05b9ec5b52e15f7b5b743056e6d0eaf4503f
Reciphers for ciphertext: 0
Decipheredtext:           0000000000000000000000000000000000
RESULT CIPHER-DECIPHER: -----OK-----


Test: 86
Hash algorithm: 12
Symmetric key bit length: 256
IV bit length:            128
Plaintext bit length:     136
Symmetric key:            0000000000000000000000000000000000000000000000000000020000000000
IV:                       00000000000000000000000000000000
Plaintext:                0000000000000000000000000000000000
Ciphertext:               57a5d924b055186029a2656898ad2b8d0a9890fddff1e9542481d722540a47b113
Reciphers for ciphertext: 0
Decipheredtext:           0000000000000000000000000000000000
RESULT CIPHER-DECIPHER: -----OK-----


Test: 87
Hash algorithm: 10
Symmetric key bit length: 256
IV bit length:            128
Plaintext bit length:     136
Symmetric key:            0000000000000000000000000000000000000000000000000000010000000000
IV:                       00000000000000000000000000000000
Plaintext:                0000000000000000000000000000000000
Ciphertext:               f7f0d88f13ee760300aced0f001b3e34eee2e32c626d0f9eadcb5da5d86cbdefc36d746d17bc1e131cb8b74187323339c269974ac75b6ca55d
Reciphers for ciphertext: 0
Decipheredtext:           0000000000000000000000000000000000
RESULT CIPHER-DECIPHER: -----OK-----


Test: 88
Hash algorithm: 9
Symmetric key bit length: 256
IV bit length:            128
Plaintext bit length:     136
Symmetric key:            0000000000000000000000000000000000000000000000000000008000000000
IV:                       00000000000000000000000000000000
Plaintext:                0000000000000000000000000000000000
Ciphertext:               924b4d0d4a88e669910cd9b890f25d766978b24fc3b91e5e6f634a951921843c65c749dbb7f36fd32453b89fb1f8b69c5f
Reciphers for ciphertext: 0
Decipheredtext:           0000000000000000000000000000000000
RESULT CIPHER-DECIPHER: -----OK-----


Test: 89
Hash algorithm: 13
Symmetric key bit length: 256
IV bit length:            128
Plaintext bit length:     136
Symmetric key:            0000000000000000000000000000000000000000000000000000004000000000
IV:                       00000000000000000000000000000000
Plaintext:                0000000000000000000000000000000000
Ciphertext:               8168c47238ef6f1994bfcef5b9baeef99872a079c481302896b6c53c3bd8724b58
Reciphers for ciphertext: 0
Decipheredtext:           0000000000000000000000000000000000
RESULT CIPHER-DECIPHER: -----OK-----


Test: 90
Hash algorithm: 7
Symmetric key bit length: 256
IV bit length:            128
Plaintext bit length:     136
Symmetric key:            0000000000000000000000000000000000000000000000000000002000000000
IV:                       00000000000000000000000000000000
Plaintext:                0000000000000000000000000000000000
Ciphertext:               b6a59008e7267eb5f5492e2283198b3178dbb4206888ca7a7b250ee48820ec234e
Reciphers for ciphertext: 0
Decipheredtext:           0000000000000000000000000000000000
RESULT CIPHER-DECIPHER: -----OK-----


Test: 91
Hash algorithm: 7
Symmetric key bit length: 256
IV bit length:            128
Plaintext bit length:     136
Symmetric key:            0000000000000000000000000000000000000000000000000000001000000000
IV:                       00000000000000000000000000000000
Plaintext:                0000000000000000000000000000000000
Ciphertext:               c706d911f2f7ac8372984c60980adfd850aa1769719d1ba84da2df86ca3bff77a7
Reciphers for ciphertext: 0
Decipheredtext:           0000000000000000000000000000000000
RESULT CIPHER-DECIPHER: -----OK-----


Test: 92
Hash algorithm: 8
Symmetric key bit length: 256
IV bit length:            128
Plaintext bit length:     136
Symmetric key:            0000000000000000000000000000000000000000000000000000000800000000
IV:                       00000000000000000000000000000000
Plaintext:                0000000000000000000000000000000000
Ciphertext:               0bde9a2a1364784d2d2da743f77c6992f817d17809a8081621738bb9659d53fc285d877c22
Reciphers for ciphertext: 0
Decipheredtext:           0000000000000000000000000000000000
RESULT CIPHER-DECIPHER: -----OK-----


Test: 93
Hash algorithm: 4
Symmetric key bit length: 256
IV bit length:            128
Plaintext bit length:     136
Symmetric key:            0000000000000000000000000000000000000000000000000000000400000000
IV:                       00000000000000000000000000000000
Plaintext:                0000000000000000000000000000000000
Ciphertext:               b3bd8ce8da0d939fb59caacd8b0c452c5daea0574ea66cd0ecf392673d935c2c9828f3f413f47058827395abb574fe0e691530e47af2ccc79d74347e6d4609c558574113124869bb91c3d236cd6625a243
Reciphers for ciphertext: 0
Decipheredtext:           0000000000000000000000000000000000
RESULT CIPHER-DECIPHER: -----OK-----


Test: 94
Hash algorithm: 2
Symmetric key bit length: 256
IV bit length:            128
Plaintext bit length:     136
Symmetric key:            0000000000000000000000000000000000000000000000000000000200000000
IV:                       00000000000000000000000000000000
Plaintext:                0000000000000000000000000000000000
Ciphertext:               4327b8cb4a6015ff9df50a4a5ca08442e449afa9d31869495199a64aa043aba3dba0abce9b5d646860a0d64b2e15dbdc4e
Reciphers for ciphertext: 0
Decipheredtext:           0000000000000000000000000000000000
RESULT CIPHER-DECIPHER: -----OK-----


Test: 95
Hash algorithm: 12
Symmetric key bit length: 256
IV bit length:            128
Plaintext bit length:     136
Symmetric key:            0000000000000000000000000000000000000000000000000000000100000000
IV:                       00000000000000000000000000000000
Plaintext:                0000000000000000000000000000000000
Ciphertext:               89f64377bf1e8a46c8247044e8056a98cf46c3678cfea2c602605137787aeff006
Reciphers for ciphertext: 0
Decipheredtext:           0000000000000000000000000000000000
RESULT CIPHER-DECIPHER: -----OK-----


Test: 96
Hash algorithm: 2
Symmetric key bit length: 256
IV bit length:            128
Plaintext bit length:     136
Symmetric key:            0000000000000000000000000000000000000000000000000000000080000000
IV:                       00000000000000000000000000000000
Plaintext:                0000000000000000000000000000000000
Ciphertext:               31028ff4ed7a98d2d4f72615445d7e4ac63b8a9eecbf73c47cd0a466ff5b5659d382583be6fbe6860fb20dcde3a5f6e047
Reciphers for ciphertext: 0
Decipheredtext:           0000000000000000000000000000000000
RESULT CIPHER-DECIPHER: -----OK-----


Test: 97
Hash algorithm: 12
Symmetric key bit length: 256
IV bit length:            128
Plaintext bit length:     136
Symmetric key:            0000000000000000000000000000000000000000000000000000000040000000
IV:                       00000000000000000000000000000000
Plaintext:                0000000000000000000000000000000000
Ciphertext:               f5e331d2036713649c8c15705a87d9f55a3ad6152942db5f2034f9524cc86d436b
Reciphers for ciphertext: 0
Decipheredtext:           0000000000000000000000000000000000
RESULT CIPHER-DECIPHER: -----OK-----


Test: 98
Hash algorithm: 1
Symmetric key bit length: 256
IV bit length:            128
Plaintext bit length:     136
Symmetric key:            0000000000000000000000000000000000000000000000000000000020000000
IV:                       00000000000000000000000000000000
Plaintext:                0000000000000000000000000000000000
Ciphertext:               d1dca9bb950823af5a4be2fbc52ec83bdd387202228ce38c411fd71490c77637399cc886798a4b2b3a8f7a3b88
Reciphers for ciphertext: 0
Decipheredtext:           0000000000000000000000000000000000
RESULT CIPHER-DECIPHER: -----OK-----


Test: 99
Hash algorithm: 2
Symmetric key bit length: 256
IV bit length:            128
Plaintext bit length:     136
Symmetric key:            0000000000000000000000000000000000000000000000000000000010000000
IV:                       00000000000000000000000000000000
Plaintext:                0000000000000000000000000000000000
Ciphertext:               0951a1ddbf1f268d786c7233af62f0ef0703d9b0c5ed167a237c3f32d9b069d77643918dde9741471d9c9cab94337a23c7
Reciphers for ciphertext: 0
Decipheredtext:           0000000000000000000000000000000000
RESULT CIPHER-DECIPHER: -----OK-----


Test: 100
Hash algorithm: 6
Symmetric key bit length: 256
IV bit length:            128
Plaintext bit length:     136
Symmetric key:            0000000000000000000000000000000000000000000000000000000008000000
IV:                       00000000000000000000000000000000
Plaintext:                0000000000000000000000000000000000
Ciphertext:               aa23686541d98309973f3d68e242a3e29fa2c19221d1d7e7a0e98c0728b818680b2777710d75cb8054a26780735eebcb7b
Reciphers for ciphertext: 0
Decipheredtext:           0000000000000000000000000000000000
RESULT CIPHER-DECIPHER: -----OK-----


Test: 101
Hash algorithm: 2
Symmetric key bit length: 256
IV bit length:            128
Plaintext bit length:     136
Symmetric key:            0000000000000000000000000000000000000000000000000000000004000000
IV:                       00000000000000000000000000000000
Plaintext:                0000000000000000000000000000000000
Ciphertext:               ad69fca1d17ae46f423a945fa36660e115a7e1edb98373b8c14669d4b5bc6d47785157c7ef04bcc1f2572235b6b6506ec1
Reciphers for ciphertext: 0
Decipheredtext:           0000000000000000000000000000000000
RESULT CIPHER-DECIPHER: -----OK-----


Test: 102
Hash algorithm: 10
Symmetric key bit length: 256
IV bit length:            128
Plaintext bit length:     136
Symmetric key:            0000000000000000000000000000000000000000000000000000000002000000
IV:                       00000000000000000000000000000000
Plaintext:                0000000000000000000000000000000000
Ciphertext:               98272fdd4978e941b4f68f571b899fd8ff8d34db30379901ef7f07c780772f4e2f7cb8999d852435e9d44b36077e84c66720db4ca680d1107b
Reciphers for ciphertext: 0
Decipheredtext:           0000000000000000000000000000000000
RESULT CIPHER-DECIPHER: -----OK-----


Test: 103
Hash algorithm: 7
Symmetric key bit length: 256
IV bit length:            128
Plaintext bit length:     136
Symmetric key:            0000000000000000000000000000000000000000000000000000000001000000
IV:                       00000000000000000000000000000000
Plaintext:                0000000000000000000000000000000000
Ciphertext:               121952d98be02632491241b44304804a7a7f08e2b9e40c22fc99558b1ee0f12835
Reciphers for ciphertext: 0
Decipheredtext:           0000000000000000000000000000000000
RESULT CIPHER-DECIPHER: -----OK-----


Test: 104
Hash algorithm: 4
Symmetric key bit length: 256
IV bit length:            128
Plaintext bit length:     136
Symmetric key:            0000000000000000000000000000000000000000000000000000000000800000
IV:                       00000000000000000000000000000000
Plaintext:                0000000000000000000000000000000000
Ciphertext:               b16dea3eb57e5967a8b218f08842502bafac703198c91f1a14eebcd5009012399fdad193c1474b269ec839f0d7969f431d8e2af59598804dc52dd77e1afe83dde94055ac812494e03b123514ab3b9d5c3d
Reciphers for ciphertext: 0
Decipheredtext:           0000000000000000000000000000000000
RESULT CIPHER-DECIPHER: -----OK-----


Test: 105
Hash algorithm: 8
Symmetric key bit length: 256
IV bit length:            128
Plaintext bit length:     136
Symmetric key:            0000000000000000000000000000000000000000000000000000000000400000
IV:                       00000000000000000000000000000000
Plaintext:                0000000000000000000000000000000000
Ciphertext:               5d9bd9d06cdf97480ba073a57480fab3d041943bf3d7b3f92455066d831eaf6f097505936a
Reciphers for ciphertext: 0
Decipheredtext:           0000000000000000000000000000000000
RESULT CIPHER-DECIPHER: -----OK-----


Test: 106
Hash algorithm: 5
Symmetric key bit length: 256
IV bit length:            128
Plaintext bit length:     136
Symmetric key:            0000000000000000000000000000000000000000000000000000000000200000
IV:                       00000000000000000000000000000000
Plaintext:                0000000000000000000000000000000000
Ciphertext:               c9a296f7f58e208252dffec1d46fb538dea3378aa0c312588c7b52857e6e2055637070f46d9e5b011e13995bcf
Reciphers for ciphertext: 0
Decipheredtext:           0000000000000000000000000000000000
RESULT CIPHER-DECIPHER: -----OK-----


Test: 107
Hash algorithm: 8
Symmetric key bit length: 256
IV bit length:            128
Plaintext bit length:     136
Symmetric key:            0000000000000000000000000000000000000000000000000000000000100000
IV:                       00000000000000000000000000000000
Plaintext:                0000000000000000000000000000000000
Ciphertext:               d831b2b44cd0782c94a9533c4221e4bf8fc43e5097f7bc1640ca0f4d1a280e71052a2171b4
Reciphers for ciphertext: 0
Decipheredtext:           0000000000000000000000000000000000
RESULT CIPHER-DECIPHER: -----OK-----


Test: 108
Hash algorithm: 1
Symmetric key bit length: 256
IV bit length:            128
Plaintext bit length:     136
Symmetric key:            0000000000000000000000000000000000000000000000000000000000080000
IV:                       00000000000000000000000000000000
Plaintext:                0000000000000000000000000000000000
Ciphertext:               b93146526d778bae13e579c4962110ef40509fedcb749c244056798faf9479efed014c78cd1a5fc4957baf7bff
Reciphers for ciphertext: 0
Decipheredtext:           0000000000000000000000000000000000
RESULT CIPHER-DECIPHER: -----OK-----


Test: 109
Hash algorithm: 7
Symmetric key bit length: 256
IV bit length:            128
Plaintext bit length:     136
Symmetric key:            0000000000000000000000000000000000000000000000000000000000040000
IV:                       00000000000000000000000000000000
Plaintext:                0000000000000000000000000000000000
Ciphertext:               2e483ad91c6aba09440d32dff6f838ac9343598ab97386bec7944af875550d90d3
Reciphers for ciphertext: 0
Decipheredtext:           0000000000000000000000000000000000
RESULT CIPHER-DECIPHER: -----OK-----


Test: 110
Hash algorithm: 12
Symmetric key bit length: 256
IV bit length:            128
Plaintext bit length:     136
Symmetric key:            0000000000000000000000000000000000000000000000000000000000020000
IV:                       00000000000000000000000000000000
Plaintext:                0000000000000000000000000000000000
Ciphertext:               f650a662bee544675d15eeb6d16c5dfb0339658299ff590823f560a98a4386c765
Reciphers for ciphertext: 0
Decipheredtext:           0000000000000000000000000000000000
RESULT CIPHER-DECIPHER: -----OK-----


Test: 111
Hash algorithm: 5
Symmetric key bit length: 256
IV bit length:            128
Plaintext bit length:     136
Symmetric key:            0000000000000000000000000000000000000000000000000000000000010000
IV:                       00000000000000000000000000000000
Plaintext:                0000000000000000000000000000000000
Ciphertext:               4a0d75387c3fabe4e4b8d059e526a6230f2098696f4aa3d3eacd35abe65f694678a1258460462325a2de20abf9
Reciphers for ciphertext: 0
Decipheredtext:           0000000000000000000000000000000000
RESULT CIPHER-DECIPHER: -----OK-----


Test: 112
Hash algorithm: 7
Symmetric key bit length: 256
IV bit length:            128
Plaintext bit length:     136
Symmetric key:            0000000000000000000000000000000000000000000000000000000000008000
IV:                       00000000000000000000000000000000
Plaintext:                0000000000000000000000000000000000
Ciphertext:               eaac3bade1e4886d2376b945ae19ca2c9587bd8bcd8e088ca3f33173ef0dec6253
Reciphers for ciphertext: 0
Decipheredtext:           0000000000000000000000000000000000
RESULT CIPHER-DECIPHER: -----OK-----


Test: 113
Hash algorithm: 1
Symmetric key bit length: 256
IV bit length:            128
Plaintext bit length:     136
Symmetric key:            0000000000000000000000000000000000000000000000000000000000004000
IV:                       00000000000000000000000000000000
Plaintext:                0000000000000000000000000000000000
Ciphertext:               86392882c55672c087a978a66a162d054d6f97831bdcbddd2ec2358ecd684ed2070c19c0f4b93044aebd1caf52
Reciphers for ciphertext: 0
Decipheredtext:           0000000000000000000000000000000000
RESULT CIPHER-DECIPHER: -----OK-----


Test: 114
Hash algorithm: 1
Symmetric key bit length: 256
IV bit length:            128
Plaintext bit length:     136
Symmetric key:            0000000000000000000000000000000000000000000000000000000000002000
IV:                       00000000000000000000000000000000
Plaintext:                0000000000000000000000000000000000
Ciphertext:               1ba2f2b6ee41fa58119bc0c6dd7909d3cff20c592ff7aa55b6540736addf21f6d18e06e669d78c9863814821b3
Reciphers for ciphertext: 0
Decipheredtext:           0000000000000000000000000000000000
RESULT CIPHER-DECIPHER: -----OK-----


Test: 115
Hash algorithm: 7
Symmetric key bit length: 256
IV bit length:            128
Plaintext bit length:     136
Symmetric key:            0000000000000000000000000000000000000000000000000000000000001000
IV:                       00000000000000000000000000000000
Plaintext:                0000000000000000000000000000000000
Ciphertext:               68d5648946c464cbcfaf9b2abb0567c30405c4d4e9292860051fe8518018f0cfbc
Reciphers for ciphertext: 0
Decipheredtext:           0000000000000000000000000000000000
RESULT CIPHER-DECIPHER: -----OK-----


Test: 116
Hash algorithm: 7
Symmetric key bit length: 256
IV bit length:            128
Plaintext bit length:     136
Symmetric key:            0000000000000000000000000000000000000000000000000000000000000800
IV:                       00000000000000000000000000000000
Plaintext:                0000000000000000000000000000000000
Ciphertext:               a909bc4a2061b560596840e16054909791c4180c2a4f8db1ae892f8a4bc3a138e8
Reciphers for ciphertext: 0
Decipheredtext:           0000000000000000000000000000000000
RESULT CIPHER-DECIPHER: -----OK-----


Test: 117
Hash algorithm: 11
Symmetric key bit length: 256
IV bit length:            128
Plaintext bit length:     136
Symmetric key:            0000000000000000000000000000000000000000000000000000000000000400
IV:                       00000000000000000000000000000000
Plaintext:                0000000000000000000000000000000000
Ciphertext:               231665465c569176adaa126a76b893b895b20beccfceb5df669fc5eb963406de46
Reciphers for ciphertext: 0
Decipheredtext:           0000000000000000000000000000000000
RESULT CIPHER-DECIPHER: -----OK-----


Test: 118
Hash algorithm: 4
Symmetric key bit length: 256
IV bit length:            128
Plaintext bit length:     136
Symmetric key:            0000000000000000000000000000000000000000000000000000000000000200
IV:                       00000000000000000000000000000000
Plaintext:                0000000000000000000000000000000000
Ciphertext:               a9814e3b420304fb5df34a79d4db7879aab49c959d3e6247881bfd8789cc8b11cddf54eaaefb2373aca24071ab78dfb1df50be00fbac7594a9eb765651da0ce66fb02bde56657cd97f64178dcea7c296fd
Reciphers for ciphertext: 0
Decipheredtext:           0000000000000000000000000000000000
RESULT CIPHER-DECIPHER: -----OK-----


Test: 119
Hash algorithm: 6
Symmetric key bit length: 256
IV bit length:            128
Plaintext bit length:     136
Symmetric key:            0000000000000000000000000000000000000000000000000000000000000100
IV:                       00000000000000000000000000000000
Plaintext:                0000000000000000000000000000000000
Ciphertext:               6d9fb653caedbf0091aa5a143707994feb657d4c175ae3dba9ef1960546d5d52a6532b0a5bb99a259a6aea7a2f4a48f833
Reciphers for ciphertext: 0
Decipheredtext:           0000000000000000000000000000000000
RESULT CIPHER-DECIPHER: -----OK-----


Test: 120
Hash algorithm: 2
Symmetric key bit length: 256
IV bit length:            128
Plaintext bit length:     136
Symmetric key:            0000000000000000000000000000000000000000000000000000000000000080
IV:                       00000000000000000000000000000000
Plaintext:                0000000000000000000000000000000000
Ciphertext:               c0165682bd8ee32b0e3c468812aa23a284ca9e479aef87bf850a6f06620da1043bc01460af2945fffd1bf380e9b2c1c992
Reciphers for ciphertext: 0
Decipheredtext:           0000000000000000000000000000000000
RESULT CIPHER-DECIPHER: -----OK-----


Test: 121
Hash algorithm: 1
Symmetric key bit length: 256
IV bit length:            128
Plaintext bit length:     136
Symmetric key:            0000000000000000000000000000000000000000000000000000000000000040
IV:                       00000000000000000000000000000000
Plaintext:                0000000000000000000000000000000000
Ciphertext:               5991506d96f9f27ddf74015705d4e1ea6fb03ffbf48f125d939ae8f73c078c1ee82e8fa25befd788ed64398b74
Reciphers for ciphertext: 0
Decipheredtext:           0000000000000000000000000000000000
RESULT CIPHER-DECIPHER: -----OK-----


Test: 122
Hash algorithm: 3
Symmetric key bit length: 256
IV bit length:            128
Plaintext bit length:     136
Symmetric key:            0000000000000000000000000000000000000000000000000000000000000020
IV:                       00000000000000000000000000000000
Plaintext:                0000000000000000000000000000000000
Ciphertext:               99443cb4450fa3c81d921e478476f3659233708c74741c7380274e9cec83e0ea7a688118dfd98b6af3f0bed4ddcc0e7047710e0e04f4fccdb90dd94618053cf30a
Reciphers for ciphertext: 0
Decipheredtext:           0000000000000000000000000000000000
RESULT CIPHER-DECIPHER: -----OK-----


Test: 123
Hash algorithm: 5
Symmetric key bit length: 256
IV bit length:            128
Plaintext bit length:     136
Symmetric key:            0000000000000000000000000000000000000000000000000000000000000010
IV:                       00000000000000000000000000000000
Plaintext:                0000000000000000000000000000000000
Ciphertext:               a9e429527f98ef1c9cb832bcd036e00ec4c371350549049712b53549036a7900556ac8550bfe44973149de3234
Reciphers for ciphertext: 0
Decipheredtext:           0000000000000000000000000000000000
RESULT CIPHER-DECIPHER: -----OK-----


Test: 124
Hash algorithm: 10
Symmetric key bit length: 256
IV bit length:            128
Plaintext bit length:     136
Symmetric key:            0000000000000000000000000000000000000000000000000000000000000008
IV:                       00000000000000000000000000000000
Plaintext:                0000000000000000000000000000000000
Ciphertext:               b64108116184044c19fe1a32d1bf52357aa352fcfc1f65ece2d20f52e5bd1983c2f9c52f661c659e2f35a8f0c434009c6d84be62a43025c21d
Reciphers for ciphertext: 1
Decipheredtext:           0000000000000000000000000000000000
RESULT CIPHER-DECIPHER: -----OK-----


Test: 125
Hash algorithm: 3
Symmetric key bit length: 256
IV bit length:            128
Plaintext bit length:     136
Symmetric key:            0000000000000000000000000000000000000000000000000000000000000004
IV:                       00000000000000000000000000000000
Plaintext:                0000000000000000000000000000000000
Ciphertext:               8dcb599c6eecc7e896d73c71bf1423ad1b27ffe95c5fff17a0ac0bbedab8823ab2e13c20e39ad39ed5b66e1a5185f7afc7859833ed8c2de77c8491fa991a5811b2
Reciphers for ciphertext: 0
Decipheredtext:           0000000000000000000000000000000000
RESULT CIPHER-DECIPHER: -----OK-----


Test: 126
Hash algorithm: 7
Symmetric key bit length: 256
IV bit length:            128
Plaintext bit length:     136
Symmetric key:            0000000000000000000000000000000000000000000000000000000000000002
IV:                       00000000000000000000000000000000
Plaintext:                0000000000000000000000000000000000
Ciphertext:               f0fc3a5418ec55a5bbac2f2d4a94d833b09ded8a347700516b6bebe587e961704c
Reciphers for ciphertext: 0
Decipheredtext:           0000000000000000000000000000000000
RESULT CIPHER-DECIPHER: -----OK-----


Test: 127
Hash algorithm: 2
Symmetric key bit length: 256
IV bit length:            128
Plaintext bit length:     136
Symmetric key:            0000000000000000000000000000000000000000000000000000000000000001
IV:                       00000000000000000000000000000000
Plaintext:                0000000000000000000000000000000000
Ciphertext:               2fc5e1a6366cfad169343760445d88e031254df0be6465a67f6d67778a5b56af79752281158fb0a0f7879b2fce441d95a4
Reciphers for ciphertext: 0
Decipheredtext:           0000000000000000000000000000000000
RESULT CIPHER-DECIPHER: -----OK-----


 DATA SHA1 (hexadecimal): 25411b0421f232d4b80ef20162e8cdfd1c403712

