
DiceLock 9.0.0.1

 TEST COMPONENTS:
 ----------------
 DiceLock:           DiceLockIVDigested class
 Operation Mode:     OFB_Mode class
 Block Cipher:       Serpent192 class
 Hash algorithms:     0 - Sha1 class
                      1 - Sha224 class
                      2 - Sha256 class
                      3 - Sha384 class
                      4 - Sha512 class
                      5 - Sha512_224 class
                      6 - Sha512_256 class
                      7 - Ripemd128 class
                      8 - Ripemd160 class
                      9 - Ripemd256 class
                     10 - Ripemd320 class
                     11 - MD2 class
                     12 - MD4 class
                     13 - MD5 class
 Key Modifier:       DecreaseKeyModifier_6_0_0_1 class
 Random tests:       RandomTestSuite class
                     FrequencyTest class
                     BlockFrequencyTest class
                     CumulativeSumForwardTest class
                     LongestRunOfOnesTest class
                     RunsTest class
 Random alpha:       0.001

 VECTOR TEST: Test vector 8 - Plaintext lengths from 1 byte to 16 bytes with byte value 0xYY and symmetric key and IV all byte value 0x00


##### INDIVIDUAL TESTS #####

Number tests: 128


Test: 0
Hash algorithm: 9
Symmetric key bit length: 192
IV bit length:            128
Plaintext bit length:     8
Symmetric key:            000000000000000000000000000000000000000000000000
IV:                       00000000000000000000000000000000
Plaintext:                00
Ciphertext:               425f8ea45179b8cea658dd5dccc12437884158074a6efef25a19bcba87de9d6273
Reciphers for ciphertext: 0
Decipheredtext:           00
RESULT CIPHER-DECIPHER: -----OK-----


Test: 1
Hash algorithm: 11
Symmetric key bit length: 192
IV bit length:            128
Plaintext bit length:     8
Symmetric key:            000000000000000000000000000000000000000000000000
IV:                       00000000000000000000000000000000
Plaintext:                01
Ciphertext:               4323520d7d8bfa9571bee8189a0ce170ac
Reciphers for ciphertext: 0
Decipheredtext:           01
RESULT CIPHER-DECIPHER: -----OK-----


Test: 2
Hash algorithm: 10
Symmetric key bit length: 192
IV bit length:            128
Plaintext bit length:     8
Symmetric key:            000000000000000000000000000000000000000000000000
IV:                       00000000000000000000000000000000
Plaintext:                02
Ciphertext:               40a550bb465326e435df29b2afd5df4c41e308d1246a585a5e87c7644b4fcdb87398b0931148e6c1b6
Reciphers for ciphertext: 0
Decipheredtext:           02
RESULT CIPHER-DECIPHER: -----OK-----


Test: 3
Hash algorithm: 8
Symmetric key bit length: 192
IV bit length:            128
Plaintext bit length:     8
Symmetric key:            000000000000000000000000000000000000000000000000
IV:                       00000000000000000000000000000000
Plaintext:                03
Ciphertext:               41f0abc6f2f3c49f98d57c133870eca8d0f1d27e26
Reciphers for ciphertext: 0
Decipheredtext:           03
RESULT CIPHER-DECIPHER: -----OK-----


Test: 4
Hash algorithm: 1
Symmetric key bit length: 192
IV bit length:            128
Plaintext bit length:     8
Symmetric key:            000000000000000000000000000000000000000000000000
IV:                       00000000000000000000000000000000
Plaintext:                04
Ciphertext:               46092ccd4bcbb5d8d7a88e16f0803f489cf5681b2d4cb2d6b9acee6533
Reciphers for ciphertext: 0
Decipheredtext:           04
RESULT CIPHER-DECIPHER: -----OK-----


Test: 5
Hash algorithm: 12
Symmetric key bit length: 192
IV bit length:            128
Plaintext bit length:     8
Symmetric key:            000000000000000000000000000000000000000000000000
IV:                       00000000000000000000000000000000
Plaintext:                05
Ciphertext:               47ba8ecc66d442c06aad3c357732d6161f
Reciphers for ciphertext: 0
Decipheredtext:           05
RESULT CIPHER-DECIPHER: -----OK-----


Test: 6
Hash algorithm: 0
Symmetric key bit length: 192
IV bit length:            128
Plaintext bit length:     8
Symmetric key:            000000000000000000000000000000000000000000000000
IV:                       00000000000000000000000000000000
Plaintext:                06
Ciphertext:               446f055fc8f3c05c59870bd703ecbca8e945020be6
Reciphers for ciphertext: 0
Decipheredtext:           06
RESULT CIPHER-DECIPHER: -----OK-----


Test: 7
Hash algorithm: 12
Symmetric key bit length: 192
IV bit length:            128
Plaintext bit length:     8
Symmetric key:            000000000000000000000000000000000000000000000000
IV:                       00000000000000000000000000000000
Plaintext:                07
Ciphertext:               45eada8733968510e96ea9956ff4b8cecd
Reciphers for ciphertext: 0
Decipheredtext:           07
RESULT CIPHER-DECIPHER: -----OK-----


Test: 8
Hash algorithm: 5
Symmetric key bit length: 192
IV bit length:            128
Plaintext bit length:     16
Symmetric key:            000000000000000000000000000000000000000000000000
IV:                       00000000000000000000000000000000
Plaintext:                0808
Ciphertext:               4a0c090ab33468d1a3f18daea4d134b61875825a3f2bd090f4cc2b3be918
Reciphers for ciphertext: 0
Decipheredtext:           0808
RESULT CIPHER-DECIPHER: -----OK-----


Test: 9
Hash algorithm: 12
Symmetric key bit length: 192
IV bit length:            128
Plaintext bit length:     16
Symmetric key:            000000000000000000000000000000000000000000000000
IV:                       00000000000000000000000000000000
Plaintext:                0909
Ciphertext:               4b0d092db442d3f8ed2e5c5209085e9dcbea
Reciphers for ciphertext: 0
Decipheredtext:           0909
RESULT CIPHER-DECIPHER: -----OK-----


Test: 10
Hash algorithm: 6
Symmetric key bit length: 192
IV bit length:            128
Plaintext bit length:     16
Symmetric key:            000000000000000000000000000000000000000000000000
IV:                       00000000000000000000000000000000
Plaintext:                0a0a
Ciphertext:               480e24f97d4a4d3f0d09830083a693fcad094782744785117d5acc1dd2bdc540f94f
Reciphers for ciphertext: 0
Decipheredtext:           0a0a
RESULT CIPHER-DECIPHER: -----OK-----


Test: 11
Hash algorithm: 6
Symmetric key bit length: 192
IV bit length:            128
Plaintext bit length:     16
Symmetric key:            000000000000000000000000000000000000000000000000
IV:                       00000000000000000000000000000000
Plaintext:                0b0b
Ciphertext:               490f7262a600ed86b71753503d26bc6b5e51f16e927e2b7fbd0910df9d3ef9c74d4d
Reciphers for ciphertext: 0
Decipheredtext:           0b0b
RESULT CIPHER-DECIPHER: -----OK-----


Test: 12
Hash algorithm: 4
Symmetric key bit length: 192
IV bit length:            128
Plaintext bit length:     16
Symmetric key:            000000000000000000000000000000000000000000000000
IV:                       00000000000000000000000000000000
Plaintext:                0c0c
Ciphertext:               4e081dad4c1ebd5300e7256b0a8b35b5ab7ef1f037452f19d2eff17a4bfe6045ed46422cfad347d76b019835013e51943095c803093a04ec3e81297491b2bd8ac27c
Reciphers for ciphertext: 0
Decipheredtext:           0c0c
RESULT CIPHER-DECIPHER: -----OK-----


Test: 13
Hash algorithm: 2
Symmetric key bit length: 192
IV bit length:            128
Plaintext bit length:     16
Symmetric key:            000000000000000000000000000000000000000000000000
IV:                       00000000000000000000000000000000
Plaintext:                0d0d
Ciphertext:               4f0928d189ef81e74ee592197ccc4d7e8b601f13b3070661e5e238904def3087be5e
Reciphers for ciphertext: 0
Decipheredtext:           0d0d
RESULT CIPHER-DECIPHER: -----OK-----


Test: 14
Hash algorithm: 3
Symmetric key bit length: 192
IV bit length:            128
Plaintext bit length:     16
Symmetric key:            000000000000000000000000000000000000000000000000
IV:                       00000000000000000000000000000000
Plaintext:                0e0e
Ciphertext:               4c0a2a8a1f919180f84515420d26c249c890e673bac22ded66d0734081a68639c632158e64e609fafc9e7e04131c2e9933af
Reciphers for ciphertext: 0
Decipheredtext:           0e0e
RESULT CIPHER-DECIPHER: -----OK-----


Test: 15
Hash algorithm: 5
Symmetric key bit length: 192
IV bit length:            128
Plaintext bit length:     16
Symmetric key:            000000000000000000000000000000000000000000000000
IV:                       00000000000000000000000000000000
Plaintext:                0f0f
Ciphertext:               4d0b92c02a05549b4a81c7372a09fb9ca7516ffd2ecfbccb6ee743950692
Reciphers for ciphertext: 0
Decipheredtext:           0f0f
RESULT CIPHER-DECIPHER: -----OK-----


Test: 16
Hash algorithm: 11
Symmetric key bit length: 192
IV bit length:            128
Plaintext bit length:     24
Symmetric key:            000000000000000000000000000000000000000000000000
IV:                       00000000000000000000000000000000
Plaintext:                101010
Ciphertext:               52147bfabcf314dfe1e26e0aa9a02eb6bb4b10
Reciphers for ciphertext: 0
Decipheredtext:           101010
RESULT CIPHER-DECIPHER: -----OK-----


Test: 17
Hash algorithm: 5
Symmetric key bit length: 192
IV bit length:            128
Plaintext bit length:     24
Symmetric key:            000000000000000000000000000000000000000000000000
IV:                       00000000000000000000000000000000
Plaintext:                111111
Ciphertext:               53157a0d967e074188017491b395b98d96ba7e539c4672d8301639e8cad0dc
Reciphers for ciphertext: 0
Decipheredtext:           111111
RESULT CIPHER-DECIPHER: -----OK-----


Test: 18
Hash algorithm: 11
Symmetric key bit length: 192
IV bit length:            128
Plaintext bit length:     24
Symmetric key:            000000000000000000000000000000000000000000000000
IV:                       00000000000000000000000000000000
Plaintext:                121212
Ciphertext:               50167903348f0d9ddae96e92aae3d91f098099
Reciphers for ciphertext: 0
Decipheredtext:           121212
RESULT CIPHER-DECIPHER: -----OK-----


Test: 19
Hash algorithm: 12
Symmetric key bit length: 192
IV bit length:            128
Plaintext bit length:     24
Symmetric key:            000000000000000000000000000000000000000000000000
IV:                       00000000000000000000000000000000
Plaintext:                131313
Ciphertext:               511778e6b2132d13a14736b169dab1708ad3c5
Reciphers for ciphertext: 0
Decipheredtext:           131313
RESULT CIPHER-DECIPHER: -----OK-----


Test: 20
Hash algorithm: 6
Symmetric key bit length: 192
IV bit length:            128
Plaintext bit length:     24
Symmetric key:            000000000000000000000000000000000000000000000000
IV:                       00000000000000000000000000000000
Plaintext:                141414
Ciphertext:               56107f5757bff3f7dd0468a84e0fa051dbeb10ff4f2591dbdf76953cb05816186300f0
Reciphers for ciphertext: 0
Decipheredtext:           141414
RESULT CIPHER-DECIPHER: -----OK-----


Test: 21
Hash algorithm: 3
Symmetric key bit length: 192
IV bit length:            128
Plaintext bit length:     24
Symmetric key:            000000000000000000000000000000000000000000000000
IV:                       00000000000000000000000000000000
Plaintext:                151515
Ciphertext:               57117e5b9000c25b384fde6b7ca75f622b27e7095eb7635d21b468b36e56b5159219cac736ef2b30438f28717240bc41045e61
Reciphers for ciphertext: 0
Decipheredtext:           151515
RESULT CIPHER-DECIPHER: -----OK-----


Test: 22
Hash algorithm: 10
Symmetric key bit length: 192
IV bit length:            128
Plaintext bit length:     24
Symmetric key:            000000000000000000000000000000000000000000000000
IV:                       00000000000000000000000000000000
Plaintext:                161616
Ciphertext:               54127df8cad0f24e0380221c143c27e2bf312ebde659f7d1c49f9e318d4b83ccb789319973c13fd59885fd
Reciphers for ciphertext: 0
Decipheredtext:           161616
RESULT CIPHER-DECIPHER: -----OK-----


Test: 23
Hash algorithm: 9
Symmetric key bit length: 192
IV bit length:            128
Plaintext bit length:     24
Symmetric key:            000000000000000000000000000000000000000000000000
IV:                       00000000000000000000000000000000
Plaintext:                171717
Ciphertext:               55137c80881df7aef02f892250cd8ee1361664e6bc91bba246488e733f846433e32540
Reciphers for ciphertext: 0
Decipheredtext:           171717
RESULT CIPHER-DECIPHER: -----OK-----


Test: 24
Hash algorithm: 11
Symmetric key bit length: 192
IV bit length:            128
Plaintext bit length:     32
Symmetric key:            000000000000000000000000000000000000000000000000
IV:                       00000000000000000000000000000000
Plaintext:                18181818
Ciphertext:               5a1c733d0e96d58e4538d0e2c3918f3025a00054
Reciphers for ciphertext: 0
Decipheredtext:           18181818
RESULT CIPHER-DECIPHER: -----OK-----


Test: 25
Hash algorithm: 13
Symmetric key bit length: 192
IV bit length:            128
Plaintext bit length:     32
Symmetric key:            000000000000000000000000000000000000000000000000
IV:                       00000000000000000000000000000000
Plaintext:                19191919
Ciphertext:               5b1d723ca232c0b9b238f827ca6554c63e8d6966
Reciphers for ciphertext: 0
Decipheredtext:           19191919
RESULT CIPHER-DECIPHER: -----OK-----


Test: 26
Hash algorithm: 13
Symmetric key bit length: 192
IV bit length:            128
Plaintext bit length:     32
Symmetric key:            000000000000000000000000000000000000000000000000
IV:                       00000000000000000000000000000000
Plaintext:                1a1a1a1a
Ciphertext:               581e713f31ecd0159f563cf60de807358a82cdb9
Reciphers for ciphertext: 0
Decipheredtext:           1a1a1a1a
RESULT CIPHER-DECIPHER: -----OK-----


Test: 27
Hash algorithm: 13
Symmetric key bit length: 192
IV bit length:            128
Plaintext bit length:     32
Symmetric key:            000000000000000000000000000000000000000000000000
IV:                       00000000000000000000000000000000
Plaintext:                1b1b1b1b
Ciphertext:               591f703e7f9f6fdb787ce60d3c2d304d62d8afa6
Reciphers for ciphertext: 0
Decipheredtext:           1b1b1b1b
RESULT CIPHER-DECIPHER: -----OK-----


Test: 28
Hash algorithm: 3
Symmetric key bit length: 192
IV bit length:            128
Plaintext bit length:     32
Symmetric key:            000000000000000000000000000000000000000000000000
IV:                       00000000000000000000000000000000
Plaintext:                1c1c1c1c
Ciphertext:               5e187739a62cbce2fd06ce50f217acebf1da684f44fa4595d0a34bec7449f07e03c2b614e36a405cf71bda25b2d0a6ea13f6584b
Reciphers for ciphertext: 0
Decipheredtext:           1c1c1c1c
RESULT CIPHER-DECIPHER: -----OK-----


Test: 29
Hash algorithm: 11
Symmetric key bit length: 192
IV bit length:            128
Plaintext bit length:     32
Symmetric key:            000000000000000000000000000000000000000000000000
IV:                       00000000000000000000000000000000
Plaintext:                1d1d1d1d
Ciphertext:               5f197638c9a13934d39900abc4e85570daf9ec54
Reciphers for ciphertext: 0
Decipheredtext:           1d1d1d1d
RESULT CIPHER-DECIPHER: -----OK-----


Test: 30
Hash algorithm: 5
Symmetric key bit length: 192
IV bit length:            128
Plaintext bit length:     32
Symmetric key:            000000000000000000000000000000000000000000000000
IV:                       00000000000000000000000000000000
Plaintext:                1e1e1e1e
Ciphertext:               5c1a753bac9a0de89ba67166a84f9cf92eb2406bfe78897acf44c18c675bf0fc
Reciphers for ciphertext: 0
Decipheredtext:           1e1e1e1e
RESULT CIPHER-DECIPHER: -----OK-----


Test: 31
Hash algorithm: 4
Symmetric key bit length: 192
IV bit length:            128
Plaintext bit length:     32
Symmetric key:            000000000000000000000000000000000000000000000000
IV:                       00000000000000000000000000000000
Plaintext:                1f1f1f1f
Ciphertext:               5d1b743a68aea188cbfb182ad2ee70e46714f9e3c67a181e2230ed7076de27c65f7dad0c2ee404a2c0f925c067b9fea4182bae8733c90ac2a3a05af7a2414fb8ee33f559
Reciphers for ciphertext: 0
Decipheredtext:           1f1f1f1f
RESULT CIPHER-DECIPHER: -----OK-----


Test: 32
Hash algorithm: 1
Symmetric key bit length: 192
IV bit length:            128
Plaintext bit length:     40
Symmetric key:            000000000000000000000000000000000000000000000000
IV:                       00000000000000000000000000000000
Plaintext:                2020202020
Ciphertext:               62244b05e8d34b90ed7c66eee3ce5c987b749324a6f65ba44485cb70d30b911f85
Reciphers for ciphertext: 0
Decipheredtext:           2020202020
RESULT CIPHER-DECIPHER: -----OK-----


Test: 33
Hash algorithm: 0
Symmetric key bit length: 192
IV bit length:            128
Plaintext bit length:     40
Symmetric key:            000000000000000000000000000000000000000000000000
IV:                       00000000000000000000000000000000
Plaintext:                2121212121
Ciphertext:               63254a04e95023a00d24c3ecff6b5685aa42aabdb5bf589337
Reciphers for ciphertext: 0
Decipheredtext:           2121212121
RESULT CIPHER-DECIPHER: -----OK-----


Test: 34
Hash algorithm: 10
Symmetric key bit length: 192
IV bit length:            128
Plaintext bit length:     40
Symmetric key:            000000000000000000000000000000000000000000000000
IV:                       00000000000000000000000000000000
Plaintext:                2222222222
Ciphertext:               60264907ea59db7fd3f6572321839d7df9c142f201e9b90f967855f80e61fac7e942a4d002151b44e6d2cb48e2
Reciphers for ciphertext: 0
Decipheredtext:           2222222222
RESULT CIPHER-DECIPHER: -----OK-----


Test: 35
Hash algorithm: 8
Symmetric key bit length: 192
IV bit length:            128
Plaintext bit length:     40
Symmetric key:            000000000000000000000000000000000000000000000000
IV:                       00000000000000000000000000000000
Plaintext:                2323232323
Ciphertext:               61274806eb3afb57bb4d0813d322ecc4651af3e14be059e2c0
Reciphers for ciphertext: 0
Decipheredtext:           2323232323
RESULT CIPHER-DECIPHER: -----OK-----


Test: 36
Hash algorithm: 13
Symmetric key bit length: 192
IV bit length:            128
Plaintext bit length:     40
Symmetric key:            000000000000000000000000000000000000000000000000
IV:                       00000000000000000000000000000000
Plaintext:                2424242424
Ciphertext:               66204f01ecb23ec66f99a99db37bc46fe1bded54e3
Reciphers for ciphertext: 0
Decipheredtext:           2424242424
RESULT CIPHER-DECIPHER: -----OK-----


Test: 37
Hash algorithm: 11
Symmetric key bit length: 192
IV bit length:            128
Plaintext bit length:     40
Symmetric key:            000000000000000000000000000000000000000000000000
IV:                       00000000000000000000000000000000
Plaintext:                2525252525
Ciphertext:               67214e00ed707724847ef52cbf8868dd93f5a9f594
Reciphers for ciphertext: 0
Decipheredtext:           2525252525
RESULT CIPHER-DECIPHER: -----OK-----


Test: 38
Hash algorithm: 7
Symmetric key bit length: 192
IV bit length:            128
Plaintext bit length:     40
Symmetric key:            000000000000000000000000000000000000000000000000
IV:                       00000000000000000000000000000000
Plaintext:                2626262626
Ciphertext:               64224d03ee443a4c2c8144d929f779a4f632101427
Reciphers for ciphertext: 0
Decipheredtext:           2626262626
RESULT CIPHER-DECIPHER: -----OK-----


Test: 39
Hash algorithm: 10
Symmetric key bit length: 192
IV bit length:            128
Plaintext bit length:     40
Symmetric key:            000000000000000000000000000000000000000000000000
IV:                       00000000000000000000000000000000
Plaintext:                2727272727
Ciphertext:               65234c02efd46478ce6ce48acabe112631ea495cabdd9fc7f5df20f6497a3acbb81551a8a50258f0cfa40b5626
Reciphers for ciphertext: 0
Decipheredtext:           2727272727
RESULT CIPHER-DECIPHER: -----OK-----


Test: 40
Hash algorithm: 1
Symmetric key bit length: 192
IV bit length:            128
Plaintext bit length:     48
Symmetric key:            000000000000000000000000000000000000000000000000
IV:                       00000000000000000000000000000000
Plaintext:                282828282828
Ciphertext:               6a2c430de0757205e044ec8e4c0779e5871e188abc27646571de3732db716bef4391
Reciphers for ciphertext: 0
Decipheredtext:           282828282828
RESULT CIPHER-DECIPHER: -----OK-----


Test: 41
Hash algorithm: 4
Symmetric key bit length: 192
IV bit length:            128
Plaintext bit length:     48
Symmetric key:            000000000000000000000000000000000000000000000000
IV:                       00000000000000000000000000000000
Plaintext:                292929292929
Ciphertext:               6b2d420ce174522cea3ccf55e5a91647e2004fba5e633b31877ef33e766c2a4be1339a23e3d4c278515fe5ae1a5f8015088b7807421aa4cfe692a264377878d239e4fd0b333c
Reciphers for ciphertext: 0
Decipheredtext:           292929292929
RESULT CIPHER-DECIPHER: -----OK-----


Test: 42
Hash algorithm: 12
Symmetric key bit length: 192
IV bit length:            128
Plaintext bit length:     48
Symmetric key:            000000000000000000000000000000000000000000000000
IV:                       00000000000000000000000000000000
Plaintext:                2a2a2a2a2a2a
Ciphertext:               682e410fe277ef0854b54f23ca239d214cf2f82e6b98
Reciphers for ciphertext: 0
Decipheredtext:           2a2a2a2a2a2a
RESULT CIPHER-DECIPHER: -----OK-----


Test: 43
Hash algorithm: 10
Symmetric key bit length: 192
IV bit length:            128
Plaintext bit length:     48
Symmetric key:            000000000000000000000000000000000000000000000000
IV:                       00000000000000000000000000000000
Plaintext:                2b2b2b2b2b2b
Ciphertext:               692f400ee376f35fe5b029b7263beaa7e3f250593e9166fc73921b120821a88bf5bf512b8df9d57bf277a8bc1751
Reciphers for ciphertext: 0
Decipheredtext:           2b2b2b2b2b2b
RESULT CIPHER-DECIPHER: -----OK-----


Test: 44
Hash algorithm: 5
Symmetric key bit length: 192
IV bit length:            128
Plaintext bit length:     48
Symmetric key:            000000000000000000000000000000000000000000000000
IV:                       00000000000000000000000000000000
Plaintext:                2c2c2c2c2c2c
Ciphertext:               6e284709e4711d398a41509e1267624b616279f16a880cbb9e17fb393fcf80e3c376
Reciphers for ciphertext: 0
Decipheredtext:           2c2c2c2c2c2c
RESULT CIPHER-DECIPHER: -----OK-----


Test: 45
Hash algorithm: 8
Symmetric key bit length: 192
IV bit length:            128
Plaintext bit length:     48
Symmetric key:            000000000000000000000000000000000000000000000000
IV:                       00000000000000000000000000000000
Plaintext:                2d2d2d2d2d2d
Ciphertext:               6f294608e570c673ed562f72e4a03441f7301efd4ea15261c5b4
Reciphers for ciphertext: 0
Decipheredtext:           2d2d2d2d2d2d
RESULT CIPHER-DECIPHER: -----OK-----


Test: 46
Hash algorithm: 12
Symmetric key bit length: 192
IV bit length:            128
Plaintext bit length:     48
Symmetric key:            000000000000000000000000000000000000000000000000
IV:                       00000000000000000000000000000000
Plaintext:                2e2e2e2e2e2e
Ciphertext:               6c2a450be673643e43a6a1a9cbbd09e2f52e64bf0804
Reciphers for ciphertext: 0
Decipheredtext:           2e2e2e2e2e2e
RESULT CIPHER-DECIPHER: -----OK-----


Test: 47
Hash algorithm: 8
Symmetric key bit length: 192
IV bit length:            128
Plaintext bit length:     48
Symmetric key:            000000000000000000000000000000000000000000000000
IV:                       00000000000000000000000000000000
Plaintext:                2f2f2f2f2f2f
Ciphertext:               6d2b440ae7722fc29fa9754d5a35e9fd879fcc0f0e28d7143ce7
Reciphers for ciphertext: 0
Decipheredtext:           2f2f2f2f2f2f
RESULT CIPHER-DECIPHER: -----OK-----


Test: 48
Hash algorithm: 6
Symmetric key bit length: 192
IV bit length:            128
Plaintext bit length:     56
Symmetric key:            000000000000000000000000000000000000000000000000
IV:                       00000000000000000000000000000000
Plaintext:                30303030303030
Ciphertext:               72345b15f86d8d6a2e7cb6849202ebdd55a6fe4831bbd702d33da1e5e1939ed2d4e329f02a0259
Reciphers for ciphertext: 0
Decipheredtext:           30303030303030
RESULT CIPHER-DECIPHER: -----OK-----


Test: 49
Hash algorithm: 1
Symmetric key bit length: 192
IV bit length:            128
Plaintext bit length:     56
Symmetric key:            000000000000000000000000000000000000000000000000
IV:                       00000000000000000000000000000000
Plaintext:                31313131313131
Ciphertext:               73355a14f96c8cde3b9397823b0eded07e509e0cd8290c551b6246b15f164a7affe8b6
Reciphers for ciphertext: 0
Decipheredtext:           31313131313131
RESULT CIPHER-DECIPHER: -----OK-----


Test: 50
Hash algorithm: 13
Symmetric key bit length: 192
IV bit length:            128
Plaintext bit length:     56
Symmetric key:            000000000000000000000000000000000000000000000000
IV:                       00000000000000000000000000000000
Plaintext:                32323232323232
Ciphertext:               70365917fa6f8f3bdced24c9db560ba34a35be323f3f0b
Reciphers for ciphertext: 0
Decipheredtext:           32323232323232
RESULT CIPHER-DECIPHER: -----OK-----


Test: 51
Hash algorithm: 13
Symmetric key bit length: 192
IV bit length:            128
Plaintext bit length:     56
Symmetric key:            000000000000000000000000000000000000000000000000
IV:                       00000000000000000000000000000000
Plaintext:                33333333333333
Ciphertext:               71375816fb6e8e454bb9ab3752e7b5e05a402af69c1df0
Reciphers for ciphertext: 0
Decipheredtext:           33333333333333
RESULT CIPHER-DECIPHER: -----OK-----


Test: 52
Hash algorithm: 4
Symmetric key bit length: 192
IV bit length:            128
Plaintext bit length:     56
Symmetric key:            000000000000000000000000000000000000000000000000
IV:                       00000000000000000000000000000000
Plaintext:                34343434343434
Ciphertext:               76305f11fc6989c0559b9d5dcbcc93e8937a19db1df1eda7c1b3c3e35d8a1cf838db8b6eb856601d8ca5d7f42a3c3dd757bf1f57f74f6ed164ab21c3849c566f18d55eff373b7a
Reciphers for ciphertext: 0
Decipheredtext:           34343434343434
RESULT CIPHER-DECIPHER: -----OK-----


Test: 53
Hash algorithm: 8
Symmetric key bit length: 192
IV bit length:            128
Plaintext bit length:     56
Symmetric key:            000000000000000000000000000000000000000000000000
IV:                       00000000000000000000000000000000
Plaintext:                35353535353535
Ciphertext:               77315e10fd6888cede8ca156efc4d00f2bb94e1ef82a7610fcabfa
Reciphers for ciphertext: 0
Decipheredtext:           35353535353535
RESULT CIPHER-DECIPHER: -----OK-----


Test: 54
Hash algorithm: 12
Symmetric key bit length: 192
IV bit length:            128
Plaintext bit length:     56
Symmetric key:            000000000000000000000000000000000000000000000000
IV:                       00000000000000000000000000000000
Plaintext:                36363636363636
Ciphertext:               74325d13fe6b8b63ab9dada077736bc5d1ae0baaec7989
Reciphers for ciphertext: 0
Decipheredtext:           36363636363636
RESULT CIPHER-DECIPHER: -----OK-----


Test: 55
Hash algorithm: 6
Symmetric key bit length: 192
IV bit length:            128
Plaintext bit length:     56
Symmetric key:            000000000000000000000000000000000000000000000000
IV:                       00000000000000000000000000000000
Plaintext:                37373737373737
Ciphertext:               75335c12ff6a8a0356f6d3e0106eede8fead11018c21402a371d1ae00b30b599f78d13139faf10
Reciphers for ciphertext: 0
Decipheredtext:           37373737373737
RESULT CIPHER-DECIPHER: -----OK-----


Test: 56
Hash algorithm: 7
Symmetric key bit length: 192
IV bit length:            128
Plaintext bit length:     64
Symmetric key:            000000000000000000000000000000000000000000000000
IV:                       00000000000000000000000000000000
Plaintext:                3838383838383838
Ciphertext:               7a3c531df06585536429f725d760a592e22e88f3d3068764
Reciphers for ciphertext: 0
Decipheredtext:           3838383838383838
RESULT CIPHER-DECIPHER: -----OK-----


Test: 57
Hash algorithm: 3
Symmetric key bit length: 192
IV bit length:            128
Plaintext bit length:     64
Symmetric key:            000000000000000000000000000000000000000000000000
IV:                       00000000000000000000000000000000
Plaintext:                3939393939393939
Ciphertext:               7b3d521cf1648452259eb376f66bc25e55a746539e1a2c9f88bc3d29697c05fc284d83d1f133f6ed85e8a6b93a410c1a973d29500b2a3685
Reciphers for ciphertext: 0
Decipheredtext:           3939393939393939
RESULT CIPHER-DECIPHER: -----OK-----


Test: 58
Hash algorithm: 10
Symmetric key bit length: 192
IV bit length:            128
Plaintext bit length:     64
Symmetric key:            000000000000000000000000000000000000000000000000
IV:                       00000000000000000000000000000000
Plaintext:                3a3a3a3a3a3a3a3a
Ciphertext:               783e511ff2678751ea73e26c085b3af821286fe793193d30ff7a8199811d4298d8888d39c8d602448ad32d98fc7874ec
Reciphers for ciphertext: 0
Decipheredtext:           3a3a3a3a3a3a3a3a
RESULT CIPHER-DECIPHER: -----OK-----


Test: 59
Hash algorithm: 10
Symmetric key bit length: 192
IV bit length:            128
Plaintext bit length:     64
Symmetric key:            000000000000000000000000000000000000000000000000
IV:                       00000000000000000000000000000000
Plaintext:                3b3b3b3b3b3b3b3b
Ciphertext:               793f501ef36686500d4050a529f8703f1762556341436d1d90a72bf02f3c621b9e53676014378c1d955ad5f7a0cd9c39
Reciphers for ciphertext: 0
Decipheredtext:           3b3b3b3b3b3b3b3b
RESULT CIPHER-DECIPHER: -----OK-----


Test: 60
Hash algorithm: 8
Symmetric key bit length: 192
IV bit length:            128
Plaintext bit length:     64
Symmetric key:            000000000000000000000000000000000000000000000000
IV:                       00000000000000000000000000000000
Plaintext:                3c3c3c3c3c3c3c3c
Ciphertext:               7e385719f4618157bc41aad82c758d40af9a02b085c2bec992c89a5f
Reciphers for ciphertext: 0
Decipheredtext:           3c3c3c3c3c3c3c3c
RESULT CIPHER-DECIPHER: -----OK-----


Test: 61
Hash algorithm: 11
Symmetric key bit length: 192
IV bit length:            128
Plaintext bit length:     64
Symmetric key:            000000000000000000000000000000000000000000000000
IV:                       00000000000000000000000000000000
Plaintext:                3d3d3d3d3d3d3d3d
Ciphertext:               7f395618f560805633390d5502ad319d89c93a6863ce4bf2
Reciphers for ciphertext: 0
Decipheredtext:           3d3d3d3d3d3d3d3d
RESULT CIPHER-DECIPHER: -----OK-----


Test: 62
Hash algorithm: 8
Symmetric key bit length: 192
IV bit length:            128
Plaintext bit length:     64
Symmetric key:            000000000000000000000000000000000000000000000000
IV:                       00000000000000000000000000000000
Plaintext:                3e3e3e3e3e3e3e3e
Ciphertext:               7c3a551bf66383558d91b3b5978c40108a8e609d2df990b4ad9cc011
Reciphers for ciphertext: 0
Decipheredtext:           3e3e3e3e3e3e3e3e
RESULT CIPHER-DECIPHER: -----OK-----


Test: 63
Hash algorithm: 11
Symmetric key bit length: 192
IV bit length:            128
Plaintext bit length:     64
Symmetric key:            000000000000000000000000000000000000000000000000
IV:                       00000000000000000000000000000000
Plaintext:                3f3f3f3f3f3f3f3f
Ciphertext:               7d3b541af7628254139fabe6f6f98698fab8b81694265596
Reciphers for ciphertext: 0
Decipheredtext:           3f3f3f3f3f3f3f3f
RESULT CIPHER-DECIPHER: -----OK-----


Test: 64
Hash algorithm: 9
Symmetric key bit length: 192
IV bit length:            128
Plaintext bit length:     72
Symmetric key:            000000000000000000000000000000000000000000000000
IV:                       00000000000000000000000000000000
Plaintext:                404040404040404040
Ciphertext:               02442b65881dfd2b0001f0184dd473024d75a50fb563984eb6a27ca98bd0c2be1f5a28b063879e145e
Reciphers for ciphertext: 0
Decipheredtext:           404040404040404040
RESULT CIPHER-DECIPHER: -----OK-----


Test: 65
Hash algorithm: 11
Symmetric key bit length: 192
IV bit length:            128
Plaintext bit length:     72
Symmetric key:            000000000000000000000000000000000000000000000000
IV:                       00000000000000000000000000000000
Plaintext:                414141414141414141
Ciphertext:               03452a64891cfc2a01a1ee37e2f7df44e14ab27d8c2928ffa1
Reciphers for ciphertext: 0
Decipheredtext:           414141414141414141
RESULT CIPHER-DECIPHER: -----OK-----


Test: 66
Hash algorithm: 9
Symmetric key bit length: 192
IV bit length:            128
Plaintext bit length:     72
Symmetric key:            000000000000000000000000000000000000000000000000
IV:                       00000000000000000000000000000000
Plaintext:                424242424242424242
Ciphertext:               004629678a1fff2902df5824526b36bcf6a438a073869c48aa5878fdff1a9a55365683958f8af234b7
Reciphers for ciphertext: 0
Decipheredtext:           424242424242424242
RESULT CIPHER-DECIPHER: -----OK-----


Test: 67
Hash algorithm: 4
Symmetric key bit length: 192
IV bit length:            128
Plaintext bit length:     72
Symmetric key:            000000000000000000000000000000000000000000000000
IV:                       00000000000000000000000000000000
Plaintext:                434343434343434343
Ciphertext:               014728668b1efe2803b1e2b5c7f1b36413b6bd8623c689ab24c165c09fcae6652078c8c433db8f49b04550445c1d3d3154ae5e7501515d1b66868f9cd1eeddb03e35f0f323a38ea1e6
Reciphers for ciphertext: 0
Decipheredtext:           434343434343434343
RESULT CIPHER-DECIPHER: -----OK-----


Test: 68
Hash algorithm: 6
Symmetric key bit length: 192
IV bit length:            128
Plaintext bit length:     72
Symmetric key:            000000000000000000000000000000000000000000000000
IV:                       00000000000000000000000000000000
Plaintext:                444444444444444444
Ciphertext:               06402f618c19f92f04f6fe1d737265a39669cdecb090f6df5ee350b0bc354cfaff466c0b956bbe1258
Reciphers for ciphertext: 0
Decipheredtext:           444444444444444444
RESULT CIPHER-DECIPHER: -----OK-----


Test: 69
Hash algorithm: 8
Symmetric key bit length: 192
IV bit length:            128
Plaintext bit length:     72
Symmetric key:            000000000000000000000000000000000000000000000000
IV:                       00000000000000000000000000000000
Plaintext:                454545454545454545
Ciphertext:               07412e608d18f82e050b1f5fb2fe30cdeb5caed1d82e13e305477a058a
Reciphers for ciphertext: 0
Decipheredtext:           454545454545454545
RESULT CIPHER-DECIPHER: -----OK-----


Test: 70
Hash algorithm: 7
Symmetric key bit length: 192
IV bit length:            128
Plaintext bit length:     72
Symmetric key:            000000000000000000000000000000000000000000000000
IV:                       00000000000000000000000000000000
Plaintext:                464646464646464646
Ciphertext:               04422d638e1bfb2d06bcaec0a55251e38e3deef7b476ed1fda
Reciphers for ciphertext: 0
Decipheredtext:           464646464646464646
RESULT CIPHER-DECIPHER: -----OK-----


Test: 71
Hash algorithm: 13
Symmetric key bit length: 192
IV bit length:            128
Plaintext bit length:     72
Symmetric key:            000000000000000000000000000000000000000000000000
IV:                       00000000000000000000000000000000
Plaintext:                474747474747474747
Ciphertext:               05432c628f1afa2c07ff1e760d7a7f1919413a83301fbebb0c
Reciphers for ciphertext: 0
Decipheredtext:           474747474747474747
RESULT CIPHER-DECIPHER: -----OK-----


Test: 72
Hash algorithm: 3
Symmetric key bit length: 192
IV bit length:            128
Plaintext bit length:     80
Symmetric key:            000000000000000000000000000000000000000000000000
IV:                       00000000000000000000000000000000
Plaintext:                48484848484848484848
Ciphertext:               0a4c236d8015f52308633db9dd9db32d7bc4c795b36f51063b1cede87bdad9dc7bab1e2962b2fff9e3032c844022ae0503814ac898d698019a6a
Reciphers for ciphertext: 0
Decipheredtext:           48484848484848484848
RESULT CIPHER-DECIPHER: -----OK-----


Test: 73
Hash algorithm: 1
Symmetric key bit length: 192
IV bit length:            128
Plaintext bit length:     80
Symmetric key:            000000000000000000000000000000000000000000000000
IV:                       00000000000000000000000000000000
Plaintext:                49494949494949494949
Ciphertext:               0b4d226c8114f4220962e18628d42a7b12ba1ea8747eba709e1da86d99503f02324b55e0c845
Reciphers for ciphertext: 0
Decipheredtext:           49494949494949494949
RESULT CIPHER-DECIPHER: -----OK-----


Test: 74
Hash algorithm: 5
Symmetric key bit length: 192
IV bit length:            128
Plaintext bit length:     80
Symmetric key:            000000000000000000000000000000000000000000000000
IV:                       00000000000000000000000000000000
Plaintext:                4a4a4a4a4a4a4a4a4a4a
Ciphertext:               084e216f8217f7210a61b22adfdf07702570c578bfbe4ed0a29969c32751a83385c091269550
Reciphers for ciphertext: 0
Decipheredtext:           4a4a4a4a4a4a4a4a4a4a
RESULT CIPHER-DECIPHER: -----OK-----


Test: 75
Hash algorithm: 2
Symmetric key bit length: 192
IV bit length:            128
Plaintext bit length:     80
Symmetric key:            000000000000000000000000000000000000000000000000
IV:                       00000000000000000000000000000000
Plaintext:                4b4b4b4b4b4b4b4b4b4b
Ciphertext:               094f206e8316f6200b609fcb37b944e6e5c95a84b8c6082072f3714b84ed8771ccf5b89ecb0741eb5eb2
Reciphers for ciphertext: 0
Decipheredtext:           4b4b4b4b4b4b4b4b4b4b
RESULT CIPHER-DECIPHER: -----OK-----


Test: 76
Hash algorithm: 13
Symmetric key bit length: 192
IV bit length:            128
Plaintext bit length:     80
Symmetric key:            000000000000000000000000000000000000000000000000
IV:                       00000000000000000000000000000000
Plaintext:                4c4c4c4c4c4c4c4c4c4c
Ciphertext:               0e4827698411f1270c672f649f9e5b4a5637ca210cd59b2345e0
Reciphers for ciphertext: 0
Decipheredtext:           4c4c4c4c4c4c4c4c4c4c
RESULT CIPHER-DECIPHER: -----OK-----


Test: 77
Hash algorithm: 7
Symmetric key bit length: 192
IV bit length:            128
Plaintext bit length:     80
Symmetric key:            000000000000000000000000000000000000000000000000
IV:                       00000000000000000000000000000000
Plaintext:                4d4d4d4d4d4d4d4d4d4d
Ciphertext:               0f4926688510f0260d663c97477b30610af40026fd4e646dbdb1
Reciphers for ciphertext: 0
Decipheredtext:           4d4d4d4d4d4d4d4d4d4d
RESULT CIPHER-DECIPHER: -----OK-----


Test: 78
Hash algorithm: 1
Symmetric key bit length: 192
IV bit length:            128
Plaintext bit length:     80
Symmetric key:            000000000000000000000000000000000000000000000000
IV:                       00000000000000000000000000000000
Plaintext:                4e4e4e4e4e4e4e4e4e4e
Ciphertext:               0c4a256b8613f3250e650a34a8a484785b6d1eb0722b1516446b530bd16261038d36c1794339
Reciphers for ciphertext: 0
Decipheredtext:           4e4e4e4e4e4e4e4e4e4e
RESULT CIPHER-DECIPHER: -----OK-----


Test: 79
Hash algorithm: 12
Symmetric key bit length: 192
IV bit length:            128
Plaintext bit length:     80
Symmetric key:            000000000000000000000000000000000000000000000000
IV:                       00000000000000000000000000000000
Plaintext:                4f4f4f4f4f4f4f4f4f4f
Ciphertext:               0d4b246a8712f2240f647acfb3dd89f45101a673ad807581050d
Reciphers for ciphertext: 0
Decipheredtext:           4f4f4f4f4f4f4f4f4f4f
RESULT CIPHER-DECIPHER: -----OK-----


Test: 80
Hash algorithm: 2
Symmetric key bit length: 192
IV bit length:            128
Plaintext bit length:     88
Symmetric key:            000000000000000000000000000000000000000000000000
IV:                       00000000000000000000000000000000
Plaintext:                5050505050505050505050
Ciphertext:               12543b75980ded3b107b7952f4c1c64189f59ccb0dd3f554f567f1902ae3065fc6987756aaac2235c99331
Reciphers for ciphertext: 0
Decipheredtext:           5050505050505050505050
RESULT CIPHER-DECIPHER: -----OK-----


Test: 81
Hash algorithm: 10
Symmetric key bit length: 192
IV bit length:            128
Plaintext bit length:     88
Symmetric key:            000000000000000000000000000000000000000000000000
IV:                       00000000000000000000000000000000
Plaintext:                5151515151515151515151
Ciphertext:               13553a74990cec3a117a78d39b0d3d1782fcfda21b5b45ad3b6e0c59841f1786ec8aa6877f651d73ab53b74b9dd47d1356137f
Reciphers for ciphertext: 0
Decipheredtext:           5151515151515151515151
RESULT CIPHER-DECIPHER: -----OK-----


Test: 82
Hash algorithm: 9
Symmetric key bit length: 192
IV bit length:            128
Plaintext bit length:     88
Symmetric key:            000000000000000000000000000000000000000000000000
IV:                       00000000000000000000000000000000
Plaintext:                5252525252525252525252
Ciphertext:               105639779a0fef3912797bdf7865437779cbecce98536198e87cd3882daf8a5f2794b853998c2b4ffaa2a7
Reciphers for ciphertext: 0
Decipheredtext:           5252525252525252525252
RESULT CIPHER-DECIPHER: -----OK-----


Test: 83
Hash algorithm: 8
Symmetric key bit length: 192
IV bit length:            128
Plaintext bit length:     88
Symmetric key:            000000000000000000000000000000000000000000000000
IV:                       00000000000000000000000000000000
Plaintext:                5353535353535353535353
Ciphertext:               115738769b0eee3813787a4057b7432c4615e8b70aeb291e3b6c6d2cc04ece
Reciphers for ciphertext: 0
Decipheredtext:           5353535353535353535353
RESULT CIPHER-DECIPHER: -----OK-----


Test: 84
Hash algorithm: 0
Symmetric key bit length: 192
IV bit length:            128
Plaintext bit length:     88
Symmetric key:            000000000000000000000000000000000000000000000000
IV:                       00000000000000000000000000000000
Plaintext:                5454545454545454545454
Ciphertext:               16503f719c09e93f147f7d75fdeee1042f267bb32564c17b28555b87ef0d13
Reciphers for ciphertext: 0
Decipheredtext:           5454545454545454545454
RESULT CIPHER-DECIPHER: -----OK-----


Test: 85
Hash algorithm: 10
Symmetric key bit length: 192
IV bit length:            128
Plaintext bit length:     88
Symmetric key:            000000000000000000000000000000000000000000000000
IV:                       00000000000000000000000000000000
Plaintext:                5555555555555555555555
Ciphertext:               17513e709d08e83e157e7ce6a4c2591fd44c4842de8208e1f05f00f3aa24b3397d0f68f1b1ccdafa9b5e7355ebf792e432119b
Reciphers for ciphertext: 0
Decipheredtext:           5555555555555555555555
RESULT CIPHER-DECIPHER: -----OK-----


Test: 86
Hash algorithm: 5
Symmetric key bit length: 192
IV bit length:            128
Plaintext bit length:     88
Symmetric key:            000000000000000000000000000000000000000000000000
IV:                       00000000000000000000000000000000
Plaintext:                5656565656565656565656
Ciphertext:               14523d739e0beb3d167d7fbf110c4a2412ff031e7f85c932c0c93b154cc8b88326fc04588499ae
Reciphers for ciphertext: 0
Decipheredtext:           5656565656565656565656
RESULT CIPHER-DECIPHER: -----OK-----


Test: 87
Hash algorithm: 2
Symmetric key bit length: 192
IV bit length:            128
Plaintext bit length:     88
Symmetric key:            000000000000000000000000000000000000000000000000
IV:                       00000000000000000000000000000000
Plaintext:                5757575757575757575757
Ciphertext:               15533c729f0aea3c177c7e262106fcec6bf1118554a390973701ff29789a68960e060f1aa166f21a9ce395
Reciphers for ciphertext: 0
Decipheredtext:           5757575757575757575757
RESULT CIPHER-DECIPHER: -----OK-----


Test: 88
Hash algorithm: 9
Symmetric key bit length: 192
IV bit length:            128
Plaintext bit length:     96
Symmetric key:            000000000000000000000000000000000000000000000000
IV:                       00000000000000000000000000000000
Plaintext:                585858585858585858585858
Ciphertext:               1a5c337d9005e5331873713284d5eb4efcc0fc8eabcada986830fd279a8d6a910fff21c6018a488d1e2f3b07
Reciphers for ciphertext: 0
Decipheredtext:           585858585858585858585858
RESULT CIPHER-DECIPHER: -----OK-----


Test: 89
Hash algorithm: 10
Symmetric key bit length: 192
IV bit length:            128
Plaintext bit length:     96
Symmetric key:            000000000000000000000000000000000000000000000000
IV:                       00000000000000000000000000000000
Plaintext:                595959595959595959595959
Ciphertext:               1b5d327c9104e43219727033cd665473c93518a17bd9047e8c2765125cf8bf0ea0879b97fc8da00a94e941418265c827e61ac5a4
Reciphers for ciphertext: 0
Decipheredtext:           595959595959595959595959
RESULT CIPHER-DECIPHER: -----OK-----


Test: 90
Hash algorithm: 12
Symmetric key bit length: 192
IV bit length:            128
Plaintext bit length:     96
Symmetric key:            000000000000000000000000000000000000000000000000
IV:                       00000000000000000000000000000000
Plaintext:                5a5a5a5a5a5a5a5a5a5a5a5a
Ciphertext:               185e317f9207e7311a7173304a7cda77d2b1dbbab7e82bb9ba563dc6
Reciphers for ciphertext: 0
Decipheredtext:           5a5a5a5a5a5a5a5a5a5a5a5a
RESULT CIPHER-DECIPHER: -----OK-----


Test: 91
Hash algorithm: 10
Symmetric key bit length: 192
IV bit length:            128
Plaintext bit length:     96
Symmetric key:            000000000000000000000000000000000000000000000000
IV:                       00000000000000000000000000000000
Plaintext:                5b5b5b5b5b5b5b5b5b5b5b5b
Ciphertext:               195f307e9306e6301b70723121eae7d3420c8b5a611320c6d98feb5c7ad816aa68b89f83256fdce57fb462bcb264fd7f605c7c86
Reciphers for ciphertext: 0
Decipheredtext:           5b5b5b5b5b5b5b5b5b5b5b5b
RESULT CIPHER-DECIPHER: -----OK-----


Test: 92
Hash algorithm: 2
Symmetric key bit length: 192
IV bit length:            128
Plaintext bit length:     96
Symmetric key:            000000000000000000000000000000000000000000000000
IV:                       00000000000000000000000000000000
Plaintext:                5c5c5c5c5c5c5c5c5c5c5c5c
Ciphertext:               1e5837799401e1371c777536f2c2f9e869ede4734b655a363cb90b97a2d58eff9bf6a2f2d5227a6ed6ac3966
Reciphers for ciphertext: 0
Decipheredtext:           5c5c5c5c5c5c5c5c5c5c5c5c
RESULT CIPHER-DECIPHER: -----OK-----


Test: 93
Hash algorithm: 13
Symmetric key bit length: 192
IV bit length:            128
Plaintext bit length:     96
Symmetric key:            000000000000000000000000000000000000000000000000
IV:                       00000000000000000000000000000000
Plaintext:                5d5d5d5d5d5d5d5d5d5d5d5d
Ciphertext:               1f5936789500e0361d7674373c3359225edb4f474ff302da27c242d8
Reciphers for ciphertext: 0
Decipheredtext:           5d5d5d5d5d5d5d5d5d5d5d5d
RESULT CIPHER-DECIPHER: -----OK-----


Test: 94
Hash algorithm: 8
Symmetric key bit length: 192
IV bit length:            128
Plaintext bit length:     96
Symmetric key:            000000000000000000000000000000000000000000000000
IV:                       00000000000000000000000000000000
Plaintext:                5e5e5e5e5e5e5e5e5e5e5e5e
Ciphertext:               1c5a357b9603e3351e757734d17753497cb248eeac8ca890530e830b4104706e
Reciphers for ciphertext: 0
Decipheredtext:           5e5e5e5e5e5e5e5e5e5e5e5e
RESULT CIPHER-DECIPHER: -----OK-----


Test: 95
Hash algorithm: 7
Symmetric key bit length: 192
IV bit length:            128
Plaintext bit length:     96
Symmetric key:            000000000000000000000000000000000000000000000000
IV:                       00000000000000000000000000000000
Plaintext:                5f5f5f5f5f5f5f5f5f5f5f5f
Ciphertext:               1d5b347a9702e2341f7476356203326f44ef08335a7437269c36435b
Reciphers for ciphertext: 0
Decipheredtext:           5f5f5f5f5f5f5f5f5f5f5f5f
RESULT CIPHER-DECIPHER: -----OK-----


Test: 96
Hash algorithm: 2
Symmetric key bit length: 192
IV bit length:            128
Plaintext bit length:     104
Symmetric key:            000000000000000000000000000000000000000000000000
IV:                       00000000000000000000000000000000
Plaintext:                60606060606060606060606060
Ciphertext:               22640b45a83ddd0b204b490af75aaa5f9d48da91dcbd6ad7097bcceef9359bca137909bb37bb737b5b18977bf9
Reciphers for ciphertext: 0
Decipheredtext:           60606060606060606060606060
RESULT CIPHER-DECIPHER: -----OK-----


Test: 97
Hash algorithm: 11
Symmetric key bit length: 192
IV bit length:            128
Plaintext bit length:     104
Symmetric key:            000000000000000000000000000000000000000000000000
IV:                       00000000000000000000000000000000
Plaintext:                61616161616161616161616161
Ciphertext:               23650a44a93cdc0a214a480bf68e46d9dec1808efbcdedf441e2928490
Reciphers for ciphertext: 0
Decipheredtext:           61616161616161616161616161
RESULT CIPHER-DECIPHER: -----OK-----


Test: 98
Hash algorithm: 8
Symmetric key bit length: 192
IV bit length:            128
Plaintext bit length:     104
Symmetric key:            000000000000000000000000000000000000000000000000
IV:                       00000000000000000000000000000000
Plaintext:                62626262626262626262626262
Ciphertext:               20660947aa3fdf0922494b08f5653a3be36e230bcdc5b4e9b7b3f2d854d68e28d9
Reciphers for ciphertext: 0
Decipheredtext:           62626262626262626262626262
RESULT CIPHER-DECIPHER: -----OK-----


Test: 99
Hash algorithm: 10
Symmetric key bit length: 192
IV bit length:            128
Plaintext bit length:     104
Symmetric key:            000000000000000000000000000000000000000000000000
IV:                       00000000000000000000000000000000
Plaintext:                63636363636363636363636363
Ciphertext:               21670846ab3ede0823484a09f44aabc016fa86d366aec21692ca4136f64c8916a8c7e919660638b925af592a8c2dc389dc36dab81c
Reciphers for ciphertext: 0
Decipheredtext:           63636363636363636363636363
RESULT CIPHER-DECIPHER: -----OK-----


Test: 100
Hash algorithm: 12
Symmetric key bit length: 192
IV bit length:            128
Plaintext bit length:     104
Symmetric key:            000000000000000000000000000000000000000000000000
IV:                       00000000000000000000000000000000
Plaintext:                64646464646464646464646464
Ciphertext:               26600f41ac39d90f244f4d0ef35322f7f8981f8ccb2c9bc6f1a40440bb
Reciphers for ciphertext: 0
Decipheredtext:           64646464646464646464646464
RESULT CIPHER-DECIPHER: -----OK-----


Test: 101
Hash algorithm: 0
Symmetric key bit length: 192
IV bit length:            128
Plaintext bit length:     104
Symmetric key:            000000000000000000000000000000000000000000000000
IV:                       00000000000000000000000000000000
Plaintext:                65656565656565656565656565
Ciphertext:               27610e40ad38d80e254e4c0ff2792db2da56e3668d59d89d346aae92a4bb4701ae
Reciphers for ciphertext: 0
Decipheredtext:           65656565656565656565656565
RESULT CIPHER-DECIPHER: -----OK-----


Test: 102
Hash algorithm: 7
Symmetric key bit length: 192
IV bit length:            128
Plaintext bit length:     104
Symmetric key:            000000000000000000000000000000000000000000000000
IV:                       00000000000000000000000000000000
Plaintext:                66666666666666666666666666
Ciphertext:               24620d43ae3bdb0d264d4f0cf130229b3b3d8fd733c8b584d38b1689bb
Reciphers for ciphertext: 0
Decipheredtext:           66666666666666666666666666
RESULT CIPHER-DECIPHER: -----OK-----


Test: 103
Hash algorithm: 3
Symmetric key bit length: 192
IV bit length:            128
Plaintext bit length:     104
Symmetric key:            000000000000000000000000000000000000000000000000
IV:                       00000000000000000000000000000000
Plaintext:                67676767676767676767676767
Ciphertext:               25630c42af3ada0c274c4e0df0bdeeb842a5f073319bdaef99e83e462bff1b11ac21e455352385fc64e786864ec8896e0e8dfb3face35b10f80fe66561
Reciphers for ciphertext: 0
Decipheredtext:           67676767676767676767676767
RESULT CIPHER-DECIPHER: -----OK-----


Test: 104
Hash algorithm: 3
Symmetric key bit length: 192
IV bit length:            128
Plaintext bit length:     112
Symmetric key:            000000000000000000000000000000000000000000000000
IV:                       00000000000000000000000000000000
Plaintext:                6868686868686868686868686868
Ciphertext:               2a6c034da035d50328434102ff8740797a807fac953fee19c231f2799f4cd6f94004230173946314eb84963073803ec3e7ce2966fd31aec41e7e2a732c90
Reciphers for ciphertext: 0
Decipheredtext:           6868686868686868686868686868
RESULT CIPHER-DECIPHER: -----OK-----


Test: 105
Hash algorithm: 6
Symmetric key bit length: 192
IV bit length:            128
Plaintext bit length:     112
Symmetric key:            000000000000000000000000000000000000000000000000
IV:                       00000000000000000000000000000000
Plaintext:                6969696969696969696969696969
Ciphertext:               2b6d024ca134d40229424003fe86c84226a162c542b8752b077a6781480aefe0671bfe6db01da7e088893b0170bc
Reciphers for ciphertext: 0
Decipheredtext:           6969696969696969696969696969
RESULT CIPHER-DECIPHER: -----OK-----


Test: 106
Hash algorithm: 9
Symmetric key bit length: 192
IV bit length:            128
Plaintext bit length:     112
Symmetric key:            000000000000000000000000000000000000000000000000
IV:                       00000000000000000000000000000000
Plaintext:                6a6a6a6a6a6a6a6a6a6a6a6a6a6a
Ciphertext:               286e014fa237d7012a414300fd8578a0419e75d2b6e9a43a55a464c8810bf181fed4b4e1f5d70a69134de2b06f3f
Reciphers for ciphertext: 0
Decipheredtext:           6a6a6a6a6a6a6a6a6a6a6a6a6a6a
RESULT CIPHER-DECIPHER: -----OK-----


Test: 107
Hash algorithm: 6
Symmetric key bit length: 192
IV bit length:            128
Plaintext bit length:     112
Symmetric key:            000000000000000000000000000000000000000000000000
IV:                       00000000000000000000000000000000
Plaintext:                6b6b6b6b6b6b6b6b6b6b6b6b6b6b
Ciphertext:               296f004ea336d6002b404201fc84603145e469fc1945666d95779c15dcd61a565eb1699d9070edfc1c200538de90
Reciphers for ciphertext: 0
Decipheredtext:           6b6b6b6b6b6b6b6b6b6b6b6b6b6b
RESULT CIPHER-DECIPHER: -----OK-----


Test: 108
Hash algorithm: 1
Symmetric key bit length: 192
IV bit length:            128
Plaintext bit length:     112
Symmetric key:            000000000000000000000000000000000000000000000000
IV:                       00000000000000000000000000000000
Plaintext:                6c6c6c6c6c6c6c6c6c6c6c6c6c6c
Ciphertext:               2e680749a431d1072c474506fb83a2dc8b3873a7039bf934d56db3cb5c4158d84392ee32338d859c441b
Reciphers for ciphertext: 0
Decipheredtext:           6c6c6c6c6c6c6c6c6c6c6c6c6c6c
RESULT CIPHER-DECIPHER: -----OK-----


Test: 109
Hash algorithm: 8
Symmetric key bit length: 192
IV bit length:            128
Plaintext bit length:     112
Symmetric key:            000000000000000000000000000000000000000000000000
IV:                       00000000000000000000000000000000
Plaintext:                6d6d6d6d6d6d6d6d6d6d6d6d6d6d
Ciphertext:               2f690648a530d0062d464407fa82925eb22cfc3262a5dc741738d4cfc7d4fa315cb1
Reciphers for ciphertext: 0
Decipheredtext:           6d6d6d6d6d6d6d6d6d6d6d6d6d6d
RESULT CIPHER-DECIPHER: -----OK-----


Test: 110
Hash algorithm: 10
Symmetric key bit length: 192
IV bit length:            128
Plaintext bit length:     112
Symmetric key:            000000000000000000000000000000000000000000000000
IV:                       00000000000000000000000000000000
Plaintext:                6e6e6e6e6e6e6e6e6e6e6e6e6e6e
Ciphertext:               2c6a054ba633d3052e454704f981d994f1c1b58d69c8dbd4418a4016abe67ffc1e420c8429ad1be20865483d2f8f063db151ffbbb853
Reciphers for ciphertext: 0
Decipheredtext:           6e6e6e6e6e6e6e6e6e6e6e6e6e6e
RESULT CIPHER-DECIPHER: -----OK-----


Test: 111
Hash algorithm: 13
Symmetric key bit length: 192
IV bit length:            128
Plaintext bit length:     112
Symmetric key:            000000000000000000000000000000000000000000000000
IV:                       00000000000000000000000000000000
Plaintext:                6f6f6f6f6f6f6f6f6f6f6f6f6f6f
Ciphertext:               2d6b044aa732d2042f444605f880e1fdf01fadd559828c5d60f38dc27fc0
Reciphers for ciphertext: 0
Decipheredtext:           6f6f6f6f6f6f6f6f6f6f6f6f6f6f
RESULT CIPHER-DECIPHER: -----OK-----


Test: 112
Hash algorithm: 9
Symmetric key bit length: 192
IV bit length:            128
Plaintext bit length:     120
Symmetric key:            000000000000000000000000000000000000000000000000
IV:                       00000000000000000000000000000000
Plaintext:                707070707070707070707070707070
Ciphertext:               32741b55b82dcd1b305b591ae79ff3a1bdc5fc75c7ef2833fccfeeffa22386c73c08a54c7fd4e94c88ca74ac680ee3
Reciphers for ciphertext: 0
Decipheredtext:           707070707070707070707070707070
RESULT CIPHER-DECIPHER: -----OK-----


Test: 113
Hash algorithm: 7
Symmetric key bit length: 192
IV bit length:            128
Plaintext bit length:     120
Symmetric key:            000000000000000000000000000000000000000000000000
IV:                       00000000000000000000000000000000
Plaintext:                717171717171717171717171717171
Ciphertext:               33751a54b92ccc1a315a581be69ef20f4375ce2bc4eb459b157404477a872e
Reciphers for ciphertext: 0
Decipheredtext:           717171717171717171717171717171
RESULT CIPHER-DECIPHER: -----OK-----


Test: 114
Hash algorithm: 4
Symmetric key bit length: 192
IV bit length:            128
Plaintext bit length:     120
Symmetric key:            000000000000000000000000000000000000000000000000
IV:                       00000000000000000000000000000000
Plaintext:                727272727272727272727272727272
Ciphertext:               30761957ba2fcf1932595b18e59df159cb2ad5403ee9626c2a440fd11679979584c23dbed3dd891c9412bdfb597991c67470f9abe6730e5526653820d3f79fffb0d550b5c8372ae5cc43db86625ec2
Reciphers for ciphertext: 0
Decipheredtext:           727272727272727272727272727272
RESULT CIPHER-DECIPHER: -----OK-----


Test: 115
Hash algorithm: 4
Symmetric key bit length: 192
IV bit length:            128
Plaintext bit length:     120
Symmetric key:            000000000000000000000000000000000000000000000000
IV:                       00000000000000000000000000000000
Plaintext:                737373737373737373737373737373
Ciphertext:               31771856bb2ece1833585a19e49cf0454cff6c4ca105a9078cd6b8fc10381e2e922eefeb9decb6424d602667bf0795f4758abc7479f55ae30a61700cfc612e4eb7eaf5ec730dddfa005ee6bcee19c1
Reciphers for ciphertext: 0
Decipheredtext:           737373737373737373737373737373
RESULT CIPHER-DECIPHER: -----OK-----


Test: 116
Hash algorithm: 6
Symmetric key bit length: 192
IV bit length:            128
Plaintext bit length:     120
Symmetric key:            000000000000000000000000000000000000000000000000
IV:                       00000000000000000000000000000000
Plaintext:                747474747474747474747474747474
Ciphertext:               36701f51bc29c91f345f5d1ee39bf7a6e7056e6c140ed5f827b81e6365cfd98392de036b0f66bfed91074c9fe143a7
Reciphers for ciphertext: 0
Decipheredtext:           747474747474747474747474747474
RESULT CIPHER-DECIPHER: -----OK-----


Test: 117
Hash algorithm: 0
Symmetric key bit length: 192
IV bit length:            128
Plaintext bit length:     120
Symmetric key:            000000000000000000000000000000000000000000000000
IV:                       00000000000000000000000000000000
Plaintext:                757575757575757575757575757575
Ciphertext:               37711e50bd28c81e355e5c1fe29af63fd84b7aca40762c2a763b204988227e85d87fbb
Reciphers for ciphertext: 0
Decipheredtext:           757575757575757575757575757575
RESULT CIPHER-DECIPHER: -----OK-----


Test: 118
Hash algorithm: 7
Symmetric key bit length: 192
IV bit length:            128
Plaintext bit length:     120
Symmetric key:            000000000000000000000000000000000000000000000000
IV:                       00000000000000000000000000000000
Plaintext:                767676767676767676767676767676
Ciphertext:               34721d53be2bcb1d365d5f1ce199f5370ccf8b751289d9b74706891de626bc
Reciphers for ciphertext: 0
Decipheredtext:           767676767676767676767676767676
RESULT CIPHER-DECIPHER: -----OK-----


Test: 119
Hash algorithm: 11
Symmetric key bit length: 192
IV bit length:            128
Plaintext bit length:     120
Symmetric key:            000000000000000000000000000000000000000000000000
IV:                       00000000000000000000000000000000
Plaintext:                777777777777777777777777777777
Ciphertext:               35731c52bf2aca1c375c5e1de098f48d98a2a68a11b6f873faf5ba5821567d
Reciphers for ciphertext: 0
Decipheredtext:           777777777777777777777777777777
RESULT CIPHER-DECIPHER: -----OK-----


Test: 120
Hash algorithm: 13
Symmetric key bit length: 192
IV bit length:            128
Plaintext bit length:     128
Symmetric key:            000000000000000000000000000000000000000000000000
IV:                       00000000000000000000000000000000
Plaintext:                78787878787878787878787878787878
Ciphertext:               3a7c135db025c51338535112ef97fbdd07e9f7e73176caa6cb0472bf0819b65d
Reciphers for ciphertext: 0
Decipheredtext:           78787878787878787878787878787878
RESULT CIPHER-DECIPHER: -----OK-----


Test: 121
Hash algorithm: 12
Symmetric key bit length: 192
IV bit length:            128
Plaintext bit length:     128
Symmetric key:            000000000000000000000000000000000000000000000000
IV:                       00000000000000000000000000000000
Plaintext:                79797979797979797979797979797979
Ciphertext:               3b7d125cb124c41239525013ee96fadcd0cdba98b018fd76eb8aadd4d61f0a77
Reciphers for ciphertext: 0
Decipheredtext:           79797979797979797979797979797979
RESULT CIPHER-DECIPHER: -----OK-----


Test: 122
Hash algorithm: 0
Symmetric key bit length: 192
IV bit length:            128
Plaintext bit length:     128
Symmetric key:            000000000000000000000000000000000000000000000000
IV:                       00000000000000000000000000000000
Plaintext:                7a7a7a7a7a7a7a7a7a7a7a7a7a7a7a7a
Ciphertext:               387e115fb227c7113a515310ed95f9dfcd6afc22cd1a1940e7410d05ba6f3e2bba0f3050
Reciphers for ciphertext: 0
Decipheredtext:           7a7a7a7a7a7a7a7a7a7a7a7a7a7a7a7a
RESULT CIPHER-DECIPHER: -----OK-----


Test: 123
Hash algorithm: 1
Symmetric key bit length: 192
IV bit length:            128
Plaintext bit length:     128
Symmetric key:            000000000000000000000000000000000000000000000000
IV:                       00000000000000000000000000000000
Plaintext:                7b7b7b7b7b7b7b7b7b7b7b7b7b7b7b7b
Ciphertext:               397f105eb326c6103b505211ec94f8def762a5a896e9315de2c2d85957b625be5780653066f49bef97ee64db
Reciphers for ciphertext: 0
Decipheredtext:           7b7b7b7b7b7b7b7b7b7b7b7b7b7b7b7b
RESULT CIPHER-DECIPHER: -----OK-----


Test: 124
Hash algorithm: 7
Symmetric key bit length: 192
IV bit length:            128
Plaintext bit length:     128
Symmetric key:            000000000000000000000000000000000000000000000000
IV:                       00000000000000000000000000000000
Plaintext:                7c7c7c7c7c7c7c7c7c7c7c7c7c7c7c7c
Ciphertext:               3e781759b421c1173c575516eb93ffd9404a93f8884c9a0909afcf58d31fc869
Reciphers for ciphertext: 0
Decipheredtext:           7c7c7c7c7c7c7c7c7c7c7c7c7c7c7c7c
RESULT CIPHER-DECIPHER: -----OK-----


Test: 125
Hash algorithm: 9
Symmetric key bit length: 192
IV bit length:            128
Plaintext bit length:     128
Symmetric key:            000000000000000000000000000000000000000000000000
IV:                       00000000000000000000000000000000
Plaintext:                7d7d7d7d7d7d7d7d7d7d7d7d7d7d7d7d
Ciphertext:               3f791658b520c0163d565417ea92fed84236b51516744fd6cbf12b6b974bf10dd5d01bd8ea41711670060b69abdf91f8
Reciphers for ciphertext: 0
Decipheredtext:           7d7d7d7d7d7d7d7d7d7d7d7d7d7d7d7d
RESULT CIPHER-DECIPHER: -----OK-----


Test: 126
Hash algorithm: 6
Symmetric key bit length: 192
IV bit length:            128
Plaintext bit length:     128
Symmetric key:            000000000000000000000000000000000000000000000000
IV:                       00000000000000000000000000000000
Plaintext:                7e7e7e7e7e7e7e7e7e7e7e7e7e7e7e7e
Ciphertext:               3c7a155bb623c3153e555714e991fddb5f32d527917746cb018558a239798d0f5278ca8ca5337618e124a0bd079173f8
Reciphers for ciphertext: 0
Decipheredtext:           7e7e7e7e7e7e7e7e7e7e7e7e7e7e7e7e
RESULT CIPHER-DECIPHER: -----OK-----


Test: 127
Hash algorithm: 5
Symmetric key bit length: 192
IV bit length:            128
Plaintext bit length:     128
Symmetric key:            000000000000000000000000000000000000000000000000
IV:                       00000000000000000000000000000000
Plaintext:                7f7f7f7f7f7f7f7f7f7f7f7f7f7f7f7f
Ciphertext:               3d7b145ab722c2143f545615e890fcda0b93d8541a7a66c965342600ea91563ffe1a834630fd43f95eef07f4
Reciphers for ciphertext: 0
Decipheredtext:           7f7f7f7f7f7f7f7f7f7f7f7f7f7f7f7f
RESULT CIPHER-DECIPHER: -----OK-----


 DATA SHA1 (hexadecimal): 0a6561f10cdf7e57f6d01f5f902e932977ae3a25

