
DiceLock 9.0.0.1

 TEST COMPONENTS:
 ----------------
 DiceLock:           DiceLockXTSDigested class
                     Operating based on storage sector size length
 Operation Mode:     XTS_Mode class
 Block Cipher:       AES128 class
 Hash algorithms:     0 - Sha1 class
                      1 - Sha224 class
                      2 - Sha256 class
                      3 - Sha384 class
                      4 - Sha512 class
                      5 - Sha512_224 class
                      6 - Sha512_256 class
                      7 - Ripemd128 class
                      8 - Ripemd160 class
                      9 - Ripemd256 class
                     10 - Ripemd320 class
                     11 - MD2 class
                     12 - MD4 class
                     13 - MD5 class
 Key Modifier:       DecreaseKeyModifier_6_0_0_1 class
 Random tests:       RandomTestSuite class
                     FrequencyTest class
                     BlockFrequencyTest class
                     CumulativeSumForwardTest class
                     LongestRunOfOnesTest class
                     RunsTest class
 Random alpha:       0.001

 VECTOR TEST: Test vector 2 - Changing symmetric key and plaintext, shifting 1 bit set


##### INDIVIDUAL TESTS #####

Number tests: 128


Test: 0
Hash algorithm:       8
Sector size in bytes: 512
Data unit:   0
Start block: 0
Symmetric key bit length: 256
Plaintext bit length:     136
Symmetric key:            0000000000000000000000000000000080000000000000000000000000000000
Plaintext:                0080000000000000000000000000000000
Ciphertext:               66692c77ddf92b90e768a5d96ad3932af2e595764831e77a10e848ce1ced9e2ab56a2446bc
Reciphers for ciphertext: 0
Decipheredtext:           0080000000000000000000000000000000
RESULT CIPHER-DECIPHER: -----OK-----


Test: 1
Hash algorithm:       4
Sector size in bytes: 512
Data unit:   0
Start block: 0
Symmetric key bit length: 256
Plaintext bit length:     136
Symmetric key:            0000000000000000000000000000000040000000000000000000000000000000
Plaintext:                0040000000000000000000000000000000
Ciphertext:               468f18dae28d1992901d4a5903db1fec8ccfd6ead55cfd44ec0edcbfe25b7b82cbafc0899181ec19247d96b1cafa0865d3144e2103f242fc6834b8eae51bc43ae3bede9de85dc2c9c81ed05df83b5506fc
Reciphers for ciphertext: 0
Decipheredtext:           0040000000000000000000000000000000
RESULT CIPHER-DECIPHER: -----OK-----


Test: 2
Hash algorithm:       10
Sector size in bytes: 512
Data unit:   0
Start block: 0
Symmetric key bit length: 256
Plaintext bit length:     136
Symmetric key:            0000000000000000000000000000000020000000000000000000000000000000
Plaintext:                0020000000000000000000000000000000
Ciphertext:               46b1ba42a2ecd6bdfb704d047bebf0a590c2b417cdcfd3ec4dab249fc403701043966497e265be2630a53f1d059564c2c28d6a1b8c60e423df
Reciphers for ciphertext: 0
Decipheredtext:           0020000000000000000000000000000000
RESULT CIPHER-DECIPHER: -----OK-----


Test: 3
Hash algorithm:       12
Sector size in bytes: 512
Data unit:   0
Start block: 0
Symmetric key bit length: 256
Plaintext bit length:     136
Symmetric key:            0000000000000000000000000000000010000000000000000000000000000000
Plaintext:                0010000000000000000000000000000000
Ciphertext:               2b7cae127bc6f59f8b2ea0de34b09a9a7c56c2e41654e9291c2f0fd7533fc0b627
Reciphers for ciphertext: 0
Decipheredtext:           0010000000000000000000000000000000
RESULT CIPHER-DECIPHER: -----OK-----


Test: 4
Hash algorithm:       7
Sector size in bytes: 512
Data unit:   0
Start block: 0
Symmetric key bit length: 256
Plaintext bit length:     136
Symmetric key:            0000000000000000000000000000000008000000000000000000000000000000
Plaintext:                0008000000000000000000000000000000
Ciphertext:               0bdb50046dcab92c2133d09ffa94066c6e32cd2697ab9e0524e97ac7b76364e63a
Reciphers for ciphertext: 0
Decipheredtext:           0008000000000000000000000000000000
RESULT CIPHER-DECIPHER: -----OK-----


Test: 5
Hash algorithm:       4
Sector size in bytes: 512
Data unit:   0
Start block: 0
Symmetric key bit length: 256
Plaintext bit length:     136
Symmetric key:            0000000000000000000000000000000004000000000000000000000000000000
Plaintext:                0004000000000000000000000000000000
Ciphertext:               7ee3bba07bc53fcb43d866313f6a19e6fd6720b1a1ebd257e9afbdecdcd3b91f94a87bb6972f4726a0a0f9555b16f3766467e4863436297ec3aa2ddf6b30348417624075b0091ffb515387285d32f7ccb0
Reciphers for ciphertext: 0
Decipheredtext:           0004000000000000000000000000000000
RESULT CIPHER-DECIPHER: -----OK-----


Test: 6
Hash algorithm:       6
Sector size in bytes: 512
Data unit:   0
Start block: 0
Symmetric key bit length: 256
Plaintext bit length:     136
Symmetric key:            0000000000000000000000000000000002000000000000000000000000000000
Plaintext:                0002000000000000000000000000000000
Ciphertext:               954ce856c3c9ffbb7b3892b67acbebf75d0ce62c389e36537caafd80dd5384f3c405039cb0f002e2994214fb6d6c03b3ad
Reciphers for ciphertext: 0
Decipheredtext:           0002000000000000000000000000000000
RESULT CIPHER-DECIPHER: -----OK-----


Test: 7
Hash algorithm:       9
Sector size in bytes: 512
Data unit:   0
Start block: 0
Symmetric key bit length: 256
Plaintext bit length:     136
Symmetric key:            0000000000000000000000000000000001000000000000000000000000000000
Plaintext:                0001000000000000000000000000000000
Ciphertext:               9fb76ddb8561c306e729be1a66fa34b51211f3ecaecbda4e1b48e7ffb3bd3928b66c4716cffffe29aa0f72a0199d194ee7
Reciphers for ciphertext: 0
Decipheredtext:           0001000000000000000000000000000000
RESULT CIPHER-DECIPHER: -----OK-----


Test: 8
Hash algorithm:       6
Sector size in bytes: 512
Data unit:   0
Start block: 0
Symmetric key bit length: 256
Plaintext bit length:     136
Symmetric key:            0000000000000000000000000000000000800000000000000000000000000000
Plaintext:                0000800000000000000000000000000000
Ciphertext:               2b1920d8e6882ce9fd3bbf565e1ea85e842de1a92e649a22b834ddb3cb9024b1dc4826ec18a9e0b920820cf014411a5f36
Reciphers for ciphertext: 0
Decipheredtext:           0000800000000000000000000000000000
RESULT CIPHER-DECIPHER: -----OK-----


Test: 9
Hash algorithm:       11
Sector size in bytes: 512
Data unit:   0
Start block: 0
Symmetric key bit length: 256
Plaintext bit length:     136
Symmetric key:            0000000000000000000000000000000000400000000000000000000000000000
Plaintext:                0000400000000000000000000000000000
Ciphertext:               9c81c9cacb7da8b2d7462707fa3e0e782b665c247565206d1361ee46ed6c86eeb2
Reciphers for ciphertext: 0
Decipheredtext:           0000400000000000000000000000000000
RESULT CIPHER-DECIPHER: -----OK-----


Test: 10
Hash algorithm:       13
Sector size in bytes: 1024
Data unit:   0
Start block: 0
Symmetric key bit length: 256
Plaintext bit length:     136
Symmetric key:            0000000000000000000000000000000000200000000000000000000000000000
Plaintext:                0000200000000000000000000000000000
Ciphertext:               372ad6eb32c21f080017c8c91b52b1efd613e2876d0b98547800501d3b372b314f
Reciphers for ciphertext: 0
Decipheredtext:           0000200000000000000000000000000000
RESULT CIPHER-DECIPHER: -----OK-----


Test: 11
Hash algorithm:       13
Sector size in bytes: 1024
Data unit:   0
Start block: 0
Symmetric key bit length: 256
Plaintext bit length:     136
Symmetric key:            0000000000000000000000000000000000100000000000000000000000000000
Plaintext:                0000100000000000000000000000000000
Ciphertext:               74fd4f4193156d8f252732cbb0085c962f59a980ae0e9394c32a2636fb76eaa91d
Reciphers for ciphertext: 0
Decipheredtext:           0000100000000000000000000000000000
RESULT CIPHER-DECIPHER: -----OK-----


Test: 12
Hash algorithm:       9
Sector size in bytes: 1024
Data unit:   0
Start block: 0
Symmetric key bit length: 256
Plaintext bit length:     136
Symmetric key:            0000000000000000000000000000000000080000000000000000000000000000
Plaintext:                0000080000000000000000000000000000
Ciphertext:               43a49400cf1850d1c6605fc5c81aef23ff3ac9ac7f185ce2f790010746c35333c6321cea27b382d8f4421cda70c287b7ef
Reciphers for ciphertext: 0
Decipheredtext:           0000080000000000000000000000000000
RESULT CIPHER-DECIPHER: -----OK-----


Test: 13
Hash algorithm:       9
Sector size in bytes: 1024
Data unit:   0
Start block: 0
Symmetric key bit length: 256
Plaintext bit length:     136
Symmetric key:            0000000000000000000000000000000000040000000000000000000000000000
Plaintext:                0000040000000000000000000000000000
Ciphertext:               fc75caa4f26e376befab2e358136e79318a1fc0f64269b894f65522b2ea23dfbc322af258a784c9e78b53464e44d691884
Reciphers for ciphertext: 0
Decipheredtext:           0000040000000000000000000000000000
RESULT CIPHER-DECIPHER: -----OK-----


Test: 14
Hash algorithm:       12
Sector size in bytes: 1024
Data unit:   0
Start block: 0
Symmetric key bit length: 256
Plaintext bit length:     136
Symmetric key:            0000000000000000000000000000000000020000000000000000000000000000
Plaintext:                0000020000000000000000000000000000
Ciphertext:               ae8de8f19887ce60c4b004fd475ba3617f5c8d8971d77da13ed85d8f477a122537
Reciphers for ciphertext: 0
Decipheredtext:           0000020000000000000000000000000000
RESULT CIPHER-DECIPHER: -----OK-----


Test: 15
Hash algorithm:       4
Sector size in bytes: 1024
Data unit:   0
Start block: 0
Symmetric key bit length: 256
Plaintext bit length:     136
Symmetric key:            0000000000000000000000000000000000010000000000000000000000000000
Plaintext:                0000010000000000000000000000000000
Ciphertext:               1657fed5c574968e5f226581758a7f96ad74100a0509be890f84c259d819056fb6489f17067e8b081b4474642236f6dfedbfe1d63f5ccbb22ba4c396b5b4810857ab6ec7a00321fcbcf5a9f91c7d785ad0
Reciphers for ciphertext: 0
Decipheredtext:           0000010000000000000000000000000000
RESULT CIPHER-DECIPHER: -----OK-----


Test: 16
Hash algorithm:       12
Sector size in bytes: 1024
Data unit:   0
Start block: 0
Symmetric key bit length: 256
Plaintext bit length:     136
Symmetric key:            0000000000000000000000000000000000008000000000000000000000000000
Plaintext:                0000008000000000000000000000000000
Ciphertext:               8e48345be62ac4d1d76f3980a4c47e684e9afad1935adede0890a39f913f21ef95
Reciphers for ciphertext: 0
Decipheredtext:           0000008000000000000000000000000000
RESULT CIPHER-DECIPHER: -----OK-----


Test: 17
Hash algorithm:       10
Sector size in bytes: 1024
Data unit:   0
Start block: 0
Symmetric key bit length: 256
Plaintext bit length:     136
Symmetric key:            0000000000000000000000000000000000004000000000000000000000000000
Plaintext:                0000004000000000000000000000000000
Ciphertext:               89b1074af0a8491aa382f0dcdeb024d1760ba46645646add64635705c7d18857d66697e0107f5f498aec5831a8ef20dafa48af0d2357fe2d71
Reciphers for ciphertext: 0
Decipheredtext:           0000004000000000000000000000000000
RESULT CIPHER-DECIPHER: -----OK-----


Test: 18
Hash algorithm:       8
Sector size in bytes: 1024
Data unit:   0
Start block: 0
Symmetric key bit length: 256
Plaintext bit length:     136
Symmetric key:            0000000000000000000000000000000000002000000000000000000000000000
Plaintext:                0000002000000000000000000000000000
Ciphertext:               b671a1ce32d6f0440f9bcfe635385b688f6f8a27e6b86c66a6873f08e3c7fb0519a0ba4eda
Reciphers for ciphertext: 0
Decipheredtext:           0000002000000000000000000000000000
RESULT CIPHER-DECIPHER: -----OK-----


Test: 19
Hash algorithm:       12
Sector size in bytes: 1024
Data unit:   0
Start block: 0
Symmetric key bit length: 256
Plaintext bit length:     136
Symmetric key:            0000000000000000000000000000000000001000000000000000000000000000
Plaintext:                0000001000000000000000000000000000
Ciphertext:               9791cf912bc6fa5db6676a191ce0b01526ae91a746d825818682a5a9be7f34dc11
Reciphers for ciphertext: 0
Decipheredtext:           0000001000000000000000000000000000
RESULT CIPHER-DECIPHER: -----OK-----


Test: 20
Hash algorithm:       8
Sector size in bytes: 1536
Data unit:   0
Start block: 0
Symmetric key bit length: 256
Plaintext bit length:     136
Symmetric key:            0000000000000000000000000000000000000800000000000000000000000000
Plaintext:                0000000800000000000000000000000000
Ciphertext:               329b51f32909299959b200e40315b72b3117fe642f565f4ef12f956d6bf2aa48ed82d3722b
Reciphers for ciphertext: 0
Decipheredtext:           0000000800000000000000000000000000
RESULT CIPHER-DECIPHER: -----OK-----


Test: 21
Hash algorithm:       0
Sector size in bytes: 1536
Data unit:   0
Start block: 0
Symmetric key bit length: 256
Plaintext bit length:     136
Symmetric key:            0000000000000000000000000000000000000400000000000000000000000000
Plaintext:                0000000400000000000000000000000000
Ciphertext:               8660287cced73fbae30d71553ee0c30b63eceebc8946fb42f2ff3986b9101b405c28283771
Reciphers for ciphertext: 0
Decipheredtext:           0000000400000000000000000000000000
RESULT CIPHER-DECIPHER: -----OK-----


Test: 22
Hash algorithm:       10
Sector size in bytes: 1536
Data unit:   0
Start block: 0
Symmetric key bit length: 256
Plaintext bit length:     136
Symmetric key:            0000000000000000000000000000000000000200000000000000000000000000
Plaintext:                0000000200000000000000000000000000
Ciphertext:               764c872c27fa2f1ee3aacef21a522f3f0c15ca884bbda2e389d51a0510ab4b59c80143fdb2ac396479855fd7b30695f9c5e9f2e546916b3cce
Reciphers for ciphertext: 0
Decipheredtext:           0000000200000000000000000000000000
RESULT CIPHER-DECIPHER: -----OK-----


Test: 23
Hash algorithm:       10
Sector size in bytes: 1536
Data unit:   0
Start block: 0
Symmetric key bit length: 256
Plaintext bit length:     136
Symmetric key:            0000000000000000000000000000000000000100000000000000000000000000
Plaintext:                0000000100000000000000000000000000
Ciphertext:               81a3a7766ed1c4bc2bd254811719ffb66968f5c1eae88752f5867d6ff95cde0993b0db572bd70818294d47c6699cd3beb969c39141f7ae0a4f
Reciphers for ciphertext: 0
Decipheredtext:           0000000100000000000000000000000000
RESULT CIPHER-DECIPHER: -----OK-----


Test: 24
Hash algorithm:       2
Sector size in bytes: 1536
Data unit:   0
Start block: 0
Symmetric key bit length: 256
Plaintext bit length:     136
Symmetric key:            0000000000000000000000000000000000000080000000000000000000000000
Plaintext:                0000000080000000000000000000000000
Ciphertext:               517a62524afe0baf6f96835fe64de7673c4221bb35129748741879a64373a082f94a180d8926ded44d25bd1064c0b4314f
Reciphers for ciphertext: 0
Decipheredtext:           0000000080000000000000000000000000
RESULT CIPHER-DECIPHER: -----OK-----


Test: 25
Hash algorithm:       12
Sector size in bytes: 1536
Data unit:   0
Start block: 0
Symmetric key bit length: 256
Plaintext bit length:     136
Symmetric key:            0000000000000000000000000000000000000040000000000000000000000000
Plaintext:                0000000040000000000000000000000000
Ciphertext:               ec4cb1bad1d932a03c93590e8f4991ae7feec17e560bb92541abc4e9bfe2a908f5
Reciphers for ciphertext: 0
Decipheredtext:           0000000040000000000000000000000000
RESULT CIPHER-DECIPHER: -----OK-----


Test: 26
Hash algorithm:       9
Sector size in bytes: 1536
Data unit:   0
Start block: 0
Symmetric key bit length: 256
Plaintext bit length:     136
Symmetric key:            0000000000000000000000000000000000000020000000000000000000000000
Plaintext:                0000000020000000000000000000000000
Ciphertext:               f4f00f38e244ef328ece2c5bed8db18dbcdb5048f1f4e49c96bbaa2b659ef9aad59f89f7467a9c5ae2ce4bfb22f3b044bb
Reciphers for ciphertext: 0
Decipheredtext:           0000000020000000000000000000000000
RESULT CIPHER-DECIPHER: -----OK-----


Test: 27
Hash algorithm:       13
Sector size in bytes: 1536
Data unit:   0
Start block: 0
Symmetric key bit length: 256
Plaintext bit length:     136
Symmetric key:            0000000000000000000000000000000000000010000000000000000000000000
Plaintext:                0000000010000000000000000000000000
Ciphertext:               38cc310c3423a9503d84b4f25ec9d9730e38962c4a1b184939ef8773d3de583b28
Reciphers for ciphertext: 0
Decipheredtext:           0000000010000000000000000000000000
RESULT CIPHER-DECIPHER: -----OK-----


Test: 28
Hash algorithm:       6
Sector size in bytes: 1536
Data unit:   0
Start block: 0
Symmetric key bit length: 256
Plaintext bit length:     136
Symmetric key:            0000000000000000000000000000000000000008000000000000000000000000
Plaintext:                0000000008000000000000000000000000
Ciphertext:               c3ec4f725642063fb03cf7182514eaf4e4a5180273874e8c375ab6beb95b00daac49e736db63e1c9b4e6ae6d151a42b717
Reciphers for ciphertext: 0
Decipheredtext:           0000000008000000000000000000000000
RESULT CIPHER-DECIPHER: -----OK-----


Test: 29
Hash algorithm:       11
Sector size in bytes: 1536
Data unit:   0
Start block: 0
Symmetric key bit length: 256
Plaintext bit length:     136
Symmetric key:            0000000000000000000000000000000000000004000000000000000000000000
Plaintext:                0000000004000000000000000000000000
Ciphertext:               9a9f211e9c6fc02a1b833a80f469ef97a1816d7ff17dd0f4bbb653a7643ec653a0
Reciphers for ciphertext: 0
Decipheredtext:           0000000004000000000000000000000000
RESULT CIPHER-DECIPHER: -----OK-----


Test: 30
Hash algorithm:       12
Sector size in bytes: 2048
Data unit:   0
Start block: 0
Symmetric key bit length: 256
Plaintext bit length:     136
Symmetric key:            0000000000000000000000000000000000000002000000000000000000000000
Plaintext:                0000000002000000000000000000000000
Ciphertext:               7fbe9c7843910c537c7d87cb36a29cb59e5b8c4a6fab9c99fcdcf8bc67a2072958
Reciphers for ciphertext: 0
Decipheredtext:           0000000002000000000000000000000000
RESULT CIPHER-DECIPHER: -----OK-----


Test: 31
Hash algorithm:       1
Sector size in bytes: 2048
Data unit:   0
Start block: 0
Symmetric key bit length: 256
Plaintext bit length:     136
Symmetric key:            0000000000000000000000000000000000000001000000000000000000000000
Plaintext:                0000000001000000000000000000000000
Ciphertext:               2d6be852162c597144c05b93e26c8592a4844c0d66eab75b42e35fb9d071932b2242d5a74209e15ce0a811be9a
Reciphers for ciphertext: 0
Decipheredtext:           0000000001000000000000000000000000
RESULT CIPHER-DECIPHER: -----OK-----


Test: 32
Hash algorithm:       13
Sector size in bytes: 2048
Data unit:   0
Start block: 0
Symmetric key bit length: 256
Plaintext bit length:     136
Symmetric key:            0000000000000000000000000000000000000000800000000000000000000000
Plaintext:                0000000000800000000000000000000000
Ciphertext:               a86bf867f50290b58e1ccdd6cc25d6e9be0d022c06989d7f18dfcf43b8bc7133cd
Reciphers for ciphertext: 0
Decipheredtext:           0000000000800000000000000000000000
RESULT CIPHER-DECIPHER: -----OK-----


Test: 33
Hash algorithm:       2
Sector size in bytes: 2048
Data unit:   0
Start block: 0
Symmetric key bit length: 256
Plaintext bit length:     136
Symmetric key:            0000000000000000000000000000000000000000400000000000000000000000
Plaintext:                0000000000400000000000000000000000
Ciphertext:               e7721dae30d616ba8b358315f6256fc6c20e36ff33efc494677c44e7e8ae06acb39c695918457627c452185a44baca6e81
Reciphers for ciphertext: 0
Decipheredtext:           0000000000400000000000000000000000
RESULT CIPHER-DECIPHER: -----OK-----


Test: 34
Hash algorithm:       5
Sector size in bytes: 2048
Data unit:   0
Start block: 0
Symmetric key bit length: 256
Plaintext bit length:     136
Symmetric key:            0000000000000000000000000000000000000000200000000000000000000000
Plaintext:                0000000000200000000000000000000000
Ciphertext:               bf9530fe8839b2b927ec97d02418cf5ee4bd20d1c48bbf5b4dbba2065c5c7bd3a67eff534111ef8a3dff88bcab
Reciphers for ciphertext: 0
Decipheredtext:           0000000000200000000000000000000000
RESULT CIPHER-DECIPHER: -----OK-----


Test: 35
Hash algorithm:       11
Sector size in bytes: 2048
Data unit:   0
Start block: 0
Symmetric key bit length: 256
Plaintext bit length:     136
Symmetric key:            0000000000000000000000000000000000000000100000000000000000000000
Plaintext:                0000000000100000000000000000000000
Ciphertext:               6969ab19fd9f555908a5c9a778dec276ce2d4e7fd1beb109f29013898fb4dfb5a7
Reciphers for ciphertext: 0
Decipheredtext:           0000000000100000000000000000000000
RESULT CIPHER-DECIPHER: -----OK-----


Test: 36
Hash algorithm:       0
Sector size in bytes: 2048
Data unit:   0
Start block: 0
Symmetric key bit length: 256
Plaintext bit length:     136
Symmetric key:            0000000000000000000000000000000000000000080000000000000000000000
Plaintext:                0000000000080000000000000000000000
Ciphertext:               7a2bde00dcae18f1731c787fb036bb52d633ad2b7bfc97ef42b9e522d17b0923d183bfaf71
Reciphers for ciphertext: 0
Decipheredtext:           0000000000080000000000000000000000
RESULT CIPHER-DECIPHER: -----OK-----


Test: 37
Hash algorithm:       8
Sector size in bytes: 2048
Data unit:   0
Start block: 0
Symmetric key bit length: 256
Plaintext bit length:     136
Symmetric key:            0000000000000000000000000000000000000000040000000000000000000000
Plaintext:                0000000000040000000000000000000000
Ciphertext:               706bb9dfa507fb918b49251a953d2f3d37e50509ee4c18671f324e07ac190cd601664687c4
Reciphers for ciphertext: 0
Decipheredtext:           0000000000040000000000000000000000
RESULT CIPHER-DECIPHER: -----OK-----


Test: 38
Hash algorithm:       9
Sector size in bytes: 2048
Data unit:   0
Start block: 0
Symmetric key bit length: 256
Plaintext bit length:     136
Symmetric key:            0000000000000000000000000000000000000000020000000000000000000000
Plaintext:                0000000000020000000000000000000000
Ciphertext:               53e10d2a1b0e9aab790b47b266db62dbe6c7efd66c132ac18d016fe49521ab79287e3c07a96769f34f333f3d221453b8dc
Reciphers for ciphertext: 0
Decipheredtext:           0000000000020000000000000000000000
RESULT CIPHER-DECIPHER: -----OK-----


Test: 39
Hash algorithm:       9
Sector size in bytes: 2048
Data unit:   0
Start block: 0
Symmetric key bit length: 256
Plaintext bit length:     136
Symmetric key:            0000000000000000000000000000000000000000010000000000000000000000
Plaintext:                0000000000010000000000000000000000
Ciphertext:               5376a52a4e6daebb9fa2662042abc4822829bc4b4c60bb0d1085499a46d4c675a319ef3e089d41b90225b9aa094d4d876f
Reciphers for ciphertext: 0
Decipheredtext:           0000000000010000000000000000000000
RESULT CIPHER-DECIPHER: -----OK-----


Test: 40
Hash algorithm:       6
Sector size in bytes: 2560
Data unit:   0
Start block: 0
Symmetric key bit length: 256
Plaintext bit length:     136
Symmetric key:            0000000000000000000000000000000000000000008000000000000000000000
Plaintext:                0000000000008000000000000000000000
Ciphertext:               99012b0c88dd514b93b8d137b2ecfa1e83bf59def99c70a41d815d076ad3a370ab35d5a9d3a96305129691ec784337bdf1
Reciphers for ciphertext: 0
Decipheredtext:           0000000000008000000000000000000000
RESULT CIPHER-DECIPHER: -----OK-----


Test: 41
Hash algorithm:       6
Sector size in bytes: 2560
Data unit:   0
Start block: 0
Symmetric key bit length: 256
Plaintext bit length:     136
Symmetric key:            0000000000000000000000000000000000000000004000000000000000000000
Plaintext:                0000000000004000000000000000000000
Ciphertext:               f7ff2b82899c6b1c04bdd47654861f23c729d73061a4ef9a49cf0015e4f97a7f194a156beca88aa3d3fe19baba3976f966
Reciphers for ciphertext: 0
Decipheredtext:           0000000000004000000000000000000000
RESULT CIPHER-DECIPHER: -----OK-----


Test: 42
Hash algorithm:       1
Sector size in bytes: 2560
Data unit:   0
Start block: 0
Symmetric key bit length: 256
Plaintext bit length:     136
Symmetric key:            0000000000000000000000000000000000000000002000000000000000000000
Plaintext:                0000000000002000000000000000000000
Ciphertext:               a42f9a9bac467fe4e6552f589dd32cda756ab59f5555fc1e05fc305a42be4e29a9020c49bff29c601ccf70648c
Reciphers for ciphertext: 0
Decipheredtext:           0000000000002000000000000000000000
RESULT CIPHER-DECIPHER: -----OK-----


Test: 43
Hash algorithm:       1
Sector size in bytes: 2560
Data unit:   0
Start block: 0
Symmetric key bit length: 256
Plaintext bit length:     136
Symmetric key:            0000000000000000000000000000000000000000001000000000000000000000
Plaintext:                0000000000001000000000000000000000
Ciphertext:               598aafa3167f1810beca34ae8e6ad9f8a035583fd9a36b562af1fa6c99d699ed2c6e07f5316476b23bd214e946
Reciphers for ciphertext: 0
Decipheredtext:           0000000000001000000000000000000000
RESULT CIPHER-DECIPHER: -----OK-----


Test: 44
Hash algorithm:       0
Sector size in bytes: 2560
Data unit:   0
Start block: 0
Symmetric key bit length: 256
Plaintext bit length:     136
Symmetric key:            0000000000000000000000000000000000000000000800000000000000000000
Plaintext:                0000000000000800000000000000000000
Ciphertext:               4ad83e8db374e790f86bf075ae8938d0d4c24e46dd6cae688f2cd604add3465f2aa1d8d6a7
Reciphers for ciphertext: 0
Decipheredtext:           0000000000000800000000000000000000
RESULT CIPHER-DECIPHER: -----OK-----


Test: 45
Hash algorithm:       5
Sector size in bytes: 2560
Data unit:   0
Start block: 0
Symmetric key bit length: 256
Plaintext bit length:     136
Symmetric key:            0000000000000000000000000000000000000000000400000000000000000000
Plaintext:                0000000000000400000000000000000000
Ciphertext:               3501868405011a74d0de7fbaa9c4f2fc8fcf5445c33c51b9d6fb9939f4b856743e4de345109be4878308922828
Reciphers for ciphertext: 0
Decipheredtext:           0000000000000400000000000000000000
RESULT CIPHER-DECIPHER: -----OK-----


Test: 46
Hash algorithm:       9
Sector size in bytes: 2560
Data unit:   0
Start block: 0
Symmetric key bit length: 256
Plaintext bit length:     136
Symmetric key:            0000000000000000000000000000000000000000000200000000000000000000
Plaintext:                0000000000000200000000000000000000
Ciphertext:               d88fc2c4d469bb201d00536aea05219040e789d05dcf451f0c7adcb6f971f3bc7d158243f9f597d7c4080f65e2c3691d44
Reciphers for ciphertext: 0
Decipheredtext:           0000000000000200000000000000000000
RESULT CIPHER-DECIPHER: -----OK-----


Test: 47
Hash algorithm:       2
Sector size in bytes: 2560
Data unit:   0
Start block: 0
Symmetric key bit length: 256
Plaintext bit length:     136
Symmetric key:            0000000000000000000000000000000000000000000100000000000000000000
Plaintext:                0000000000000100000000000000000000
Ciphertext:               502f1ce6c0ac4e15b77d9b7eb46f238833833d1bf64eec938d9437cdb3adaab2ac50882052b2503dc37eefb6dbda2adaa3
Reciphers for ciphertext: 0
Decipheredtext:           0000000000000100000000000000000000
RESULT CIPHER-DECIPHER: -----OK-----


Test: 48
Hash algorithm:       9
Sector size in bytes: 2560
Data unit:   0
Start block: 0
Symmetric key bit length: 256
Plaintext bit length:     136
Symmetric key:            0000000000000000000000000000000000000000000080000000000000000000
Plaintext:                0000000000000080000000000000000000
Ciphertext:               651c9dbab954f9f54c1562a69ebba62cdad3ab87faf98f64980b8a15f823f8109bed76bec06dc5f7dc676ca7dd43a86abd
Reciphers for ciphertext: 0
Decipheredtext:           0000000000000080000000000000000000
RESULT CIPHER-DECIPHER: -----OK-----


Test: 49
Hash algorithm:       10
Sector size in bytes: 2560
Data unit:   0
Start block: 0
Symmetric key bit length: 256
Plaintext bit length:     136
Symmetric key:            0000000000000000000000000000000000000000000040000000000000000000
Plaintext:                0000000000000040000000000000000000
Ciphertext:               6ad983532bd9686b2bb274632b35d28595cac6225658dd6f2439df7c377f1b0d6f51349a22db7f50285e7f3c959aea82fc0a68c7c2f36c844c
Reciphers for ciphertext: 0
Decipheredtext:           0000000000000040000000000000000000
RESULT CIPHER-DECIPHER: -----OK-----


Test: 50
Hash algorithm:       8
Sector size in bytes: 3072
Data unit:   0
Start block: 0
Symmetric key bit length: 256
Plaintext bit length:     136
Symmetric key:            0000000000000000000000000000000000000000000020000000000000000000
Plaintext:                0000000000000020000000000000000000
Ciphertext:               1f725894ee86835235fdee7fa6adf39699444b409e30452b717df9b4858d02aaacd7c33af0
Reciphers for ciphertext: 0
Decipheredtext:           0000000000000020000000000000000000
RESULT CIPHER-DECIPHER: -----OK-----


Test: 51
Hash algorithm:       11
Sector size in bytes: 3072
Data unit:   0
Start block: 0
Symmetric key bit length: 256
Plaintext bit length:     136
Symmetric key:            0000000000000000000000000000000000000000000010000000000000000000
Plaintext:                0000000000000010000000000000000000
Ciphertext:               aec93f80e0bb70c7924d20d7fd45c90e5242d9b9c58736aa4199351177121f54a1
Reciphers for ciphertext: 0
Decipheredtext:           0000000000000010000000000000000000
RESULT CIPHER-DECIPHER: -----OK-----


Test: 52
Hash algorithm:       7
Sector size in bytes: 3072
Data unit:   0
Start block: 0
Symmetric key bit length: 256
Plaintext bit length:     136
Symmetric key:            0000000000000000000000000000000000000000000008000000000000000000
Plaintext:                0000000000000008000000000000000000
Ciphertext:               5efa09a9945552c000e43e22b335b9e0cb514559d0e485201260cf9954e1f21655
Reciphers for ciphertext: 0
Decipheredtext:           0000000000000008000000000000000000
RESULT CIPHER-DECIPHER: -----OK-----


Test: 53
Hash algorithm:       11
Sector size in bytes: 3072
Data unit:   0
Start block: 0
Symmetric key bit length: 256
Plaintext bit length:     136
Symmetric key:            0000000000000000000000000000000000000000000004000000000000000000
Plaintext:                0000000000000004000000000000000000
Ciphertext:               b215b6d046319405c93f843a6d9591acfbdf309d0fc01e51bce7f952ffe302ae7a
Reciphers for ciphertext: 0
Decipheredtext:           0000000000000004000000000000000000
RESULT CIPHER-DECIPHER: -----OK-----


Test: 54
Hash algorithm:       13
Sector size in bytes: 3072
Data unit:   0
Start block: 0
Symmetric key bit length: 256
Plaintext bit length:     136
Symmetric key:            0000000000000000000000000000000000000000000002000000000000000000
Plaintext:                0000000000000002000000000000000000
Ciphertext:               f60f47fccfc45a5a3f297a3e2847b52472b1c463105e27186a50efd361f1c2ce26
Reciphers for ciphertext: 0
Decipheredtext:           0000000000000002000000000000000000
RESULT CIPHER-DECIPHER: -----OK-----


Test: 55
Hash algorithm:       8
Sector size in bytes: 3072
Data unit:   0
Start block: 0
Symmetric key bit length: 256
Plaintext bit length:     136
Symmetric key:            0000000000000000000000000000000000000000000001000000000000000000
Plaintext:                0000000000000001000000000000000000
Ciphertext:               ed034c0600d425eb7dd81ae740eaacf7b02fb6f3435eb0a1881cc0032de8614a44e1964914
Reciphers for ciphertext: 0
Decipheredtext:           0000000000000001000000000000000000
RESULT CIPHER-DECIPHER: -----OK-----


Test: 56
Hash algorithm:       5
Sector size in bytes: 3072
Data unit:   0
Start block: 0
Symmetric key bit length: 256
Plaintext bit length:     136
Symmetric key:            0000000000000000000000000000000000000000000000800000000000000000
Plaintext:                0000000000000000800000000000000000
Ciphertext:               b61e848c008a3962409444c704b7956fa42b50df8e6d3088a7bc22c2e8d7a162b41deb31507e18fac14fb9a731
Reciphers for ciphertext: 0
Decipheredtext:           0000000000000000800000000000000000
RESULT CIPHER-DECIPHER: -----OK-----


Test: 57
Hash algorithm:       10
Sector size in bytes: 3072
Data unit:   0
Start block: 0
Symmetric key bit length: 256
Plaintext bit length:     136
Symmetric key:            0000000000000000000000000000000000000000000000400000000000000000
Plaintext:                0000000000000000400000000000000000
Ciphertext:               e420f1a724223bc50c7376a39d8a690b56fccbc5214459568a62c3aef23d9cb493021cf777adb03a6104ef006a54534786655c8e5ed926b9f1
Reciphers for ciphertext: 0
Decipheredtext:           0000000000000000400000000000000000
RESULT CIPHER-DECIPHER: -----OK-----


Test: 58
Hash algorithm:       8
Sector size in bytes: 3072
Data unit:   0
Start block: 0
Symmetric key bit length: 256
Plaintext bit length:     136
Symmetric key:            0000000000000000000000000000000000000000000000200000000000000000
Plaintext:                0000000000000000200000000000000000
Ciphertext:               931f4674ebd37542f62c3d45691f6e7545d2c0d4b5ec8c8323c8aebe475da217c71e437718
Reciphers for ciphertext: 0
Decipheredtext:           0000000000000000200000000000000000
RESULT CIPHER-DECIPHER: -----OK-----


Test: 59
Hash algorithm:       4
Sector size in bytes: 3072
Data unit:   0
Start block: 0
Symmetric key bit length: 256
Plaintext bit length:     136
Symmetric key:            0000000000000000000000000000000000000000000000100000000000000000
Plaintext:                0000000000000000100000000000000000
Ciphertext:               e4fa178bb1d3ddb68bf3a285969a1d81a495bc03a60f0ee332264203621ee5df74bd6d6a3a4eca2311772127bac24a19267d561061496159c59f60ba83d30c2c61ea4fb728de005b8a09723d8900a96f92
Reciphers for ciphertext: 0
Decipheredtext:           0000000000000000100000000000000000
RESULT CIPHER-DECIPHER: -----OK-----


Test: 60
Hash algorithm:       1
Sector size in bytes: 3584
Data unit:   0
Start block: 0
Symmetric key bit length: 256
Plaintext bit length:     136
Symmetric key:            0000000000000000000000000000000000000000000000080000000000000000
Plaintext:                0000000000000000080000000000000000
Ciphertext:               690aea105d2d7630062e5851909a5b22846296dfd19f15c2422e4732b54612a4a69a2129d086cf4b14d880147f
Reciphers for ciphertext: 0
Decipheredtext:           0000000000000000080000000000000000
RESULT CIPHER-DECIPHER: -----OK-----


Test: 61
Hash algorithm:       8
Sector size in bytes: 3584
Data unit:   0
Start block: 0
Symmetric key bit length: 256
Plaintext bit length:     136
Symmetric key:            0000000000000000000000000000000000000000000000040000000000000000
Plaintext:                0000000000000000040000000000000000
Ciphertext:               4fdb9637e59c7b5a4bd68e069a090fb597a8c7ff027fbce799dd0bd5d7fd0c2f5e2273869b
Reciphers for ciphertext: 0
Decipheredtext:           0000000000000000040000000000000000
RESULT CIPHER-DECIPHER: -----OK-----


Test: 62
Hash algorithm:       6
Sector size in bytes: 3584
Data unit:   0
Start block: 0
Symmetric key bit length: 256
Plaintext bit length:     136
Symmetric key:            0000000000000000000000000000000000000000000000020000000000000000
Plaintext:                0000000000000000020000000000000000
Ciphertext:               0919bf92b36b1290009e221ec6751b000c121018167e4862f6f813f8df1fb0ec3968cc6320a55fb2b6a63fe3b9884aab9a
Reciphers for ciphertext: 0
Decipheredtext:           0000000000000000020000000000000000
RESULT CIPHER-DECIPHER: -----OK-----


Test: 63
Hash algorithm:       12
Sector size in bytes: 3584
Data unit:   0
Start block: 0
Symmetric key bit length: 256
Plaintext bit length:     136
Symmetric key:            0000000000000000000000000000000000000000000000010000000000000000
Plaintext:                0000000000000000010000000000000000
Ciphertext:               f65e806337b8f9174cfaab5d19c984a60f396fa5672ff2388279bdd3fee2367986
Reciphers for ciphertext: 0
Decipheredtext:           0000000000000000010000000000000000
RESULT CIPHER-DECIPHER: -----OK-----


Test: 64
Hash algorithm:       3
Sector size in bytes: 3584
Data unit:   0
Start block: 0
Symmetric key bit length: 256
Plaintext bit length:     136
Symmetric key:            0000000000000000000000000000000000000000000000008000000000000000
Plaintext:                0000000000000000008000000000000000
Ciphertext:               8d52db21e687b84db8b5ef81c06fba3c83e6b0d0908c672eed87bda66f586842cb868a2e74333b86119406e164271e21fd3ba814de5df812915e3c510920210740
Reciphers for ciphertext: 0
Decipheredtext:           0000000000000000008000000000000000
RESULT CIPHER-DECIPHER: -----OK-----


Test: 65
Hash algorithm:       4
Sector size in bytes: 3584
Data unit:   0
Start block: 0
Symmetric key bit length: 256
Plaintext bit length:     136
Symmetric key:            0000000000000000000000000000000000000000000000004000000000000000
Plaintext:                0000000000000000004000000000000000
Ciphertext:               d4ed7f94573cbe1379b1f16b0e729de18429c71c0fd727345b13ee22124402086c0fd16fa477847da92f6ad949ac3054547e73e228718972752fe94a21c31d8bdcc1c9ad0ba21199af5ad45e06cdddc00c
Reciphers for ciphertext: 0
Decipheredtext:           0000000000000000004000000000000000
RESULT CIPHER-DECIPHER: -----OK-----


Test: 66
Hash algorithm:       12
Sector size in bytes: 3584
Data unit:   0
Start block: 0
Symmetric key bit length: 256
Plaintext bit length:     136
Symmetric key:            0000000000000000000000000000000000000000000000002000000000000000
Plaintext:                0000000000000000002000000000000000
Ciphertext:               7ee5c7f7cea4ed7821cd1897192aa04fd63ca8a0d53b3eeda7a48d88dd3ce43fc0
Reciphers for ciphertext: 0
Decipheredtext:           0000000000000000002000000000000000
RESULT CIPHER-DECIPHER: -----OK-----


Test: 67
Hash algorithm:       12
Sector size in bytes: 3584
Data unit:   0
Start block: 0
Symmetric key bit length: 256
Plaintext bit length:     136
Symmetric key:            0000000000000000000000000000000000000000000000001000000000000000
Plaintext:                0000000000000000001000000000000000
Ciphertext:               acfa139803a8819fe95079e138a7841a1ef804bde87216ca90ff74db900dcccf95
Reciphers for ciphertext: 0
Decipheredtext:           0000000000000000001000000000000000
RESULT CIPHER-DECIPHER: -----OK-----


Test: 68
Hash algorithm:       1
Sector size in bytes: 3584
Data unit:   0
Start block: 0
Symmetric key bit length: 256
Plaintext bit length:     136
Symmetric key:            0000000000000000000000000000000000000000000000000800000000000000
Plaintext:                0000000000000000000800000000000000
Ciphertext:               39bd69c41e83a774b3eeb178b371084800d50b60ffaa6e76b770154c6549334f6975a56a6810b8b3b7e4256b4c
Reciphers for ciphertext: 0
Decipheredtext:           0000000000000000000800000000000000
RESULT CIPHER-DECIPHER: -----OK-----


Test: 69
Hash algorithm:       12
Sector size in bytes: 3584
Data unit:   0
Start block: 0
Symmetric key bit length: 256
Plaintext bit length:     136
Symmetric key:            0000000000000000000000000000000000000000000000000400000000000000
Plaintext:                0000000000000000000400000000000000
Ciphertext:               22beb5113696c245b0a98b4e01d77031b824fb5d3db89ac3ca3a2b084a6f7de159
Reciphers for ciphertext: 0
Decipheredtext:           0000000000000000000400000000000000
RESULT CIPHER-DECIPHER: -----OK-----


Test: 70
Hash algorithm:       11
Sector size in bytes: 4096
Data unit:   0
Start block: 0
Symmetric key bit length: 256
Plaintext bit length:     136
Symmetric key:            0000000000000000000000000000000000000000000000000200000000000000
Plaintext:                0000000000000000000200000000000000
Ciphertext:               b74d17487b108c1695cb1c663601e4a9df1f51d3ac8f58b9c8844cc432b229d60c
Reciphers for ciphertext: 0
Decipheredtext:           0000000000000000000200000000000000
RESULT CIPHER-DECIPHER: -----OK-----


Test: 71
Hash algorithm:       5
Sector size in bytes: 4096
Data unit:   0
Start block: 0
Symmetric key bit length: 256
Plaintext bit length:     136
Symmetric key:            0000000000000000000000000000000000000000000000000100000000000000
Plaintext:                0000000000000000000100000000000000
Ciphertext:               fc75939636e641e404043b2f20d5ad16cbbd10cfc5adf66f691a9f641f858b18ecb6cf2016ef15b137ef2c9ff4
Reciphers for ciphertext: 0
Decipheredtext:           0000000000000000000100000000000000
RESULT CIPHER-DECIPHER: -----OK-----


Test: 72
Hash algorithm:       5
Sector size in bytes: 4096
Data unit:   0
Start block: 0
Symmetric key bit length: 256
Plaintext bit length:     136
Symmetric key:            0000000000000000000000000000000000000000000000000080000000000000
Plaintext:                0000000000000000000080000000000000
Ciphertext:               e698747655da8a71d59f2020f24c790c80e3aa2edb48329771ca65b7f824085144a55e60c375ab0c8864e91e63
Reciphers for ciphertext: 0
Decipheredtext:           0000000000000000000080000000000000
RESULT CIPHER-DECIPHER: -----OK-----


Test: 73
Hash algorithm:       5
Sector size in bytes: 4096
Data unit:   0
Start block: 0
Symmetric key bit length: 256
Plaintext bit length:     136
Symmetric key:            0000000000000000000000000000000000000000000000000040000000000000
Plaintext:                0000000000000000000040000000000000
Ciphertext:               0d3560aa384650efdeda81d82abd369df937497e3d2584317876bf698540645570fb63f3a65b96a46fe9884d4a
Reciphers for ciphertext: 0
Decipheredtext:           0000000000000000000040000000000000
RESULT CIPHER-DECIPHER: -----OK-----


Test: 74
Hash algorithm:       5
Sector size in bytes: 4096
Data unit:   0
Start block: 0
Symmetric key bit length: 256
Plaintext bit length:     136
Symmetric key:            0000000000000000000000000000000000000000000000000020000000000000
Plaintext:                0000000000000000000020000000000000
Ciphertext:               a7d816701668744467b8d0a21b4bed4fc4fa7d80380be9b3bec1f2a9d305dc8c7dca769ba915c0da76f7abc714
Reciphers for ciphertext: 0
Decipheredtext:           0000000000000000000020000000000000
RESULT CIPHER-DECIPHER: -----OK-----


Test: 75
Hash algorithm:       9
Sector size in bytes: 4096
Data unit:   0
Start block: 0
Symmetric key bit length: 256
Plaintext bit length:     136
Symmetric key:            0000000000000000000000000000000000000000000000000010000000000000
Plaintext:                0000000000000000000010000000000000
Ciphertext:               f186f436efb9273f7ce13718230e03b0f74022f6680be18de2095243d040b10528700d0e1ac9de7c074b867eacc5cb685a
Reciphers for ciphertext: 0
Decipheredtext:           0000000000000000000010000000000000
RESULT CIPHER-DECIPHER: -----OK-----


Test: 76
Hash algorithm:       0
Sector size in bytes: 4096
Data unit:   0
Start block: 0
Symmetric key bit length: 256
Plaintext bit length:     136
Symmetric key:            0000000000000000000000000000000000000000000000000008000000000000
Plaintext:                0000000000000000000008000000000000
Ciphertext:               021085acc6fc35fc62b9397dd05d89ae2587676d1c3495c711951e574cfab2740fd63a9429
Reciphers for ciphertext: 0
Decipheredtext:           0000000000000000000008000000000000
RESULT CIPHER-DECIPHER: -----OK-----


Test: 77
Hash algorithm:       11
Sector size in bytes: 4096
Data unit:   0
Start block: 0
Symmetric key bit length: 256
Plaintext bit length:     136
Symmetric key:            0000000000000000000000000000000000000000000000000004000000000000
Plaintext:                0000000000000000000004000000000000
Ciphertext:               65b87f208d957d7839b292bbc3e55df3abfe51a41eb803f583fbfa63c33b6017ed
Reciphers for ciphertext: 0
Decipheredtext:           0000000000000000000004000000000000
RESULT CIPHER-DECIPHER: -----OK-----


Test: 78
Hash algorithm:       9
Sector size in bytes: 4096
Data unit:   0
Start block: 0
Symmetric key bit length: 256
Plaintext bit length:     136
Symmetric key:            0000000000000000000000000000000000000000000000000002000000000000
Plaintext:                0000000000000000000002000000000000
Ciphertext:               74b1830beb8dc5edc355739a705f3e46887c0ba7ce562cfaac693635225de2875ed6ebc2602357a28288477ef64fac8dc3
Reciphers for ciphertext: 0
Decipheredtext:           0000000000000000000002000000000000
RESULT CIPHER-DECIPHER: -----OK-----


Test: 79
Hash algorithm:       0
Sector size in bytes: 4096
Data unit:   0
Start block: 0
Symmetric key bit length: 256
Plaintext bit length:     136
Symmetric key:            0000000000000000000000000000000000000000000000000001000000000000
Plaintext:                0000000000000000000001000000000000
Ciphertext:               e4ce5a5821b57038e4b9bd3477aa8abfbb2c3896841a1c1702cc3d0fe324a37624d164ac1d
Reciphers for ciphertext: 0
Decipheredtext:           0000000000000000000001000000000000
RESULT CIPHER-DECIPHER: -----OK-----


Test: 80
Hash algorithm:       6
Sector size in bytes: 8192
Data unit:   0
Start block: 0
Symmetric key bit length: 256
Plaintext bit length:     136
Symmetric key:            0000000000000000000000000000000000000000000000000000800000000000
Plaintext:                0000000000000000000000800000000000
Ciphertext:               5bfead32d21863c24abd6068b4265c72a2e72821d07f5f31ffd638f860bd6460952a6a932576ef758e77c272c932e0e9f2
Reciphers for ciphertext: 0
Decipheredtext:           0000000000000000000000800000000000
RESULT CIPHER-DECIPHER: -----OK-----


Test: 81
Hash algorithm:       7
Sector size in bytes: 8192
Data unit:   0
Start block: 0
Symmetric key bit length: 256
Plaintext bit length:     136
Symmetric key:            0000000000000000000000000000000000000000000000000000400000000000
Plaintext:                0000000000000000000000400000000000
Ciphertext:               d48a8b57a1c298c85b1bd05782b019c3bab2a6c930b21f18be9776d82867095406
Reciphers for ciphertext: 0
Decipheredtext:           0000000000000000000000400000000000
RESULT CIPHER-DECIPHER: -----OK-----


Test: 82
Hash algorithm:       0
Sector size in bytes: 8192
Data unit:   0
Start block: 0
Symmetric key bit length: 256
Plaintext bit length:     136
Symmetric key:            0000000000000000000000000000000000000000000000000000200000000000
Plaintext:                0000000000000000000000200000000000
Ciphertext:               67ae380f76006fdab0cc08f0af9ffec0a49f7db76af224a20cf192d9c1556080b20d126531
Reciphers for ciphertext: 0
Decipheredtext:           0000000000000000000000200000000000
RESULT CIPHER-DECIPHER: -----OK-----


Test: 83
Hash algorithm:       10
Sector size in bytes: 8192
Data unit:   0
Start block: 0
Symmetric key bit length: 256
Plaintext bit length:     136
Symmetric key:            0000000000000000000000000000000000000000000000000000100000000000
Plaintext:                0000000000000000000000100000000000
Ciphertext:               554cc1fe0f30a62245086508018021388d27acae4a0c98e3ac3aa75fd53616c30f130754564f20318abac0fb14e3641b58c8022a3e119f5f16
Reciphers for ciphertext: 0
Decipheredtext:           0000000000000000000000100000000000
RESULT CIPHER-DECIPHER: -----OK-----


Test: 84
Hash algorithm:       8
Sector size in bytes: 8192
Data unit:   0
Start block: 0
Symmetric key bit length: 256
Plaintext bit length:     136
Symmetric key:            0000000000000000000000000000000000000000000000000000080000000000
Plaintext:                0000000000000000000000080000000000
Ciphertext:               9765ae685195e6bfbdb7dc10b670e2406b236aff105e1d99984466557cbe44b6d68e6bea1f
Reciphers for ciphertext: 0
Decipheredtext:           0000000000000000000000080000000000
RESULT CIPHER-DECIPHER: -----OK-----


Test: 85
Hash algorithm:       4
Sector size in bytes: 8192
Data unit:   0
Start block: 0
Symmetric key bit length: 256
Plaintext bit length:     136
Symmetric key:            0000000000000000000000000000000000000000000000000000040000000000
Plaintext:                0000000000000000000000040000000000
Ciphertext:               9aa8f6c7d5ff115339483062dbb4eedbf8284c473741365b11db406b530a7248cea6d1f702190f2eb2fe9546e0d5cd3e9ed10a4f7afb8e78d9f3bc8bdc7859c34afff81259c648815d9c64a4bf3a3c2eed
Reciphers for ciphertext: 0
Decipheredtext:           0000000000000000000000040000000000
RESULT CIPHER-DECIPHER: -----OK-----


Test: 86
Hash algorithm:       11
Sector size in bytes: 8192
Data unit:   0
Start block: 0
Symmetric key bit length: 256
Plaintext bit length:     136
Symmetric key:            0000000000000000000000000000000000000000000000000000020000000000
Plaintext:                0000000000000000000000020000000000
Ciphertext:               332e5a193ef36abd0d90d9869d702b632e2d5f7edcdf36e01303265396ba342560
Reciphers for ciphertext: 0
Decipheredtext:           0000000000000000000000020000000000
RESULT CIPHER-DECIPHER: -----OK-----


Test: 87
Hash algorithm:       6
Sector size in bytes: 8192
Data unit:   0
Start block: 0
Symmetric key bit length: 256
Plaintext bit length:     136
Symmetric key:            0000000000000000000000000000000000000000000000000000010000000000
Plaintext:                0000000000000000000000010000000000
Ciphertext:               1bf5ece00617bcc1fcaf4536ac7c851d13161012dd244ee81877178decad7ed1d0c95aefd168cc1222117e71e1ce5eecb0
Reciphers for ciphertext: 0
Decipheredtext:           0000000000000000000000010000000000
RESULT CIPHER-DECIPHER: -----OK-----


Test: 88
Hash algorithm:       5
Sector size in bytes: 8192
Data unit:   0
Start block: 0
Symmetric key bit length: 256
Plaintext bit length:     136
Symmetric key:            0000000000000000000000000000000000000000000000000000008000000000
Plaintext:                0000000000000000000000008000000000
Ciphertext:               d85d2b512afa3e473f9ced1b94bb578dfbd1f31dde2e7cd73e74f0f450fce2b474ba471382bc1b75317fb277cf
Reciphers for ciphertext: 0
Decipheredtext:           0000000000000000000000008000000000
RESULT CIPHER-DECIPHER: -----OK-----


Test: 89
Hash algorithm:       12
Sector size in bytes: 8192
Data unit:   0
Start block: 0
Symmetric key bit length: 256
Plaintext bit length:     136
Symmetric key:            0000000000000000000000000000000000000000000000000000004000000000
Plaintext:                0000000000000000000000004000000000
Ciphertext:               af9353dab809f5a586f82d88e7fb8f204f64c7d26e5d6df45747cdbff2bae80cfc
Reciphers for ciphertext: 0
Decipheredtext:           0000000000000000000000004000000000
RESULT CIPHER-DECIPHER: -----OK-----


Test: 90
Hash algorithm:       9
Sector size in bytes: 12288
Data unit:   0
Start block: 0
Symmetric key bit length: 256
Plaintext bit length:     136
Symmetric key:            0000000000000000000000000000000000000000000000000000002000000000
Plaintext:                0000000000000000000000002000000000
Ciphertext:               a29fabe7e4b0897c15dbbef85ae451961f5551a9582fb4608b83fe05df98fd29911147afa52c15104c67fb67f2c2f23228
Reciphers for ciphertext: 0
Decipheredtext:           0000000000000000000000002000000000
RESULT CIPHER-DECIPHER: -----OK-----


Test: 91
Hash algorithm:       12
Sector size in bytes: 12288
Data unit:   0
Start block: 0
Symmetric key bit length: 256
Plaintext bit length:     136
Symmetric key:            0000000000000000000000000000000000000000000000000000001000000000
Plaintext:                0000000000000000000000001000000000
Ciphertext:               a0868f2fb3c7f5f923a28c6b32977f494bb400fc049b5bcac34bf9c002e9f363cc
Reciphers for ciphertext: 0
Decipheredtext:           0000000000000000000000001000000000
RESULT CIPHER-DECIPHER: -----OK-----


Test: 92
Hash algorithm:       1
Sector size in bytes: 12288
Data unit:   0
Start block: 0
Symmetric key bit length: 256
Plaintext bit length:     136
Symmetric key:            0000000000000000000000000000000000000000000000000000000800000000
Plaintext:                0000000000000000000000000800000000
Ciphertext:               ae48f8e64d4717b80702936ff25b647a870939695fa27519cb9995b6e070a72546edd57194d424ec3123025199
Reciphers for ciphertext: 0
Decipheredtext:           0000000000000000000000000800000000
RESULT CIPHER-DECIPHER: -----OK-----


Test: 93
Hash algorithm:       1
Sector size in bytes: 12288
Data unit:   0
Start block: 0
Symmetric key bit length: 256
Plaintext bit length:     136
Symmetric key:            0000000000000000000000000000000000000000000000000000000400000000
Plaintext:                0000000000000000000000000400000000
Ciphertext:               9db8ed3a4c3f884a84ffe51b59744482f51168c2523cc9b996648040510c38773b936f30ec4988c01a2dad8886
Reciphers for ciphertext: 0
Decipheredtext:           0000000000000000000000000400000000
RESULT CIPHER-DECIPHER: -----OK-----


Test: 94
Hash algorithm:       5
Sector size in bytes: 12288
Data unit:   0
Start block: 0
Symmetric key bit length: 256
Plaintext bit length:     136
Symmetric key:            0000000000000000000000000000000000000000000000000000000200000000
Plaintext:                0000000000000000000000000200000000
Ciphertext:               93eef301a8093f6d2b4c3337333433a66f1e3e71576d503d01ce6e96e5dc52c040d03fc74ec0de56cd64054272
Reciphers for ciphertext: 0
Decipheredtext:           0000000000000000000000000200000000
RESULT CIPHER-DECIPHER: -----OK-----


Test: 95
Hash algorithm:       10
Sector size in bytes: 12288
Data unit:   0
Start block: 0
Symmetric key bit length: 256
Plaintext bit length:     136
Symmetric key:            0000000000000000000000000000000000000000000000000000000100000000
Plaintext:                0000000000000000000000000100000000
Ciphertext:               bbf55e5c7680611c04f842b93cc7f70bcc9d9da9b670fc5e25f2c6275fdf081feaf40bf10c99550c8049549028c3440558c47e4a53d436560d
Reciphers for ciphertext: 0
Decipheredtext:           0000000000000000000000000100000000
RESULT CIPHER-DECIPHER: -----OK-----


Test: 96
Hash algorithm:       0
Sector size in bytes: 12288
Data unit:   0
Start block: 0
Symmetric key bit length: 256
Plaintext bit length:     136
Symmetric key:            0000000000000000000000000000000000000000000000000000000080000000
Plaintext:                0000000000000000000000000080000000
Ciphertext:               df6063ef70778927e3e98c38b65edbb153841c4c430051506b7767eece45bd83cc105bbc1a
Reciphers for ciphertext: 0
Decipheredtext:           0000000000000000000000000080000000
RESULT CIPHER-DECIPHER: -----OK-----


Test: 97
Hash algorithm:       2
Sector size in bytes: 12288
Data unit:   0
Start block: 0
Symmetric key bit length: 256
Plaintext bit length:     136
Symmetric key:            0000000000000000000000000000000000000000000000000000000040000000
Plaintext:                0000000000000000000000000040000000
Ciphertext:               bae7d8e5bbd5fb0a2be1eb5ce02ff32f7b9d908554120d2d1faf43bec8e8d0fde81ce5fecfd9ece9f416439603f5e385e7
Reciphers for ciphertext: 0
Decipheredtext:           0000000000000000000000000040000000
RESULT CIPHER-DECIPHER: -----OK-----


Test: 98
Hash algorithm:       11
Sector size in bytes: 12288
Data unit:   0
Start block: 0
Symmetric key bit length: 256
Plaintext bit length:     136
Symmetric key:            0000000000000000000000000000000000000000000000000000000020000000
Plaintext:                0000000000000000000000000020000000
Ciphertext:               b607da591840552f73b8dccc4feb0e827de213e2401e5d1d588b269caa9a296eac
Reciphers for ciphertext: 0
Decipheredtext:           0000000000000000000000000020000000
RESULT CIPHER-DECIPHER: -----OK-----


Test: 99
Hash algorithm:       1
Sector size in bytes: 12288
Data unit:   0
Start block: 0
Symmetric key bit length: 256
Plaintext bit length:     136
Symmetric key:            0000000000000000000000000000000000000000000000000000000010000000
Plaintext:                0000000000000000000000000010000000
Ciphertext:               44a79c3d0458ffc52f4ff3e6073fb939ffe1d916dd9437cee32761a1fb33f7ffe03aa1b4264d1b619e69e07233
Reciphers for ciphertext: 0
Decipheredtext:           0000000000000000000000000010000000
RESULT CIPHER-DECIPHER: -----OK-----


Test: 100
Hash algorithm:       5
Sector size in bytes: 16384
Data unit:   0
Start block: 0
Symmetric key bit length: 256
Plaintext bit length:     136
Symmetric key:            0000000000000000000000000000000000000000000000000000000008000000
Plaintext:                0000000000000000000000000008000000
Ciphertext:               47596f895f886bf736b1af66632f2b3d2fe7f4c486e49f743b4150937a52500f602f56d28d6da72831e25557e8
Reciphers for ciphertext: 0
Decipheredtext:           0000000000000000000000000008000000
RESULT CIPHER-DECIPHER: -----OK-----


Test: 101
Hash algorithm:       5
Sector size in bytes: 16384
Data unit:   0
Start block: 0
Symmetric key bit length: 256
Plaintext bit length:     136
Symmetric key:            0000000000000000000000000000000000000000000000000000000004000000
Plaintext:                0000000000000000000000000004000000
Ciphertext:               24c16d92d83c3416f2bd278c865f51de5ae31591d35311d73ea5ec1a2475ea7eb3dee295df067cbb547a26589d
Reciphers for ciphertext: 0
Decipheredtext:           0000000000000000000000000004000000
RESULT CIPHER-DECIPHER: -----OK-----


Test: 102
Hash algorithm:       2
Sector size in bytes: 16384
Data unit:   0
Start block: 0
Symmetric key bit length: 256
Plaintext bit length:     136
Symmetric key:            0000000000000000000000000000000000000000000000000000000002000000
Plaintext:                0000000000000000000000000002000000
Ciphertext:               790d69a370fd8b28deced1eb4b2537a8bee5caa0da51ed62633d88dfffcec301ed970da7ecb1031e9c453c310ca9a687a9
Reciphers for ciphertext: 0
Decipheredtext:           0000000000000000000000000002000000
RESULT CIPHER-DECIPHER: -----OK-----


Test: 103
Hash algorithm:       13
Sector size in bytes: 16384
Data unit:   0
Start block: 0
Symmetric key bit length: 256
Plaintext bit length:     136
Symmetric key:            0000000000000000000000000000000000000000000000000000000001000000
Plaintext:                0000000000000000000000000001000000
Ciphertext:               ae085fa327bd5628d85d53d33e25ab8c60d4e7cffbd07bf6f1cc605aec0a22252e
Reciphers for ciphertext: 0
Decipheredtext:           0000000000000000000000000001000000
RESULT CIPHER-DECIPHER: -----OK-----


Test: 104
Hash algorithm:       4
Sector size in bytes: 16384
Data unit:   0
Start block: 0
Symmetric key bit length: 256
Plaintext bit length:     136
Symmetric key:            0000000000000000000000000000000000000000000000000000000000800000
Plaintext:                0000000000000000000000000000800000
Ciphertext:               8d6a750a9783f51a7911a11e57699347997305a2af557663a2e2bf4c0df6dfc211d73eddd32121a5d6cb2de6ea19e11228869bab62f3aa476be760db7c8f022be9dbd61cdad3da051683cbd271bbcdb798
Reciphers for ciphertext: 0
Decipheredtext:           0000000000000000000000000000800000
RESULT CIPHER-DECIPHER: -----OK-----


Test: 105
Hash algorithm:       8
Sector size in bytes: 16384
Data unit:   0
Start block: 0
Symmetric key bit length: 256
Plaintext bit length:     136
Symmetric key:            0000000000000000000000000000000000000000000000000000000000400000
Plaintext:                0000000000000000000000000000400000
Ciphertext:               7bf3baa198d2ad37185bbb1351431cfdccefda7c526161fb47eba1249964e9c8985c9425ac
Reciphers for ciphertext: 0
Decipheredtext:           0000000000000000000000000000400000
RESULT CIPHER-DECIPHER: -----OK-----


Test: 106
Hash algorithm:       9
Sector size in bytes: 16384
Data unit:   0
Start block: 0
Symmetric key bit length: 256
Plaintext bit length:     136
Symmetric key:            0000000000000000000000000000000000000000000000000000000000200000
Plaintext:                0000000000000000000000000000200000
Ciphertext:               25f196c8d886e7224852fff267852c7e1d77ac8ea3c8dfb6d89a38363b5affc4cbf253f5edea0301686e70bdc566a36bd0
Reciphers for ciphertext: 0
Decipheredtext:           0000000000000000000000000000200000
RESULT CIPHER-DECIPHER: -----OK-----


Test: 107
Hash algorithm:       7
Sector size in bytes: 16384
Data unit:   0
Start block: 0
Symmetric key bit length: 256
Plaintext bit length:     136
Symmetric key:            0000000000000000000000000000000000000000000000000000000000100000
Plaintext:                0000000000000000000000000000100000
Ciphertext:               94339fa42c4b13f19d787c8ed09e4d2bd66ad8a6b300404073058f164828f417f4
Reciphers for ciphertext: 0
Decipheredtext:           0000000000000000000000000000100000
RESULT CIPHER-DECIPHER: -----OK-----


Test: 108
Hash algorithm:       8
Sector size in bytes: 16384
Data unit:   0
Start block: 0
Symmetric key bit length: 256
Plaintext bit length:     136
Symmetric key:            0000000000000000000000000000000000000000000000000000000000080000
Plaintext:                0000000000000000000000000000080000
Ciphertext:               1f7860c0a9f7227f51160b0cd133e3f1e13bba39e8b8a0206fde4e3afa64637e5e8fa7fe22
Reciphers for ciphertext: 0
Decipheredtext:           0000000000000000000000000000080000
RESULT CIPHER-DECIPHER: -----OK-----


Test: 109
Hash algorithm:       11
Sector size in bytes: 16384
Data unit:   0
Start block: 0
Symmetric key bit length: 256
Plaintext bit length:     136
Symmetric key:            0000000000000000000000000000000000000000000000000000000000040000
Plaintext:                0000000000000000000000000000040000
Ciphertext:               5fa26debb60ba90b1bf310ad62e858c109c5b5974fc581be16aa87be99aeef1325
Reciphers for ciphertext: 0
Decipheredtext:           0000000000000000000000000000040000
RESULT CIPHER-DECIPHER: -----OK-----


Test: 110
Hash algorithm:       3
Sector size in bytes: 24576
Data unit:   0
Start block: 0
Symmetric key bit length: 256
Plaintext bit length:     136
Symmetric key:            0000000000000000000000000000000000000000000000000000000000020000
Plaintext:                0000000000000000000000000000020000
Ciphertext:               c870f6c12b9b201f939a59b847ea469ce82c44d6a8c9cdee5657cc91cec20004c94311cf14af7e5caf645c94e890814ac8023f3ebf645adfb3e6181a0097c522f5
Reciphers for ciphertext: 0
Decipheredtext:           0000000000000000000000000000020000
RESULT CIPHER-DECIPHER: -----OK-----


Test: 111
Hash algorithm:       13
Sector size in bytes: 24576
Data unit:   0
Start block: 0
Symmetric key bit length: 256
Plaintext bit length:     136
Symmetric key:            0000000000000000000000000000000000000000000000000000000000010000
Plaintext:                0000000000000000000000000000010000
Ciphertext:               0f8f8971fd75320ce52796173d55dc505a60e633dd103a69a41de99a419262aec7
Reciphers for ciphertext: 0
Decipheredtext:           0000000000000000000000000000010000
RESULT CIPHER-DECIPHER: -----OK-----


Test: 112
Hash algorithm:       10
Sector size in bytes: 24576
Data unit:   0
Start block: 0
Symmetric key bit length: 256
Plaintext bit length:     136
Symmetric key:            0000000000000000000000000000000000000000000000000000000000008000
Plaintext:                0000000000000000000000000000008000
Ciphertext:               466f37a2b46651ba6d0ffbd16728b6d0b0e931a7b0fe3b06b7b255c124ac4474bc0d798460f94da70536b8526e7786844765c20e44fb79c020
Reciphers for ciphertext: 0
Decipheredtext:           0000000000000000000000000000008000
RESULT CIPHER-DECIPHER: -----OK-----


Test: 113
Hash algorithm:       10
Sector size in bytes: 24576
Data unit:   0
Start block: 0
Symmetric key bit length: 256
Plaintext bit length:     136
Symmetric key:            0000000000000000000000000000000000000000000000000000000000004000
Plaintext:                0000000000000000000000000000004000
Ciphertext:               d40740552c9070d44f6606093bda99fd4a2a414b061ce55104c85349835e59b41a0a5eb887da95fd6f73cdc954c4af99b0ed0eba2958eaebb8
Reciphers for ciphertext: 0
Decipheredtext:           0000000000000000000000000000004000
RESULT CIPHER-DECIPHER: -----OK-----


Test: 114
Hash algorithm:       10
Sector size in bytes: 24576
Data unit:   0
Start block: 0
Symmetric key bit length: 256
Plaintext bit length:     136
Symmetric key:            0000000000000000000000000000000000000000000000000000000000002000
Plaintext:                0000000000000000000000000000002000
Ciphertext:               4a54fab5d710cde0bd8bcfeddb8ada0f2cbbc030e85b7fe424c9d7928bff36cea0ebf56b787410312d48a45fb00d23027165d2d005a78a20a6
Reciphers for ciphertext: 0
Decipheredtext:           0000000000000000000000000000002000
RESULT CIPHER-DECIPHER: -----OK-----


Test: 115
Hash algorithm:       8
Sector size in bytes: 24576
Data unit:   0
Start block: 0
Symmetric key bit length: 256
Plaintext bit length:     136
Symmetric key:            0000000000000000000000000000000000000000000000000000000000001000
Plaintext:                0000000000000000000000000000001000
Ciphertext:               25dc61e328733ffd90c483bc6d69ace653b23b548f4a6add84081c46601b8ab4ae426a83a5
Reciphers for ciphertext: 0
Decipheredtext:           0000000000000000000000000000001000
RESULT CIPHER-DECIPHER: -----OK-----


Test: 116
Hash algorithm:       0
Sector size in bytes: 24576
Data unit:   0
Start block: 0
Symmetric key bit length: 256
Plaintext bit length:     136
Symmetric key:            0000000000000000000000000000000000000000000000000000000000000800
Plaintext:                0000000000000000000000000000000800
Ciphertext:               0867ec67766eda6a1ff2eff4f2c72451ea55d767f21d7f8613986071d1b186823982982748
Reciphers for ciphertext: 0
Decipheredtext:           0000000000000000000000000000000800
RESULT CIPHER-DECIPHER: -----OK-----


Test: 117
Hash algorithm:       11
Sector size in bytes: 24576
Data unit:   0
Start block: 0
Symmetric key bit length: 256
Plaintext bit length:     136
Symmetric key:            0000000000000000000000000000000000000000000000000000000000000400
Plaintext:                0000000000000000000000000000000400
Ciphertext:               ef78ea994c29d2a475982331e1a992e6d339e823c3731f761090d400e1a1458edd
Reciphers for ciphertext: 0
Decipheredtext:           0000000000000000000000000000000400
RESULT CIPHER-DECIPHER: -----OK-----


Test: 118
Hash algorithm:       11
Sector size in bytes: 24576
Data unit:   0
Start block: 0
Symmetric key bit length: 256
Plaintext bit length:     136
Symmetric key:            0000000000000000000000000000000000000000000000000000000000000200
Plaintext:                0000000000000000000000000000000200
Ciphertext:               e1a96d3eacb417bffcc3d0dad597b970f53932c0937d0026968f16df10eb39c952
Reciphers for ciphertext: 0
Decipheredtext:           0000000000000000000000000000000200
RESULT CIPHER-DECIPHER: -----OK-----


Test: 119
Hash algorithm:       4
Sector size in bytes: 24576
Data unit:   0
Start block: 0
Symmetric key bit length: 256
Plaintext bit length:     136
Symmetric key:            0000000000000000000000000000000000000000000000000000000000000100
Plaintext:                0000000000000000000000000000000100
Ciphertext:               037a67bba73c89d5633d21684496656fa2e356a3337942cbe2d7d81eaef5ed1cb16a43ab18e29dbaafe719e4b993bfc5c7b909759741d28e42ef604193a65f2efcf0fd11e3516b871253a8a07b2140edfd
Reciphers for ciphertext: 0
Decipheredtext:           0000000000000000000000000000000100
RESULT CIPHER-DECIPHER: -----OK-----


Test: 120
Hash algorithm:       5
Sector size in bytes: 32768
Data unit:   0
Start block: 0
Symmetric key bit length: 256
Plaintext bit length:     136
Symmetric key:            0000000000000000000000000000000000000000000000000000000000000080
Plaintext:                0000000000000000000000000000000080
Ciphertext:               1a384b6db602861fc0ed71fc53c3b01635faea9a0bd0865f57d026a819fe4d2051181724aada48f1af14d30564
Reciphers for ciphertext: 0
Decipheredtext:           0000000000000000000000000000000080
RESULT CIPHER-DECIPHER: -----OK-----


Test: 121
Hash algorithm:       11
Sector size in bytes: 32768
Data unit:   0
Start block: 0
Symmetric key bit length: 256
Plaintext bit length:     136
Symmetric key:            0000000000000000000000000000000000000000000000000000000000000040
Plaintext:                0000000000000000000000000000000040
Ciphertext:               2be45bc7e27f437c2eb1dae10c9ef037fdcd0401381e02f151b412321baa637cd7
Reciphers for ciphertext: 0
Decipheredtext:           0000000000000000000000000000000040
RESULT CIPHER-DECIPHER: -----OK-----


Test: 122
Hash algorithm:       10
Sector size in bytes: 32768
Data unit:   0
Start block: 0
Symmetric key bit length: 256
Plaintext bit length:     136
Symmetric key:            0000000000000000000000000000000000000000000000000000000000000020
Plaintext:                0000000000000000000000000000000020
Ciphertext:               6f59fdaa8591da61132e877fc44619b251f1b7d0aea495f0207feb7947c09a4a28fce5a2b09fb2b29c3a7703869c06920222c608c98da184be
Reciphers for ciphertext: 0
Decipheredtext:           0000000000000000000000000000000020
RESULT CIPHER-DECIPHER: -----OK-----


Test: 123
Hash algorithm:       4
Sector size in bytes: 32768
Data unit:   0
Start block: 0
Symmetric key bit length: 256
Plaintext bit length:     136
Symmetric key:            0000000000000000000000000000000000000000000000000000000000000010
Plaintext:                0000000000000000000000000000000010
Ciphertext:               532d29a798e9c8dacf61f54243d27f32521f96655ab3becb5069f329861e92f39f18cdb4b875b555c9d40248daca404cb41a476bee7b83d37cbb71c1feddeb167458fd5b18b719fd91ec3ae23a14e39fdb
Reciphers for ciphertext: 0
Decipheredtext:           0000000000000000000000000000000010
RESULT CIPHER-DECIPHER: -----OK-----


Test: 124
Hash algorithm:       12
Sector size in bytes: 32768
Data unit:   0
Start block: 0
Symmetric key bit length: 256
Plaintext bit length:     136
Symmetric key:            0000000000000000000000000000000000000000000000000000000000000008
Plaintext:                0000000000000000000000000000000008
Ciphertext:               a07b98d406096792af410bebb6dcbb374f07a1b8d4dfcb1408170678885e03fffc
Reciphers for ciphertext: 0
Decipheredtext:           0000000000000000000000000000000008
RESULT CIPHER-DECIPHER: -----OK-----


Test: 125
Hash algorithm:       13
Sector size in bytes: 32768
Data unit:   0
Start block: 0
Symmetric key bit length: 256
Plaintext bit length:     136
Symmetric key:            0000000000000000000000000000000000000000000000000000000000000004
Plaintext:                0000000000000000000000000000000004
Ciphertext:               d58a6fdd22ddf1eb6e3bfb5504240a63c3d2b072443bdb8123cd41a9fa8f61c988
Reciphers for ciphertext: 0
Decipheredtext:           0000000000000000000000000000000004
RESULT CIPHER-DECIPHER: -----OK-----


Test: 126
Hash algorithm:       4
Sector size in bytes: 32768
Data unit:   0
Start block: 0
Symmetric key bit length: 256
Plaintext bit length:     136
Symmetric key:            0000000000000000000000000000000000000000000000000000000000000002
Plaintext:                0000000000000000000000000000000002
Ciphertext:               fb0d917069171aa41eecc478a84fed51ee0f724d6a6f1a449d4f67ea565580bcb745695c9785a4ff873638d65882a647d0f720bb1b7b50a211a00673d47459d7de87bb541456a784276fd7e29892ad1f38
Reciphers for ciphertext: 0
Decipheredtext:           0000000000000000000000000000000002
RESULT CIPHER-DECIPHER: -----OK-----


Test: 127
Hash algorithm:       11
Sector size in bytes: 32768
Data unit:   0
Start block: 0
Symmetric key bit length: 256
Plaintext bit length:     136
Symmetric key:            0000000000000000000000000000000000000000000000000000000000000001
Plaintext:                0000000000000000000000000000000001
Ciphertext:               20b5a8cf472339f158bf1f2548f7415ee20ddfb99b8599397859b3675ae6c2d46e
Reciphers for ciphertext: 0
Decipheredtext:           0000000000000000000000000000000001
RESULT CIPHER-DECIPHER: -----OK-----


 DATA SHA1 (hexadecimal): 0818b8a62a8fa8da8036367dac2e5db4aad2a77c

