
DiceLock 9.0.0.1

 TEST COMPONENTS:
 ----------------
 DiceLock:           DiceLockXTSDigested class
                     Operating based on storage sector size length
 Operation Mode:     XTS_Mode class
 Block Cipher:       Twofish256 class
 Hash algorithms:     0 - Sha1 class
                      1 - Sha224 class
                      2 - Sha256 class
                      3 - Sha384 class
                      4 - Sha512 class
                      5 - Sha512_224 class
                      6 - Sha512_256 class
                      7 - Ripemd128 class
                      8 - Ripemd160 class
                      9 - Ripemd256 class
                     10 - Ripemd320 class
                     11 - MD2 class
                     12 - MD4 class
                     13 - MD5 class
 Key Modifier:       DecreaseKeyModifier_6_0_0_1 class
 Random tests:       RandomTestSuite class
                     FrequencyTest class
                     BlockFrequencyTest class
                     CumulativeSumForwardTest class
                     LongestRunOfOnesTest class
                     RunsTest class
 Random alpha:       0.001

 VECTOR TEST: Test vector 2 - Changing symmetric key and plaintext, shifting 1 bit set


##### INDIVIDUAL TESTS #####

Number tests: 128


Test: 0
Hash algorithm:       1
Sector size in bytes: 512
Data unit:   0
Start block: 0
Symmetric key bit length: 512
Plaintext bit length:     128
Symmetric key:            00000000000000000000000000000000000000000000000000000000000000000000000000000000000000000000000080000000000000000000000000000000
Plaintext:                80000000000000000000000000000000
Ciphertext:               3495f6efb60ce7f637c492dfdebaad8a53501400ac6ffd2bb7eddda044e4e421a5765ecbabb40159cfa14cb3
Reciphers for ciphertext: 0
Decipheredtext:           80000000000000000000000000000000
RESULT CIPHER-DECIPHER: -----OK-----


Test: 1
Hash algorithm:       10
Sector size in bytes: 512
Data unit:   0
Start block: 0
Symmetric key bit length: 512
Plaintext bit length:     128
Symmetric key:            00000000000000000000000000000000000000000000000000000000000000000000000000000000000000000000000040000000000000000000000000000000
Plaintext:                40000000000000000000000000000000
Ciphertext:               1d59275715e21fad8a2c5b6db9990fd1370df44e4d0246844062ebba8488d0ea4a3e5d3368a5441f59fc58cdff287295dda99c3ede9c6725
Reciphers for ciphertext: 0
Decipheredtext:           40000000000000000000000000000000
RESULT CIPHER-DECIPHER: -----OK-----


Test: 2
Hash algorithm:       4
Sector size in bytes: 512
Data unit:   0
Start block: 0
Symmetric key bit length: 512
Plaintext bit length:     128
Symmetric key:            00000000000000000000000000000000000000000000000000000000000000000000000000000000000000000000000020000000000000000000000000000000
Plaintext:                20000000000000000000000000000000
Ciphertext:               693b767e0c35f49da5dd93e54408c8c662bf824119b1b111ef71fc869ed47f20af2f9fba61661ee52307e7ffd147272e0908dcf4e817bc5b1eba841fcd2c020d00bacaa3aa35ed72f3b9c6806552c93f
Reciphers for ciphertext: 0
Decipheredtext:           20000000000000000000000000000000
RESULT CIPHER-DECIPHER: -----OK-----


Test: 3
Hash algorithm:       12
Sector size in bytes: 512
Data unit:   0
Start block: 0
Symmetric key bit length: 512
Plaintext bit length:     128
Symmetric key:            00000000000000000000000000000000000000000000000000000000000000000000000000000000000000000000000010000000000000000000000000000000
Plaintext:                10000000000000000000000000000000
Ciphertext:               63c30920793e98be6100aa99457eda941f060f8920174fff6ff9c797fa7f5cd0
Reciphers for ciphertext: 0
Decipheredtext:           10000000000000000000000000000000
RESULT CIPHER-DECIPHER: -----OK-----


Test: 4
Hash algorithm:       6
Sector size in bytes: 512
Data unit:   0
Start block: 0
Symmetric key bit length: 512
Plaintext bit length:     128
Symmetric key:            00000000000000000000000000000000000000000000000000000000000000000000000000000000000000000000000008000000000000000000000000000000
Plaintext:                08000000000000000000000000000000
Ciphertext:               4046e2d7e91884e313a5b6f3d796e38b0c0b5133ee2fff14216bb85c521d11f1825384d2238eb7a3206e3bd1c6dbdfab
Reciphers for ciphertext: 0
Decipheredtext:           08000000000000000000000000000000
RESULT CIPHER-DECIPHER: -----OK-----


Test: 5
Hash algorithm:       13
Sector size in bytes: 512
Data unit:   0
Start block: 0
Symmetric key bit length: 512
Plaintext bit length:     128
Symmetric key:            00000000000000000000000000000000000000000000000000000000000000000000000000000000000000000000000004000000000000000000000000000000
Plaintext:                04000000000000000000000000000000
Ciphertext:               cf131872c55077fc46fe8376526cf162251f07b2005a742f4cb8541e0e3507f6
Reciphers for ciphertext: 0
Decipheredtext:           04000000000000000000000000000000
RESULT CIPHER-DECIPHER: -----OK-----


Test: 6
Hash algorithm:       13
Sector size in bytes: 512
Data unit:   0
Start block: 0
Symmetric key bit length: 512
Plaintext bit length:     128
Symmetric key:            00000000000000000000000000000000000000000000000000000000000000000000000000000000000000000000000002000000000000000000000000000000
Plaintext:                02000000000000000000000000000000
Ciphertext:               0001ba92a27266c619e528c7761b6d47224f89e4e973b056ccdb3ad072eb6877
Reciphers for ciphertext: 0
Decipheredtext:           02000000000000000000000000000000
RESULT CIPHER-DECIPHER: -----OK-----


Test: 7
Hash algorithm:       9
Sector size in bytes: 512
Data unit:   0
Start block: 0
Symmetric key bit length: 512
Plaintext bit length:     128
Symmetric key:            00000000000000000000000000000000000000000000000000000000000000000000000000000000000000000000000001000000000000000000000000000000
Plaintext:                01000000000000000000000000000000
Ciphertext:               210047034b993e1ee51a6822db885cc0aa787fdb8b6c47c9fce79a58cd334f4e373ae390115bfc60218dfa77c558fb83
Reciphers for ciphertext: 0
Decipheredtext:           01000000000000000000000000000000
RESULT CIPHER-DECIPHER: -----OK-----


Test: 8
Hash algorithm:       5
Sector size in bytes: 512
Data unit:   0
Start block: 0
Symmetric key bit length: 512
Plaintext bit length:     128
Symmetric key:            00000000000000000000000000000000000000000000000000000000000000000000000000000000000000000000000000800000000000000000000000000000
Plaintext:                00800000000000000000000000000000
Ciphertext:               cf89fa4e19fe731b8c4546fb0adab4d3027de471299a1ca9f8bb2d95a8bc05b54dbf5951be48553a12b71056
Reciphers for ciphertext: 0
Decipheredtext:           00800000000000000000000000000000
RESULT CIPHER-DECIPHER: -----OK-----


Test: 9
Hash algorithm:       8
Sector size in bytes: 512
Data unit:   0
Start block: 0
Symmetric key bit length: 512
Plaintext bit length:     128
Symmetric key:            00000000000000000000000000000000000000000000000000000000000000000000000000000000000000000000000000400000000000000000000000000000
Plaintext:                00400000000000000000000000000000
Ciphertext:               fe9caa9198209d1369a27c7a1e32ad21d89f1da0df41d7f2ee307293c41856e5bb90553b
Reciphers for ciphertext: 0
Decipheredtext:           00400000000000000000000000000000
RESULT CIPHER-DECIPHER: -----OK-----


Test: 10
Hash algorithm:       4
Sector size in bytes: 1024
Data unit:   0
Start block: 0
Symmetric key bit length: 512
Plaintext bit length:     128
Symmetric key:            00000000000000000000000000000000000000000000000000000000000000000000000000000000000000000000000000200000000000000000000000000000
Plaintext:                00200000000000000000000000000000
Ciphertext:               20e8124daeeae933665cafb89a6907befc14c023f46734888e79ffd7ea019651420bde5582bf78dcea21baca34d5b30701c992c0b506dcb985fb2f0fbb055176162b44d14e5c35f71c6b85049f5f5fbb
Reciphers for ciphertext: 0
Decipheredtext:           00200000000000000000000000000000
RESULT CIPHER-DECIPHER: -----OK-----


Test: 11
Hash algorithm:       12
Sector size in bytes: 1024
Data unit:   0
Start block: 0
Symmetric key bit length: 512
Plaintext bit length:     128
Symmetric key:            00000000000000000000000000000000000000000000000000000000000000000000000000000000000000000000000000100000000000000000000000000000
Plaintext:                00100000000000000000000000000000
Ciphertext:               86e508d897b2f5d05e61a5b52119db2fd27b18a1acaf3932cbc7abc4a4b1bb90
Reciphers for ciphertext: 0
Decipheredtext:           00100000000000000000000000000000
RESULT CIPHER-DECIPHER: -----OK-----


Test: 12
Hash algorithm:       7
Sector size in bytes: 1024
Data unit:   0
Start block: 0
Symmetric key bit length: 512
Plaintext bit length:     128
Symmetric key:            00000000000000000000000000000000000000000000000000000000000000000000000000000000000000000000000000080000000000000000000000000000
Plaintext:                00080000000000000000000000000000
Ciphertext:               c72a50f6950e238d7268357ea52fc1920b4265c60b97db448e797ef31bdee04a
Reciphers for ciphertext: 0
Decipheredtext:           00080000000000000000000000000000
RESULT CIPHER-DECIPHER: -----OK-----


Test: 13
Hash algorithm:       7
Sector size in bytes: 1024
Data unit:   0
Start block: 0
Symmetric key bit length: 512
Plaintext bit length:     128
Symmetric key:            00000000000000000000000000000000000000000000000000000000000000000000000000000000000000000000000000040000000000000000000000000000
Plaintext:                00040000000000000000000000000000
Ciphertext:               c6e7686c20d5853c365394e6239c8e0347c2dcfea96fde2dcfc3c54f3bca7f93
Reciphers for ciphertext: 0
Decipheredtext:           00040000000000000000000000000000
RESULT CIPHER-DECIPHER: -----OK-----


Test: 14
Hash algorithm:       8
Sector size in bytes: 1024
Data unit:   0
Start block: 0
Symmetric key bit length: 512
Plaintext bit length:     128
Symmetric key:            00000000000000000000000000000000000000000000000000000000000000000000000000000000000000000000000000020000000000000000000000000000
Plaintext:                00020000000000000000000000000000
Ciphertext:               94cb29141604bb16ec01d0c20e19e4eee1e67e654c66ae2f5931d79e9642bc56137abde9
Reciphers for ciphertext: 0
Decipheredtext:           00020000000000000000000000000000
RESULT CIPHER-DECIPHER: -----OK-----


Test: 15
Hash algorithm:       11
Sector size in bytes: 1024
Data unit:   0
Start block: 0
Symmetric key bit length: 512
Plaintext bit length:     128
Symmetric key:            00000000000000000000000000000000000000000000000000000000000000000000000000000000000000000000000000010000000000000000000000000000
Plaintext:                00010000000000000000000000000000
Ciphertext:               7cebdf1fd4e3d6b4e288d4cae4d70131e028d14d6ef03365a2b6db3f28dbbb5c
Reciphers for ciphertext: 0
Decipheredtext:           00010000000000000000000000000000
RESULT CIPHER-DECIPHER: -----OK-----


Test: 16
Hash algorithm:       3
Sector size in bytes: 1024
Data unit:   0
Start block: 0
Symmetric key bit length: 512
Plaintext bit length:     128
Symmetric key:            00000000000000000000000000000000000000000000000000000000000000000000000000000000000000000000000000008000000000000000000000000000
Plaintext:                00008000000000000000000000000000
Ciphertext:               da95a98a2939e1c757a0b973deca9f6318201a2fb72384e99f481f09ddcbe988d06d78450442a193dc830bcef2013b0c7f07500ae85b9aac065a796df0a23c20
Reciphers for ciphertext: 0
Decipheredtext:           00008000000000000000000000000000
RESULT CIPHER-DECIPHER: -----OK-----


Test: 17
Hash algorithm:       10
Sector size in bytes: 1024
Data unit:   0
Start block: 0
Symmetric key bit length: 512
Plaintext bit length:     128
Symmetric key:            00000000000000000000000000000000000000000000000000000000000000000000000000000000000000000000000000004000000000000000000000000000
Plaintext:                00004000000000000000000000000000
Ciphertext:               cb696d2d3b0431daab6c10077db8a6a904c40b4d6156c0427c20fe72219ab3ad5751d92e74cf113fbfd08d41256444ebee03fc8a26aa9aab
Reciphers for ciphertext: 0
Decipheredtext:           00004000000000000000000000000000
RESULT CIPHER-DECIPHER: -----OK-----


Test: 18
Hash algorithm:       11
Sector size in bytes: 1024
Data unit:   0
Start block: 0
Symmetric key bit length: 512
Plaintext bit length:     128
Symmetric key:            00000000000000000000000000000000000000000000000000000000000000000000000000000000000000000000000000002000000000000000000000000000
Plaintext:                00002000000000000000000000000000
Ciphertext:               9ffb2bf7357a7a7a023e31f48918c21f27f3968bc15e827463d74632a361c542
Reciphers for ciphertext: 0
Decipheredtext:           00002000000000000000000000000000
RESULT CIPHER-DECIPHER: -----OK-----


Test: 19
Hash algorithm:       3
Sector size in bytes: 1024
Data unit:   0
Start block: 0
Symmetric key bit length: 512
Plaintext bit length:     128
Symmetric key:            00000000000000000000000000000000000000000000000000000000000000000000000000000000000000000000000000001000000000000000000000000000
Plaintext:                00001000000000000000000000000000
Ciphertext:               e49350d30e3e6235174d0f0ecaa8741711830c5fcb9c52416f2bb2d1fefcc514a751c8f547692cd2ce967a15896d2fae57781c88235525c2c17147a0c454a13b
Reciphers for ciphertext: 0
Decipheredtext:           00001000000000000000000000000000
RESULT CIPHER-DECIPHER: -----OK-----


Test: 20
Hash algorithm:       10
Sector size in bytes: 1536
Data unit:   0
Start block: 0
Symmetric key bit length: 512
Plaintext bit length:     128
Symmetric key:            00000000000000000000000000000000000000000000000000000000000000000000000000000000000000000000000000000800000000000000000000000000
Plaintext:                00000800000000000000000000000000
Ciphertext:               78422d364f14a4ec140572c2fae10bbe6929489b26a7320d79da5c20e11704d0a54591c7aa260bfbc14472f56854d3a3ac24a699307ca81a
Reciphers for ciphertext: 0
Decipheredtext:           00000800000000000000000000000000
RESULT CIPHER-DECIPHER: -----OK-----


Test: 21
Hash algorithm:       4
Sector size in bytes: 1536
Data unit:   0
Start block: 0
Symmetric key bit length: 512
Plaintext bit length:     128
Symmetric key:            00000000000000000000000000000000000000000000000000000000000000000000000000000000000000000000000000000400000000000000000000000000
Plaintext:                00000400000000000000000000000000
Ciphertext:               da3909af3ac4921ab10a80dae5bb8a07d64db5574686f9dfb50bd8026baca60151dd386e4d0e77ae118b0b22b90b50c5a24df35a3b0580b4d5ceb6a9e6961418968e723530df4dc49f14a47d7ac4025b
Reciphers for ciphertext: 0
Decipheredtext:           00000400000000000000000000000000
RESULT CIPHER-DECIPHER: -----OK-----


Test: 22
Hash algorithm:       8
Sector size in bytes: 1536
Data unit:   0
Start block: 0
Symmetric key bit length: 512
Plaintext bit length:     128
Symmetric key:            00000000000000000000000000000000000000000000000000000000000000000000000000000000000000000000000000000200000000000000000000000000
Plaintext:                00000200000000000000000000000000
Ciphertext:               bbab083c42a63ba1da625d25558b53c8e24aed37ba5b8b6e28ad07533994db8a2effd3d5
Reciphers for ciphertext: 0
Decipheredtext:           00000200000000000000000000000000
RESULT CIPHER-DECIPHER: -----OK-----


Test: 23
Hash algorithm:       11
Sector size in bytes: 1536
Data unit:   0
Start block: 0
Symmetric key bit length: 512
Plaintext bit length:     128
Symmetric key:            00000000000000000000000000000000000000000000000000000000000000000000000000000000000000000000000000000100000000000000000000000000
Plaintext:                00000100000000000000000000000000
Ciphertext:               f3573ace0b3c156382bdd1ba292b8baabe65167d6ea94aea63f8634e1f52b8cc
Reciphers for ciphertext: 0
Decipheredtext:           00000100000000000000000000000000
RESULT CIPHER-DECIPHER: -----OK-----


Test: 24
Hash algorithm:       0
Sector size in bytes: 1536
Data unit:   0
Start block: 0
Symmetric key bit length: 512
Plaintext bit length:     128
Symmetric key:            00000000000000000000000000000000000000000000000000000000000000000000000000000000000000000000000000000080000000000000000000000000
Plaintext:                00000080000000000000000000000000
Ciphertext:               c1f83b86222bb2ec86fe511d6ad1da7b1824bcaa9ba0372f7be93c6ddb929e6a4bb3eee9
Reciphers for ciphertext: 0
Decipheredtext:           00000080000000000000000000000000
RESULT CIPHER-DECIPHER: -----OK-----


Test: 25
Hash algorithm:       4
Sector size in bytes: 1536
Data unit:   0
Start block: 0
Symmetric key bit length: 512
Plaintext bit length:     128
Symmetric key:            00000000000000000000000000000000000000000000000000000000000000000000000000000000000000000000000000000040000000000000000000000000
Plaintext:                00000040000000000000000000000000
Ciphertext:               e2ecc7ac6f792a1cde88eaba734562760581d464406a85e7addb1b10a5bed5ff83447a8646b4e57a9f3793e3adee77e8963e894ec55852e5f1c854ff5dd85b53d5ff4dc8e62f3e0683b3c54317774223
Reciphers for ciphertext: 0
Decipheredtext:           00000040000000000000000000000000
RESULT CIPHER-DECIPHER: -----OK-----


Test: 26
Hash algorithm:       12
Sector size in bytes: 1536
Data unit:   0
Start block: 0
Symmetric key bit length: 512
Plaintext bit length:     128
Symmetric key:            00000000000000000000000000000000000000000000000000000000000000000000000000000000000000000000000000000020000000000000000000000000
Plaintext:                00000020000000000000000000000000
Ciphertext:               c5e87c8110f299d491433cb3e96bc3429d2f3340c85be2bdf19454f6a303fcba
Reciphers for ciphertext: 0
Decipheredtext:           00000020000000000000000000000000
RESULT CIPHER-DECIPHER: -----OK-----


Test: 27
Hash algorithm:       9
Sector size in bytes: 1536
Data unit:   0
Start block: 0
Symmetric key bit length: 512
Plaintext bit length:     128
Symmetric key:            00000000000000000000000000000000000000000000000000000000000000000000000000000000000000000000000000000010000000000000000000000000
Plaintext:                00000010000000000000000000000000
Ciphertext:               412f33e6a4e015e1f0766267f9be0f61ae3106471a6b5f1c09e4d72e806ab9373fcdc8e1af770fbee49475035d57f9b0
Reciphers for ciphertext: 0
Decipheredtext:           00000010000000000000000000000000
RESULT CIPHER-DECIPHER: -----OK-----


Test: 28
Hash algorithm:       8
Sector size in bytes: 1536
Data unit:   0
Start block: 0
Symmetric key bit length: 512
Plaintext bit length:     128
Symmetric key:            00000000000000000000000000000000000000000000000000000000000000000000000000000000000000000000000000000008000000000000000000000000
Plaintext:                00000008000000000000000000000000
Ciphertext:               6fc754fb4c221aef8f71ba2974ed2c1d0a42b36009301d1c1c7a527065d7694f8fb951f6
Reciphers for ciphertext: 0
Decipheredtext:           00000008000000000000000000000000
RESULT CIPHER-DECIPHER: -----OK-----


Test: 29
Hash algorithm:       5
Sector size in bytes: 1536
Data unit:   0
Start block: 0
Symmetric key bit length: 512
Plaintext bit length:     128
Symmetric key:            00000000000000000000000000000000000000000000000000000000000000000000000000000000000000000000000000000004000000000000000000000000
Plaintext:                00000004000000000000000000000000
Ciphertext:               d1be2b1de90dc6fbec099eb57c4841a88297b173d3000d2326ad13c6ab04daa03124db0938cde000598e3efa
Reciphers for ciphertext: 0
Decipheredtext:           00000004000000000000000000000000
RESULT CIPHER-DECIPHER: -----OK-----


Test: 30
Hash algorithm:       11
Sector size in bytes: 2048
Data unit:   0
Start block: 0
Symmetric key bit length: 512
Plaintext bit length:     128
Symmetric key:            00000000000000000000000000000000000000000000000000000000000000000000000000000000000000000000000000000002000000000000000000000000
Plaintext:                00000002000000000000000000000000
Ciphertext:               9006d8de544380227723522a9efccc869142cc341ed1855d3cba5dbc3a340d98
Reciphers for ciphertext: 0
Decipheredtext:           00000002000000000000000000000000
RESULT CIPHER-DECIPHER: -----OK-----


Test: 31
Hash algorithm:       10
Sector size in bytes: 2048
Data unit:   0
Start block: 0
Symmetric key bit length: 512
Plaintext bit length:     128
Symmetric key:            00000000000000000000000000000000000000000000000000000000000000000000000000000000000000000000000000000001000000000000000000000000
Plaintext:                00000001000000000000000000000000
Ciphertext:               c6f31a6f5bcbf127e87f345c98d7696dc72705bb87080e20f95aae88ac44c28e100200452778496156ce0fb4fa4948d284ae970a3949df77
Reciphers for ciphertext: 0
Decipheredtext:           00000001000000000000000000000000
RESULT CIPHER-DECIPHER: -----OK-----


Test: 32
Hash algorithm:       1
Sector size in bytes: 2048
Data unit:   0
Start block: 0
Symmetric key bit length: 512
Plaintext bit length:     128
Symmetric key:            00000000000000000000000000000000000000000000000000000000000000000000000000000000000000000000000000000000800000000000000000000000
Plaintext:                00000000800000000000000000000000
Ciphertext:               bfee552e6767ebd91e6946d871f569b6de63d52cee50acfdb4a270db0f6adb81111db848aff3d3e58a8c1367
Reciphers for ciphertext: 0
Decipheredtext:           00000000800000000000000000000000
RESULT CIPHER-DECIPHER: -----OK-----


Test: 33
Hash algorithm:       1
Sector size in bytes: 2048
Data unit:   0
Start block: 0
Symmetric key bit length: 512
Plaintext bit length:     128
Symmetric key:            00000000000000000000000000000000000000000000000000000000000000000000000000000000000000000000000000000000400000000000000000000000
Plaintext:                00000000400000000000000000000000
Ciphertext:               2413c37d0b3a8c7c49b1d198dc61d95c993728cbbe4b8ce0e41a72f18c9a64c58975dc7c1980bbbefec116bd
Reciphers for ciphertext: 0
Decipheredtext:           00000000400000000000000000000000
RESULT CIPHER-DECIPHER: -----OK-----


Test: 34
Hash algorithm:       13
Sector size in bytes: 2048
Data unit:   0
Start block: 0
Symmetric key bit length: 512
Plaintext bit length:     128
Symmetric key:            00000000000000000000000000000000000000000000000000000000000000000000000000000000000000000000000000000000200000000000000000000000
Plaintext:                00000000200000000000000000000000
Ciphertext:               b1aef6eb84e7682d50791e6f168c9ef75ab9f3628d281c09d8c0ddea56654905
Reciphers for ciphertext: 0
Decipheredtext:           00000000200000000000000000000000
RESULT CIPHER-DECIPHER: -----OK-----


Test: 35
Hash algorithm:       1
Sector size in bytes: 2048
Data unit:   0
Start block: 0
Symmetric key bit length: 512
Plaintext bit length:     128
Symmetric key:            00000000000000000000000000000000000000000000000000000000000000000000000000000000000000000000000000000000100000000000000000000000
Plaintext:                00000000100000000000000000000000
Ciphertext:               f1eb68dbea3a9d06f0d8323c94e514ce8ab324ef081532a08224bbc7113b6f0d4b48970e59ad533284b0bf1c
Reciphers for ciphertext: 0
Decipheredtext:           00000000100000000000000000000000
RESULT CIPHER-DECIPHER: -----OK-----


Test: 36
Hash algorithm:       3
Sector size in bytes: 2048
Data unit:   0
Start block: 0
Symmetric key bit length: 512
Plaintext bit length:     128
Symmetric key:            00000000000000000000000000000000000000000000000000000000000000000000000000000000000000000000000000000000080000000000000000000000
Plaintext:                00000000080000000000000000000000
Ciphertext:               3ebf5ab2e9ea87c104efe5ea3ae573795abb65f846956bc53a242f234fec16a4d575fbc098989b8fcbca5c94315ea30960498b5fc921628423916fe074bb094a
Reciphers for ciphertext: 0
Decipheredtext:           00000000080000000000000000000000
RESULT CIPHER-DECIPHER: -----OK-----


Test: 37
Hash algorithm:       8
Sector size in bytes: 2048
Data unit:   0
Start block: 0
Symmetric key bit length: 512
Plaintext bit length:     128
Symmetric key:            00000000000000000000000000000000000000000000000000000000000000000000000000000000000000000000000000000000040000000000000000000000
Plaintext:                00000000040000000000000000000000
Ciphertext:               7982474f9949c936d735b60929d375aeb5c23888ae8a4112ebc4a0fedea37fc52ac6a5a6
Reciphers for ciphertext: 0
Decipheredtext:           00000000040000000000000000000000
RESULT CIPHER-DECIPHER: -----OK-----


Test: 38
Hash algorithm:       12
Sector size in bytes: 2048
Data unit:   0
Start block: 0
Symmetric key bit length: 512
Plaintext bit length:     128
Symmetric key:            00000000000000000000000000000000000000000000000000000000000000000000000000000000000000000000000000000000020000000000000000000000
Plaintext:                00000000020000000000000000000000
Ciphertext:               07c6a13fbe1fd8ebdbb3d800bfa67f3ba7327f7e79af408e8e3ee30fa5de0d6c
Reciphers for ciphertext: 0
Decipheredtext:           00000000020000000000000000000000
RESULT CIPHER-DECIPHER: -----OK-----


Test: 39
Hash algorithm:       5
Sector size in bytes: 2048
Data unit:   0
Start block: 0
Symmetric key bit length: 512
Plaintext bit length:     128
Symmetric key:            00000000000000000000000000000000000000000000000000000000000000000000000000000000000000000000000000000000010000000000000000000000
Plaintext:                00000000010000000000000000000000
Ciphertext:               caf75abc52b73b807dd13bb727f4fa3567fb8cfcc72a95695a7367262f33077fd3ce497abec3dd716c09347f
Reciphers for ciphertext: 0
Decipheredtext:           00000000010000000000000000000000
RESULT CIPHER-DECIPHER: -----OK-----


Test: 40
Hash algorithm:       3
Sector size in bytes: 2560
Data unit:   0
Start block: 0
Symmetric key bit length: 512
Plaintext bit length:     128
Symmetric key:            00000000000000000000000000000000000000000000000000000000000000000000000000000000000000000000000000000000008000000000000000000000
Plaintext:                00000000008000000000000000000000
Ciphertext:               292c960470861e3df5543e2ffd02d49a903575a5595a90deabf8a55a33f1c739257a5cbd598e374741b11d0c2cab13696d4e12ed2f269ee118d5e4aae3038dcd
Reciphers for ciphertext: 0
Decipheredtext:           00000000008000000000000000000000
RESULT CIPHER-DECIPHER: -----OK-----


Test: 41
Hash algorithm:       1
Sector size in bytes: 2560
Data unit:   0
Start block: 0
Symmetric key bit length: 512
Plaintext bit length:     128
Symmetric key:            00000000000000000000000000000000000000000000000000000000000000000000000000000000000000000000000000000000004000000000000000000000
Plaintext:                00000000004000000000000000000000
Ciphertext:               303d6535308db8b8157e946e1424811ec710940577e297f03de307e1af6060f9c1c3335161fd9a09f18ee051
Reciphers for ciphertext: 0
Decipheredtext:           00000000004000000000000000000000
RESULT CIPHER-DECIPHER: -----OK-----


Test: 42
Hash algorithm:       2
Sector size in bytes: 2560
Data unit:   0
Start block: 0
Symmetric key bit length: 512
Plaintext bit length:     128
Symmetric key:            00000000000000000000000000000000000000000000000000000000000000000000000000000000000000000000000000000000002000000000000000000000
Plaintext:                00000000002000000000000000000000
Ciphertext:               e6140a810c9aacb1ee553d9fa7c77d0e8de56a32566d8cad5cfeaac40d29c61861a2f77c037dfbf6fa16b12549ec9255
Reciphers for ciphertext: 0
Decipheredtext:           00000000002000000000000000000000
RESULT CIPHER-DECIPHER: -----OK-----


Test: 43
Hash algorithm:       12
Sector size in bytes: 2560
Data unit:   0
Start block: 0
Symmetric key bit length: 512
Plaintext bit length:     128
Symmetric key:            00000000000000000000000000000000000000000000000000000000000000000000000000000000000000000000000000000000001000000000000000000000
Plaintext:                00000000001000000000000000000000
Ciphertext:               8d31d4639333b425585336cd84fc8010ac0c4f525092734dd4a1ba713f436273
Reciphers for ciphertext: 0
Decipheredtext:           00000000001000000000000000000000
RESULT CIPHER-DECIPHER: -----OK-----


Test: 44
Hash algorithm:       6
Sector size in bytes: 2560
Data unit:   0
Start block: 0
Symmetric key bit length: 512
Plaintext bit length:     128
Symmetric key:            00000000000000000000000000000000000000000000000000000000000000000000000000000000000000000000000000000000000800000000000000000000
Plaintext:                00000000000800000000000000000000
Ciphertext:               82dd8d20d368f24de4c26ac948a6361ccb7e1934ed29c5de2a70ce32c1b8296f3ab6bafea103fc9cddf687c14ceedc5d
Reciphers for ciphertext: 0
Decipheredtext:           00000000000800000000000000000000
RESULT CIPHER-DECIPHER: -----OK-----


Test: 45
Hash algorithm:       1
Sector size in bytes: 2560
Data unit:   0
Start block: 0
Symmetric key bit length: 512
Plaintext bit length:     128
Symmetric key:            00000000000000000000000000000000000000000000000000000000000000000000000000000000000000000000000000000000000400000000000000000000
Plaintext:                00000000000400000000000000000000
Ciphertext:               90fa52bfdc12783f83ce71b29b002ceaf6e7ed85af65a8399600394d514fa243330963bb61aebd238e9d4678
Reciphers for ciphertext: 0
Decipheredtext:           00000000000400000000000000000000
RESULT CIPHER-DECIPHER: -----OK-----


Test: 46
Hash algorithm:       2
Sector size in bytes: 2560
Data unit:   0
Start block: 0
Symmetric key bit length: 512
Plaintext bit length:     128
Symmetric key:            00000000000000000000000000000000000000000000000000000000000000000000000000000000000000000000000000000000000200000000000000000000
Plaintext:                00000000000200000000000000000000
Ciphertext:               2a11f87e260190fad725b23c4a5c27920228cad0fd89c1dc00ebfb13a1fc1ab2bfb726637e153975997d69d89c2fd4c9
Reciphers for ciphertext: 0
Decipheredtext:           00000000000200000000000000000000
RESULT CIPHER-DECIPHER: -----OK-----


Test: 47
Hash algorithm:       9
Sector size in bytes: 2560
Data unit:   0
Start block: 0
Symmetric key bit length: 512
Plaintext bit length:     128
Symmetric key:            00000000000000000000000000000000000000000000000000000000000000000000000000000000000000000000000000000000000100000000000000000000
Plaintext:                00000000000100000000000000000000
Ciphertext:               734a31c27f8eaeca08fc5693872221829fa5d495570d6daee134603e3c70352b8330b6b84cae0f19d9a32a3b890bbd6c
Reciphers for ciphertext: 0
Decipheredtext:           00000000000100000000000000000000
RESULT CIPHER-DECIPHER: -----OK-----


Test: 48
Hash algorithm:       5
Sector size in bytes: 2560
Data unit:   0
Start block: 0
Symmetric key bit length: 512
Plaintext bit length:     128
Symmetric key:            00000000000000000000000000000000000000000000000000000000000000000000000000000000000000000000000000000000000080000000000000000000
Plaintext:                00000000000080000000000000000000
Ciphertext:               9c303e621506a2b553ac1327b5c10b6fc82e51648968011348ee4c1c4e5002a49283b146e0357c551e445b99
Reciphers for ciphertext: 0
Decipheredtext:           00000000000080000000000000000000
RESULT CIPHER-DECIPHER: -----OK-----


Test: 49
Hash algorithm:       8
Sector size in bytes: 2560
Data unit:   0
Start block: 0
Symmetric key bit length: 512
Plaintext bit length:     128
Symmetric key:            00000000000000000000000000000000000000000000000000000000000000000000000000000000000000000000000000000000000040000000000000000000
Plaintext:                00000000000040000000000000000000
Ciphertext:               011d257839b0dcbcdbc95263850ae0d60deb5b80304c6d9b98017aa2aae3a96a3a61e5e4
Reciphers for ciphertext: 0
Decipheredtext:           00000000000040000000000000000000
RESULT CIPHER-DECIPHER: -----OK-----


Test: 50
Hash algorithm:       13
Sector size in bytes: 3072
Data unit:   0
Start block: 0
Symmetric key bit length: 512
Plaintext bit length:     128
Symmetric key:            00000000000000000000000000000000000000000000000000000000000000000000000000000000000000000000000000000000000020000000000000000000
Plaintext:                00000000000020000000000000000000
Ciphertext:               0f9006cd41c5384c9e8dc297da6115e42b7cc1ce017575acd6fa20693e82095c
Reciphers for ciphertext: 0
Decipheredtext:           00000000000020000000000000000000
RESULT CIPHER-DECIPHER: -----OK-----


Test: 51
Hash algorithm:       7
Sector size in bytes: 3072
Data unit:   0
Start block: 0
Symmetric key bit length: 512
Plaintext bit length:     128
Symmetric key:            00000000000000000000000000000000000000000000000000000000000000000000000000000000000000000000000000000000000010000000000000000000
Plaintext:                00000000000010000000000000000000
Ciphertext:               b21d4012989ad494643cdcea7ce159c2ee87e2bf90f33fbc541abc04501df376
Reciphers for ciphertext: 0
Decipheredtext:           00000000000010000000000000000000
RESULT CIPHER-DECIPHER: -----OK-----


Test: 52
Hash algorithm:       6
Sector size in bytes: 3072
Data unit:   0
Start block: 0
Symmetric key bit length: 512
Plaintext bit length:     128
Symmetric key:            00000000000000000000000000000000000000000000000000000000000000000000000000000000000000000000000000000000000008000000000000000000
Plaintext:                00000000000008000000000000000000
Ciphertext:               869ae1d0be46e41fd168064d179c22674307371a3ff2e574c4ef6caa214eb7e358ff3af4104a5f508cd7b7682dc77c00
Reciphers for ciphertext: 0
Decipheredtext:           00000000000008000000000000000000
RESULT CIPHER-DECIPHER: -----OK-----


Test: 53
Hash algorithm:       2
Sector size in bytes: 3072
Data unit:   0
Start block: 0
Symmetric key bit length: 512
Plaintext bit length:     128
Symmetric key:            00000000000000000000000000000000000000000000000000000000000000000000000000000000000000000000000000000000000004000000000000000000
Plaintext:                00000000000004000000000000000000
Ciphertext:               9b4512d632f83db70c1cc827d22a221ac546aa72fd2aef59d78e90473c116e98ac8254b3a9aec15ace123e9b93e36477
Reciphers for ciphertext: 0
Decipheredtext:           00000000000004000000000000000000
RESULT CIPHER-DECIPHER: -----OK-----


Test: 54
Hash algorithm:       10
Sector size in bytes: 3072
Data unit:   0
Start block: 0
Symmetric key bit length: 512
Plaintext bit length:     128
Symmetric key:            00000000000000000000000000000000000000000000000000000000000000000000000000000000000000000000000000000000000002000000000000000000
Plaintext:                00000000000002000000000000000000
Ciphertext:               7cc2414d3563297337698b8f391510f3aba326be3169347959fee3e3138ee7d30d5f50a9b6749bd0347a4d8716697f3bcd90fd20f9722d38
Reciphers for ciphertext: 0
Decipheredtext:           00000000000002000000000000000000
RESULT CIPHER-DECIPHER: -----OK-----


Test: 55
Hash algorithm:       6
Sector size in bytes: 3072
Data unit:   0
Start block: 0
Symmetric key bit length: 512
Plaintext bit length:     128
Symmetric key:            00000000000000000000000000000000000000000000000000000000000000000000000000000000000000000000000000000000000001000000000000000000
Plaintext:                00000000000001000000000000000000
Ciphertext:               7cba8cde160b5f41b52c601d6154e82c35672413a9c7b1ccfe02dc6cbf641d28065bb2c94310da7f173b4992e77231e0
Reciphers for ciphertext: 0
Decipheredtext:           00000000000001000000000000000000
RESULT CIPHER-DECIPHER: -----OK-----


Test: 56
Hash algorithm:       9
Sector size in bytes: 3072
Data unit:   0
Start block: 0
Symmetric key bit length: 512
Plaintext bit length:     128
Symmetric key:            00000000000000000000000000000000000000000000000000000000000000000000000000000000000000000000000000000000000000800000000000000000
Plaintext:                00000000000000800000000000000000
Ciphertext:               0e3d65e1f6fc943e594e768f29150c0fd6253319c54d5ac2b5644af9ae60f7bcbc9725f0eda6f7f0d0e1fec036701f9b
Reciphers for ciphertext: 0
Decipheredtext:           00000000000000800000000000000000
RESULT CIPHER-DECIPHER: -----OK-----


Test: 57
Hash algorithm:       2
Sector size in bytes: 3072
Data unit:   0
Start block: 0
Symmetric key bit length: 512
Plaintext bit length:     128
Symmetric key:            00000000000000000000000000000000000000000000000000000000000000000000000000000000000000000000000000000000000000400000000000000000
Plaintext:                00000000000000400000000000000000
Ciphertext:               b56fcc0b84b92237d4d5eae5511a6d21fddcfe52a382cb630a5e0bac774ebfd64f7bc774f5a489446a74841c4e640e48
Reciphers for ciphertext: 0
Decipheredtext:           00000000000000400000000000000000
RESULT CIPHER-DECIPHER: -----OK-----


Test: 58
Hash algorithm:       5
Sector size in bytes: 3072
Data unit:   0
Start block: 0
Symmetric key bit length: 512
Plaintext bit length:     128
Symmetric key:            00000000000000000000000000000000000000000000000000000000000000000000000000000000000000000000000000000000000000200000000000000000
Plaintext:                00000000000000200000000000000000
Ciphertext:               e08da605cccb0cd2a2688497c666f88b20febf5aa304270f3a157599afbff3e12d92de8351ec59a316f54555
Reciphers for ciphertext: 0
Decipheredtext:           00000000000000200000000000000000
RESULT CIPHER-DECIPHER: -----OK-----


Test: 59
Hash algorithm:       4
Sector size in bytes: 3072
Data unit:   0
Start block: 0
Symmetric key bit length: 512
Plaintext bit length:     128
Symmetric key:            00000000000000000000000000000000000000000000000000000000000000000000000000000000000000000000000000000000000000100000000000000000
Plaintext:                00000000000000100000000000000000
Ciphertext:               a0f8d0647a41787010e451901f6f3e03957652750da0d05cda272bc75c6e1b18bd375c1fc95af6b91e1f42765efd6ef9f4ac6caa0c639d9d060f6f3afb12b15c63976df04487bf40c822a0b655881866
Reciphers for ciphertext: 0
Decipheredtext:           00000000000000100000000000000000
RESULT CIPHER-DECIPHER: -----OK-----


Test: 60
Hash algorithm:       10
Sector size in bytes: 3584
Data unit:   0
Start block: 0
Symmetric key bit length: 512
Plaintext bit length:     128
Symmetric key:            00000000000000000000000000000000000000000000000000000000000000000000000000000000000000000000000000000000000000080000000000000000
Plaintext:                00000000000000080000000000000000
Ciphertext:               292e8fabf2b5cece215e5d4fbab08b48cf762771ef516660bd84a2e50a509e947296b093267d3286279b900cc6fc17e2527308908295d561
Reciphers for ciphertext: 0
Decipheredtext:           00000000000000080000000000000000
RESULT CIPHER-DECIPHER: -----OK-----


Test: 61
Hash algorithm:       2
Sector size in bytes: 3584
Data unit:   0
Start block: 0
Symmetric key bit length: 512
Plaintext bit length:     128
Symmetric key:            00000000000000000000000000000000000000000000000000000000000000000000000000000000000000000000000000000000000000040000000000000000
Plaintext:                00000000000000040000000000000000
Ciphertext:               990463fc74132d9ff1c098fe34b003db8d5b4cd21d0f09dcfa31113367748be2699f5ff19f61a59f779a95ad41d55bf2
Reciphers for ciphertext: 0
Decipheredtext:           00000000000000040000000000000000
RESULT CIPHER-DECIPHER: -----OK-----


Test: 62
Hash algorithm:       8
Sector size in bytes: 3584
Data unit:   0
Start block: 0
Symmetric key bit length: 512
Plaintext bit length:     128
Symmetric key:            00000000000000000000000000000000000000000000000000000000000000000000000000000000000000000000000000000000000000020000000000000000
Plaintext:                00000000000000020000000000000000
Ciphertext:               42c0c5401942626ad30c01a5ce303acdf38d9d59764ee516944cbfc3cde081b668ab9f10
Reciphers for ciphertext: 0
Decipheredtext:           00000000000000020000000000000000
RESULT CIPHER-DECIPHER: -----OK-----


Test: 63
Hash algorithm:       5
Sector size in bytes: 3584
Data unit:   0
Start block: 0
Symmetric key bit length: 512
Plaintext bit length:     128
Symmetric key:            00000000000000000000000000000000000000000000000000000000000000000000000000000000000000000000000000000000000000010000000000000000
Plaintext:                00000000000000010000000000000000
Ciphertext:               d04c1147fe2d6d1dc346af3d8b086939523c4edc4db7aa0a7a9489d96bd4bbc1b5344af433aceb661a7c1862
Reciphers for ciphertext: 0
Decipheredtext:           00000000000000010000000000000000
RESULT CIPHER-DECIPHER: -----OK-----


Test: 64
Hash algorithm:       5
Sector size in bytes: 3584
Data unit:   0
Start block: 0
Symmetric key bit length: 512
Plaintext bit length:     128
Symmetric key:            00000000000000000000000000000000000000000000000000000000000000000000000000000000000000000000000000000000000000008000000000000000
Plaintext:                00000000000000008000000000000000
Ciphertext:               96b27ddcd9db89482010e4367f9f2288bac560401ce30b3dfc384c4a9dfa087ca9ced31b3b7ee23b1b2d8a26
Reciphers for ciphertext: 0
Decipheredtext:           00000000000000008000000000000000
RESULT CIPHER-DECIPHER: -----OK-----


Test: 65
Hash algorithm:       2
Sector size in bytes: 3584
Data unit:   0
Start block: 0
Symmetric key bit length: 512
Plaintext bit length:     128
Symmetric key:            00000000000000000000000000000000000000000000000000000000000000000000000000000000000000000000000000000000000000004000000000000000
Plaintext:                00000000000000004000000000000000
Ciphertext:               1f1eea27521c3f376063482a3cd55f25b7c5f871f6da393929011897f219551d35d00da9662b17d078ad48fe19301e60
Reciphers for ciphertext: 0
Decipheredtext:           00000000000000004000000000000000
RESULT CIPHER-DECIPHER: -----OK-----


Test: 66
Hash algorithm:       10
Sector size in bytes: 3584
Data unit:   0
Start block: 0
Symmetric key bit length: 512
Plaintext bit length:     128
Symmetric key:            00000000000000000000000000000000000000000000000000000000000000000000000000000000000000000000000000000000000000002000000000000000
Plaintext:                00000000000000002000000000000000
Ciphertext:               e0a0c5ab0d6ab2c687598f94bfe429fcf2efb86ead5c219d7e9a847dcbfb661ef8f029f6f94ef42f9dd15e53cc8a4a3201707d1d75d090a2
Reciphers for ciphertext: 0
Decipheredtext:           00000000000000002000000000000000
RESULT CIPHER-DECIPHER: -----OK-----


Test: 67
Hash algorithm:       1
Sector size in bytes: 3584
Data unit:   0
Start block: 0
Symmetric key bit length: 512
Plaintext bit length:     128
Symmetric key:            00000000000000000000000000000000000000000000000000000000000000000000000000000000000000000000000000000000000000001000000000000000
Plaintext:                00000000000000001000000000000000
Ciphertext:               4729243b8825372db4bf115099dadde03158a28606a1795d765bc68cd22b74d035e819d7be5872e548570390
Reciphers for ciphertext: 0
Decipheredtext:           00000000000000001000000000000000
RESULT CIPHER-DECIPHER: -----OK-----


Test: 68
Hash algorithm:       8
Sector size in bytes: 3584
Data unit:   0
Start block: 0
Symmetric key bit length: 512
Plaintext bit length:     128
Symmetric key:            00000000000000000000000000000000000000000000000000000000000000000000000000000000000000000000000000000000000000000800000000000000
Plaintext:                00000000000000000800000000000000
Ciphertext:               3a8fb4c7596210542bce0d22788b727d9498746c4dfcecb6aaee94f76f6dcacb74f17092
Reciphers for ciphertext: 0
Decipheredtext:           00000000000000000800000000000000
RESULT CIPHER-DECIPHER: -----OK-----


Test: 69
Hash algorithm:       4
Sector size in bytes: 3584
Data unit:   0
Start block: 0
Symmetric key bit length: 512
Plaintext bit length:     128
Symmetric key:            00000000000000000000000000000000000000000000000000000000000000000000000000000000000000000000000000000000000000000400000000000000
Plaintext:                00000000000000000400000000000000
Ciphertext:               fa88e6e8e6148edcd2d2c1005dd4464ec19296773b494caff1b0722becfada3d24508b94ce5578cc0a7565a331191766e5a3c7c6684a20caf267cfd2b0c18f114f8acd4e5631c3e7a06bd5db7da65091
Reciphers for ciphertext: 0
Decipheredtext:           00000000000000000400000000000000
RESULT CIPHER-DECIPHER: -----OK-----


Test: 70
Hash algorithm:       6
Sector size in bytes: 4096
Data unit:   0
Start block: 0
Symmetric key bit length: 512
Plaintext bit length:     128
Symmetric key:            00000000000000000000000000000000000000000000000000000000000000000000000000000000000000000000000000000000000000000200000000000000
Plaintext:                00000000000000000200000000000000
Ciphertext:               f47c79e7708dbeec79c2eff00c72c2d4a6db4c0149b5410782439e97292116e2c69b194a60b1dd1a77cde612b9443b87
Reciphers for ciphertext: 0
Decipheredtext:           00000000000000000200000000000000
RESULT CIPHER-DECIPHER: -----OK-----


Test: 71
Hash algorithm:       13
Sector size in bytes: 4096
Data unit:   0
Start block: 0
Symmetric key bit length: 512
Plaintext bit length:     128
Symmetric key:            00000000000000000000000000000000000000000000000000000000000000000000000000000000000000000000000000000000000000000100000000000000
Plaintext:                00000000000000000100000000000000
Ciphertext:               a5cf61fe38288a67cebae2d2e435efa8c0239e8e3aab0e172cd4ff00f62dbb6a
Reciphers for ciphertext: 0
Decipheredtext:           00000000000000000100000000000000
RESULT CIPHER-DECIPHER: -----OK-----


Test: 72
Hash algorithm:       7
Sector size in bytes: 4096
Data unit:   0
Start block: 0
Symmetric key bit length: 512
Plaintext bit length:     128
Symmetric key:            00000000000000000000000000000000000000000000000000000000000000000000000000000000000000000000000000000000000000000080000000000000
Plaintext:                00000000000000000080000000000000
Ciphertext:               644ba9b5635b82118e85ae76827563c747a2ecb2895f243c3b186b6dac7babc1
Reciphers for ciphertext: 0
Decipheredtext:           00000000000000000080000000000000
RESULT CIPHER-DECIPHER: -----OK-----


Test: 73
Hash algorithm:       3
Sector size in bytes: 4096
Data unit:   0
Start block: 0
Symmetric key bit length: 512
Plaintext bit length:     128
Symmetric key:            00000000000000000000000000000000000000000000000000000000000000000000000000000000000000000000000000000000000000000040000000000000
Plaintext:                00000000000000000040000000000000
Ciphertext:               5eb790ff68e883a5ea9b16f4a00f77b7b076700c030b041cb725fe2871d2fbd2a38d282cb21c539659d7091fd84ad6d9cd244adac5b36b1691f4a49399d9398a
Reciphers for ciphertext: 0
Decipheredtext:           00000000000000000040000000000000
RESULT CIPHER-DECIPHER: -----OK-----


Test: 74
Hash algorithm:       5
Sector size in bytes: 4096
Data unit:   0
Start block: 0
Symmetric key bit length: 512
Plaintext bit length:     128
Symmetric key:            00000000000000000000000000000000000000000000000000000000000000000000000000000000000000000000000000000000000000000020000000000000
Plaintext:                00000000000000000020000000000000
Ciphertext:               8d1a053d12bebd25782a3935c6b435ba5f8efb12ce4ab7b3a44c27f00c42eb2be7d9c779b1bf131af1d61c00
Reciphers for ciphertext: 0
Decipheredtext:           00000000000000000020000000000000
RESULT CIPHER-DECIPHER: -----OK-----


Test: 75
Hash algorithm:       12
Sector size in bytes: 4096
Data unit:   0
Start block: 0
Symmetric key bit length: 512
Plaintext bit length:     128
Symmetric key:            00000000000000000000000000000000000000000000000000000000000000000000000000000000000000000000000000000000000000000010000000000000
Plaintext:                00000000000000000010000000000000
Ciphertext:               ca2907e28eb4071d7aa4fc1f145896295b5ea377e974993a1f6914719d50546c
Reciphers for ciphertext: 0
Decipheredtext:           00000000000000000010000000000000
RESULT CIPHER-DECIPHER: -----OK-----


Test: 76
Hash algorithm:       2
Sector size in bytes: 4096
Data unit:   0
Start block: 0
Symmetric key bit length: 512
Plaintext bit length:     128
Symmetric key:            00000000000000000000000000000000000000000000000000000000000000000000000000000000000000000000000000000000000000000008000000000000
Plaintext:                00000000000000000008000000000000
Ciphertext:               dde6f8f03bc4d70602a1747b29ac2eb60bd2eb94af4f1860c573a48c8df967a7aeb4ee99a7f102b4aa3e7d9cf8287eda
Reciphers for ciphertext: 0
Decipheredtext:           00000000000000000008000000000000
RESULT CIPHER-DECIPHER: -----OK-----


Test: 77
Hash algorithm:       10
Sector size in bytes: 4096
Data unit:   0
Start block: 0
Symmetric key bit length: 512
Plaintext bit length:     128
Symmetric key:            00000000000000000000000000000000000000000000000000000000000000000000000000000000000000000000000000000000000000000004000000000000
Plaintext:                00000000000000000004000000000000
Ciphertext:               4afed76d9da1e8ec004061eabbf36bf3a359e960650d2adbce70fd163250b419d670232b7cb423b7ef5bed4b898bbfc973712c5d1b9e968e
Reciphers for ciphertext: 0
Decipheredtext:           00000000000000000004000000000000
RESULT CIPHER-DECIPHER: -----OK-----


Test: 78
Hash algorithm:       5
Sector size in bytes: 4096
Data unit:   0
Start block: 0
Symmetric key bit length: 512
Plaintext bit length:     128
Symmetric key:            00000000000000000000000000000000000000000000000000000000000000000000000000000000000000000000000000000000000000000002000000000000
Plaintext:                00000000000000000002000000000000
Ciphertext:               7bdc5006ec4b9e013992c3264751e8c75d91ef4ba8b06a608b2199cb5df70505cd077ff290c78e272adc148c
Reciphers for ciphertext: 0
Decipheredtext:           00000000000000000002000000000000
RESULT CIPHER-DECIPHER: -----OK-----


Test: 79
Hash algorithm:       8
Sector size in bytes: 4096
Data unit:   0
Start block: 0
Symmetric key bit length: 512
Plaintext bit length:     128
Symmetric key:            00000000000000000000000000000000000000000000000000000000000000000000000000000000000000000000000000000000000000000001000000000000
Plaintext:                00000000000000000001000000000000
Ciphertext:               6741d8975556d349a289b03e6ec719e574af9ddfe82cf8b5945360def3e0382e284878d2
Reciphers for ciphertext: 0
Decipheredtext:           00000000000000000001000000000000
RESULT CIPHER-DECIPHER: -----OK-----


Test: 80
Hash algorithm:       11
Sector size in bytes: 8192
Data unit:   0
Start block: 0
Symmetric key bit length: 512
Plaintext bit length:     128
Symmetric key:            00000000000000000000000000000000000000000000000000000000000000000000000000000000000000000000000000000000000000000000800000000000
Plaintext:                00000000000000000000800000000000
Ciphertext:               d0da8ecc5b3c392d8a568263a6c2eb588d203b0cf6be8477d9a106576906470f
Reciphers for ciphertext: 0
Decipheredtext:           00000000000000000000800000000000
RESULT CIPHER-DECIPHER: -----OK-----


Test: 81
Hash algorithm:       12
Sector size in bytes: 8192
Data unit:   0
Start block: 0
Symmetric key bit length: 512
Plaintext bit length:     128
Symmetric key:            00000000000000000000000000000000000000000000000000000000000000000000000000000000000000000000000000000000000000000000400000000000
Plaintext:                00000000000000000000400000000000
Ciphertext:               1a1cd489dc6eee9baf69597c80d65656cb7ac51285ffc9022e3ad0c6925b642b
Reciphers for ciphertext: 0
Decipheredtext:           00000000000000000000400000000000
RESULT CIPHER-DECIPHER: -----OK-----


Test: 82
Hash algorithm:       5
Sector size in bytes: 8192
Data unit:   0
Start block: 0
Symmetric key bit length: 512
Plaintext bit length:     128
Symmetric key:            00000000000000000000000000000000000000000000000000000000000000000000000000000000000000000000000000000000000000000000200000000000
Plaintext:                00000000000000000000200000000000
Ciphertext:               fc13677eebca60fa7d4373d72df6036ad94da308aea2ab5d151631b108eadb69efebb06cdb797d40c9bd8e76
Reciphers for ciphertext: 0
Decipheredtext:           00000000000000000000200000000000
RESULT CIPHER-DECIPHER: -----OK-----


Test: 83
Hash algorithm:       11
Sector size in bytes: 8192
Data unit:   0
Start block: 0
Symmetric key bit length: 512
Plaintext bit length:     128
Symmetric key:            00000000000000000000000000000000000000000000000000000000000000000000000000000000000000000000000000000000000000000000100000000000
Plaintext:                00000000000000000000100000000000
Ciphertext:               a90a9f6c003b450af2d69c1235a5bb684aca59b5669ba0684d9b3952aa01c362
Reciphers for ciphertext: 0
Decipheredtext:           00000000000000000000100000000000
RESULT CIPHER-DECIPHER: -----OK-----


Test: 84
Hash algorithm:       6
Sector size in bytes: 8192
Data unit:   0
Start block: 0
Symmetric key bit length: 512
Plaintext bit length:     128
Symmetric key:            00000000000000000000000000000000000000000000000000000000000000000000000000000000000000000000000000000000000000000000080000000000
Plaintext:                00000000000000000000080000000000
Ciphertext:               b41a47f80bcb7e54b14781f91d3341ee91f02eded6f668597fa9ec45331784c8e3f53c0346216ee574eb504179dc8096
Reciphers for ciphertext: 0
Decipheredtext:           00000000000000000000080000000000
RESULT CIPHER-DECIPHER: -----OK-----


Test: 85
Hash algorithm:       3
Sector size in bytes: 8192
Data unit:   0
Start block: 0
Symmetric key bit length: 512
Plaintext bit length:     128
Symmetric key:            00000000000000000000000000000000000000000000000000000000000000000000000000000000000000000000000000000000000000000000040000000000
Plaintext:                00000000000000000000040000000000
Ciphertext:               234e3dfe2380abe3ccfa2202c4f10a60bcf75bbef11eb85311e09f609627087371dceec2473bc0a7ec3b8e8b4cd3fe959457c6edb7bf04beb08f5ee1af6ef08d
Reciphers for ciphertext: 0
Decipheredtext:           00000000000000000000040000000000
RESULT CIPHER-DECIPHER: -----OK-----


Test: 86
Hash algorithm:       10
Sector size in bytes: 8192
Data unit:   0
Start block: 0
Symmetric key bit length: 512
Plaintext bit length:     128
Symmetric key:            00000000000000000000000000000000000000000000000000000000000000000000000000000000000000000000000000000000000000000000020000000000
Plaintext:                00000000000000000000020000000000
Ciphertext:               6f2ece02d46cd86f78fb5c8cc4ab521059f0e1da21a743c16c8159a096d7e8d4ac59c9fca1ea8c4d51d0dcbaa1d592fcb616ea0e53bb11b3
Reciphers for ciphertext: 0
Decipheredtext:           00000000000000000000020000000000
RESULT CIPHER-DECIPHER: -----OK-----


Test: 87
Hash algorithm:       13
Sector size in bytes: 8192
Data unit:   0
Start block: 0
Symmetric key bit length: 512
Plaintext bit length:     128
Symmetric key:            00000000000000000000000000000000000000000000000000000000000000000000000000000000000000000000000000000000000000000000010000000000
Plaintext:                00000000000000000000010000000000
Ciphertext:               3ba335061017c1e1d6da05f7598f93a120c142d3f9bc9f1a4f43515e70b29f48
Reciphers for ciphertext: 0
Decipheredtext:           00000000000000000000010000000000
RESULT CIPHER-DECIPHER: -----OK-----


Test: 88
Hash algorithm:       7
Sector size in bytes: 8192
Data unit:   0
Start block: 0
Symmetric key bit length: 512
Plaintext bit length:     128
Symmetric key:            00000000000000000000000000000000000000000000000000000000000000000000000000000000000000000000000000000000000000000000008000000000
Plaintext:                00000000000000000000008000000000
Ciphertext:               2770b9c5df61956817b273aff4dd3c7fa2dfcc628c95c94b88dc1cceb991c154
Reciphers for ciphertext: 0
Decipheredtext:           00000000000000000000008000000000
RESULT CIPHER-DECIPHER: -----OK-----


Test: 89
Hash algorithm:       9
Sector size in bytes: 8192
Data unit:   0
Start block: 0
Symmetric key bit length: 512
Plaintext bit length:     128
Symmetric key:            00000000000000000000000000000000000000000000000000000000000000000000000000000000000000000000000000000000000000000000004000000000
Plaintext:                00000000000000000000004000000000
Ciphertext:               5371efd313b7e554bbd6c6d0218494830f1db8e1786aa51501a7e33252b2b177127e51069dc47a2b9262dcefa4ae0370
Reciphers for ciphertext: 0
Decipheredtext:           00000000000000000000004000000000
RESULT CIPHER-DECIPHER: -----OK-----


Test: 90
Hash algorithm:       0
Sector size in bytes: 12288
Data unit:   0
Start block: 0
Symmetric key bit length: 512
Plaintext bit length:     128
Symmetric key:            00000000000000000000000000000000000000000000000000000000000000000000000000000000000000000000000000000000000000000000002000000000
Plaintext:                00000000000000000000002000000000
Ciphertext:               6d5b7673359781fafe90615ae933a2b761abe2b21d390999ff5302e461027726557e0acf
Reciphers for ciphertext: 0
Decipheredtext:           00000000000000000000002000000000
RESULT CIPHER-DECIPHER: -----OK-----


Test: 91
Hash algorithm:       0
Sector size in bytes: 12288
Data unit:   0
Start block: 0
Symmetric key bit length: 512
Plaintext bit length:     128
Symmetric key:            00000000000000000000000000000000000000000000000000000000000000000000000000000000000000000000000000000000000000000000001000000000
Plaintext:                00000000000000000000001000000000
Ciphertext:               5b99d619a664c55ea9704d9e3e9d23b59597c4eae7d9eca835b61df81564958b7a202db0
Reciphers for ciphertext: 0
Decipheredtext:           00000000000000000000001000000000
RESULT CIPHER-DECIPHER: -----OK-----


Test: 92
Hash algorithm:       6
Sector size in bytes: 12288
Data unit:   0
Start block: 0
Symmetric key bit length: 512
Plaintext bit length:     128
Symmetric key:            00000000000000000000000000000000000000000000000000000000000000000000000000000000000000000000000000000000000000000000000800000000
Plaintext:                00000000000000000000000800000000
Ciphertext:               bc18c687e7eec7501ed20eeead55d88b87498618f93c8d848f170a3df85ac592fec0b39bf1644620125863f2b3459b0e
Reciphers for ciphertext: 0
Decipheredtext:           00000000000000000000000800000000
RESULT CIPHER-DECIPHER: -----OK-----


Test: 93
Hash algorithm:       12
Sector size in bytes: 12288
Data unit:   0
Start block: 0
Symmetric key bit length: 512
Plaintext bit length:     128
Symmetric key:            00000000000000000000000000000000000000000000000000000000000000000000000000000000000000000000000000000000000000000000000400000000
Plaintext:                00000000000000000000000400000000
Ciphertext:               d1af7fac1347a5e86100e20063c8cabb5a0b811b8bbbc3aaa59b39af2ad210e1
Reciphers for ciphertext: 0
Decipheredtext:           00000000000000000000000400000000
RESULT CIPHER-DECIPHER: -----OK-----


Test: 94
Hash algorithm:       8
Sector size in bytes: 12288
Data unit:   0
Start block: 0
Symmetric key bit length: 512
Plaintext bit length:     128
Symmetric key:            00000000000000000000000000000000000000000000000000000000000000000000000000000000000000000000000000000000000000000000000200000000
Plaintext:                00000000000000000000000200000000
Ciphertext:               34338b1ccb9d532ca930bc0c564f295bebef758e055bce0561a7344b98deda5fd4b4ebce
Reciphers for ciphertext: 0
Decipheredtext:           00000000000000000000000200000000
RESULT CIPHER-DECIPHER: -----OK-----


Test: 95
Hash algorithm:       5
Sector size in bytes: 12288
Data unit:   0
Start block: 0
Symmetric key bit length: 512
Plaintext bit length:     128
Symmetric key:            00000000000000000000000000000000000000000000000000000000000000000000000000000000000000000000000000000000000000000000000100000000
Plaintext:                00000000000000000000000100000000
Ciphertext:               d1968c2126de3fc8753f01edaccfebbcbcc014012b9cc74fdf13f8fba4ce4a71d9792bbdb51690586c3dd20a
Reciphers for ciphertext: 0
Decipheredtext:           00000000000000000000000100000000
RESULT CIPHER-DECIPHER: -----OK-----


Test: 96
Hash algorithm:       6
Sector size in bytes: 12288
Data unit:   0
Start block: 0
Symmetric key bit length: 512
Plaintext bit length:     128
Symmetric key:            00000000000000000000000000000000000000000000000000000000000000000000000000000000000000000000000000000000000000000000000080000000
Plaintext:                00000000000000000000000080000000
Ciphertext:               ecb970b5431387418dc60a9417e338c3ae6611d858d412fb2d91da6868925122c08274d63c6fae1c08efb71a0ca6e333
Reciphers for ciphertext: 0
Decipheredtext:           00000000000000000000000080000000
RESULT CIPHER-DECIPHER: -----OK-----


Test: 97
Hash algorithm:       7
Sector size in bytes: 12288
Data unit:   0
Start block: 0
Symmetric key bit length: 512
Plaintext bit length:     128
Symmetric key:            00000000000000000000000000000000000000000000000000000000000000000000000000000000000000000000000000000000000000000000000040000000
Plaintext:                00000000000000000000000040000000
Ciphertext:               6503cf71c6730ca715536975d216f886f792ae65b1565588d03dc0cd5467a338
Reciphers for ciphertext: 1
Decipheredtext:           00000000000000000000000040000000
RESULT CIPHER-DECIPHER: -----OK-----


Test: 98
Hash algorithm:       2
Sector size in bytes: 12288
Data unit:   0
Start block: 0
Symmetric key bit length: 512
Plaintext bit length:     128
Symmetric key:            00000000000000000000000000000000000000000000000000000000000000000000000000000000000000000000000000000000000000000000000020000000
Plaintext:                00000000000000000000000020000000
Ciphertext:               785a8433550927192726482d4ee75ce53b1d1875a0cd4673b439ad4b2e019bfd7012d05d614007b170af7cea50e1ccd6
Reciphers for ciphertext: 0
Decipheredtext:           00000000000000000000000020000000
RESULT CIPHER-DECIPHER: -----OK-----


Test: 99
Hash algorithm:       8
Sector size in bytes: 12288
Data unit:   0
Start block: 0
Symmetric key bit length: 512
Plaintext bit length:     128
Symmetric key:            00000000000000000000000000000000000000000000000000000000000000000000000000000000000000000000000000000000000000000000000010000000
Plaintext:                00000000000000000000000010000000
Ciphertext:               e64158454a133254fff210c9934d48c191174a0fed5c70377975b99cbaf07dd67d93637c
Reciphers for ciphertext: 0
Decipheredtext:           00000000000000000000000010000000
RESULT CIPHER-DECIPHER: -----OK-----


Test: 100
Hash algorithm:       9
Sector size in bytes: 16384
Data unit:   0
Start block: 0
Symmetric key bit length: 512
Plaintext bit length:     128
Symmetric key:            00000000000000000000000000000000000000000000000000000000000000000000000000000000000000000000000000000000000000000000000008000000
Plaintext:                00000000000000000000000008000000
Ciphertext:               f4b54dec8b17fba9604f7766eba8be9694253ac51bba77462b19e1e247ab8b59d5d390713c6a6460e1bc5f43bd0ad439
Reciphers for ciphertext: 0
Decipheredtext:           00000000000000000000000008000000
RESULT CIPHER-DECIPHER: -----OK-----


Test: 101
Hash algorithm:       0
Sector size in bytes: 16384
Data unit:   0
Start block: 0
Symmetric key bit length: 512
Plaintext bit length:     128
Symmetric key:            00000000000000000000000000000000000000000000000000000000000000000000000000000000000000000000000000000000000000000000000004000000
Plaintext:                00000000000000000000000004000000
Ciphertext:               7c74d469e141c86530277966fd93440670b5c93dd32ba0ec1d79ffe72f92defb4afa56eb
Reciphers for ciphertext: 0
Decipheredtext:           00000000000000000000000004000000
RESULT CIPHER-DECIPHER: -----OK-----


Test: 102
Hash algorithm:       1
Sector size in bytes: 16384
Data unit:   0
Start block: 0
Symmetric key bit length: 512
Plaintext bit length:     128
Symmetric key:            00000000000000000000000000000000000000000000000000000000000000000000000000000000000000000000000000000000000000000000000002000000
Plaintext:                00000000000000000000000002000000
Ciphertext:               c48c961ddc80ae625162c5f168f0c7bb392e602271c388babd5b3c34fd908b70379bd8b6998603c10de05496
Reciphers for ciphertext: 0
Decipheredtext:           00000000000000000000000002000000
RESULT CIPHER-DECIPHER: -----OK-----


Test: 103
Hash algorithm:       10
Sector size in bytes: 16384
Data unit:   0
Start block: 0
Symmetric key bit length: 512
Plaintext bit length:     128
Symmetric key:            00000000000000000000000000000000000000000000000000000000000000000000000000000000000000000000000000000000000000000000000001000000
Plaintext:                00000000000000000000000001000000
Ciphertext:               656a3f3aa488130a56ebc8aa1d6273bcfaf0e0d228ff764d16298d8ac948783bac6bb70685804c9e4b5275877c9d69a1e5e336e2b36f241c
Reciphers for ciphertext: 0
Decipheredtext:           00000000000000000000000001000000
RESULT CIPHER-DECIPHER: -----OK-----


Test: 104
Hash algorithm:       8
Sector size in bytes: 16384
Data unit:   0
Start block: 0
Symmetric key bit length: 512
Plaintext bit length:     128
Symmetric key:            00000000000000000000000000000000000000000000000000000000000000000000000000000000000000000000000000000000000000000000000000800000
Plaintext:                00000000000000000000000000800000
Ciphertext:               09b373fa99cce6b4b34d408a70b2fd236d06d82d9071f00e50e9778107be2b670123cd5a
Reciphers for ciphertext: 0
Decipheredtext:           00000000000000000000000000800000
RESULT CIPHER-DECIPHER: -----OK-----


Test: 105
Hash algorithm:       4
Sector size in bytes: 16384
Data unit:   0
Start block: 0
Symmetric key bit length: 512
Plaintext bit length:     128
Symmetric key:            00000000000000000000000000000000000000000000000000000000000000000000000000000000000000000000000000000000000000000000000000400000
Plaintext:                00000000000000000000000000400000
Ciphertext:               971bee231724ffca9c5aab8163a75a428f636130a4587f4a13c446c129c4a69563b06f856c7feaa6464b3064359368fba7c612c60868f76a76879e792be78f6f2c5f21ce690ed9009b463f06657568ad
Reciphers for ciphertext: 0
Decipheredtext:           00000000000000000000000000400000
RESULT CIPHER-DECIPHER: -----OK-----


Test: 106
Hash algorithm:       10
Sector size in bytes: 16384
Data unit:   0
Start block: 0
Symmetric key bit length: 512
Plaintext bit length:     128
Symmetric key:            00000000000000000000000000000000000000000000000000000000000000000000000000000000000000000000000000000000000000000000000000200000
Plaintext:                00000000000000000000000000200000
Ciphertext:               9d7cb92a7da3645ed94e3a299e9633c52e4090cc8fdff4cd316e0ae23f5c3bad5332b25bb13eedf8273f2479fb17e8138cccc1040cee9520
Reciphers for ciphertext: 0
Decipheredtext:           00000000000000000000000000200000
RESULT CIPHER-DECIPHER: -----OK-----


Test: 107
Hash algorithm:       9
Sector size in bytes: 16384
Data unit:   0
Start block: 0
Symmetric key bit length: 512
Plaintext bit length:     128
Symmetric key:            00000000000000000000000000000000000000000000000000000000000000000000000000000000000000000000000000000000000000000000000000100000
Plaintext:                00000000000000000000000000100000
Ciphertext:               7100b81a32d8d62624609cafa4d15c522cea66a0f6c080a91ef3b483ba40faa8cf5c3130ceedb6df2f070ef08326c683
Reciphers for ciphertext: 0
Decipheredtext:           00000000000000000000000000100000
RESULT CIPHER-DECIPHER: -----OK-----


Test: 108
Hash algorithm:       13
Sector size in bytes: 16384
Data unit:   0
Start block: 0
Symmetric key bit length: 512
Plaintext bit length:     128
Symmetric key:            00000000000000000000000000000000000000000000000000000000000000000000000000000000000000000000000000000000000000000000000000080000
Plaintext:                00000000000000000000000000080000
Ciphertext:               3b1a9b00b2c66b555ce7b0a04d75d3eeef2030aa1b4d5c59de81c93fb4bb27bb
Reciphers for ciphertext: 0
Decipheredtext:           00000000000000000000000000080000
RESULT CIPHER-DECIPHER: -----OK-----


Test: 109
Hash algorithm:       3
Sector size in bytes: 16384
Data unit:   0
Start block: 0
Symmetric key bit length: 512
Plaintext bit length:     128
Symmetric key:            00000000000000000000000000000000000000000000000000000000000000000000000000000000000000000000000000000000000000000000000000040000
Plaintext:                00000000000000000000000000040000
Ciphertext:               444723e6420f66a9e1b387a05785e06acd1cd893d4858fb066361e23328e60ec05ba9dce28999dd54175dc9ef96219f55d1194523c20cca911fb34f6222b24fe
Reciphers for ciphertext: 0
Decipheredtext:           00000000000000000000000000040000
RESULT CIPHER-DECIPHER: -----OK-----


Test: 110
Hash algorithm:       4
Sector size in bytes: 24576
Data unit:   0
Start block: 0
Symmetric key bit length: 512
Plaintext bit length:     128
Symmetric key:            00000000000000000000000000000000000000000000000000000000000000000000000000000000000000000000000000000000000000000000000000020000
Plaintext:                00000000000000000000000000020000
Ciphertext:               7b6540e2b4741d9fa57b6da216a537e9ee687f8b594a7b0a5366102baa8619f6d2f539cecacb2f5ce7ea0801d0e4c78288997d6138e62f5c819b7d8afa4f1faff2012ea2440b9bde1631182144410c43
Reciphers for ciphertext: 0
Decipheredtext:           00000000000000000000000000020000
RESULT CIPHER-DECIPHER: -----OK-----


Test: 111
Hash algorithm:       2
Sector size in bytes: 24576
Data unit:   0
Start block: 0
Symmetric key bit length: 512
Plaintext bit length:     128
Symmetric key:            00000000000000000000000000000000000000000000000000000000000000000000000000000000000000000000000000000000000000000000000000010000
Plaintext:                00000000000000000000000000010000
Ciphertext:               4d6d827962f50fde3148edf9df7605f6fb6d42059e74fa171b0065bb2e6235252125d91f9023db2565d107ceeccc4471
Reciphers for ciphertext: 0
Decipheredtext:           00000000000000000000000000010000
RESULT CIPHER-DECIPHER: -----OK-----


Test: 112
Hash algorithm:       8
Sector size in bytes: 24576
Data unit:   0
Start block: 0
Symmetric key bit length: 512
Plaintext bit length:     128
Symmetric key:            00000000000000000000000000000000000000000000000000000000000000000000000000000000000000000000000000000000000000000000000000008000
Plaintext:                00000000000000000000000000008000
Ciphertext:               9bfe39f82cc9b95149b641cc70d0fc6041327c553b596c4e52c99a3a3e4562b005c792da
Reciphers for ciphertext: 0
Decipheredtext:           00000000000000000000000000008000
RESULT CIPHER-DECIPHER: -----OK-----


Test: 113
Hash algorithm:       2
Sector size in bytes: 24576
Data unit:   0
Start block: 0
Symmetric key bit length: 512
Plaintext bit length:     128
Symmetric key:            00000000000000000000000000000000000000000000000000000000000000000000000000000000000000000000000000000000000000000000000000004000
Plaintext:                00000000000000000000000000004000
Ciphertext:               193c7298cabca75f3e8750fcfa3cb02172d9fc0334c2a3ffe57171cf5ad97ec73f2f2c104c64fdf10fe1ae4e4ba6b6d5
Reciphers for ciphertext: 0
Decipheredtext:           00000000000000000000000000004000
RESULT CIPHER-DECIPHER: -----OK-----


Test: 114
Hash algorithm:       6
Sector size in bytes: 24576
Data unit:   0
Start block: 0
Symmetric key bit length: 512
Plaintext bit length:     128
Symmetric key:            00000000000000000000000000000000000000000000000000000000000000000000000000000000000000000000000000000000000000000000000000002000
Plaintext:                00000000000000000000000000002000
Ciphertext:               f060e3009e6a3cbc0ae155690667eb1442f4fbd8caf70cf9516e5164e5b9c7ef5f113aa4744069d763dec1f24cbf3941
Reciphers for ciphertext: 0
Decipheredtext:           00000000000000000000000000002000
RESULT CIPHER-DECIPHER: -----OK-----


Test: 115
Hash algorithm:       13
Sector size in bytes: 24576
Data unit:   0
Start block: 0
Symmetric key bit length: 512
Plaintext bit length:     128
Symmetric key:            00000000000000000000000000000000000000000000000000000000000000000000000000000000000000000000000000000000000000000000000000001000
Plaintext:                00000000000000000000000000001000
Ciphertext:               78e80debb86d665aa9401fd9d9d0a248c9fd518c8c62d8b7261921b7c4854e5e
Reciphers for ciphertext: 0
Decipheredtext:           00000000000000000000000000001000
RESULT CIPHER-DECIPHER: -----OK-----


Test: 116
Hash algorithm:       12
Sector size in bytes: 24576
Data unit:   0
Start block: 0
Symmetric key bit length: 512
Plaintext bit length:     128
Symmetric key:            00000000000000000000000000000000000000000000000000000000000000000000000000000000000000000000000000000000000000000000000000000800
Plaintext:                00000000000000000000000000000800
Ciphertext:               339e0207500b0eacf091be962794b5ab5add80b3142c48e7e7f228f2e1cac1ec
Reciphers for ciphertext: 0
Decipheredtext:           00000000000000000000000000000800
RESULT CIPHER-DECIPHER: -----OK-----


Test: 117
Hash algorithm:       1
Sector size in bytes: 24576
Data unit:   0
Start block: 0
Symmetric key bit length: 512
Plaintext bit length:     128
Symmetric key:            00000000000000000000000000000000000000000000000000000000000000000000000000000000000000000000000000000000000000000000000000000400
Plaintext:                00000000000000000000000000000400
Ciphertext:               773e11218421bc7bd9652f932b239321e521e26c8b2b00c5900e5ae36accaf41101b543d7661218c4c9310f2
Reciphers for ciphertext: 0
Decipheredtext:           00000000000000000000000000000400
RESULT CIPHER-DECIPHER: -----OK-----


Test: 118
Hash algorithm:       7
Sector size in bytes: 24576
Data unit:   0
Start block: 0
Symmetric key bit length: 512
Plaintext bit length:     128
Symmetric key:            00000000000000000000000000000000000000000000000000000000000000000000000000000000000000000000000000000000000000000000000000000200
Plaintext:                00000000000000000000000000000200
Ciphertext:               831f86279b26da0eb2e95cf0ba3fdc486ef317e162cd1efaee19f68b107d5929
Reciphers for ciphertext: 0
Decipheredtext:           00000000000000000000000000000200
RESULT CIPHER-DECIPHER: -----OK-----


Test: 119
Hash algorithm:       3
Sector size in bytes: 24576
Data unit:   0
Start block: 0
Symmetric key bit length: 512
Plaintext bit length:     128
Symmetric key:            00000000000000000000000000000000000000000000000000000000000000000000000000000000000000000000000000000000000000000000000000000100
Plaintext:                00000000000000000000000000000100
Ciphertext:               7855caf61862d08499475be92a77e404c2a5d71f5c4e230911e23353b3c4a649a3cd7736c44f06ccb3899ae90f9c63c3cce341b8c9d4420eeafbf99cedaa05e2
Reciphers for ciphertext: 0
Decipheredtext:           00000000000000000000000000000100
RESULT CIPHER-DECIPHER: -----OK-----


Test: 120
Hash algorithm:       6
Sector size in bytes: 32768
Data unit:   0
Start block: 0
Symmetric key bit length: 512
Plaintext bit length:     128
Symmetric key:            00000000000000000000000000000000000000000000000000000000000000000000000000000000000000000000000000000000000000000000000000000080
Plaintext:                00000000000000000000000000000080
Ciphertext:               1d52f761b159cdef419af9dfce44efd43d238593f8c2c362f85bfc129221e54e56075d71b11a0cc5197f2ccb19cc44c1
Reciphers for ciphertext: 0
Decipheredtext:           00000000000000000000000000000080
RESULT CIPHER-DECIPHER: -----OK-----


Test: 121
Hash algorithm:       11
Sector size in bytes: 32768
Data unit:   0
Start block: 0
Symmetric key bit length: 512
Plaintext bit length:     128
Symmetric key:            00000000000000000000000000000000000000000000000000000000000000000000000000000000000000000000000000000000000000000000000000000040
Plaintext:                00000000000000000000000000000040
Ciphertext:               797949a0cf77543ae2ecc935bad4a6b8bb376957f3f1daa3f11223c550bb33d0
Reciphers for ciphertext: 0
Decipheredtext:           00000000000000000000000000000040
RESULT CIPHER-DECIPHER: -----OK-----


Test: 122
Hash algorithm:       13
Sector size in bytes: 32768
Data unit:   0
Start block: 0
Symmetric key bit length: 512
Plaintext bit length:     128
Symmetric key:            00000000000000000000000000000000000000000000000000000000000000000000000000000000000000000000000000000000000000000000000000000020
Plaintext:                00000000000000000000000000000020
Ciphertext:               4ec9440a00e1220754b983daa363260765df1d25b0b7e3d43e3706c4012f6589
Reciphers for ciphertext: 0
Decipheredtext:           00000000000000000000000000000020
RESULT CIPHER-DECIPHER: -----OK-----


Test: 123
Hash algorithm:       10
Sector size in bytes: 32768
Data unit:   0
Start block: 0
Symmetric key bit length: 512
Plaintext bit length:     128
Symmetric key:            00000000000000000000000000000000000000000000000000000000000000000000000000000000000000000000000000000000000000000000000000000010
Plaintext:                00000000000000000000000000000010
Ciphertext:               278e413a202be9e093f481a72a550d966e68a9ec518941cef4ee6a6c5e8ec25563c25a78e6776fba9fda0fbea5c0f3ac9eb19c9e89e688dc
Reciphers for ciphertext: 0
Decipheredtext:           00000000000000000000000000000010
RESULT CIPHER-DECIPHER: -----OK-----


Test: 124
Hash algorithm:       12
Sector size in bytes: 32768
Data unit:   0
Start block: 0
Symmetric key bit length: 512
Plaintext bit length:     128
Symmetric key:            00000000000000000000000000000000000000000000000000000000000000000000000000000000000000000000000000000000000000000000000000000008
Plaintext:                00000000000000000000000000000008
Ciphertext:               7d4d0a45b56fb61b2a62922f7e420d204b1cdfea79d49b337b3c5d3e89a3a858
Reciphers for ciphertext: 0
Decipheredtext:           00000000000000000000000000000008
RESULT CIPHER-DECIPHER: -----OK-----


Test: 125
Hash algorithm:       9
Sector size in bytes: 32768
Data unit:   0
Start block: 0
Symmetric key bit length: 512
Plaintext bit length:     128
Symmetric key:            00000000000000000000000000000000000000000000000000000000000000000000000000000000000000000000000000000000000000000000000000000004
Plaintext:                00000000000000000000000000000004
Ciphertext:               e3562960bdb4f5df398fadfc6b394991c05f787e20961b7866a41a386a1be930556e09ea3b795563fc2e2da86a44b8fb
Reciphers for ciphertext: 0
Decipheredtext:           00000000000000000000000000000004
RESULT CIPHER-DECIPHER: -----OK-----


Test: 126
Hash algorithm:       12
Sector size in bytes: 32768
Data unit:   0
Start block: 0
Symmetric key bit length: 512
Plaintext bit length:     128
Symmetric key:            00000000000000000000000000000000000000000000000000000000000000000000000000000000000000000000000000000000000000000000000000000002
Plaintext:                00000000000000000000000000000002
Ciphertext:               a407359feca7dd0411f7424797edc73f4f745e6ad70f58c3910b2c51b65253ea
Reciphers for ciphertext: 0
Decipheredtext:           00000000000000000000000000000002
RESULT CIPHER-DECIPHER: -----OK-----


Test: 127
Hash algorithm:       0
Sector size in bytes: 32768
Data unit:   0
Start block: 0
Symmetric key bit length: 512
Plaintext bit length:     128
Symmetric key:            00000000000000000000000000000000000000000000000000000000000000000000000000000000000000000000000000000000000000000000000000000001
Plaintext:                00000000000000000000000000000001
Ciphertext:               ae46437b9016a5995689feecf54133e2e17385544094f0213448f928f24b2c82cc3098cf
Reciphers for ciphertext: 0
Decipheredtext:           00000000000000000000000000000001
RESULT CIPHER-DECIPHER: -----OK-----


 DATA SHA1 (hexadecimal): 139c674d9db44a4a36e59e37f853c9f1dfeac861

