
DiceLock 9.0.0.1

 TEST COMPONENTS:
 ----------------
 DiceLock:           DiceLockXTSDigested class
                     Operating based on storage sector size length
 Operation Mode:     XTS_Mode class
 Block Cipher:       AES128 class
 Hash algorithms:     0 - Sha1 class
                      1 - Sha224 class
                      2 - Sha256 class
                      3 - Sha384 class
                      4 - Sha512 class
                      5 - Sha512_224 class
                      6 - Sha512_256 class
                      7 - Ripemd128 class
                      8 - Ripemd160 class
                      9 - Ripemd256 class
                     10 - Ripemd320 class
                     11 - MD2 class
                     12 - MD4 class
                     13 - MD5 class
 Key Modifier:       DecreaseKeyModifier_6_0_0_1 class
 Random tests:       RandomTestSuite class
                     FrequencyTest class
                     BlockFrequencyTest class
                     CumulativeSumForwardTest class
                     LongestRunOfOnesTest class
                     RunsTest class
 Random alpha:       0.001

 VECTOR TEST: Test vector 5 - Symmetric key all byte value 0xXX and plaintext all byte value 0xYY


##### INDIVIDUAL TESTS #####

Number tests: 128


Test: 0
Hash algorithm:       9
Sector size in bytes: 512
Data unit:   0
Start block: 1
Symmetric key bit length: 256
Plaintext bit length:     128
Symmetric key:            0000000000000000000000000000000000000000000000000000000000000000
Plaintext:                ffffffffffffffffffffffffffffffff
Ciphertext:               12f360eeef98af961e9a2dd72d28878473902f67a024a227ef041679a084da68d132f2cda7338366d029aaa30fb73967
Reciphers for ciphertext: 0
Decipheredtext:           ffffffffffffffffffffffffffffffff
RESULT CIPHER-DECIPHER: -----OK-----


Test: 1
Hash algorithm:       3
Sector size in bytes: 512
Data unit:   1
Start block: 3
Symmetric key bit length: 256
Plaintext bit length:     128
Symmetric key:            0101010101010101010101010101010101010101010101010101010101010101
Plaintext:                fefefefefefefefefefefefefefefefe
Ciphertext:               c80b327647a7e109844b9bfd22f1624776e8c810771432008ffc17157753864b43ec262084e77f9278f627a008e00d7a948e5ddf42585d408c17dbd7091e1e3e
Reciphers for ciphertext: 0
Decipheredtext:           fefefefefefefefefefefefefefefefe
RESULT CIPHER-DECIPHER: -----OK-----


Test: 2
Hash algorithm:       11
Sector size in bytes: 512
Data unit:   2
Start block: 5
Symmetric key bit length: 256
Plaintext bit length:     128
Symmetric key:            0202020202020202020202020202020202020202020202020202020202020202
Plaintext:                fdfdfdfdfdfdfdfdfdfdfdfdfdfdfdfd
Ciphertext:               46b41427b8a7fd36b0ba77bd920f8a393cb4ca8da89c879d6bc1f82d850989a8
Reciphers for ciphertext: 0
Decipheredtext:           fdfdfdfdfdfdfdfdfdfdfdfdfdfdfdfd
RESULT CIPHER-DECIPHER: -----OK-----


Test: 3
Hash algorithm:       2
Sector size in bytes: 512
Data unit:   3
Start block: 7
Symmetric key bit length: 256
Plaintext bit length:     128
Symmetric key:            0303030303030303030303030303030303030303030303030303030303030303
Plaintext:                fcfcfcfcfcfcfcfcfcfcfcfcfcfcfcfc
Ciphertext:               7ece38fa885802258e944ab60626747ce57e97f514143e337bc7fe90b851383a46650d3fe3ae8dcff6a1eec178b3b562
Reciphers for ciphertext: 0
Decipheredtext:           fcfcfcfcfcfcfcfcfcfcfcfcfcfcfcfc
RESULT CIPHER-DECIPHER: -----OK-----


Test: 4
Hash algorithm:       8
Sector size in bytes: 512
Data unit:   4
Start block: 9
Symmetric key bit length: 256
Plaintext bit length:     128
Symmetric key:            0404040404040404040404040404040404040404040404040404040404040404
Plaintext:                fbfbfbfbfbfbfbfbfbfbfbfbfbfbfbfb
Ciphertext:               64f6fb517f4017ae0768b10cbaa472b1204186ef14bb66454586625ff471f51c237a178c
Reciphers for ciphertext: 0
Decipheredtext:           fbfbfbfbfbfbfbfbfbfbfbfbfbfbfbfb
RESULT CIPHER-DECIPHER: -----OK-----


Test: 5
Hash algorithm:       12
Sector size in bytes: 512
Data unit:   5
Start block: 11
Symmetric key bit length: 256
Plaintext bit length:     128
Symmetric key:            0505050505050505050505050505050505050505050505050505050505050505
Plaintext:                fafafafafafafafafafafafafafafafa
Ciphertext:               fc8f450ea428b1fca2a7bca270f49e7cc9b86e755e04d412929f98f711a9ac4e
Reciphers for ciphertext: 0
Decipheredtext:           fafafafafafafafafafafafafafafafa
RESULT CIPHER-DECIPHER: -----OK-----


Test: 6
Hash algorithm:       1
Sector size in bytes: 512
Data unit:   6
Start block: 13
Symmetric key bit length: 256
Plaintext bit length:     128
Symmetric key:            0606060606060606060606060606060606060606060606060606060606060606
Plaintext:                f9f9f9f9f9f9f9f9f9f9f9f9f9f9f9f9
Ciphertext:               63ffc496d098b0dd56690fcc39246a7d9efcd5b1564b7ddeb26eb238c991457d841053255ca4706c0ea52cd7
Reciphers for ciphertext: 0
Decipheredtext:           f9f9f9f9f9f9f9f9f9f9f9f9f9f9f9f9
RESULT CIPHER-DECIPHER: -----OK-----


Test: 7
Hash algorithm:       10
Sector size in bytes: 512
Data unit:   7
Start block: 15
Symmetric key bit length: 256
Plaintext bit length:     128
Symmetric key:            0707070707070707070707070707070707070707070707070707070707070707
Plaintext:                f8f8f8f8f8f8f8f8f8f8f8f8f8f8f8f8
Ciphertext:               cd2537c6d4570e36704a4574ff663984ae20a41074a91e7fd61896e1ac96cd34453a53d41a022d730166e99078bafeb5aed56b3a9fb793de
Reciphers for ciphertext: 0
Decipheredtext:           f8f8f8f8f8f8f8f8f8f8f8f8f8f8f8f8
RESULT CIPHER-DECIPHER: -----OK-----


Test: 8
Hash algorithm:       11
Sector size in bytes: 512
Data unit:   8
Start block: 17
Symmetric key bit length: 256
Plaintext bit length:     128
Symmetric key:            0808080808080808080808080808080808080808080808080808080808080808
Plaintext:                f7f7f7f7f7f7f7f7f7f7f7f7f7f7f7f7
Ciphertext:               2ed1c61538ede5c00d67492aeccfb72ce1d435a3262426ea910686eee0ea9868
Reciphers for ciphertext: 0
Decipheredtext:           f7f7f7f7f7f7f7f7f7f7f7f7f7f7f7f7
RESULT CIPHER-DECIPHER: -----OK-----


Test: 9
Hash algorithm:       11
Sector size in bytes: 512
Data unit:   9
Start block: 19
Symmetric key bit length: 256
Plaintext bit length:     128
Symmetric key:            0909090909090909090909090909090909090909090909090909090909090909
Plaintext:                f6f6f6f6f6f6f6f6f6f6f6f6f6f6f6f6
Ciphertext:               4ed921c106c34e12245fdb57a0969ca5e64df359980a178648239072f42c2208
Reciphers for ciphertext: 0
Decipheredtext:           f6f6f6f6f6f6f6f6f6f6f6f6f6f6f6f6
RESULT CIPHER-DECIPHER: -----OK-----


Test: 10
Hash algorithm:       8
Sector size in bytes: 1024
Data unit:   10
Start block: 21
Symmetric key bit length: 256
Plaintext bit length:     128
Symmetric key:            0a0a0a0a0a0a0a0a0a0a0a0a0a0a0a0a0a0a0a0a0a0a0a0a0a0a0a0a0a0a0a0a
Plaintext:                f5f5f5f5f5f5f5f5f5f5f5f5f5f5f5f5
Ciphertext:               17d8214dd7ac7d42d925d5b318980b6863b2c320f1b6e65972b81568e0cf8d6a9e1c1c1e
Reciphers for ciphertext: 0
Decipheredtext:           f5f5f5f5f5f5f5f5f5f5f5f5f5f5f5f5
RESULT CIPHER-DECIPHER: -----OK-----


Test: 11
Hash algorithm:       7
Sector size in bytes: 1024
Data unit:   11
Start block: 23
Symmetric key bit length: 256
Plaintext bit length:     128
Symmetric key:            0b0b0b0b0b0b0b0b0b0b0b0b0b0b0b0b0b0b0b0b0b0b0b0b0b0b0b0b0b0b0b0b
Plaintext:                f4f4f4f4f4f4f4f4f4f4f4f4f4f4f4f4
Ciphertext:               f750c56428660da405b623f29335bc48e47adc719119180f7b79d57911b13346
Reciphers for ciphertext: 0
Decipheredtext:           f4f4f4f4f4f4f4f4f4f4f4f4f4f4f4f4
RESULT CIPHER-DECIPHER: -----OK-----


Test: 12
Hash algorithm:       10
Sector size in bytes: 1024
Data unit:   12
Start block: 25
Symmetric key bit length: 256
Plaintext bit length:     128
Symmetric key:            0c0c0c0c0c0c0c0c0c0c0c0c0c0c0c0c0c0c0c0c0c0c0c0c0c0c0c0c0c0c0c0c
Plaintext:                f3f3f3f3f3f3f3f3f3f3f3f3f3f3f3f3
Ciphertext:               bad62daecfeb872c48321c9c5ecf7cd8838b8151642820a3776a1a4953f1eaf48d48cdd6d7abc6ad646a72307b015ca712d2e85f1e2f6c12
Reciphers for ciphertext: 0
Decipheredtext:           f3f3f3f3f3f3f3f3f3f3f3f3f3f3f3f3
RESULT CIPHER-DECIPHER: -----OK-----


Test: 13
Hash algorithm:       8
Sector size in bytes: 1024
Data unit:   13
Start block: 27
Symmetric key bit length: 256
Plaintext bit length:     128
Symmetric key:            0d0d0d0d0d0d0d0d0d0d0d0d0d0d0d0d0d0d0d0d0d0d0d0d0d0d0d0d0d0d0d0d
Plaintext:                f2f2f2f2f2f2f2f2f2f2f2f2f2f2f2f2
Ciphertext:               f62d3daf7bcdcc035c9f06595cac689802496d5fa7cd84b6ba8c00b5693aacc27c7c9bcc
Reciphers for ciphertext: 0
Decipheredtext:           f2f2f2f2f2f2f2f2f2f2f2f2f2f2f2f2
RESULT CIPHER-DECIPHER: -----OK-----


Test: 14
Hash algorithm:       13
Sector size in bytes: 1024
Data unit:   14
Start block: 29
Symmetric key bit length: 256
Plaintext bit length:     128
Symmetric key:            0e0e0e0e0e0e0e0e0e0e0e0e0e0e0e0e0e0e0e0e0e0e0e0e0e0e0e0e0e0e0e0e
Plaintext:                f1f1f1f1f1f1f1f1f1f1f1f1f1f1f1f1
Ciphertext:               d912f172a68abb9b2f0beaa10c0b6c2b2c7bf4130dfe788e5ec3aa2875f99f30
Reciphers for ciphertext: 0
Decipheredtext:           f1f1f1f1f1f1f1f1f1f1f1f1f1f1f1f1
RESULT CIPHER-DECIPHER: -----OK-----


Test: 15
Hash algorithm:       13
Sector size in bytes: 1024
Data unit:   15
Start block: 31
Symmetric key bit length: 256
Plaintext bit length:     128
Symmetric key:            0f0f0f0f0f0f0f0f0f0f0f0f0f0f0f0f0f0f0f0f0f0f0f0f0f0f0f0f0f0f0f0f
Plaintext:                f0f0f0f0f0f0f0f0f0f0f0f0f0f0f0f0
Ciphertext:               145f518f7ee48805c46028ec2600357391de4c5dfdf331b13cf79b4d329b7b6d
Reciphers for ciphertext: 0
Decipheredtext:           f0f0f0f0f0f0f0f0f0f0f0f0f0f0f0f0
RESULT CIPHER-DECIPHER: -----OK-----


Test: 16
Hash algorithm:       7
Sector size in bytes: 1024
Data unit:   16
Start block: 33
Symmetric key bit length: 256
Plaintext bit length:     128
Symmetric key:            1010101010101010101010101010101010101010101010101010101010101010
Plaintext:                efefefefefefefefefefefefefefefef
Ciphertext:               92c717e48f92de699f8cb485f03c9ad2226e5109ae658fba8ad476ebb5beb8ff
Reciphers for ciphertext: 0
Decipheredtext:           efefefefefefefefefefefefefefefef
RESULT CIPHER-DECIPHER: -----OK-----


Test: 17
Hash algorithm:       10
Sector size in bytes: 1024
Data unit:   17
Start block: 35
Symmetric key bit length: 256
Plaintext bit length:     128
Symmetric key:            1111111111111111111111111111111111111111111111111111111111111111
Plaintext:                eeeeeeeeeeeeeeeeeeeeeeeeeeeeeeee
Ciphertext:               ffd338902c4fda17ccd07e41db96f9523bd7cc4b7546222a902d20324b9dfee61f75357586a55319755215502914b09635bb014f800cfb14
Reciphers for ciphertext: 0
Decipheredtext:           eeeeeeeeeeeeeeeeeeeeeeeeeeeeeeee
RESULT CIPHER-DECIPHER: -----OK-----


Test: 18
Hash algorithm:       10
Sector size in bytes: 1024
Data unit:   18
Start block: 37
Symmetric key bit length: 256
Plaintext bit length:     128
Symmetric key:            1212121212121212121212121212121212121212121212121212121212121212
Plaintext:                edededededededededededededededed
Ciphertext:               95acf79672e173c76d5c65fde7d8c37af3de461e10d98181156ef923036e4621ea8b1529560cfc16d7faf3ec89f5d83bd577125561ec9226
Reciphers for ciphertext: 0
Decipheredtext:           edededededededededededededededed
RESULT CIPHER-DECIPHER: -----OK-----


Test: 19
Hash algorithm:       7
Sector size in bytes: 1024
Data unit:   19
Start block: 39
Symmetric key bit length: 256
Plaintext bit length:     128
Symmetric key:            1313131313131313131313131313131313131313131313131313131313131313
Plaintext:                ecececececececececececececececec
Ciphertext:               df9be1ab22815d5551c19e7d6dc9b357023bff03930dd433fd3c3ca05882f1ad
Reciphers for ciphertext: 0
Decipheredtext:           ecececececececececececececececec
RESULT CIPHER-DECIPHER: -----OK-----


Test: 20
Hash algorithm:       10
Sector size in bytes: 1536
Data unit:   20
Start block: 41
Symmetric key bit length: 256
Plaintext bit length:     128
Symmetric key:            1414141414141414141414141414141414141414141414141414141414141414
Plaintext:                ebebebebebebebebebebebebebebebeb
Ciphertext:               f2489540c65137816a157b0682a49256d87816567f1412216e408363dd96fd76ab6a5b0d4a99fef3eda6a7a3314b3e7042e6a24415779a6f
Reciphers for ciphertext: 0
Decipheredtext:           ebebebebebebebebebebebebebebebeb
RESULT CIPHER-DECIPHER: -----OK-----


Test: 21
Hash algorithm:       5
Sector size in bytes: 1536
Data unit:   21
Start block: 43
Symmetric key bit length: 256
Plaintext bit length:     128
Symmetric key:            1515151515151515151515151515151515151515151515151515151515151515
Plaintext:                eaeaeaeaeaeaeaeaeaeaeaeaeaeaeaea
Ciphertext:               1d0cdc7f9d03999172624ed7d45b36df3e08402887c6fe12b13f7b301e6a49456aa26968bb7ffcb619150c83
Reciphers for ciphertext: 0
Decipheredtext:           eaeaeaeaeaeaeaeaeaeaeaeaeaeaeaea
RESULT CIPHER-DECIPHER: -----OK-----


Test: 22
Hash algorithm:       13
Sector size in bytes: 1536
Data unit:   22
Start block: 45
Symmetric key bit length: 256
Plaintext bit length:     128
Symmetric key:            1616161616161616161616161616161616161616161616161616161616161616
Plaintext:                e9e9e9e9e9e9e9e9e9e9e9e9e9e9e9e9
Ciphertext:               a800ac0d85a179d88ca876ae0adf431ddb77c527f4b42d428cf8fe6f5cb69471
Reciphers for ciphertext: 0
Decipheredtext:           e9e9e9e9e9e9e9e9e9e9e9e9e9e9e9e9
RESULT CIPHER-DECIPHER: -----OK-----


Test: 23
Hash algorithm:       9
Sector size in bytes: 1536
Data unit:   23
Start block: 47
Symmetric key bit length: 256
Plaintext bit length:     128
Symmetric key:            1717171717171717171717171717171717171717171717171717171717171717
Plaintext:                e8e8e8e8e8e8e8e8e8e8e8e8e8e8e8e8
Ciphertext:               a64fa91d5e26fc5d359e4a0dc69eb95127ea4c0f5d83dd6bb1b5593bb36064d1bac89417e4450353277e847a811a0544
Reciphers for ciphertext: 0
Decipheredtext:           e8e8e8e8e8e8e8e8e8e8e8e8e8e8e8e8
RESULT CIPHER-DECIPHER: -----OK-----


Test: 24
Hash algorithm:       9
Sector size in bytes: 1536
Data unit:   24
Start block: 49
Symmetric key bit length: 256
Plaintext bit length:     128
Symmetric key:            1818181818181818181818181818181818181818181818181818181818181818
Plaintext:                e7e7e7e7e7e7e7e7e7e7e7e7e7e7e7e7
Ciphertext:               14eca38baed08a75aef62e93d15e18e27cac815a8ba9711b0b4ae49560c1830b824c3ed60c6041ff8cbb31cbb2e7d378
Reciphers for ciphertext: 0
Decipheredtext:           e7e7e7e7e7e7e7e7e7e7e7e7e7e7e7e7
RESULT CIPHER-DECIPHER: -----OK-----


Test: 25
Hash algorithm:       0
Sector size in bytes: 1536
Data unit:   25
Start block: 51
Symmetric key bit length: 256
Plaintext bit length:     128
Symmetric key:            1919191919191919191919191919191919191919191919191919191919191919
Plaintext:                e6e6e6e6e6e6e6e6e6e6e6e6e6e6e6e6
Ciphertext:               64ce62adbd6d235cb3c47ffc507718674d827a30cfc21f70ed8e7ac2926dfd6bf184ed20
Reciphers for ciphertext: 0
Decipheredtext:           e6e6e6e6e6e6e6e6e6e6e6e6e6e6e6e6
RESULT CIPHER-DECIPHER: -----OK-----


Test: 26
Hash algorithm:       4
Sector size in bytes: 1536
Data unit:   26
Start block: 53
Symmetric key bit length: 256
Plaintext bit length:     128
Symmetric key:            1a1a1a1a1a1a1a1a1a1a1a1a1a1a1a1a1a1a1a1a1a1a1a1a1a1a1a1a1a1a1a1a
Plaintext:                e5e5e5e5e5e5e5e5e5e5e5e5e5e5e5e5
Ciphertext:               5c336b94c8c13ef1c4cc25e0c07ea49b59815fc365229a10889ca224b2332a0d828cba8f128fb427afa4387dd5e833aad24d841fdbc1b9e162a2adec65b11c724f99c3c998910db8ada8786b61b2eeb1
Reciphers for ciphertext: 0
Decipheredtext:           e5e5e5e5e5e5e5e5e5e5e5e5e5e5e5e5
RESULT CIPHER-DECIPHER: -----OK-----


Test: 27
Hash algorithm:       7
Sector size in bytes: 1536
Data unit:   27
Start block: 55
Symmetric key bit length: 256
Plaintext bit length:     128
Symmetric key:            1b1b1b1b1b1b1b1b1b1b1b1b1b1b1b1b1b1b1b1b1b1b1b1b1b1b1b1b1b1b1b1b
Plaintext:                e4e4e4e4e4e4e4e4e4e4e4e4e4e4e4e4
Ciphertext:               a4ee1a00db23a36f341de8d50e76819fa292814b9a634d9df7be7d62805d004d
Reciphers for ciphertext: 0
Decipheredtext:           e4e4e4e4e4e4e4e4e4e4e4e4e4e4e4e4
RESULT CIPHER-DECIPHER: -----OK-----


Test: 28
Hash algorithm:       0
Sector size in bytes: 1536
Data unit:   28
Start block: 57
Symmetric key bit length: 256
Plaintext bit length:     128
Symmetric key:            1c1c1c1c1c1c1c1c1c1c1c1c1c1c1c1c1c1c1c1c1c1c1c1c1c1c1c1c1c1c1c1c
Plaintext:                e3e3e3e3e3e3e3e3e3e3e3e3e3e3e3e3
Ciphertext:               f98193492323b31513f4843f86720f8d738b98065c23606915f5cf530b7f7635baebad70
Reciphers for ciphertext: 0
Decipheredtext:           e3e3e3e3e3e3e3e3e3e3e3e3e3e3e3e3
RESULT CIPHER-DECIPHER: -----OK-----


Test: 29
Hash algorithm:       7
Sector size in bytes: 1536
Data unit:   29
Start block: 59
Symmetric key bit length: 256
Plaintext bit length:     128
Symmetric key:            1d1d1d1d1d1d1d1d1d1d1d1d1d1d1d1d1d1d1d1d1d1d1d1d1d1d1d1d1d1d1d1d
Plaintext:                e2e2e2e2e2e2e2e2e2e2e2e2e2e2e2e2
Ciphertext:               598abda204077cb3cd064391a32c9dd6387c5b3a8101d4c3a2b52e79c235cb5b
Reciphers for ciphertext: 0
Decipheredtext:           e2e2e2e2e2e2e2e2e2e2e2e2e2e2e2e2
RESULT CIPHER-DECIPHER: -----OK-----


Test: 30
Hash algorithm:       6
Sector size in bytes: 2048
Data unit:   30
Start block: 61
Symmetric key bit length: 256
Plaintext bit length:     128
Symmetric key:            1e1e1e1e1e1e1e1e1e1e1e1e1e1e1e1e1e1e1e1e1e1e1e1e1e1e1e1e1e1e1e1e
Plaintext:                e1e1e1e1e1e1e1e1e1e1e1e1e1e1e1e1
Ciphertext:               039725f11972b5a6ec540b90b8e2d4367ff300683a36f0ddcc09b80fbf9bb48dcb9881e679da699ce50c4b52e5fa7070
Reciphers for ciphertext: 0
Decipheredtext:           e1e1e1e1e1e1e1e1e1e1e1e1e1e1e1e1
RESULT CIPHER-DECIPHER: -----OK-----


Test: 31
Hash algorithm:       8
Sector size in bytes: 2048
Data unit:   31
Start block: 63
Symmetric key bit length: 256
Plaintext bit length:     128
Symmetric key:            1f1f1f1f1f1f1f1f1f1f1f1f1f1f1f1f1f1f1f1f1f1f1f1f1f1f1f1f1f1f1f1f
Plaintext:                e0e0e0e0e0e0e0e0e0e0e0e0e0e0e0e0
Ciphertext:               115355303a1aeba262814ad1fafc3967bcb99d122eeb82f1d556d33da9cce96d3889894d
Reciphers for ciphertext: 0
Decipheredtext:           e0e0e0e0e0e0e0e0e0e0e0e0e0e0e0e0
RESULT CIPHER-DECIPHER: -----OK-----


Test: 32
Hash algorithm:       3
Sector size in bytes: 2048
Data unit:   32
Start block: 65
Symmetric key bit length: 256
Plaintext bit length:     128
Symmetric key:            2020202020202020202020202020202020202020202020202020202020202020
Plaintext:                dfdfdfdfdfdfdfdfdfdfdfdfdfdfdfdf
Ciphertext:               4ab36331b38d5716ef61012da4933bfb6e6c526ef341e024de14fa831fffd4f18774399bef15fd75296fa375667a3e3e95f8b2fab27e68bb8ddd7d8b1b7f6c0c
Reciphers for ciphertext: 0
Decipheredtext:           dfdfdfdfdfdfdfdfdfdfdfdfdfdfdfdf
RESULT CIPHER-DECIPHER: -----OK-----


Test: 33
Hash algorithm:       5
Sector size in bytes: 2048
Data unit:   33
Start block: 67
Symmetric key bit length: 256
Plaintext bit length:     128
Symmetric key:            2121212121212121212121212121212121212121212121212121212121212121
Plaintext:                dededededededededededededededede
Ciphertext:               25a21de0490c6fe2e8211528f6bdff2d9ff5d1fa8fc648db1a0e700bd6d3d650149e9038626d93e281c428b5
Reciphers for ciphertext: 0
Decipheredtext:           dededededededededededededededede
RESULT CIPHER-DECIPHER: -----OK-----


Test: 34
Hash algorithm:       13
Sector size in bytes: 2048
Data unit:   34
Start block: 69
Symmetric key bit length: 256
Plaintext bit length:     128
Symmetric key:            2222222222222222222222222222222222222222222222222222222222222222
Plaintext:                dddddddddddddddddddddddddddddddd
Ciphertext:               daa4200eb56177b56e7676121a0f5b84b148db79353935faa3e4d3bab7e13a21
Reciphers for ciphertext: 0
Decipheredtext:           dddddddddddddddddddddddddddddddd
RESULT CIPHER-DECIPHER: -----OK-----


Test: 35
Hash algorithm:       9
Sector size in bytes: 2048
Data unit:   35
Start block: 71
Symmetric key bit length: 256
Plaintext bit length:     128
Symmetric key:            2323232323232323232323232323232323232323232323232323232323232323
Plaintext:                dcdcdcdcdcdcdcdcdcdcdcdcdcdcdcdc
Ciphertext:               59c49682958d919412d979b3c482ebdb4e1d07cb9b67c79e11dde16ab231d749006a514deec9f4a052c7353d59e99835
Reciphers for ciphertext: 0
Decipheredtext:           dcdcdcdcdcdcdcdcdcdcdcdcdcdcdcdc
RESULT CIPHER-DECIPHER: -----OK-----


Test: 36
Hash algorithm:       13
Sector size in bytes: 2048
Data unit:   36
Start block: 73
Symmetric key bit length: 256
Plaintext bit length:     128
Symmetric key:            2424242424242424242424242424242424242424242424242424242424242424
Plaintext:                dbdbdbdbdbdbdbdbdbdbdbdbdbdbdbdb
Ciphertext:               901a481af30eea4a0193950ba3644785bf6b0a0773120530b0c9ece135fc7de8
Reciphers for ciphertext: 0
Decipheredtext:           dbdbdbdbdbdbdbdbdbdbdbdbdbdbdbdb
RESULT CIPHER-DECIPHER: -----OK-----


Test: 37
Hash algorithm:       13
Sector size in bytes: 2048
Data unit:   37
Start block: 75
Symmetric key bit length: 256
Plaintext bit length:     128
Symmetric key:            2525252525252525252525252525252525252525252525252525252525252525
Plaintext:                dadadadadadadadadadadadadadadada
Ciphertext:               d727ac70d3e9b527be1760b7be5621496aacc08cc5bc82454d8d7eadf3b3ffed
Reciphers for ciphertext: 0
Decipheredtext:           dadadadadadadadadadadadadadadada
RESULT CIPHER-DECIPHER: -----OK-----


Test: 38
Hash algorithm:       6
Sector size in bytes: 2048
Data unit:   38
Start block: 77
Symmetric key bit length: 256
Plaintext bit length:     128
Symmetric key:            2626262626262626262626262626262626262626262626262626262626262626
Plaintext:                d9d9d9d9d9d9d9d9d9d9d9d9d9d9d9d9
Ciphertext:               91e63469f699e52c55161a9a26d72b9826291c8013bd241ba692c4c16745cd027aa76c4ccd9bcc02c578b439ee4d5db1
Reciphers for ciphertext: 0
Decipheredtext:           d9d9d9d9d9d9d9d9d9d9d9d9d9d9d9d9
RESULT CIPHER-DECIPHER: -----OK-----


Test: 39
Hash algorithm:       0
Sector size in bytes: 2048
Data unit:   39
Start block: 79
Symmetric key bit length: 256
Plaintext bit length:     128
Symmetric key:            2727272727272727272727272727272727272727272727272727272727272727
Plaintext:                d8d8d8d8d8d8d8d8d8d8d8d8d8d8d8d8
Ciphertext:               8661ce772b9bde5200fe9fce2113c74aa9b0df2ad6558edab7af713e8f873b29113eec72
Reciphers for ciphertext: 0
Decipheredtext:           d8d8d8d8d8d8d8d8d8d8d8d8d8d8d8d8
RESULT CIPHER-DECIPHER: -----OK-----


Test: 40
Hash algorithm:       9
Sector size in bytes: 2560
Data unit:   40
Start block: 81
Symmetric key bit length: 256
Plaintext bit length:     128
Symmetric key:            2828282828282828282828282828282828282828282828282828282828282828
Plaintext:                d7d7d7d7d7d7d7d7d7d7d7d7d7d7d7d7
Ciphertext:               884f0d2a0fa931e88d20e1dde77320b29b85467e8f7d166dd6f2f7c3eb21bb50dcf9b0a169016c443ff88427ee2fc5a5
Reciphers for ciphertext: 0
Decipheredtext:           d7d7d7d7d7d7d7d7d7d7d7d7d7d7d7d7
RESULT CIPHER-DECIPHER: -----OK-----


Test: 41
Hash algorithm:       6
Sector size in bytes: 2560
Data unit:   41
Start block: 83
Symmetric key bit length: 256
Plaintext bit length:     128
Symmetric key:            2929292929292929292929292929292929292929292929292929292929292929
Plaintext:                d6d6d6d6d6d6d6d6d6d6d6d6d6d6d6d6
Ciphertext:               dc1b5d490d381898e86eb88156c2b7c2485a3e954df966b9825950399273027d50e69947abe80df98548e4d03f62c513
Reciphers for ciphertext: 0
Decipheredtext:           d6d6d6d6d6d6d6d6d6d6d6d6d6d6d6d6
RESULT CIPHER-DECIPHER: -----OK-----


Test: 42
Hash algorithm:       12
Sector size in bytes: 2560
Data unit:   42
Start block: 85
Symmetric key bit length: 256
Plaintext bit length:     128
Symmetric key:            2a2a2a2a2a2a2a2a2a2a2a2a2a2a2a2a2a2a2a2a2a2a2a2a2a2a2a2a2a2a2a2a
Plaintext:                d5d5d5d5d5d5d5d5d5d5d5d5d5d5d5d5
Ciphertext:               85025fb3cff5911d7921a901d20f80160120ce53f949d6b4bbd75136870faba3
Reciphers for ciphertext: 0
Decipheredtext:           d5d5d5d5d5d5d5d5d5d5d5d5d5d5d5d5
RESULT CIPHER-DECIPHER: -----OK-----


Test: 43
Hash algorithm:       13
Sector size in bytes: 2560
Data unit:   43
Start block: 87
Symmetric key bit length: 256
Plaintext bit length:     128
Symmetric key:            2b2b2b2b2b2b2b2b2b2b2b2b2b2b2b2b2b2b2b2b2b2b2b2b2b2b2b2b2b2b2b2b
Plaintext:                d4d4d4d4d4d4d4d4d4d4d4d4d4d4d4d4
Ciphertext:               513c108f73a7ebee8b85a5437b5d568e5424c6652935768877c65630718fd270
Reciphers for ciphertext: 0
Decipheredtext:           d4d4d4d4d4d4d4d4d4d4d4d4d4d4d4d4
RESULT CIPHER-DECIPHER: -----OK-----


Test: 44
Hash algorithm:       2
Sector size in bytes: 2560
Data unit:   44
Start block: 89
Symmetric key bit length: 256
Plaintext bit length:     128
Symmetric key:            2c2c2c2c2c2c2c2c2c2c2c2c2c2c2c2c2c2c2c2c2c2c2c2c2c2c2c2c2c2c2c2c
Plaintext:                d3d3d3d3d3d3d3d3d3d3d3d3d3d3d3d3
Ciphertext:               51d7051bcb58e0b17f531f9f7a374786eaf3dd64ac0c8a1dc53dd766203c954e33c1878d68605486adc5416b21e699c0
Reciphers for ciphertext: 0
Decipheredtext:           d3d3d3d3d3d3d3d3d3d3d3d3d3d3d3d3
RESULT CIPHER-DECIPHER: -----OK-----


Test: 45
Hash algorithm:       4
Sector size in bytes: 2560
Data unit:   45
Start block: 91
Symmetric key bit length: 256
Plaintext bit length:     128
Symmetric key:            2d2d2d2d2d2d2d2d2d2d2d2d2d2d2d2d2d2d2d2d2d2d2d2d2d2d2d2d2d2d2d2d
Plaintext:                d2d2d2d2d2d2d2d2d2d2d2d2d2d2d2d2
Ciphertext:               21c68ccbeccab6f10f22bd71170a8b2d1ec0a62919316bdb852221c8c441bd6575bd03474aab9593c0724ea45811f11b6310d0fada36d3e561a6c643feb9efabce42139d218e3313ae94ffa59b54ca0e
Reciphers for ciphertext: 0
Decipheredtext:           d2d2d2d2d2d2d2d2d2d2d2d2d2d2d2d2
RESULT CIPHER-DECIPHER: -----OK-----


Test: 46
Hash algorithm:       13
Sector size in bytes: 2560
Data unit:   46
Start block: 93
Symmetric key bit length: 256
Plaintext bit length:     128
Symmetric key:            2e2e2e2e2e2e2e2e2e2e2e2e2e2e2e2e2e2e2e2e2e2e2e2e2e2e2e2e2e2e2e2e
Plaintext:                d1d1d1d1d1d1d1d1d1d1d1d1d1d1d1d1
Ciphertext:               a9ae6f373b6f6f329ef0795002a7353d4d64405a98dfeaa7778188035fc3255d
Reciphers for ciphertext: 0
Decipheredtext:           d1d1d1d1d1d1d1d1d1d1d1d1d1d1d1d1
RESULT CIPHER-DECIPHER: -----OK-----


Test: 47
Hash algorithm:       6
Sector size in bytes: 2560
Data unit:   47
Start block: 95
Symmetric key bit length: 256
Plaintext bit length:     128
Symmetric key:            2f2f2f2f2f2f2f2f2f2f2f2f2f2f2f2f2f2f2f2f2f2f2f2f2f2f2f2f2f2f2f2f
Plaintext:                d0d0d0d0d0d0d0d0d0d0d0d0d0d0d0d0
Ciphertext:               90b85f3a041d736c27075553859781509901aff0460f0306ca73b1180b41779d8fb88904ee0facaaa79e125cd3190987
Reciphers for ciphertext: 0
Decipheredtext:           d0d0d0d0d0d0d0d0d0d0d0d0d0d0d0d0
RESULT CIPHER-DECIPHER: -----OK-----


Test: 48
Hash algorithm:       13
Sector size in bytes: 2560
Data unit:   48
Start block: 97
Symmetric key bit length: 256
Plaintext bit length:     128
Symmetric key:            3030303030303030303030303030303030303030303030303030303030303030
Plaintext:                cfcfcfcfcfcfcfcfcfcfcfcfcfcfcfcf
Ciphertext:               bd8b6c22621f6d0819dbcd191214b799a9c277fdcfd34c97d7f37b28d209ee2f
Reciphers for ciphertext: 0
Decipheredtext:           cfcfcfcfcfcfcfcfcfcfcfcfcfcfcfcf
RESULT CIPHER-DECIPHER: -----OK-----


Test: 49
Hash algorithm:       11
Sector size in bytes: 2560
Data unit:   49
Start block: 99
Symmetric key bit length: 256
Plaintext bit length:     128
Symmetric key:            3131313131313131313131313131313131313131313131313131313131313131
Plaintext:                cececececececececececececececece
Ciphertext:               d93c26e9fbc579e006241cfbf284b8a0718b6c0dcc06c47f5ef36e1d4e06c785
Reciphers for ciphertext: 0
Decipheredtext:           cececececececececececececececece
RESULT CIPHER-DECIPHER: -----OK-----


Test: 50
Hash algorithm:       2
Sector size in bytes: 3072
Data unit:   50
Start block: 101
Symmetric key bit length: 256
Plaintext bit length:     128
Symmetric key:            3232323232323232323232323232323232323232323232323232323232323232
Plaintext:                cdcdcdcdcdcdcdcdcdcdcdcdcdcdcdcd
Ciphertext:               87519c1a8c16ac1e81219faa3903372eead6e7b129795c86835dcf61769083b979f2cf96d9a1accdb88ea24c69e8c912
Reciphers for ciphertext: 0
Decipheredtext:           cdcdcdcdcdcdcdcdcdcdcdcdcdcdcdcd
RESULT CIPHER-DECIPHER: -----OK-----


Test: 51
Hash algorithm:       1
Sector size in bytes: 3072
Data unit:   51
Start block: 103
Symmetric key bit length: 256
Plaintext bit length:     128
Symmetric key:            3333333333333333333333333333333333333333333333333333333333333333
Plaintext:                cccccccccccccccccccccccccccccccc
Ciphertext:               7d4cdf46f24c49281a40639d175700a4731dabbd3c81f22f5d71756c6d2b329844646dffe0544735bf4c44dd
Reciphers for ciphertext: 0
Decipheredtext:           cccccccccccccccccccccccccccccccc
RESULT CIPHER-DECIPHER: -----OK-----


Test: 52
Hash algorithm:       1
Sector size in bytes: 3072
Data unit:   52
Start block: 105
Symmetric key bit length: 256
Plaintext bit length:     128
Symmetric key:            3434343434343434343434343434343434343434343434343434343434343434
Plaintext:                cbcbcbcbcbcbcbcbcbcbcbcbcbcbcbcb
Ciphertext:               0f95f57955c30548454cc84ec869361f00f44c5d5573f15e5d0fae7eeff0774fc9ebab264e8d2b95d32ee2af
Reciphers for ciphertext: 0
Decipheredtext:           cbcbcbcbcbcbcbcbcbcbcbcbcbcbcbcb
RESULT CIPHER-DECIPHER: -----OK-----


Test: 53
Hash algorithm:       6
Sector size in bytes: 3072
Data unit:   53
Start block: 107
Symmetric key bit length: 256
Plaintext bit length:     128
Symmetric key:            3535353535353535353535353535353535353535353535353535353535353535
Plaintext:                cacacacacacacacacacacacacacacaca
Ciphertext:               85e3e5fa31726d4dbbdc81bb1e4ac1635e72a1cd358e0222a976cf6d78d23ba96a0e09555b2765f044e1ab09bf5521f3
Reciphers for ciphertext: 0
Decipheredtext:           cacacacacacacacacacacacacacacaca
RESULT CIPHER-DECIPHER: -----OK-----


Test: 54
Hash algorithm:       2
Sector size in bytes: 3072
Data unit:   54
Start block: 109
Symmetric key bit length: 256
Plaintext bit length:     128
Symmetric key:            3636363636363636363636363636363636363636363636363636363636363636
Plaintext:                c9c9c9c9c9c9c9c9c9c9c9c9c9c9c9c9
Ciphertext:               4af3e79bf59249106558505171bc9f34b2446df19ba178024eefe9b6c3f1bf3a3cd7a9143e4fb09a268dcdd0ff1e446c
Reciphers for ciphertext: 0
Decipheredtext:           c9c9c9c9c9c9c9c9c9c9c9c9c9c9c9c9
RESULT CIPHER-DECIPHER: -----OK-----


Test: 55
Hash algorithm:       5
Sector size in bytes: 3072
Data unit:   55
Start block: 111
Symmetric key bit length: 256
Plaintext bit length:     128
Symmetric key:            3737373737373737373737373737373737373737373737373737373737373737
Plaintext:                c8c8c8c8c8c8c8c8c8c8c8c8c8c8c8c8
Ciphertext:               bb68dffa5f790bb23d553fb22399121c18a2489250af3d20fa17869b6147d5ce11063d2800723f6c756b49c0
Reciphers for ciphertext: 0
Decipheredtext:           c8c8c8c8c8c8c8c8c8c8c8c8c8c8c8c8
RESULT CIPHER-DECIPHER: -----OK-----


Test: 56
Hash algorithm:       0
Sector size in bytes: 3072
Data unit:   56
Start block: 113
Symmetric key bit length: 256
Plaintext bit length:     128
Symmetric key:            3838383838383838383838383838383838383838383838383838383838383838
Plaintext:                c7c7c7c7c7c7c7c7c7c7c7c7c7c7c7c7
Ciphertext:               42be0b385e4e0b34902828eb2fda361399746d74751c8269e6c49446e35471e0ffd94a22
Reciphers for ciphertext: 0
Decipheredtext:           c7c7c7c7c7c7c7c7c7c7c7c7c7c7c7c7
RESULT CIPHER-DECIPHER: -----OK-----


Test: 57
Hash algorithm:       0
Sector size in bytes: 3072
Data unit:   57
Start block: 115
Symmetric key bit length: 256
Plaintext bit length:     128
Symmetric key:            3939393939393939393939393939393939393939393939393939393939393939
Plaintext:                c6c6c6c6c6c6c6c6c6c6c6c6c6c6c6c6
Ciphertext:               812a9d17acb4214b5414f754ebc5b0735a2916194fce1c627fd674312ff780deff2f461d
Reciphers for ciphertext: 0
Decipheredtext:           c6c6c6c6c6c6c6c6c6c6c6c6c6c6c6c6
RESULT CIPHER-DECIPHER: -----OK-----


Test: 58
Hash algorithm:       12
Sector size in bytes: 3072
Data unit:   58
Start block: 117
Symmetric key bit length: 256
Plaintext bit length:     128
Symmetric key:            3a3a3a3a3a3a3a3a3a3a3a3a3a3a3a3a3a3a3a3a3a3a3a3a3a3a3a3a3a3a3a3a
Plaintext:                c5c5c5c5c5c5c5c5c5c5c5c5c5c5c5c5
Ciphertext:               85b290ffee0120f0c1e98f9a2e6186abed3c70dc85019aec8d515e84720ec7ef
Reciphers for ciphertext: 0
Decipheredtext:           c5c5c5c5c5c5c5c5c5c5c5c5c5c5c5c5
RESULT CIPHER-DECIPHER: -----OK-----


Test: 59
Hash algorithm:       4
Sector size in bytes: 3072
Data unit:   59
Start block: 119
Symmetric key bit length: 256
Plaintext bit length:     128
Symmetric key:            3b3b3b3b3b3b3b3b3b3b3b3b3b3b3b3b3b3b3b3b3b3b3b3b3b3b3b3b3b3b3b3b
Plaintext:                c4c4c4c4c4c4c4c4c4c4c4c4c4c4c4c4
Ciphertext:               bd6eae1ae59faf1c5771208a25d4f8e56393908dedbbd5106c566588b359cc5c992813d320227ada537f380fa8fc5a9b1250c0f1088961da8c8e86f09128612ea4848d8e642476e918322f7123a12ed1
Reciphers for ciphertext: 0
Decipheredtext:           c4c4c4c4c4c4c4c4c4c4c4c4c4c4c4c4
RESULT CIPHER-DECIPHER: -----OK-----


Test: 60
Hash algorithm:       3
Sector size in bytes: 3584
Data unit:   60
Start block: 121
Symmetric key bit length: 256
Plaintext bit length:     128
Symmetric key:            3c3c3c3c3c3c3c3c3c3c3c3c3c3c3c3c3c3c3c3c3c3c3c3c3c3c3c3c3c3c3c3c
Plaintext:                c3c3c3c3c3c3c3c3c3c3c3c3c3c3c3c3
Ciphertext:               4349b657dae80cacecf75fd5f3f6b818362bc339a3a22761ecc94b12e59cf1a9f48f713b70eb24454d8f610078c9f399e2d99a25eccfd07a0c22f230eca6c7b5
Reciphers for ciphertext: 0
Decipheredtext:           c3c3c3c3c3c3c3c3c3c3c3c3c3c3c3c3
RESULT CIPHER-DECIPHER: -----OK-----


Test: 61
Hash algorithm:       8
Sector size in bytes: 3584
Data unit:   61
Start block: 123
Symmetric key bit length: 256
Plaintext bit length:     128
Symmetric key:            3d3d3d3d3d3d3d3d3d3d3d3d3d3d3d3d3d3d3d3d3d3d3d3d3d3d3d3d3d3d3d3d
Plaintext:                c2c2c2c2c2c2c2c2c2c2c2c2c2c2c2c2
Ciphertext:               4371e67cd6b0c70409da14c536f75dffc84bffbd82115a0a29122b32edd4209fd978c8fa
Reciphers for ciphertext: 0
Decipheredtext:           c2c2c2c2c2c2c2c2c2c2c2c2c2c2c2c2
RESULT CIPHER-DECIPHER: -----OK-----


Test: 62
Hash algorithm:       13
Sector size in bytes: 3584
Data unit:   62
Start block: 125
Symmetric key bit length: 256
Plaintext bit length:     128
Symmetric key:            3e3e3e3e3e3e3e3e3e3e3e3e3e3e3e3e3e3e3e3e3e3e3e3e3e3e3e3e3e3e3e3e
Plaintext:                c1c1c1c1c1c1c1c1c1c1c1c1c1c1c1c1
Ciphertext:               2b400b7f7840681713f08e3b6be5f93f0401cab3a958a16fdbb1b1c37bbe7509
Reciphers for ciphertext: 0
Decipheredtext:           c1c1c1c1c1c1c1c1c1c1c1c1c1c1c1c1
RESULT CIPHER-DECIPHER: -----OK-----


Test: 63
Hash algorithm:       12
Sector size in bytes: 3584
Data unit:   63
Start block: 127
Symmetric key bit length: 256
Plaintext bit length:     128
Symmetric key:            3f3f3f3f3f3f3f3f3f3f3f3f3f3f3f3f3f3f3f3f3f3f3f3f3f3f3f3f3f3f3f3f
Plaintext:                c0c0c0c0c0c0c0c0c0c0c0c0c0c0c0c0
Ciphertext:               009fe39a98e36ade53f947d0d306bceb70e3406a161ded82b9d09941cf4b11cd
Reciphers for ciphertext: 0
Decipheredtext:           c0c0c0c0c0c0c0c0c0c0c0c0c0c0c0c0
RESULT CIPHER-DECIPHER: -----OK-----


Test: 64
Hash algorithm:       12
Sector size in bytes: 3584
Data unit:   64
Start block: 129
Symmetric key bit length: 256
Plaintext bit length:     128
Symmetric key:            4040404040404040404040404040404040404040404040404040404040404040
Plaintext:                bfbfbfbfbfbfbfbfbfbfbfbfbfbfbfbf
Ciphertext:               e0943759878a452a18b0d2a269c41d607181708389808d5e6b214a106b0749ee
Reciphers for ciphertext: 0
Decipheredtext:           bfbfbfbfbfbfbfbfbfbfbfbfbfbfbfbf
RESULT CIPHER-DECIPHER: -----OK-----


Test: 65
Hash algorithm:       6
Sector size in bytes: 3584
Data unit:   65
Start block: 131
Symmetric key bit length: 256
Plaintext bit length:     128
Symmetric key:            4141414141414141414141414141414141414141414141414141414141414141
Plaintext:                bebebebebebebebebebebebebebebebe
Ciphertext:               719f3e3a070d6b6c6ed28abf9d3c0a16f31225292a47b1bf9385256df32ecf118a855b02192352686b814c170b1c6ed6
Reciphers for ciphertext: 0
Decipheredtext:           bebebebebebebebebebebebebebebebe
RESULT CIPHER-DECIPHER: -----OK-----


Test: 66
Hash algorithm:       1
Sector size in bytes: 3584
Data unit:   66
Start block: 133
Symmetric key bit length: 256
Plaintext bit length:     128
Symmetric key:            4242424242424242424242424242424242424242424242424242424242424242
Plaintext:                bdbdbdbdbdbdbdbdbdbdbdbdbdbdbdbd
Ciphertext:               b3cc02c04748b4f9eba29e468d5908c6a6dc56c1cdea651d7b8b4d381224d7dd872e5d06ca6eda5433388a67
Reciphers for ciphertext: 0
Decipheredtext:           bdbdbdbdbdbdbdbdbdbdbdbdbdbdbdbd
RESULT CIPHER-DECIPHER: -----OK-----


Test: 67
Hash algorithm:       6
Sector size in bytes: 3584
Data unit:   67
Start block: 135
Symmetric key bit length: 256
Plaintext bit length:     128
Symmetric key:            4343434343434343434343434343434343434343434343434343434343434343
Plaintext:                bcbcbcbcbcbcbcbcbcbcbcbcbcbcbcbc
Ciphertext:               29a42d972ae67c885042be2d7a7be679a1c2b9f2a5c54127b75445a78c707f61066c2a3d3601e8967a95306b69519567
Reciphers for ciphertext: 0
Decipheredtext:           bcbcbcbcbcbcbcbcbcbcbcbcbcbcbcbc
RESULT CIPHER-DECIPHER: -----OK-----


Test: 68
Hash algorithm:       8
Sector size in bytes: 3584
Data unit:   68
Start block: 137
Symmetric key bit length: 256
Plaintext bit length:     128
Symmetric key:            4444444444444444444444444444444444444444444444444444444444444444
Plaintext:                bbbbbbbbbbbbbbbbbbbbbbbbbbbbbbbb
Ciphertext:               49b46e1e2c893c674305f3c124fa8afa0a66bcdb73192a8411d78b2145174173e5224de7
Reciphers for ciphertext: 0
Decipheredtext:           bbbbbbbbbbbbbbbbbbbbbbbbbbbbbbbb
RESULT CIPHER-DECIPHER: -----OK-----


Test: 69
Hash algorithm:       2
Sector size in bytes: 3584
Data unit:   69
Start block: 139
Symmetric key bit length: 256
Plaintext bit length:     128
Symmetric key:            4545454545454545454545454545454545454545454545454545454545454545
Plaintext:                babababababababababababababababa
Ciphertext:               292c39ce00d9f828c2a099e8f8ded3aa60521a42939928489822ae5f2caaec41dfa1a06019e73a5d20a5c642ceba026f
Reciphers for ciphertext: 0
Decipheredtext:           babababababababababababababababa
RESULT CIPHER-DECIPHER: -----OK-----


Test: 70
Hash algorithm:       2
Sector size in bytes: 4096
Data unit:   70
Start block: 141
Symmetric key bit length: 256
Plaintext bit length:     128
Symmetric key:            4646464646464646464646464646464646464646464646464646464646464646
Plaintext:                b9b9b9b9b9b9b9b9b9b9b9b9b9b9b9b9
Ciphertext:               4f1c150078e8fd7bc462b61509fb954d1d19063e481df2860c9df9d29d4b2615125f50d25f242f103b5bdb2bb89f6d38
Reciphers for ciphertext: 0
Decipheredtext:           b9b9b9b9b9b9b9b9b9b9b9b9b9b9b9b9
RESULT CIPHER-DECIPHER: -----OK-----


Test: 71
Hash algorithm:       5
Sector size in bytes: 4096
Data unit:   71
Start block: 143
Symmetric key bit length: 256
Plaintext bit length:     128
Symmetric key:            4747474747474747474747474747474747474747474747474747474747474747
Plaintext:                b8b8b8b8b8b8b8b8b8b8b8b8b8b8b8b8
Ciphertext:               5d0c2484ded7a64d234de437904cb8826bf98aab7a7064e8fd37bbde8322d6c15c1517438b855f55b85c7e5a
Reciphers for ciphertext: 0
Decipheredtext:           b8b8b8b8b8b8b8b8b8b8b8b8b8b8b8b8
RESULT CIPHER-DECIPHER: -----OK-----


Test: 72
Hash algorithm:       1
Sector size in bytes: 4096
Data unit:   72
Start block: 145
Symmetric key bit length: 256
Plaintext bit length:     128
Symmetric key:            4848484848484848484848484848484848484848484848484848484848484848
Plaintext:                b7b7b7b7b7b7b7b7b7b7b7b7b7b7b7b7
Ciphertext:               25a22579926ef7e919faef375cc8d05560e72ee2538d4d1d3955034e32e857d0dbc425912bd11f8447ddadcc
Reciphers for ciphertext: 0
Decipheredtext:           b7b7b7b7b7b7b7b7b7b7b7b7b7b7b7b7
RESULT CIPHER-DECIPHER: -----OK-----


Test: 73
Hash algorithm:       1
Sector size in bytes: 4096
Data unit:   73
Start block: 147
Symmetric key bit length: 256
Plaintext bit length:     128
Symmetric key:            4949494949494949494949494949494949494949494949494949494949494949
Plaintext:                b6b6b6b6b6b6b6b6b6b6b6b6b6b6b6b6
Ciphertext:               a4997bc81ef2e81b08d26dac69491951ae5fd9079a514b1f3e14465d77d8aad67c86cabee1e83b3689088466
Reciphers for ciphertext: 0
Decipheredtext:           b6b6b6b6b6b6b6b6b6b6b6b6b6b6b6b6
RESULT CIPHER-DECIPHER: -----OK-----


Test: 74
Hash algorithm:       5
Sector size in bytes: 4096
Data unit:   74
Start block: 149
Symmetric key bit length: 256
Plaintext bit length:     128
Symmetric key:            4a4a4a4a4a4a4a4a4a4a4a4a4a4a4a4a4a4a4a4a4a4a4a4a4a4a4a4a4a4a4a4a
Plaintext:                b5b5b5b5b5b5b5b5b5b5b5b5b5b5b5b5
Ciphertext:               da93e2269fc847e30a69896b6f9cdd500b4e9097a829af631da80e37c6974b74f1c25ed2d7dd8deba3aec357
Reciphers for ciphertext: 0
Decipheredtext:           b5b5b5b5b5b5b5b5b5b5b5b5b5b5b5b5
RESULT CIPHER-DECIPHER: -----OK-----


Test: 75
Hash algorithm:       3
Sector size in bytes: 4096
Data unit:   75
Start block: 151
Symmetric key bit length: 256
Plaintext bit length:     128
Symmetric key:            4b4b4b4b4b4b4b4b4b4b4b4b4b4b4b4b4b4b4b4b4b4b4b4b4b4b4b4b4b4b4b4b
Plaintext:                b4b4b4b4b4b4b4b4b4b4b4b4b4b4b4b4
Ciphertext:               6075f5660243841b99fec7285bc313e36aab0b728b9801885cc4d73d4f44494596237818678faa5de13292515d545e7129341394f7d99676702b98db5ec9508d
Reciphers for ciphertext: 0
Decipheredtext:           b4b4b4b4b4b4b4b4b4b4b4b4b4b4b4b4
RESULT CIPHER-DECIPHER: -----OK-----


Test: 76
Hash algorithm:       13
Sector size in bytes: 4096
Data unit:   76
Start block: 153
Symmetric key bit length: 256
Plaintext bit length:     128
Symmetric key:            4c4c4c4c4c4c4c4c4c4c4c4c4c4c4c4c4c4c4c4c4c4c4c4c4c4c4c4c4c4c4c4c
Plaintext:                b3b3b3b3b3b3b3b3b3b3b3b3b3b3b3b3
Ciphertext:               622ab5a9e03f54c2b000f4f3bea3d9350c6ef48731f1b55c07ff9facd0a9f39f
Reciphers for ciphertext: 0
Decipheredtext:           b3b3b3b3b3b3b3b3b3b3b3b3b3b3b3b3
RESULT CIPHER-DECIPHER: -----OK-----


Test: 77
Hash algorithm:       8
Sector size in bytes: 4096
Data unit:   77
Start block: 155
Symmetric key bit length: 256
Plaintext bit length:     128
Symmetric key:            4d4d4d4d4d4d4d4d4d4d4d4d4d4d4d4d4d4d4d4d4d4d4d4d4d4d4d4d4d4d4d4d
Plaintext:                b2b2b2b2b2b2b2b2b2b2b2b2b2b2b2b2
Ciphertext:               26fc0df3950c8267a988296e5cddc19ad2f967477018f58145087c1cd49c94682df44ebe
Reciphers for ciphertext: 0
Decipheredtext:           b2b2b2b2b2b2b2b2b2b2b2b2b2b2b2b2
RESULT CIPHER-DECIPHER: -----OK-----


Test: 78
Hash algorithm:       9
Sector size in bytes: 4096
Data unit:   78
Start block: 157
Symmetric key bit length: 256
Plaintext bit length:     128
Symmetric key:            4e4e4e4e4e4e4e4e4e4e4e4e4e4e4e4e4e4e4e4e4e4e4e4e4e4e4e4e4e4e4e4e
Plaintext:                b1b1b1b1b1b1b1b1b1b1b1b1b1b1b1b1
Ciphertext:               ea3cf973e4a10b6e5d9921ae10eedfd316f8ab7ab816702085f6a8efac5591a39c2084dd371d55654d6c2dc7b87157cb
Reciphers for ciphertext: 0
Decipheredtext:           b1b1b1b1b1b1b1b1b1b1b1b1b1b1b1b1
RESULT CIPHER-DECIPHER: -----OK-----


Test: 79
Hash algorithm:       10
Sector size in bytes: 4096
Data unit:   79
Start block: 159
Symmetric key bit length: 256
Plaintext bit length:     128
Symmetric key:            4f4f4f4f4f4f4f4f4f4f4f4f4f4f4f4f4f4f4f4f4f4f4f4f4f4f4f4f4f4f4f4f
Plaintext:                b0b0b0b0b0b0b0b0b0b0b0b0b0b0b0b0
Ciphertext:               3f350456ff43e5880f9849bbefafd3692168e570d1e738db7515f2a3881c0f4e886026992aa43fb8ffe30241276b4a77f958fc183911398c
Reciphers for ciphertext: 0
Decipheredtext:           b0b0b0b0b0b0b0b0b0b0b0b0b0b0b0b0
RESULT CIPHER-DECIPHER: -----OK-----


Test: 80
Hash algorithm:       1
Sector size in bytes: 8192
Data unit:   80
Start block: 161
Symmetric key bit length: 256
Plaintext bit length:     128
Symmetric key:            5050505050505050505050505050505050505050505050505050505050505050
Plaintext:                afafafafafafafafafafafafafafafaf
Ciphertext:               0d8012c3d6ddee2a2f5df56dc9a32f859cdd0760c15b4a95891141b829fee0bc95f6df95d91b1ebf2b1739c7
Reciphers for ciphertext: 0
Decipheredtext:           afafafafafafafafafafafafafafafaf
RESULT CIPHER-DECIPHER: -----OK-----


Test: 81
Hash algorithm:       5
Sector size in bytes: 8192
Data unit:   81
Start block: 163
Symmetric key bit length: 256
Plaintext bit length:     128
Symmetric key:            5151515151515151515151515151515151515151515151515151515151515151
Plaintext:                aeaeaeaeaeaeaeaeaeaeaeaeaeaeaeae
Ciphertext:               4d869483068b66038039620da15ab2c4a5b88e1d4d4457a730e1ed2b95067307f974995d6c30a02fb15be3f9
Reciphers for ciphertext: 0
Decipheredtext:           aeaeaeaeaeaeaeaeaeaeaeaeaeaeaeae
RESULT CIPHER-DECIPHER: -----OK-----


Test: 82
Hash algorithm:       5
Sector size in bytes: 8192
Data unit:   82
Start block: 165
Symmetric key bit length: 256
Plaintext bit length:     128
Symmetric key:            5252525252525252525252525252525252525252525252525252525252525252
Plaintext:                adadadadadadadadadadadadadadadad
Ciphertext:               ee941bf94d447eff84a4f2b725c3ce3f6b653c6f3604aaa53903714198e96a5011debfd95633a7339c0492f3
Reciphers for ciphertext: 0
Decipheredtext:           adadadadadadadadadadadadadadadad
RESULT CIPHER-DECIPHER: -----OK-----


Test: 83
Hash algorithm:       6
Sector size in bytes: 8192
Data unit:   83
Start block: 167
Symmetric key bit length: 256
Plaintext bit length:     128
Symmetric key:            5353535353535353535353535353535353535353535353535353535353535353
Plaintext:                acacacacacacacacacacacacacacacac
Ciphertext:               1487ac4d03173214a42d3d4d7a5eb62e239f09c967cd3a6f4609aef5e6af61bcd384192e1c1ac73faeab25a9aba50c8d
Reciphers for ciphertext: 0
Decipheredtext:           acacacacacacacacacacacacacacacac
RESULT CIPHER-DECIPHER: -----OK-----


Test: 84
Hash algorithm:       6
Sector size in bytes: 8192
Data unit:   84
Start block: 169
Symmetric key bit length: 256
Plaintext bit length:     128
Symmetric key:            5454545454545454545454545454545454545454545454545454545454545454
Plaintext:                abababababababababababababababab
Ciphertext:               63c03f6dddef5987e9c23c46f60281fbea0841efecc5b127efa8ddc831076367517ccd07fdbaac8164633f34001daa71
Reciphers for ciphertext: 0
Decipheredtext:           abababababababababababababababab
RESULT CIPHER-DECIPHER: -----OK-----


Test: 85
Hash algorithm:       0
Sector size in bytes: 8192
Data unit:   85
Start block: 171
Symmetric key bit length: 256
Plaintext bit length:     128
Symmetric key:            5555555555555555555555555555555555555555555555555555555555555555
Plaintext:                aaaaaaaaaaaaaaaaaaaaaaaaaaaaaaaa
Ciphertext:               350fc393fe9f66818eb3567497dcb4857e500c4bed621e43d9cefbbfd7c0d4c03b1ec7cd
Reciphers for ciphertext: 0
Decipheredtext:           aaaaaaaaaaaaaaaaaaaaaaaaaaaaaaaa
RESULT CIPHER-DECIPHER: -----OK-----


Test: 86
Hash algorithm:       1
Sector size in bytes: 8192
Data unit:   86
Start block: 173
Symmetric key bit length: 256
Plaintext bit length:     128
Symmetric key:            5656565656565656565656565656565656565656565656565656565656565656
Plaintext:                a9a9a9a9a9a9a9a9a9a9a9a9a9a9a9a9
Ciphertext:               000fa291e7a2b1637cdd443df3531f9074f25b4d3e2cc5f26cea971877b70e76a7bcaf3ed6c6de295d9d97bd
Reciphers for ciphertext: 0
Decipheredtext:           a9a9a9a9a9a9a9a9a9a9a9a9a9a9a9a9
RESULT CIPHER-DECIPHER: -----OK-----


Test: 87
Hash algorithm:       11
Sector size in bytes: 8192
Data unit:   87
Start block: 175
Symmetric key bit length: 256
Plaintext bit length:     128
Symmetric key:            5757575757575757575757575757575757575757575757575757575757575757
Plaintext:                a8a8a8a8a8a8a8a8a8a8a8a8a8a8a8a8
Ciphertext:               daa66e92e5a75c31294a34f477eb8ffc0d508b4d6873aa74e493dbfc7a31302f
Reciphers for ciphertext: 0
Decipheredtext:           a8a8a8a8a8a8a8a8a8a8a8a8a8a8a8a8
RESULT CIPHER-DECIPHER: -----OK-----


Test: 88
Hash algorithm:       10
Sector size in bytes: 8192
Data unit:   88
Start block: 177
Symmetric key bit length: 256
Plaintext bit length:     128
Symmetric key:            5858585858585858585858585858585858585858585858585858585858585858
Plaintext:                a7a7a7a7a7a7a7a7a7a7a7a7a7a7a7a7
Ciphertext:               88faab00602a84d08f022c2fd9e4921e5c04a2198b1d74cb129b32e63baca624117093ab0483e717d942f25313de4b752c60a4430137cdc7
Reciphers for ciphertext: 0
Decipheredtext:           a7a7a7a7a7a7a7a7a7a7a7a7a7a7a7a7
RESULT CIPHER-DECIPHER: -----OK-----


Test: 89
Hash algorithm:       2
Sector size in bytes: 8192
Data unit:   89
Start block: 179
Symmetric key bit length: 256
Plaintext bit length:     128
Symmetric key:            5959595959595959595959595959595959595959595959595959595959595959
Plaintext:                a6a6a6a6a6a6a6a6a6a6a6a6a6a6a6a6
Ciphertext:               d35afe0c62bbb49d54ee3dd47a875321022cb8f261fb20473f0361d2af55d20fbc39f7c3425658a881e2972c1135894a
Reciphers for ciphertext: 0
Decipheredtext:           a6a6a6a6a6a6a6a6a6a6a6a6a6a6a6a6
RESULT CIPHER-DECIPHER: -----OK-----


Test: 90
Hash algorithm:       1
Sector size in bytes: 12288
Data unit:   90
Start block: 181
Symmetric key bit length: 256
Plaintext bit length:     128
Symmetric key:            5a5a5a5a5a5a5a5a5a5a5a5a5a5a5a5a5a5a5a5a5a5a5a5a5a5a5a5a5a5a5a5a
Plaintext:                a5a5a5a5a5a5a5a5a5a5a5a5a5a5a5a5
Ciphertext:               fa26ea5dad09164a5eca1c7c6f1ced7d072c43cb579745879f3011f8b2aa9b2315f058ded50ec9b828a218af
Reciphers for ciphertext: 0
Decipheredtext:           a5a5a5a5a5a5a5a5a5a5a5a5a5a5a5a5
RESULT CIPHER-DECIPHER: -----OK-----


Test: 91
Hash algorithm:       1
Sector size in bytes: 12288
Data unit:   91
Start block: 183
Symmetric key bit length: 256
Plaintext bit length:     128
Symmetric key:            5b5b5b5b5b5b5b5b5b5b5b5b5b5b5b5b5b5b5b5b5b5b5b5b5b5b5b5b5b5b5b5b
Plaintext:                a4a4a4a4a4a4a4a4a4a4a4a4a4a4a4a4
Ciphertext:               36a1735170452d0478d6e5433a782367269387102dc10818e3d6d8437a9cc30e22af5222ec5d7d1d37c89781
Reciphers for ciphertext: 0
Decipheredtext:           a4a4a4a4a4a4a4a4a4a4a4a4a4a4a4a4
RESULT CIPHER-DECIPHER: -----OK-----


Test: 92
Hash algorithm:       5
Sector size in bytes: 12288
Data unit:   92
Start block: 185
Symmetric key bit length: 256
Plaintext bit length:     128
Symmetric key:            5c5c5c5c5c5c5c5c5c5c5c5c5c5c5c5c5c5c5c5c5c5c5c5c5c5c5c5c5c5c5c5c
Plaintext:                a3a3a3a3a3a3a3a3a3a3a3a3a3a3a3a3
Ciphertext:               d538b507286bafa5320abc837e2e46f895242cda171dca83d7430dd06e0170e3c722124ca4d9e1e391ddb2e3
Reciphers for ciphertext: 0
Decipheredtext:           a3a3a3a3a3a3a3a3a3a3a3a3a3a3a3a3
RESULT CIPHER-DECIPHER: -----OK-----


Test: 93
Hash algorithm:       6
Sector size in bytes: 12288
Data unit:   93
Start block: 187
Symmetric key bit length: 256
Plaintext bit length:     128
Symmetric key:            5d5d5d5d5d5d5d5d5d5d5d5d5d5d5d5d5d5d5d5d5d5d5d5d5d5d5d5d5d5d5d5d
Plaintext:                a2a2a2a2a2a2a2a2a2a2a2a2a2a2a2a2
Ciphertext:               bd71a5b8b5a38103a31fcb8b06b4e51449c3093e782e469bfdcc16a56c17651bb4c7d53753802c5e9c21cd3b152f2b52
Reciphers for ciphertext: 0
Decipheredtext:           a2a2a2a2a2a2a2a2a2a2a2a2a2a2a2a2
RESULT CIPHER-DECIPHER: -----OK-----


Test: 94
Hash algorithm:       9
Sector size in bytes: 12288
Data unit:   94
Start block: 189
Symmetric key bit length: 256
Plaintext bit length:     128
Symmetric key:            5e5e5e5e5e5e5e5e5e5e5e5e5e5e5e5e5e5e5e5e5e5e5e5e5e5e5e5e5e5e5e5e
Plaintext:                a1a1a1a1a1a1a1a1a1a1a1a1a1a1a1a1
Ciphertext:               0bfd843a2b070b395276f69534e19e5b6ae8eb15d1f9b5036b6a4e7ed816e9699005a7276958cd2853457245279221da
Reciphers for ciphertext: 0
Decipheredtext:           a1a1a1a1a1a1a1a1a1a1a1a1a1a1a1a1
RESULT CIPHER-DECIPHER: -----OK-----


Test: 95
Hash algorithm:       0
Sector size in bytes: 12288
Data unit:   95
Start block: 191
Symmetric key bit length: 256
Plaintext bit length:     128
Symmetric key:            5f5f5f5f5f5f5f5f5f5f5f5f5f5f5f5f5f5f5f5f5f5f5f5f5f5f5f5f5f5f5f5f
Plaintext:                a0a0a0a0a0a0a0a0a0a0a0a0a0a0a0a0
Ciphertext:               028ff18e00febb9eff30ffe545091a4ef5dd26f09873aeef8787eec226c8c858ef121e30
Reciphers for ciphertext: 0
Decipheredtext:           a0a0a0a0a0a0a0a0a0a0a0a0a0a0a0a0
RESULT CIPHER-DECIPHER: -----OK-----


Test: 96
Hash algorithm:       0
Sector size in bytes: 12288
Data unit:   96
Start block: 193
Symmetric key bit length: 256
Plaintext bit length:     128
Symmetric key:            6060606060606060606060606060606060606060606060606060606060606060
Plaintext:                9f9f9f9f9f9f9f9f9f9f9f9f9f9f9f9f
Ciphertext:               9dd115abd852cb622aed78423eaa061bda7b9c0e17ece51b4fe53519bcaae910f7361e52
Reciphers for ciphertext: 0
Decipheredtext:           9f9f9f9f9f9f9f9f9f9f9f9f9f9f9f9f
RESULT CIPHER-DECIPHER: -----OK-----


Test: 97
Hash algorithm:       5
Sector size in bytes: 12288
Data unit:   97
Start block: 195
Symmetric key bit length: 256
Plaintext bit length:     128
Symmetric key:            6161616161616161616161616161616161616161616161616161616161616161
Plaintext:                9e9e9e9e9e9e9e9e9e9e9e9e9e9e9e9e
Ciphertext:               eeaaa98a7a32d126b1e0dc58354840c85fa0bee276bda7628dd5cc1845cc37097654dcd903ff19a4c1e0adb0
Reciphers for ciphertext: 0
Decipheredtext:           9e9e9e9e9e9e9e9e9e9e9e9e9e9e9e9e
RESULT CIPHER-DECIPHER: -----OK-----


Test: 98
Hash algorithm:       3
Sector size in bytes: 12288
Data unit:   98
Start block: 197
Symmetric key bit length: 256
Plaintext bit length:     128
Symmetric key:            6262626262626262626262626262626262626262626262626262626262626262
Plaintext:                9d9d9d9d9d9d9d9d9d9d9d9d9d9d9d9d
Ciphertext:               481c20f4b724c94441a352ce80741c3935c6def65925451ac451149089abdeb8ac2522e70fa552c3c24ee6423854d9736303451512c222959c9ca63d93a3141d
Reciphers for ciphertext: 0
Decipheredtext:           9d9d9d9d9d9d9d9d9d9d9d9d9d9d9d9d
RESULT CIPHER-DECIPHER: -----OK-----


Test: 99
Hash algorithm:       13
Sector size in bytes: 12288
Data unit:   99
Start block: 199
Symmetric key bit length: 256
Plaintext bit length:     128
Symmetric key:            6363636363636363636363636363636363636363636363636363636363636363
Plaintext:                9c9c9c9c9c9c9c9c9c9c9c9c9c9c9c9c
Ciphertext:               b8dab40c0547ff6b367d39812a0c101db6245162dcfba4b365651a75dff2c9a6
Reciphers for ciphertext: 0
Decipheredtext:           9c9c9c9c9c9c9c9c9c9c9c9c9c9c9c9c
RESULT CIPHER-DECIPHER: -----OK-----


Test: 100
Hash algorithm:       7
Sector size in bytes: 16384
Data unit:   100
Start block: 201
Symmetric key bit length: 256
Plaintext bit length:     128
Symmetric key:            6464646464646464646464646464646464646464646464646464646464646464
Plaintext:                9b9b9b9b9b9b9b9b9b9b9b9b9b9b9b9b
Ciphertext:               d84cf92d31954eda64e21ae89de1aeb6787d14cdc71af1cf15e33f06b6825a9a
Reciphers for ciphertext: 0
Decipheredtext:           9b9b9b9b9b9b9b9b9b9b9b9b9b9b9b9b
RESULT CIPHER-DECIPHER: -----OK-----


Test: 101
Hash algorithm:       12
Sector size in bytes: 16384
Data unit:   101
Start block: 203
Symmetric key bit length: 256
Plaintext bit length:     128
Symmetric key:            6565656565656565656565656565656565656565656565656565656565656565
Plaintext:                9a9a9a9a9a9a9a9a9a9a9a9a9a9a9a9a
Ciphertext:               e6df7cbb3bb9465bac5d0b41d7c2dea6ec461e5042f36787466234b0ccaa74c5
Reciphers for ciphertext: 0
Decipheredtext:           9a9a9a9a9a9a9a9a9a9a9a9a9a9a9a9a
RESULT CIPHER-DECIPHER: -----OK-----


Test: 102
Hash algorithm:       9
Sector size in bytes: 16384
Data unit:   102
Start block: 205
Symmetric key bit length: 256
Plaintext bit length:     128
Symmetric key:            6666666666666666666666666666666666666666666666666666666666666666
Plaintext:                99999999999999999999999999999999
Ciphertext:               b25900b0c883aff27c481b061e9d930b0209ddf911600a76d51ef477069aa322a1978dbda10f7f031db01fdc92dbbc99
Reciphers for ciphertext: 0
Decipheredtext:           99999999999999999999999999999999
RESULT CIPHER-DECIPHER: -----OK-----


Test: 103
Hash algorithm:       1
Sector size in bytes: 16384
Data unit:   103
Start block: 207
Symmetric key bit length: 256
Plaintext bit length:     128
Symmetric key:            6767676767676767676767676767676767676767676767676767676767676767
Plaintext:                98989898989898989898989898989898
Ciphertext:               c653ef42d7af35c9c0156d95fbdd5852eae800e42cab7b425b7c047d49bc7ed9f603afcefb5b3d9c30307213
Reciphers for ciphertext: 0
Decipheredtext:           98989898989898989898989898989898
RESULT CIPHER-DECIPHER: -----OK-----


Test: 104
Hash algorithm:       2
Sector size in bytes: 16384
Data unit:   104
Start block: 209
Symmetric key bit length: 256
Plaintext bit length:     128
Symmetric key:            6868686868686868686868686868686868686868686868686868686868686868
Plaintext:                97979797979797979797979797979797
Ciphertext:               cbc1547e82a9b9f1d431d417bd205c135caccf8b173695f902dbb409f09a270d375d78fc1ec8c661a1c156513f67b84e
Reciphers for ciphertext: 0
Decipheredtext:           97979797979797979797979797979797
RESULT CIPHER-DECIPHER: -----OK-----


Test: 105
Hash algorithm:       2
Sector size in bytes: 16384
Data unit:   105
Start block: 211
Symmetric key bit length: 256
Plaintext bit length:     128
Symmetric key:            6969696969696969696969696969696969696969696969696969696969696969
Plaintext:                96969696969696969696969696969696
Ciphertext:               587d378141f0aafc58333d291f66d91658b6f3e4c63dc81c9846ec49531ce356e0b8fc608c3cb775d18b64086f470ea3
Reciphers for ciphertext: 0
Decipheredtext:           96969696969696969696969696969696
RESULT CIPHER-DECIPHER: -----OK-----


Test: 106
Hash algorithm:       9
Sector size in bytes: 16384
Data unit:   106
Start block: 213
Symmetric key bit length: 256
Plaintext bit length:     128
Symmetric key:            6a6a6a6a6a6a6a6a6a6a6a6a6a6a6a6a6a6a6a6a6a6a6a6a6a6a6a6a6a6a6a6a
Plaintext:                95959595959595959595959595959595
Ciphertext:               180211be99465f4a5c4618a5bcc3bb27e3f9e9067d257a380cdd3fc4d297140d9852386f645cf8e002be046f391b1e36
Reciphers for ciphertext: 0
Decipheredtext:           95959595959595959595959595959595
RESULT CIPHER-DECIPHER: -----OK-----


Test: 107
Hash algorithm:       3
Sector size in bytes: 16384
Data unit:   107
Start block: 215
Symmetric key bit length: 256
Plaintext bit length:     128
Symmetric key:            6b6b6b6b6b6b6b6b6b6b6b6b6b6b6b6b6b6b6b6b6b6b6b6b6b6b6b6b6b6b6b6b
Plaintext:                94949494949494949494949494949494
Ciphertext:               56a1b5b620cbe0cddff87d9bb955190be3ccc3d450d96bc5d9293f985da8f2a529d1ed1d273efedba3ffe8380a59d1a4408630532e777de3a88996925a70caea
Reciphers for ciphertext: 0
Decipheredtext:           94949494949494949494949494949494
RESULT CIPHER-DECIPHER: -----OK-----


Test: 108
Hash algorithm:       1
Sector size in bytes: 16384
Data unit:   108
Start block: 217
Symmetric key bit length: 256
Plaintext bit length:     128
Symmetric key:            6c6c6c6c6c6c6c6c6c6c6c6c6c6c6c6c6c6c6c6c6c6c6c6c6c6c6c6c6c6c6c6c
Plaintext:                93939393939393939393939393939393
Ciphertext:               a0e06e6cc453bfab3a423810059228f67a2a0c866a149a191ce32cf41015bb8349f7f3d8bf9ac63cc63787ee
Reciphers for ciphertext: 0
Decipheredtext:           93939393939393939393939393939393
RESULT CIPHER-DECIPHER: -----OK-----


Test: 109
Hash algorithm:       2
Sector size in bytes: 16384
Data unit:   109
Start block: 219
Symmetric key bit length: 256
Plaintext bit length:     128
Symmetric key:            6d6d6d6d6d6d6d6d6d6d6d6d6d6d6d6d6d6d6d6d6d6d6d6d6d6d6d6d6d6d6d6d
Plaintext:                92929292929292929292929292929292
Ciphertext:               d4ee8a507989432f78e1b5969c64ecee7bac1a820ef2d1d6c1cabd6111247901d2bd617ea3c2842cba0f814b6da1bd79
Reciphers for ciphertext: 0
Decipheredtext:           92929292929292929292929292929292
RESULT CIPHER-DECIPHER: -----OK-----


Test: 110
Hash algorithm:       7
Sector size in bytes: 24576
Data unit:   110
Start block: 221
Symmetric key bit length: 256
Plaintext bit length:     128
Symmetric key:            6e6e6e6e6e6e6e6e6e6e6e6e6e6e6e6e6e6e6e6e6e6e6e6e6e6e6e6e6e6e6e6e
Plaintext:                91919191919191919191919191919191
Ciphertext:               a8371bd96596360c41a09b3b163a8c2932c579efd2e684671eff63cf6056972d
Reciphers for ciphertext: 0
Decipheredtext:           91919191919191919191919191919191
RESULT CIPHER-DECIPHER: -----OK-----


Test: 111
Hash algorithm:       13
Sector size in bytes: 24576
Data unit:   111
Start block: 223
Symmetric key bit length: 256
Plaintext bit length:     128
Symmetric key:            6f6f6f6f6f6f6f6f6f6f6f6f6f6f6f6f6f6f6f6f6f6f6f6f6f6f6f6f6f6f6f6f
Plaintext:                90909090909090909090909090909090
Ciphertext:               f5fc0a92ec7217292b555bbb9294753febb3aee299bf2eb3d57b07338f5b9d6d
Reciphers for ciphertext: 0
Decipheredtext:           90909090909090909090909090909090
RESULT CIPHER-DECIPHER: -----OK-----


Test: 112
Hash algorithm:       4
Sector size in bytes: 24576
Data unit:   112
Start block: 225
Symmetric key bit length: 256
Plaintext bit length:     128
Symmetric key:            7070707070707070707070707070707070707070707070707070707070707070
Plaintext:                8f8f8f8f8f8f8f8f8f8f8f8f8f8f8f8f
Ciphertext:               e410a73604e818d9b28a5ddb270748d2969bea6f9ef534075742eb0c4a015023d6b2212ce9f5d2cabce840371f86189afce77d85a94b39c98ea7a242c302d638316c7ad8bc1acab6de592be80bd07394
Reciphers for ciphertext: 0
Decipheredtext:           8f8f8f8f8f8f8f8f8f8f8f8f8f8f8f8f
RESULT CIPHER-DECIPHER: -----OK-----


Test: 113
Hash algorithm:       9
Sector size in bytes: 24576
Data unit:   113
Start block: 227
Symmetric key bit length: 256
Plaintext bit length:     128
Symmetric key:            7171717171717171717171717171717171717171717171717171717171717171
Plaintext:                8e8e8e8e8e8e8e8e8e8e8e8e8e8e8e8e
Ciphertext:               a779440e5af153639fc110ce9142172482a949c51d6bb97278cb44db021ea16da9ed96ab4a7b89ac50bd8a383072f688
Reciphers for ciphertext: 0
Decipheredtext:           8e8e8e8e8e8e8e8e8e8e8e8e8e8e8e8e
RESULT CIPHER-DECIPHER: -----OK-----


Test: 114
Hash algorithm:       11
Sector size in bytes: 24576
Data unit:   114
Start block: 229
Symmetric key bit length: 256
Plaintext bit length:     128
Symmetric key:            7272727272727272727272727272727272727272727272727272727272727272
Plaintext:                8d8d8d8d8d8d8d8d8d8d8d8d8d8d8d8d
Ciphertext:               216b7f726e61b5d4d4bee60dfe2be32c171f1dfdfa4d19c9942e257a70937bf3
Reciphers for ciphertext: 0
Decipheredtext:           8d8d8d8d8d8d8d8d8d8d8d8d8d8d8d8d
RESULT CIPHER-DECIPHER: -----OK-----


Test: 115
Hash algorithm:       7
Sector size in bytes: 24576
Data unit:   115
Start block: 231
Symmetric key bit length: 256
Plaintext bit length:     128
Symmetric key:            7373737373737373737373737373737373737373737373737373737373737373
Plaintext:                8c8c8c8c8c8c8c8c8c8c8c8c8c8c8c8c
Ciphertext:               2b39b5191d19f307b443707931e185ad37d92bc37033fe66edc6a02cda93e39b
Reciphers for ciphertext: 0
Decipheredtext:           8c8c8c8c8c8c8c8c8c8c8c8c8c8c8c8c
RESULT CIPHER-DECIPHER: -----OK-----


Test: 116
Hash algorithm:       6
Sector size in bytes: 24576
Data unit:   116
Start block: 233
Symmetric key bit length: 256
Plaintext bit length:     128
Symmetric key:            7474747474747474747474747474747474747474747474747474747474747474
Plaintext:                8b8b8b8b8b8b8b8b8b8b8b8b8b8b8b8b
Ciphertext:               0fd4a41623b07fb61304b5c48472f90fa92f3700ef3250a65332d79a6cb77cf6eadb42d48b735552de49d8332d0d8630
Reciphers for ciphertext: 0
Decipheredtext:           8b8b8b8b8b8b8b8b8b8b8b8b8b8b8b8b
RESULT CIPHER-DECIPHER: -----OK-----


Test: 117
Hash algorithm:       5
Sector size in bytes: 24576
Data unit:   117
Start block: 235
Symmetric key bit length: 256
Plaintext bit length:     128
Symmetric key:            7575757575757575757575757575757575757575757575757575757575757575
Plaintext:                8a8a8a8a8a8a8a8a8a8a8a8a8a8a8a8a
Ciphertext:               f5278f3d4168a57e4595cab7c23db826a16b7a9d687ccb6efc18cd1704381e30f224a4da4c0b914f9ef58a6a
Reciphers for ciphertext: 0
Decipheredtext:           8a8a8a8a8a8a8a8a8a8a8a8a8a8a8a8a
RESULT CIPHER-DECIPHER: -----OK-----


Test: 118
Hash algorithm:       2
Sector size in bytes: 24576
Data unit:   118
Start block: 237
Symmetric key bit length: 256
Plaintext bit length:     128
Symmetric key:            7676767676767676767676767676767676767676767676767676767676767676
Plaintext:                89898989898989898989898989898989
Ciphertext:               dd738c74235aa09ee3951ac6afb5c48a2f35a40d84707f0ae3e3300181782beb6200baa5c875fedf49c6307cad01faa7
Reciphers for ciphertext: 0
Decipheredtext:           89898989898989898989898989898989
RESULT CIPHER-DECIPHER: -----OK-----


Test: 119
Hash algorithm:       9
Sector size in bytes: 24576
Data unit:   119
Start block: 239
Symmetric key bit length: 256
Plaintext bit length:     128
Symmetric key:            7777777777777777777777777777777777777777777777777777777777777777
Plaintext:                88888888888888888888888888888888
Ciphertext:               2ad0b70c9aa36fed922d517992f8a3428edc1fc0ba92449abefcf1d514c9dab6636900ecf3238112e49f8ef93e6ea5c5
Reciphers for ciphertext: 0
Decipheredtext:           88888888888888888888888888888888
RESULT CIPHER-DECIPHER: -----OK-----


Test: 120
Hash algorithm:       10
Sector size in bytes: 32768
Data unit:   120
Start block: 241
Symmetric key bit length: 256
Plaintext bit length:     128
Symmetric key:            7878787878787878787878787878787878787878787878787878787878787878
Plaintext:                87878787878787878787878787878787
Ciphertext:               0e966ca78eaec809cb2ac7b956252c838c9e3b6da484f261c5d87b7309551583bd168e5af9f0da7e8ec25850032346ed30747a55e9f23245
Reciphers for ciphertext: 0
Decipheredtext:           87878787878787878787878787878787
RESULT CIPHER-DECIPHER: -----OK-----


Test: 121
Hash algorithm:       0
Sector size in bytes: 32768
Data unit:   121
Start block: 243
Symmetric key bit length: 256
Plaintext bit length:     128
Symmetric key:            7979797979797979797979797979797979797979797979797979797979797979
Plaintext:                86868686868686868686868686868686
Ciphertext:               0f0d78dc618e60827427c342449baebb16f946565374627119c7e967a625434bb1319d21
Reciphers for ciphertext: 0
Decipheredtext:           86868686868686868686868686868686
RESULT CIPHER-DECIPHER: -----OK-----


Test: 122
Hash algorithm:       11
Sector size in bytes: 32768
Data unit:   122
Start block: 245
Symmetric key bit length: 256
Plaintext bit length:     128
Symmetric key:            7a7a7a7a7a7a7a7a7a7a7a7a7a7a7a7a7a7a7a7a7a7a7a7a7a7a7a7a7a7a7a7a
Plaintext:                85858585858585858585858585858585
Ciphertext:               9f0371142d7ded318ef092e74018bf68855367e27873ff0ea97de107fcd962ad
Reciphers for ciphertext: 0
Decipheredtext:           85858585858585858585858585858585
RESULT CIPHER-DECIPHER: -----OK-----


Test: 123
Hash algorithm:       1
Sector size in bytes: 32768
Data unit:   123
Start block: 247
Symmetric key bit length: 256
Plaintext bit length:     128
Symmetric key:            7b7b7b7b7b7b7b7b7b7b7b7b7b7b7b7b7b7b7b7b7b7b7b7b7b7b7b7b7b7b7b7b
Plaintext:                84848484848484848484848484848484
Ciphertext:               4c13289b4fea056571026b102b9bc5be3c1179aa3f711b9c8b16d4ad93a3a3f84adad4d2c74634140e60472a
Reciphers for ciphertext: 0
Decipheredtext:           84848484848484848484848484848484
RESULT CIPHER-DECIPHER: -----OK-----


Test: 124
Hash algorithm:       4
Sector size in bytes: 32768
Data unit:   124
Start block: 249
Symmetric key bit length: 256
Plaintext bit length:     128
Symmetric key:            7c7c7c7c7c7c7c7c7c7c7c7c7c7c7c7c7c7c7c7c7c7c7c7c7c7c7c7c7c7c7c7c
Plaintext:                83838383838383838383838383838383
Ciphertext:               cf4f81797573c6e6a9d535d8ec860aa86bef8dac6fb1249b525a6e7c1f7da41f01d1eda687e571c35ec0993304ff12425e26986f08cc4b9fd75be40555031871c535484860f330e79ec0280964923f62
Reciphers for ciphertext: 0
Decipheredtext:           83838383838383838383838383838383
RESULT CIPHER-DECIPHER: -----OK-----


Test: 125
Hash algorithm:       5
Sector size in bytes: 32768
Data unit:   125
Start block: 251
Symmetric key bit length: 256
Plaintext bit length:     128
Symmetric key:            7d7d7d7d7d7d7d7d7d7d7d7d7d7d7d7d7d7d7d7d7d7d7d7d7d7d7d7d7d7d7d7d
Plaintext:                82828282828282828282828282828282
Ciphertext:               9c5dd1fc02189d2419cbc8b6a98202d2eb52b23b7a054fe92cbb716dfd6f23a4b161bc99ef7ddd114f92f181
Reciphers for ciphertext: 0
Decipheredtext:           82828282828282828282828282828282
RESULT CIPHER-DECIPHER: -----OK-----


Test: 126
Hash algorithm:       9
Sector size in bytes: 32768
Data unit:   126
Start block: 253
Symmetric key bit length: 256
Plaintext bit length:     128
Symmetric key:            7e7e7e7e7e7e7e7e7e7e7e7e7e7e7e7e7e7e7e7e7e7e7e7e7e7e7e7e7e7e7e7e
Plaintext:                81818181818181818181818181818181
Ciphertext:               cf69335e279b27519d0372b29fd058e25ac36eccd17a9167b2d93d478186bed4c2dc18fd72d5c387d2d22e9c0d050d89
Reciphers for ciphertext: 0
Decipheredtext:           81818181818181818181818181818181
RESULT CIPHER-DECIPHER: -----OK-----


Test: 127
Hash algorithm:       12
Sector size in bytes: 32768
Data unit:   127
Start block: 255
Symmetric key bit length: 256
Plaintext bit length:     128
Symmetric key:            7f7f7f7f7f7f7f7f7f7f7f7f7f7f7f7f7f7f7f7f7f7f7f7f7f7f7f7f7f7f7f7f
Plaintext:                80808080808080808080808080808080
Ciphertext:               33ef1d9e9c6fcf938340a4f2ddaf55a46da637e68b5800ad95d6ead19f45b1a7
Reciphers for ciphertext: 0
Decipheredtext:           80808080808080808080808080808080
RESULT CIPHER-DECIPHER: -----OK-----


 DATA SHA1 (hexadecimal): 026d72104165dd61c1a42d6255dd7aa99f65b3ff

