
DiceLock 9.0.0.1

 TEST COMPONENTS:
 ----------------
 DiceLock:           DiceLockXTSDigested class
                     Operating based on storage sector size length
 Operation Mode:     XTS_Mode class
 Block Cipher:       Serpent128 class
 Hash algorithms:     0 - Sha1 class
                      1 - Sha224 class
                      2 - Sha256 class
                      3 - Sha384 class
                      4 - Sha512 class
                      5 - Sha512_224 class
                      6 - Sha512_256 class
                      7 - Ripemd128 class
                      8 - Ripemd160 class
                      9 - Ripemd256 class
                     10 - Ripemd320 class
                     11 - MD2 class
                     12 - MD4 class
                     13 - MD5 class
 Key Modifier:       DecreaseKeyModifier_6_0_0_1 class
 Random tests:       RandomTestSuite class
                     FrequencyTest class
                     BlockFrequencyTest class
                     CumulativeSumForwardTest class
                     LongestRunOfOnesTest class
                     RunsTest class
 Random alpha:       0.001

 VECTOR TEST: Test vector 0 - Changing symmetric key, shifting 1 bit set


##### INDIVIDUAL TESTS #####

Number tests: 128


Test: 0
Hash algorithm:       6
Sector size in bytes: 512
Data unit:   0
Start block: 0
Symmetric key bit length: 256
Plaintext bit length:     128
Symmetric key:            0000000000000000000000000000000080000000000000000000000000000000
Plaintext:                00000000000000000000000000000000
Ciphertext:               d81443b3b1a0c198a46358a36acf60bfdc09e2275e9e4bcc30041d75de452545681348720fe005168c1f188896ba4309
Reciphers for ciphertext: 0
Decipheredtext:           00000000000000000000000000000000
RESULT CIPHER-DECIPHER: -----OK-----


Test: 1
Hash algorithm:       8
Sector size in bytes: 512
Data unit:   0
Start block: 0
Symmetric key bit length: 256
Plaintext bit length:     128
Symmetric key:            0000000000000000000000000000000040000000000000000000000000000000
Plaintext:                00000000000000000000000000000000
Ciphertext:               58aa052e3c0950c7253cbd40ec430f52aed29832a617c7162e49bbce2b485bf49d016808
Reciphers for ciphertext: 0
Decipheredtext:           00000000000000000000000000000000
RESULT CIPHER-DECIPHER: -----OK-----


Test: 2
Hash algorithm:       10
Sector size in bytes: 512
Data unit:   0
Start block: 0
Symmetric key bit length: 256
Plaintext bit length:     128
Symmetric key:            0000000000000000000000000000000020000000000000000000000000000000
Plaintext:                00000000000000000000000000000000
Ciphertext:               ff2c2afee4d196a61997ae3afba4ae2214c3bf4e9135bba3a5089366164f138f6891c532182165bc1799a7d727c70bf5375db1c725c80af0
Reciphers for ciphertext: 0
Decipheredtext:           00000000000000000000000000000000
RESULT CIPHER-DECIPHER: -----OK-----


Test: 3
Hash algorithm:       7
Sector size in bytes: 512
Data unit:   0
Start block: 0
Symmetric key bit length: 256
Plaintext bit length:     128
Symmetric key:            0000000000000000000000000000000010000000000000000000000000000000
Plaintext:                00000000000000000000000000000000
Ciphertext:               8df40ab7ecb7e4aaf8dad076310b41007596b35cbd0fd42de6e53718be38faa3
Reciphers for ciphertext: 0
Decipheredtext:           00000000000000000000000000000000
RESULT CIPHER-DECIPHER: -----OK-----


Test: 4
Hash algorithm:       4
Sector size in bytes: 512
Data unit:   0
Start block: 0
Symmetric key bit length: 256
Plaintext bit length:     128
Symmetric key:            0000000000000000000000000000000008000000000000000000000000000000
Plaintext:                00000000000000000000000000000000
Ciphertext:               4002798e6665ff2007b537b0ec2acf24bbb0c3e4c6d946f78f140acb924319bd79419710a5cf6e2c9fc4086deeb413fb2b8a1fe2e2d2c00772a4078930a12a906a0a3db7cfe3df32225aef3851bea762
Reciphers for ciphertext: 0
Decipheredtext:           00000000000000000000000000000000
RESULT CIPHER-DECIPHER: -----OK-----


Test: 5
Hash algorithm:       9
Sector size in bytes: 512
Data unit:   0
Start block: 0
Symmetric key bit length: 256
Plaintext bit length:     128
Symmetric key:            0000000000000000000000000000000004000000000000000000000000000000
Plaintext:                00000000000000000000000000000000
Ciphertext:               3d6de05543f2af7dcd77211e3714abf2a5773ee5a1fcae7e6f20c58182a7ed6d4da9b8f01fde172dacba7c062c29bb34
Reciphers for ciphertext: 0
Decipheredtext:           00000000000000000000000000000000
RESULT CIPHER-DECIPHER: -----OK-----


Test: 6
Hash algorithm:       7
Sector size in bytes: 512
Data unit:   0
Start block: 0
Symmetric key bit length: 256
Plaintext bit length:     128
Symmetric key:            0000000000000000000000000000000002000000000000000000000000000000
Plaintext:                00000000000000000000000000000000
Ciphertext:               f40c207c04b43250375f8f203a8367f7f15efe3e335b0067c360f7523a61eca4
Reciphers for ciphertext: 0
Decipheredtext:           00000000000000000000000000000000
RESULT CIPHER-DECIPHER: -----OK-----


Test: 7
Hash algorithm:       11
Sector size in bytes: 512
Data unit:   0
Start block: 0
Symmetric key bit length: 256
Plaintext bit length:     128
Symmetric key:            0000000000000000000000000000000001000000000000000000000000000000
Plaintext:                00000000000000000000000000000000
Ciphertext:               037aed3740f21110a38e8f423467c19a1b441dc6c1d003a2c8a52a044b53486c
Reciphers for ciphertext: 0
Decipheredtext:           00000000000000000000000000000000
RESULT CIPHER-DECIPHER: -----OK-----


Test: 8
Hash algorithm:       5
Sector size in bytes: 512
Data unit:   0
Start block: 0
Symmetric key bit length: 256
Plaintext bit length:     128
Symmetric key:            0000000000000000000000000000000000800000000000000000000000000000
Plaintext:                00000000000000000000000000000000
Ciphertext:               ce6d475ba1c65f5b7477bc681f23717fc790122f4cf9d97b10e28a1abfba4580c47a505b5fff02d7d777607f
Reciphers for ciphertext: 0
Decipheredtext:           00000000000000000000000000000000
RESULT CIPHER-DECIPHER: -----OK-----


Test: 9
Hash algorithm:       7
Sector size in bytes: 512
Data unit:   0
Start block: 0
Symmetric key bit length: 256
Plaintext bit length:     128
Symmetric key:            0000000000000000000000000000000000400000000000000000000000000000
Plaintext:                00000000000000000000000000000000
Ciphertext:               4984f13ce7a1a98eb9157c17ebcce3e3d3e7d0bdc33c73fea3451acff1ea7d45
Reciphers for ciphertext: 0
Decipheredtext:           00000000000000000000000000000000
RESULT CIPHER-DECIPHER: -----OK-----


Test: 10
Hash algorithm:       0
Sector size in bytes: 1024
Data unit:   0
Start block: 0
Symmetric key bit length: 256
Plaintext bit length:     128
Symmetric key:            0000000000000000000000000000000000200000000000000000000000000000
Plaintext:                00000000000000000000000000000000
Ciphertext:               e0e978b95d2581d97457badc081c15d8b04b776ff6a8a3ce9d7c004c263a5ac824826268
Reciphers for ciphertext: 0
Decipheredtext:           00000000000000000000000000000000
RESULT CIPHER-DECIPHER: -----OK-----


Test: 11
Hash algorithm:       2
Sector size in bytes: 1024
Data unit:   0
Start block: 0
Symmetric key bit length: 256
Plaintext bit length:     128
Symmetric key:            0000000000000000000000000000000000100000000000000000000000000000
Plaintext:                00000000000000000000000000000000
Ciphertext:               ff20dac1ec6fee3331a29c164b430522ee95af323268d43e81747bdd4df7c9e0906d00da2d19c059ef80617830474133
Reciphers for ciphertext: 0
Decipheredtext:           00000000000000000000000000000000
RESULT CIPHER-DECIPHER: -----OK-----


Test: 12
Hash algorithm:       9
Sector size in bytes: 1024
Data unit:   0
Start block: 0
Symmetric key bit length: 256
Plaintext bit length:     128
Symmetric key:            0000000000000000000000000000000000080000000000000000000000000000
Plaintext:                00000000000000000000000000000000
Ciphertext:               bfbbcaffa871ad0a62919964044bb9f8baa80675e6070881b67eb784db57ec6b6c683d8454c5393fe70859d876966db4
Reciphers for ciphertext: 0
Decipheredtext:           00000000000000000000000000000000
RESULT CIPHER-DECIPHER: -----OK-----


Test: 13
Hash algorithm:       7
Sector size in bytes: 1024
Data unit:   0
Start block: 0
Symmetric key bit length: 256
Plaintext bit length:     128
Symmetric key:            0000000000000000000000000000000000040000000000000000000000000000
Plaintext:                00000000000000000000000000000000
Ciphertext:               874fb8fb4b154b3ea601a8775240cfb90beaea3d197a34eff01e730a08ac4586
Reciphers for ciphertext: 0
Decipheredtext:           00000000000000000000000000000000
RESULT CIPHER-DECIPHER: -----OK-----


Test: 14
Hash algorithm:       2
Sector size in bytes: 1024
Data unit:   0
Start block: 0
Symmetric key bit length: 256
Plaintext bit length:     128
Symmetric key:            0000000000000000000000000000000000020000000000000000000000000000
Plaintext:                00000000000000000000000000000000
Ciphertext:               0fc93fcb7c2801fd0c1d0dfaea7c46d9225690a67a2dd39e0c59ba28a54cbaa36f5c8eb087a44f59be7889c3b4a66768
Reciphers for ciphertext: 0
Decipheredtext:           00000000000000000000000000000000
RESULT CIPHER-DECIPHER: -----OK-----


Test: 15
Hash algorithm:       1
Sector size in bytes: 1024
Data unit:   0
Start block: 0
Symmetric key bit length: 256
Plaintext bit length:     128
Symmetric key:            0000000000000000000000000000000000010000000000000000000000000000
Plaintext:                00000000000000000000000000000000
Ciphertext:               920ead17caec6e42e309a98c2ca36a0a62fe02f092804c2045e770f8d88737ead7644aa375c0d52e157d7b3f
Reciphers for ciphertext: 0
Decipheredtext:           00000000000000000000000000000000
RESULT CIPHER-DECIPHER: -----OK-----


Test: 16
Hash algorithm:       2
Sector size in bytes: 1024
Data unit:   0
Start block: 0
Symmetric key bit length: 256
Plaintext bit length:     128
Symmetric key:            0000000000000000000000000000000000008000000000000000000000000000
Plaintext:                00000000000000000000000000000000
Ciphertext:               ce8d57a888120bb6c4a35b74f5cdfae3a99a32ccef0654bbc9f8b9d2cb61368e8c623446def8ccc00ee730493837f171
Reciphers for ciphertext: 0
Decipheredtext:           00000000000000000000000000000000
RESULT CIPHER-DECIPHER: -----OK-----


Test: 17
Hash algorithm:       0
Sector size in bytes: 1024
Data unit:   0
Start block: 0
Symmetric key bit length: 256
Plaintext bit length:     128
Symmetric key:            0000000000000000000000000000000000004000000000000000000000000000
Plaintext:                00000000000000000000000000000000
Ciphertext:               0f2b5a20e6ac612bfdfdb6c6464a14335d5c775765a0bb5d24d182bc2c95de0180384742
Reciphers for ciphertext: 0
Decipheredtext:           00000000000000000000000000000000
RESULT CIPHER-DECIPHER: -----OK-----


Test: 18
Hash algorithm:       12
Sector size in bytes: 1024
Data unit:   0
Start block: 0
Symmetric key bit length: 256
Plaintext bit length:     128
Symmetric key:            0000000000000000000000000000000000002000000000000000000000000000
Plaintext:                00000000000000000000000000000000
Ciphertext:               c2335cbf344723ebc561c378806a93519c3a581c31e519f009d80d1a1f254021
Reciphers for ciphertext: 0
Decipheredtext:           00000000000000000000000000000000
RESULT CIPHER-DECIPHER: -----OK-----


Test: 19
Hash algorithm:       7
Sector size in bytes: 1024
Data unit:   0
Start block: 0
Symmetric key bit length: 256
Plaintext bit length:     128
Symmetric key:            0000000000000000000000000000000000001000000000000000000000000000
Plaintext:                00000000000000000000000000000000
Ciphertext:               35a32c3816bd280b1dc15592a220d0513c39fc4725025dad7eab0d91fe6e28fb
Reciphers for ciphertext: 0
Decipheredtext:           00000000000000000000000000000000
RESULT CIPHER-DECIPHER: -----OK-----


Test: 20
Hash algorithm:       4
Sector size in bytes: 1536
Data unit:   0
Start block: 0
Symmetric key bit length: 256
Plaintext bit length:     128
Symmetric key:            0000000000000000000000000000000000000800000000000000000000000000
Plaintext:                00000000000000000000000000000000
Ciphertext:               6e41c62ee6233923104b08c4a3546b3715afb1124113e2c9037919e64c3e42a19581c616ee6b7ccffb0abacdfe5f8b53a564ce50d6f8fb89633fcda056d3f0d3b20552d4a938bccd6aab643b168b3c2b
Reciphers for ciphertext: 0
Decipheredtext:           00000000000000000000000000000000
RESULT CIPHER-DECIPHER: -----OK-----


Test: 21
Hash algorithm:       3
Sector size in bytes: 1536
Data unit:   0
Start block: 0
Symmetric key bit length: 256
Plaintext bit length:     128
Symmetric key:            0000000000000000000000000000000000000400000000000000000000000000
Plaintext:                00000000000000000000000000000000
Ciphertext:               bed738c56ab56c7f666dbf574d0156687c553eb88cddb1aadf44cdeb13e497b92cdad311f35181b802caf5bc7df14c6dd767c1b110276b5a7fe211ab89640d79
Reciphers for ciphertext: 0
Decipheredtext:           00000000000000000000000000000000
RESULT CIPHER-DECIPHER: -----OK-----


Test: 22
Hash algorithm:       12
Sector size in bytes: 1536
Data unit:   0
Start block: 0
Symmetric key bit length: 256
Plaintext bit length:     128
Symmetric key:            0000000000000000000000000000000000000200000000000000000000000000
Plaintext:                00000000000000000000000000000000
Ciphertext:               5e65cd655da81316ef816a9c4d1f6192fdc91be5acf2c08ee0c04f3fbb597f94
Reciphers for ciphertext: 0
Decipheredtext:           00000000000000000000000000000000
RESULT CIPHER-DECIPHER: -----OK-----


Test: 23
Hash algorithm:       2
Sector size in bytes: 1536
Data unit:   0
Start block: 0
Symmetric key bit length: 256
Plaintext bit length:     128
Symmetric key:            0000000000000000000000000000000000000100000000000000000000000000
Plaintext:                00000000000000000000000000000000
Ciphertext:               fe66546138396b606a7de056d6f3be33ae706e90410b9cb2a162b7db7b2c9024c144a6f136c451d5aee2873d16e891fc
Reciphers for ciphertext: 0
Decipheredtext:           00000000000000000000000000000000
RESULT CIPHER-DECIPHER: -----OK-----


Test: 24
Hash algorithm:       9
Sector size in bytes: 1536
Data unit:   0
Start block: 0
Symmetric key bit length: 256
Plaintext bit length:     128
Symmetric key:            0000000000000000000000000000000000000080000000000000000000000000
Plaintext:                00000000000000000000000000000000
Ciphertext:               78e31a667ad0e80ee571221459537c1369f22bc7636e76d572692fe5c87c7a679bb83756cdc5044a156485006c74a085
Reciphers for ciphertext: 0
Decipheredtext:           00000000000000000000000000000000
RESULT CIPHER-DECIPHER: -----OK-----


Test: 25
Hash algorithm:       10
Sector size in bytes: 1536
Data unit:   0
Start block: 0
Symmetric key bit length: 256
Plaintext bit length:     128
Symmetric key:            0000000000000000000000000000000000000040000000000000000000000000
Plaintext:                00000000000000000000000000000000
Ciphertext:               f429e04474558f3df729c4adbf5518c6bc477d6cb6dae299395c0befc150d85c1fa097a851b2c84e708407677335e59c369457ed6c024c6f
Reciphers for ciphertext: 0
Decipheredtext:           00000000000000000000000000000000
RESULT CIPHER-DECIPHER: -----OK-----


Test: 26
Hash algorithm:       11
Sector size in bytes: 1536
Data unit:   0
Start block: 0
Symmetric key bit length: 256
Plaintext bit length:     128
Symmetric key:            0000000000000000000000000000000000000020000000000000000000000000
Plaintext:                00000000000000000000000000000000
Ciphertext:               791aae909eeca999adea68ed7fcfe49937239c9a0dc618e72968c7832a616d87
Reciphers for ciphertext: 0
Decipheredtext:           00000000000000000000000000000000
RESULT CIPHER-DECIPHER: -----OK-----


Test: 27
Hash algorithm:       9
Sector size in bytes: 1536
Data unit:   0
Start block: 0
Symmetric key bit length: 256
Plaintext bit length:     128
Symmetric key:            0000000000000000000000000000000000000010000000000000000000000000
Plaintext:                00000000000000000000000000000000
Ciphertext:               05ac921ae6c4e38800d4a1d3b04e216fc5959325f40b2681eac68cf74bbc38708c5c3e36c59c2559c25bec18771c575c
Reciphers for ciphertext: 0
Decipheredtext:           00000000000000000000000000000000
RESULT CIPHER-DECIPHER: -----OK-----


Test: 28
Hash algorithm:       1
Sector size in bytes: 1536
Data unit:   0
Start block: 0
Symmetric key bit length: 256
Plaintext bit length:     128
Symmetric key:            0000000000000000000000000000000000000008000000000000000000000000
Plaintext:                00000000000000000000000000000000
Ciphertext:               367efe89cf9af1e447adc20fcf1d67255d638fe901f8cd61fdeb0daecb13285259ec29366339ab0bb34d250f
Reciphers for ciphertext: 0
Decipheredtext:           00000000000000000000000000000000
RESULT CIPHER-DECIPHER: -----OK-----


Test: 29
Hash algorithm:       7
Sector size in bytes: 1536
Data unit:   0
Start block: 0
Symmetric key bit length: 256
Plaintext bit length:     128
Symmetric key:            0000000000000000000000000000000000000004000000000000000000000000
Plaintext:                00000000000000000000000000000000
Ciphertext:               9f08284a43132d9590a859d2d82b12f6745a360b7cc1abc3d91bfdba7cb4717f
Reciphers for ciphertext: 0
Decipheredtext:           00000000000000000000000000000000
RESULT CIPHER-DECIPHER: -----OK-----


Test: 30
Hash algorithm:       12
Sector size in bytes: 2048
Data unit:   0
Start block: 0
Symmetric key bit length: 256
Plaintext bit length:     128
Symmetric key:            0000000000000000000000000000000000000002000000000000000000000000
Plaintext:                00000000000000000000000000000000
Ciphertext:               df3336483194a647255a8d06f4292cb7f659f8d808cf8918d0c787fe7f345f42
Reciphers for ciphertext: 0
Decipheredtext:           00000000000000000000000000000000
RESULT CIPHER-DECIPHER: -----OK-----


Test: 31
Hash algorithm:       6
Sector size in bytes: 2048
Data unit:   0
Start block: 0
Symmetric key bit length: 256
Plaintext bit length:     128
Symmetric key:            0000000000000000000000000000000000000001000000000000000000000000
Plaintext:                00000000000000000000000000000000
Ciphertext:               ef7df2464cb2bfd44e6cbfc0277cb87e35d565b633ce21ca82c7b8f0be885492c0ffe587dc5b36770fc01c247f4f6254
Reciphers for ciphertext: 0
Decipheredtext:           00000000000000000000000000000000
RESULT CIPHER-DECIPHER: -----OK-----


Test: 32
Hash algorithm:       8
Sector size in bytes: 2048
Data unit:   0
Start block: 0
Symmetric key bit length: 256
Plaintext bit length:     128
Symmetric key:            0000000000000000000000000000000000000000800000000000000000000000
Plaintext:                00000000000000000000000000000000
Ciphertext:               d4eb8841f076c432c9922a979e570f07796221700bf98fe0fe22b9a5bbc16c1475139d5a
Reciphers for ciphertext: 0
Decipheredtext:           00000000000000000000000000000000
RESULT CIPHER-DECIPHER: -----OK-----


Test: 33
Hash algorithm:       5
Sector size in bytes: 2048
Data unit:   0
Start block: 0
Symmetric key bit length: 256
Plaintext bit length:     128
Symmetric key:            0000000000000000000000000000000000000000400000000000000000000000
Plaintext:                00000000000000000000000000000000
Ciphertext:               aacfe702bad40db8d2d4f836104a2e505b67e38dc3553e4274eac914da38aaf58c6f313594a429ad5260c473
Reciphers for ciphertext: 0
Decipheredtext:           00000000000000000000000000000000
RESULT CIPHER-DECIPHER: -----OK-----


Test: 34
Hash algorithm:       6
Sector size in bytes: 2048
Data unit:   0
Start block: 0
Symmetric key bit length: 256
Plaintext bit length:     128
Symmetric key:            0000000000000000000000000000000000000000200000000000000000000000
Plaintext:                00000000000000000000000000000000
Ciphertext:               1eab7ca94f287073ddf3fdc4e0713d8a907764e552a358f190788098b111b91e6d93c35dd996f95f997c6cd59c7796e6
Reciphers for ciphertext: 0
Decipheredtext:           00000000000000000000000000000000
RESULT CIPHER-DECIPHER: -----OK-----


Test: 35
Hash algorithm:       8
Sector size in bytes: 2048
Data unit:   0
Start block: 0
Symmetric key bit length: 256
Plaintext bit length:     128
Symmetric key:            0000000000000000000000000000000000000000100000000000000000000000
Plaintext:                00000000000000000000000000000000
Ciphertext:               75d3671e86045ae9ad851ad55eb4ba931b187abcf189c414d7b4646e591506c2783f717c
Reciphers for ciphertext: 0
Decipheredtext:           00000000000000000000000000000000
RESULT CIPHER-DECIPHER: -----OK-----


Test: 36
Hash algorithm:       4
Sector size in bytes: 2048
Data unit:   0
Start block: 0
Symmetric key bit length: 256
Plaintext bit length:     128
Symmetric key:            0000000000000000000000000000000000000000080000000000000000000000
Plaintext:                00000000000000000000000000000000
Ciphertext:               5f8345114a168230028154922668f7b3278d8613309d92a26e542ed0f2631b27edf6f1a0ffcc2e1acdb4d3b0284f645c3c9530714d831ac622c52fcc33993aa800e41523d71e38a11c4b203e049c85f8
Reciphers for ciphertext: 0
Decipheredtext:           00000000000000000000000000000000
RESULT CIPHER-DECIPHER: -----OK-----


Test: 37
Hash algorithm:       9
Sector size in bytes: 2048
Data unit:   0
Start block: 0
Symmetric key bit length: 256
Plaintext bit length:     128
Symmetric key:            0000000000000000000000000000000000000000040000000000000000000000
Plaintext:                00000000000000000000000000000000
Ciphertext:               8c92a3444e2690ed345527600652f82530e698032d0489477d2efec69c892c3f2eff3e4159081d228fe9613ab50985a3
Reciphers for ciphertext: 0
Decipheredtext:           00000000000000000000000000000000
RESULT CIPHER-DECIPHER: -----OK-----


Test: 38
Hash algorithm:       8
Sector size in bytes: 2048
Data unit:   0
Start block: 0
Symmetric key bit length: 256
Plaintext bit length:     128
Symmetric key:            0000000000000000000000000000000000000000020000000000000000000000
Plaintext:                00000000000000000000000000000000
Ciphertext:               fec09b2e95a4fb30a407a09b764ee5cb2e06e143c089a2f5498b52c427d359fbe21063d9
Reciphers for ciphertext: 0
Decipheredtext:           00000000000000000000000000000000
RESULT CIPHER-DECIPHER: -----OK-----


Test: 39
Hash algorithm:       12
Sector size in bytes: 2048
Data unit:   0
Start block: 0
Symmetric key bit length: 256
Plaintext bit length:     128
Symmetric key:            0000000000000000000000000000000000000000010000000000000000000000
Plaintext:                00000000000000000000000000000000
Ciphertext:               adc10153cd5ace73d30afb376686789e61db7ed52f863035fb36b27661b4fb2b
Reciphers for ciphertext: 0
Decipheredtext:           00000000000000000000000000000000
RESULT CIPHER-DECIPHER: -----OK-----


Test: 40
Hash algorithm:       11
Sector size in bytes: 2560
Data unit:   0
Start block: 0
Symmetric key bit length: 256
Plaintext bit length:     128
Symmetric key:            0000000000000000000000000000000000000000008000000000000000000000
Plaintext:                00000000000000000000000000000000
Ciphertext:               e35e9fd47c00baf96de2896d904f589451db2448b45838b2bb25c041ae8cc99f
Reciphers for ciphertext: 0
Decipheredtext:           00000000000000000000000000000000
RESULT CIPHER-DECIPHER: -----OK-----


Test: 41
Hash algorithm:       6
Sector size in bytes: 2560
Data unit:   0
Start block: 0
Symmetric key bit length: 256
Plaintext bit length:     128
Symmetric key:            0000000000000000000000000000000000000000004000000000000000000000
Plaintext:                00000000000000000000000000000000
Ciphertext:               4410a1a9e45aaf356aadfb1dece6a4585e861f33f1f8c8a1dc35c043ddab4e661a046aa71f8f5ccb6ce42d7c49f0635a
Reciphers for ciphertext: 0
Decipheredtext:           00000000000000000000000000000000
RESULT CIPHER-DECIPHER: -----OK-----


Test: 42
Hash algorithm:       3
Sector size in bytes: 2560
Data unit:   0
Start block: 0
Symmetric key bit length: 256
Plaintext bit length:     128
Symmetric key:            0000000000000000000000000000000000000000002000000000000000000000
Plaintext:                00000000000000000000000000000000
Ciphertext:               3d879d21783d58f4c7ab493ed3f02f4055e1c8e4371593be3d1d37da3bfb3d5df7fa91f258e41155ee536f5d42281fb38706f147ae9e50c40cc06ba00db5e000
Reciphers for ciphertext: 0
Decipheredtext:           00000000000000000000000000000000
RESULT CIPHER-DECIPHER: -----OK-----


Test: 43
Hash algorithm:       4
Sector size in bytes: 2560
Data unit:   0
Start block: 0
Symmetric key bit length: 256
Plaintext bit length:     128
Symmetric key:            0000000000000000000000000000000000000000001000000000000000000000
Plaintext:                00000000000000000000000000000000
Ciphertext:               0cbb272100a1bf856050316ac17e632ada75f3d57e27de438529eb4d007a70eae4ae9c95fc5f180509e1be8877ac8240c3f2e2c72d289589b5d3ef5bce9a7776448f784e82f82b206fdaa5edf1bd7ffb
Reciphers for ciphertext: 0
Decipheredtext:           00000000000000000000000000000000
RESULT CIPHER-DECIPHER: -----OK-----


Test: 44
Hash algorithm:       6
Sector size in bytes: 2560
Data unit:   0
Start block: 0
Symmetric key bit length: 256
Plaintext bit length:     128
Symmetric key:            0000000000000000000000000000000000000000000800000000000000000000
Plaintext:                00000000000000000000000000000000
Ciphertext:               bef330327fe10b5e3a77b1c42b5b264b142f4e4299f6ceed8d30214a1c5010c11a03abbf0ce3faefb5cc01025d6de4df
Reciphers for ciphertext: 0
Decipheredtext:           00000000000000000000000000000000
RESULT CIPHER-DECIPHER: -----OK-----


Test: 45
Hash algorithm:       7
Sector size in bytes: 2560
Data unit:   0
Start block: 0
Symmetric key bit length: 256
Plaintext bit length:     128
Symmetric key:            0000000000000000000000000000000000000000000400000000000000000000
Plaintext:                00000000000000000000000000000000
Ciphertext:               5600396b7baa20889c344231dab9e8dc75ce665fac8a900fbe99b33ee65c1a59
Reciphers for ciphertext: 0
Decipheredtext:           00000000000000000000000000000000
RESULT CIPHER-DECIPHER: -----OK-----


Test: 46
Hash algorithm:       11
Sector size in bytes: 2560
Data unit:   0
Start block: 0
Symmetric key bit length: 256
Plaintext bit length:     128
Symmetric key:            0000000000000000000000000000000000000000000200000000000000000000
Plaintext:                00000000000000000000000000000000
Ciphertext:               eae97dd855968b6c581804260531b871be8291c30bf0cdc5f908ccdc37b88e36
Reciphers for ciphertext: 0
Decipheredtext:           00000000000000000000000000000000
RESULT CIPHER-DECIPHER: -----OK-----


Test: 47
Hash algorithm:       8
Sector size in bytes: 2560
Data unit:   0
Start block: 0
Symmetric key bit length: 256
Plaintext bit length:     128
Symmetric key:            0000000000000000000000000000000000000000000100000000000000000000
Plaintext:                00000000000000000000000000000000
Ciphertext:               1b85af0db8b972abff36b210fd67129b2c8d407480b6f6dbd40bded70c8a171e833af9c3
Reciphers for ciphertext: 0
Decipheredtext:           00000000000000000000000000000000
RESULT CIPHER-DECIPHER: -----OK-----


Test: 48
Hash algorithm:       11
Sector size in bytes: 2560
Data unit:   0
Start block: 0
Symmetric key bit length: 256
Plaintext bit length:     128
Symmetric key:            0000000000000000000000000000000000000000000080000000000000000000
Plaintext:                00000000000000000000000000000000
Ciphertext:               540aa66cef8bcc2f7b1dfb5f9b832a9fd50ed819a6cef9369e6ddbd62c5cf5e4
Reciphers for ciphertext: 0
Decipheredtext:           00000000000000000000000000000000
RESULT CIPHER-DECIPHER: -----OK-----


Test: 49
Hash algorithm:       9
Sector size in bytes: 2560
Data unit:   0
Start block: 0
Symmetric key bit length: 256
Plaintext bit length:     128
Symmetric key:            0000000000000000000000000000000000000000000040000000000000000000
Plaintext:                00000000000000000000000000000000
Ciphertext:               2f6765fb4940b4018c6cb9c574966faaf241274d4e19100b5780f03379d38ae498be79c984bc27ddbbcdf6975a3dc389
Reciphers for ciphertext: 0
Decipheredtext:           00000000000000000000000000000000
RESULT CIPHER-DECIPHER: -----OK-----


Test: 50
Hash algorithm:       5
Sector size in bytes: 3072
Data unit:   0
Start block: 0
Symmetric key bit length: 256
Plaintext bit length:     128
Symmetric key:            0000000000000000000000000000000000000000000020000000000000000000
Plaintext:                00000000000000000000000000000000
Ciphertext:               7d08b7d94c033f5b04565c6425322f35eccc985bd7baa2d6b248214c3451859f0f88f82770f43906fb7f0f7e
Reciphers for ciphertext: 0
Decipheredtext:           00000000000000000000000000000000
RESULT CIPHER-DECIPHER: -----OK-----


Test: 51
Hash algorithm:       6
Sector size in bytes: 3072
Data unit:   0
Start block: 0
Symmetric key bit length: 256
Plaintext bit length:     128
Symmetric key:            0000000000000000000000000000000000000000000010000000000000000000
Plaintext:                00000000000000000000000000000000
Ciphertext:               c20bbf53063b99983c2887a9d340d9464b83d63d7a830f36041e25d1c6d3ae6bb394f06a33365296c772f455c4282215
Reciphers for ciphertext: 0
Decipheredtext:           00000000000000000000000000000000
RESULT CIPHER-DECIPHER: -----OK-----


Test: 52
Hash algorithm:       6
Sector size in bytes: 3072
Data unit:   0
Start block: 0
Symmetric key bit length: 256
Plaintext bit length:     128
Symmetric key:            0000000000000000000000000000000000000000000008000000000000000000
Plaintext:                00000000000000000000000000000000
Ciphertext:               bf78e7aa866167ab40eeaaffbf5180a9b8948c045b6a10e425dd9f8f0af8c7adf436758975cb6d2016ae32b520840187
Reciphers for ciphertext: 0
Decipheredtext:           00000000000000000000000000000000
RESULT CIPHER-DECIPHER: -----OK-----


Test: 53
Hash algorithm:       4
Sector size in bytes: 3072
Data unit:   0
Start block: 0
Symmetric key bit length: 256
Plaintext bit length:     128
Symmetric key:            0000000000000000000000000000000000000000000004000000000000000000
Plaintext:                00000000000000000000000000000000
Ciphertext:               709b6b2e413daf6eb7b1cb4455d66364f0a54f85c9628ca35037e410e443b771aeb86153d503e74fcd9a6f23c45b8648ab0ccf7c9ec055948e1ee15aa93a5e145c8eb31e8751327747793f1f7dd5d84b
Reciphers for ciphertext: 0
Decipheredtext:           00000000000000000000000000000000
RESULT CIPHER-DECIPHER: -----OK-----


Test: 54
Hash algorithm:       2
Sector size in bytes: 3072
Data unit:   0
Start block: 0
Symmetric key bit length: 256
Plaintext bit length:     128
Symmetric key:            0000000000000000000000000000000000000000000002000000000000000000
Plaintext:                00000000000000000000000000000000
Ciphertext:               b38cd34bdab1733d9682cb150b7e162e197164d890c475fc0524ef96203ae61fef6c910bbf9a46bb8b7c93bac5921945
Reciphers for ciphertext: 0
Decipheredtext:           00000000000000000000000000000000
RESULT CIPHER-DECIPHER: -----OK-----


Test: 55
Hash algorithm:       13
Sector size in bytes: 3072
Data unit:   0
Start block: 0
Symmetric key bit length: 256
Plaintext bit length:     128
Symmetric key:            0000000000000000000000000000000000000000000001000000000000000000
Plaintext:                00000000000000000000000000000000
Ciphertext:               3f5efda8a96d5d4b6deff465df17f436238800adb65217f608fc8e81dd692a06
Reciphers for ciphertext: 0
Decipheredtext:           00000000000000000000000000000000
RESULT CIPHER-DECIPHER: -----OK-----


Test: 56
Hash algorithm:       13
Sector size in bytes: 3072
Data unit:   0
Start block: 0
Symmetric key bit length: 256
Plaintext bit length:     128
Symmetric key:            0000000000000000000000000000000000000000000000800000000000000000
Plaintext:                00000000000000000000000000000000
Ciphertext:               950b88f03924a2d39ba333e95d6f9b3512329be1f288152ffe0687ef3df26c8e
Reciphers for ciphertext: 0
Decipheredtext:           00000000000000000000000000000000
RESULT CIPHER-DECIPHER: -----OK-----


Test: 57
Hash algorithm:       2
Sector size in bytes: 3072
Data unit:   0
Start block: 0
Symmetric key bit length: 256
Plaintext bit length:     128
Symmetric key:            0000000000000000000000000000000000000000000000400000000000000000
Plaintext:                00000000000000000000000000000000
Ciphertext:               23bec0cc0317b11477100adb5bed1025dfdf9f1f084bdd7b94275d7fdf7faee2e3e90a959aa7d7b8b716bea13047c9a2
Reciphers for ciphertext: 0
Decipheredtext:           00000000000000000000000000000000
RESULT CIPHER-DECIPHER: -----OK-----


Test: 58
Hash algorithm:       4
Sector size in bytes: 3072
Data unit:   0
Start block: 0
Symmetric key bit length: 256
Plaintext bit length:     128
Symmetric key:            0000000000000000000000000000000000000000000000200000000000000000
Plaintext:                00000000000000000000000000000000
Ciphertext:               278ab92cf5e411951f79b637c2640aefeb90644aa70e4c0087b25623f2ffe10fad339dd6f8a99ad28a2a69b81d05ef37eec0929d9f09e66d471cd64547f57016ffde7f372ca54dfd9d32fa06850b1533
Reciphers for ciphertext: 0
Decipheredtext:           00000000000000000000000000000000
RESULT CIPHER-DECIPHER: -----OK-----


Test: 59
Hash algorithm:       8
Sector size in bytes: 3072
Data unit:   0
Start block: 0
Symmetric key bit length: 256
Plaintext bit length:     128
Symmetric key:            0000000000000000000000000000000000000000000000100000000000000000
Plaintext:                00000000000000000000000000000000
Ciphertext:               999fe6b88c989ed1dea0bebabbdbb1f1a59c78dd8821e7b13dd20baecb886a9b99c78da4
Reciphers for ciphertext: 0
Decipheredtext:           00000000000000000000000000000000
RESULT CIPHER-DECIPHER: -----OK-----


Test: 60
Hash algorithm:       7
Sector size in bytes: 3584
Data unit:   0
Start block: 0
Symmetric key bit length: 256
Plaintext bit length:     128
Symmetric key:            0000000000000000000000000000000000000000000000080000000000000000
Plaintext:                00000000000000000000000000000000
Ciphertext:               6e0c485ad26f8cbbeea948830595fb6a1e2a9c34ccb0ff0c33f09dd527b09246
Reciphers for ciphertext: 0
Decipheredtext:           00000000000000000000000000000000
RESULT CIPHER-DECIPHER: -----OK-----


Test: 61
Hash algorithm:       12
Sector size in bytes: 3584
Data unit:   0
Start block: 0
Symmetric key bit length: 256
Plaintext bit length:     128
Symmetric key:            0000000000000000000000000000000000000000000000040000000000000000
Plaintext:                00000000000000000000000000000000
Ciphertext:               72b8bf28803b557c16bdd8c17679c9c4f66b0d3c9cd6e1d4d6c5de7c55f77d20
Reciphers for ciphertext: 0
Decipheredtext:           00000000000000000000000000000000
RESULT CIPHER-DECIPHER: -----OK-----


Test: 62
Hash algorithm:       2
Sector size in bytes: 3584
Data unit:   0
Start block: 0
Symmetric key bit length: 256
Plaintext bit length:     128
Symmetric key:            0000000000000000000000000000000000000000000000020000000000000000
Plaintext:                00000000000000000000000000000000
Ciphertext:               80ce9c4168249f7ee10c39fb26f838a52e2aaa9dfed4a0bce9c80388c4d9c53adf2376a05d6723fd8d9ff253ffb08530
Reciphers for ciphertext: 0
Decipheredtext:           00000000000000000000000000000000
RESULT CIPHER-DECIPHER: -----OK-----


Test: 63
Hash algorithm:       1
Sector size in bytes: 3584
Data unit:   0
Start block: 0
Symmetric key bit length: 256
Plaintext bit length:     128
Symmetric key:            0000000000000000000000000000000000000000000000010000000000000000
Plaintext:                00000000000000000000000000000000
Ciphertext:               cd3a8e524196e264851cd42b8257bc0345d1d90f97f291b39e7a01a376667536ef61636fc53a7df1164c72bd
Reciphers for ciphertext: 0
Decipheredtext:           00000000000000000000000000000000
RESULT CIPHER-DECIPHER: -----OK-----


Test: 64
Hash algorithm:       0
Sector size in bytes: 3584
Data unit:   0
Start block: 0
Symmetric key bit length: 256
Plaintext bit length:     128
Symmetric key:            0000000000000000000000000000000000000000000000008000000000000000
Plaintext:                00000000000000000000000000000000
Ciphertext:               eb93345f5e95bd6292a7876623b5fd53ea36623a745755350713535f99f6c38937d3cbf8
Reciphers for ciphertext: 0
Decipheredtext:           00000000000000000000000000000000
RESULT CIPHER-DECIPHER: -----OK-----


Test: 65
Hash algorithm:       3
Sector size in bytes: 3584
Data unit:   0
Start block: 0
Symmetric key bit length: 256
Plaintext bit length:     128
Symmetric key:            0000000000000000000000000000000000000000000000004000000000000000
Plaintext:                00000000000000000000000000000000
Ciphertext:               7ada61e8fdf698ecbfc01e21d9e6fe81caf39bf966d46556cc98faf1d6e0ea62356b825625b591db02ce79cd2bd284c7548724558f206393105fe10355ed4738
Reciphers for ciphertext: 0
Decipheredtext:           00000000000000000000000000000000
RESULT CIPHER-DECIPHER: -----OK-----


Test: 66
Hash algorithm:       0
Sector size in bytes: 3584
Data unit:   0
Start block: 0
Symmetric key bit length: 256
Plaintext bit length:     128
Symmetric key:            0000000000000000000000000000000000000000000000002000000000000000
Plaintext:                00000000000000000000000000000000
Ciphertext:               59300fa39c49ce72c4b85990981c5721d35177d80375baf8506cfd4fb6c67604c462cfed
Reciphers for ciphertext: 0
Decipheredtext:           00000000000000000000000000000000
RESULT CIPHER-DECIPHER: -----OK-----


Test: 67
Hash algorithm:       1
Sector size in bytes: 3584
Data unit:   0
Start block: 0
Symmetric key bit length: 256
Plaintext bit length:     128
Symmetric key:            0000000000000000000000000000000000000000000000001000000000000000
Plaintext:                00000000000000000000000000000000
Ciphertext:               e85b60c1a8b6910d43849f810aea0e10cc14666ebafc48d922062b1920e033f3cf3b2757c2bee9a8fb78d75d
Reciphers for ciphertext: 0
Decipheredtext:           00000000000000000000000000000000
RESULT CIPHER-DECIPHER: -----OK-----


Test: 68
Hash algorithm:       3
Sector size in bytes: 3584
Data unit:   0
Start block: 0
Symmetric key bit length: 256
Plaintext bit length:     128
Symmetric key:            0000000000000000000000000000000000000000000000000800000000000000
Plaintext:                00000000000000000000000000000000
Ciphertext:               541bb88cd1acb4ab051edd758da95fbc664aa4b7ea20526963b31b0fd453754940ccd9adb114eae45e5824c90e5abebca886ea654067fecb09c4020bd1d63370
Reciphers for ciphertext: 0
Decipheredtext:           00000000000000000000000000000000
RESULT CIPHER-DECIPHER: -----OK-----


Test: 69
Hash algorithm:       2
Sector size in bytes: 3584
Data unit:   0
Start block: 0
Symmetric key bit length: 256
Plaintext bit length:     128
Symmetric key:            0000000000000000000000000000000000000000000000000400000000000000
Plaintext:                00000000000000000000000000000000
Ciphertext:               d63aff51e5c242653c85b01f351a01876699e1f3ea894b86f8bbc99961a5c12b5f8d78152d1d2e13059c155b4379b108
Reciphers for ciphertext: 0
Decipheredtext:           00000000000000000000000000000000
RESULT CIPHER-DECIPHER: -----OK-----


Test: 70
Hash algorithm:       1
Sector size in bytes: 4096
Data unit:   0
Start block: 0
Symmetric key bit length: 256
Plaintext bit length:     128
Symmetric key:            0000000000000000000000000000000000000000000000000200000000000000
Plaintext:                00000000000000000000000000000000
Ciphertext:               795c652070aebb3b9357fd934162543e9135aab2d5ffc1f074bd6175eb85a6df6a3030ecbe5dfe9aa052cc5b
Reciphers for ciphertext: 0
Decipheredtext:           00000000000000000000000000000000
RESULT CIPHER-DECIPHER: -----OK-----


Test: 71
Hash algorithm:       13
Sector size in bytes: 4096
Data unit:   0
Start block: 0
Symmetric key bit length: 256
Plaintext bit length:     128
Symmetric key:            0000000000000000000000000000000000000000000000000100000000000000
Plaintext:                00000000000000000000000000000000
Ciphertext:               f889cda90b755f320df450dab63f1e4b70c610d0c59e61020d6b5f555ae4dbe0
Reciphers for ciphertext: 0
Decipheredtext:           00000000000000000000000000000000
RESULT CIPHER-DECIPHER: -----OK-----


Test: 72
Hash algorithm:       5
Sector size in bytes: 4096
Data unit:   0
Start block: 0
Symmetric key bit length: 256
Plaintext bit length:     128
Symmetric key:            0000000000000000000000000000000000000000000000000080000000000000
Plaintext:                00000000000000000000000000000000
Ciphertext:               44154113722c0f1d8757cdfc3e7988b527aabe6660793fdd457c6e0418ed98412c836ab9165f40beb621195a
Reciphers for ciphertext: 0
Decipheredtext:           00000000000000000000000000000000
RESULT CIPHER-DECIPHER: -----OK-----


Test: 73
Hash algorithm:       12
Sector size in bytes: 4096
Data unit:   0
Start block: 0
Symmetric key bit length: 256
Plaintext bit length:     128
Symmetric key:            0000000000000000000000000000000000000000000000000040000000000000
Plaintext:                00000000000000000000000000000000
Ciphertext:               4b7b138bbf6e4790d979f0531ff4212a72a06dc0097442822018fca7e570b03a
Reciphers for ciphertext: 0
Decipheredtext:           00000000000000000000000000000000
RESULT CIPHER-DECIPHER: -----OK-----


Test: 74
Hash algorithm:       1
Sector size in bytes: 4096
Data unit:   0
Start block: 0
Symmetric key bit length: 256
Plaintext bit length:     128
Symmetric key:            0000000000000000000000000000000000000000000000000020000000000000
Plaintext:                00000000000000000000000000000000
Ciphertext:               1b11b79bd712a98448d1c5f2745933dc69afefcd6814c621705c97b1431d95137d4619c1f8f86444bb1f981d
Reciphers for ciphertext: 0
Decipheredtext:           00000000000000000000000000000000
RESULT CIPHER-DECIPHER: -----OK-----


Test: 75
Hash algorithm:       8
Sector size in bytes: 4096
Data unit:   0
Start block: 0
Symmetric key bit length: 256
Plaintext bit length:     128
Symmetric key:            0000000000000000000000000000000000000000000000000010000000000000
Plaintext:                00000000000000000000000000000000
Ciphertext:               0f47532be43efc81e0c4159a827d1b374da537671010e140d353e152757be5e354a399e0
Reciphers for ciphertext: 0
Decipheredtext:           00000000000000000000000000000000
RESULT CIPHER-DECIPHER: -----OK-----


Test: 76
Hash algorithm:       11
Sector size in bytes: 4096
Data unit:   0
Start block: 0
Symmetric key bit length: 256
Plaintext bit length:     128
Symmetric key:            0000000000000000000000000000000000000000000000000008000000000000
Plaintext:                00000000000000000000000000000000
Ciphertext:               32a82afa28c0abe60b3c0ea46f3e1543bb52db4f6f81420f6f31212af63e16c9
Reciphers for ciphertext: 0
Decipheredtext:           00000000000000000000000000000000
RESULT CIPHER-DECIPHER: -----OK-----


Test: 77
Hash algorithm:       10
Sector size in bytes: 4096
Data unit:   0
Start block: 0
Symmetric key bit length: 256
Plaintext bit length:     128
Symmetric key:            0000000000000000000000000000000000000000000000000004000000000000
Plaintext:                00000000000000000000000000000000
Ciphertext:               d25c193169ccb95da1693ed4584e869c48e566e687db71c5528943e174d6af33e8f5d6fdeb91706850314bd505759da9eb56b39151e62b54
Reciphers for ciphertext: 0
Decipheredtext:           00000000000000000000000000000000
RESULT CIPHER-DECIPHER: -----OK-----


Test: 78
Hash algorithm:       3
Sector size in bytes: 4096
Data unit:   0
Start block: 0
Symmetric key bit length: 256
Plaintext bit length:     128
Symmetric key:            0000000000000000000000000000000000000000000000000002000000000000
Plaintext:                00000000000000000000000000000000
Ciphertext:               b4fec990af87f291bc055b483210c40b9e1c0d88bb35e58d1bd6832557f1c29f9b7c7180690cd07909bee4dc4192b9d0dd17c0cec78c9fbd1085ac29b9ce88dc
Reciphers for ciphertext: 0
Decipheredtext:           00000000000000000000000000000000
RESULT CIPHER-DECIPHER: -----OK-----


Test: 79
Hash algorithm:       11
Sector size in bytes: 4096
Data unit:   0
Start block: 0
Symmetric key bit length: 256
Plaintext bit length:     128
Symmetric key:            0000000000000000000000000000000000000000000000000001000000000000
Plaintext:                00000000000000000000000000000000
Ciphertext:               d11a34edde2a0c3f371d553e9a4b28a2046108054f328c79a377525975730389
Reciphers for ciphertext: 0
Decipheredtext:           00000000000000000000000000000000
RESULT CIPHER-DECIPHER: -----OK-----


Test: 80
Hash algorithm:       4
Sector size in bytes: 8192
Data unit:   0
Start block: 0
Symmetric key bit length: 256
Plaintext bit length:     128
Symmetric key:            0000000000000000000000000000000000000000000000000000800000000000
Plaintext:                00000000000000000000000000000000
Ciphertext:               faecd7bba0c5d06023d4ed6cfb205e6f8e76b8be8e18014a8343cdd894d4ac74435af58cc1ebc44dc20bf6c84ad0b2f7a384008a2de8f3cbfd467a92824e8495ee9251d33920c4fc911f796a9294a326
Reciphers for ciphertext: 0
Decipheredtext:           00000000000000000000000000000000
RESULT CIPHER-DECIPHER: -----OK-----


Test: 81
Hash algorithm:       1
Sector size in bytes: 8192
Data unit:   0
Start block: 0
Symmetric key bit length: 256
Plaintext bit length:     128
Symmetric key:            0000000000000000000000000000000000000000000000000000400000000000
Plaintext:                00000000000000000000000000000000
Ciphertext:               a2944e515e4c64b012752116c74585eaa21109b182e9e90ebdab4fea1dae5c476d4289b073f7cf3c2fe9b133
Reciphers for ciphertext: 0
Decipheredtext:           00000000000000000000000000000000
RESULT CIPHER-DECIPHER: -----OK-----


Test: 82
Hash algorithm:       10
Sector size in bytes: 8192
Data unit:   0
Start block: 0
Symmetric key bit length: 256
Plaintext bit length:     128
Symmetric key:            0000000000000000000000000000000000000000000000000000200000000000
Plaintext:                00000000000000000000000000000000
Ciphertext:               1b4b4c544138c7ef4aadced28f4e6691bd746274162b877b14706fb8eb1359456d719d8828f9566de888e95bf5a3f081ed9495d8036f929c
Reciphers for ciphertext: 0
Decipheredtext:           00000000000000000000000000000000
RESULT CIPHER-DECIPHER: -----OK-----


Test: 83
Hash algorithm:       11
Sector size in bytes: 8192
Data unit:   0
Start block: 0
Symmetric key bit length: 256
Plaintext bit length:     128
Symmetric key:            0000000000000000000000000000000000000000000000000000100000000000
Plaintext:                00000000000000000000000000000000
Ciphertext:               78125339e5f7a174a00bf765f8433a02fd80b4b24d011b729e7f0449e834b98c
Reciphers for ciphertext: 0
Decipheredtext:           00000000000000000000000000000000
RESULT CIPHER-DECIPHER: -----OK-----


Test: 84
Hash algorithm:       0
Sector size in bytes: 8192
Data unit:   0
Start block: 0
Symmetric key bit length: 256
Plaintext bit length:     128
Symmetric key:            0000000000000000000000000000000000000000000000000000080000000000
Plaintext:                00000000000000000000000000000000
Ciphertext:               1aa570b71b3defdf449cba26c4077bd67a88f8bd5f4a6902d108a9f0562017d0c11f5a15
Reciphers for ciphertext: 0
Decipheredtext:           00000000000000000000000000000000
RESULT CIPHER-DECIPHER: -----OK-----


Test: 85
Hash algorithm:       1
Sector size in bytes: 8192
Data unit:   0
Start block: 0
Symmetric key bit length: 256
Plaintext bit length:     128
Symmetric key:            0000000000000000000000000000000000000000000000000000040000000000
Plaintext:                00000000000000000000000000000000
Ciphertext:               a915a6fa1b4432f1fddf46c356429b0d6182218f51a4e878423aa649aa24fa11c4021b5db142a9667cbf9e1c
Reciphers for ciphertext: 0
Decipheredtext:           00000000000000000000000000000000
RESULT CIPHER-DECIPHER: -----OK-----


Test: 86
Hash algorithm:       6
Sector size in bytes: 8192
Data unit:   0
Start block: 0
Symmetric key bit length: 256
Plaintext bit length:     128
Symmetric key:            0000000000000000000000000000000000000000000000000000020000000000
Plaintext:                00000000000000000000000000000000
Ciphertext:               35ba5d7290320be77287c27e6c4f05684cfd076e48510a4cb64211384903da25ea250d56cd2af2027c509a99c559edd1
Reciphers for ciphertext: 0
Decipheredtext:           00000000000000000000000000000000
RESULT CIPHER-DECIPHER: -----OK-----


Test: 87
Hash algorithm:       13
Sector size in bytes: 8192
Data unit:   0
Start block: 0
Symmetric key bit length: 256
Plaintext bit length:     128
Symmetric key:            0000000000000000000000000000000000000000000000000000010000000000
Plaintext:                00000000000000000000000000000000
Ciphertext:               ba56fb06ef8dd31a43eb7bced15c30e31e98cf80cb4504380a7ac1e515ca7bad
Reciphers for ciphertext: 0
Decipheredtext:           00000000000000000000000000000000
RESULT CIPHER-DECIPHER: -----OK-----


Test: 88
Hash algorithm:       12
Sector size in bytes: 8192
Data unit:   0
Start block: 0
Symmetric key bit length: 256
Plaintext bit length:     128
Symmetric key:            0000000000000000000000000000000000000000000000000000008000000000
Plaintext:                00000000000000000000000000000000
Ciphertext:               6f4d2e0c1630cdfe8132c8d83c0f27b248ce72e1bcd485479f158d5515f12592
Reciphers for ciphertext: 0
Decipheredtext:           00000000000000000000000000000000
RESULT CIPHER-DECIPHER: -----OK-----


Test: 89
Hash algorithm:       3
Sector size in bytes: 8192
Data unit:   0
Start block: 0
Symmetric key bit length: 256
Plaintext bit length:     128
Symmetric key:            0000000000000000000000000000000000000000000000000000004000000000
Plaintext:                00000000000000000000000000000000
Ciphertext:               024ec1ab0afdeec7508366d835b6128791af0d2bc9cc691641220273675b66266e9ec4b425f3968b86a2d85d6b0b3f055b65b207b640577aea820047aae5f6da
Reciphers for ciphertext: 0
Decipheredtext:           00000000000000000000000000000000
RESULT CIPHER-DECIPHER: -----OK-----


Test: 90
Hash algorithm:       12
Sector size in bytes: 12288
Data unit:   0
Start block: 0
Symmetric key bit length: 256
Plaintext bit length:     128
Symmetric key:            0000000000000000000000000000000000000000000000000000002000000000
Plaintext:                00000000000000000000000000000000
Ciphertext:               9495f39582e7f3f01aa9392176c05090137be6424b21a5c88bd6e71183cca8a5
Reciphers for ciphertext: 0
Decipheredtext:           00000000000000000000000000000000
RESULT CIPHER-DECIPHER: -----OK-----


Test: 91
Hash algorithm:       5
Sector size in bytes: 12288
Data unit:   0
Start block: 0
Symmetric key bit length: 256
Plaintext bit length:     128
Symmetric key:            0000000000000000000000000000000000000000000000000000001000000000
Plaintext:                00000000000000000000000000000000
Ciphertext:               c0c29a4fc14106ebb8dbc9dab963e2fd8a545832b370c7d39020b765fdbaa8d6844ead29fde505688b700e61
Reciphers for ciphertext: 0
Decipheredtext:           00000000000000000000000000000000
RESULT CIPHER-DECIPHER: -----OK-----


Test: 92
Hash algorithm:       0
Sector size in bytes: 12288
Data unit:   0
Start block: 0
Symmetric key bit length: 256
Plaintext bit length:     128
Symmetric key:            0000000000000000000000000000000000000000000000000000000800000000
Plaintext:                00000000000000000000000000000000
Ciphertext:               6e0d17dbb63a0194c0d6b51d93f6ea81cc7f55c21f397ab12b1af680d6bc3f8438afbe50
Reciphers for ciphertext: 0
Decipheredtext:           00000000000000000000000000000000
RESULT CIPHER-DECIPHER: -----OK-----


Test: 93
Hash algorithm:       3
Sector size in bytes: 12288
Data unit:   0
Start block: 0
Symmetric key bit length: 256
Plaintext bit length:     128
Symmetric key:            0000000000000000000000000000000000000000000000000000000400000000
Plaintext:                00000000000000000000000000000000
Ciphertext:               cd574947877c4be29d40a0522bc7a65e1e5c9b5de614fe011568ed2f42c358382754fc0f4a63342e3cdf561318d733dee7590d4ee1a5978aec1ec36f71fda3ca
Reciphers for ciphertext: 0
Decipheredtext:           00000000000000000000000000000000
RESULT CIPHER-DECIPHER: -----OK-----


Test: 94
Hash algorithm:       1
Sector size in bytes: 12288
Data unit:   0
Start block: 0
Symmetric key bit length: 256
Plaintext bit length:     128
Symmetric key:            0000000000000000000000000000000000000000000000000000000200000000
Plaintext:                00000000000000000000000000000000
Ciphertext:               42b3c05828fe89923845cd3ba9ced02f014a7ef665bb4388f805ee8a5955be6dfe95702c610f81d6bfe65b61
Reciphers for ciphertext: 0
Decipheredtext:           00000000000000000000000000000000
RESULT CIPHER-DECIPHER: -----OK-----


Test: 95
Hash algorithm:       7
Sector size in bytes: 12288
Data unit:   0
Start block: 0
Symmetric key bit length: 256
Plaintext bit length:     128
Symmetric key:            0000000000000000000000000000000000000000000000000000000100000000
Plaintext:                00000000000000000000000000000000
Ciphertext:               7aa2ab654e266377f957f321cf93da2ad542cc130db46f18e1d91b4a0b06c291
Reciphers for ciphertext: 0
Decipheredtext:           00000000000000000000000000000000
RESULT CIPHER-DECIPHER: -----OK-----


Test: 96
Hash algorithm:       11
Sector size in bytes: 12288
Data unit:   0
Start block: 0
Symmetric key bit length: 256
Plaintext bit length:     128
Symmetric key:            0000000000000000000000000000000000000000000000000000000080000000
Plaintext:                00000000000000000000000000000000
Ciphertext:               4f1dca3fa23baa11f004b980c60a34391000764f1702aecf424e074a515aa9e2
Reciphers for ciphertext: 0
Decipheredtext:           00000000000000000000000000000000
RESULT CIPHER-DECIPHER: -----OK-----


Test: 97
Hash algorithm:       3
Sector size in bytes: 12288
Data unit:   0
Start block: 0
Symmetric key bit length: 256
Plaintext bit length:     128
Symmetric key:            0000000000000000000000000000000000000000000000000000000040000000
Plaintext:                00000000000000000000000000000000
Ciphertext:               1ab703458ce695aa85b21e8ea6043a20ffe8fc83f84b52d64ffc4f90fe7492895a30684830552fadc5ba798ca9ec53b44c8c9db4950ad908176ab86836e91e40
Reciphers for ciphertext: 0
Decipheredtext:           00000000000000000000000000000000
RESULT CIPHER-DECIPHER: -----OK-----


Test: 98
Hash algorithm:       3
Sector size in bytes: 12288
Data unit:   0
Start block: 0
Symmetric key bit length: 256
Plaintext bit length:     128
Symmetric key:            0000000000000000000000000000000000000000000000000000000020000000
Plaintext:                00000000000000000000000000000000
Ciphertext:               8f11c88ce7da8f95bef3cd47fa6d2967a7f5fc9298fa7a6304d6c688ef09c2f2e9bd994f1b3cc966940b06a269c7420d311dc2e0c88c6bd559113ed67b56e6f4
Reciphers for ciphertext: 0
Decipheredtext:           00000000000000000000000000000000
RESULT CIPHER-DECIPHER: -----OK-----


Test: 99
Hash algorithm:       6
Sector size in bytes: 12288
Data unit:   0
Start block: 0
Symmetric key bit length: 256
Plaintext bit length:     128
Symmetric key:            0000000000000000000000000000000000000000000000000000000010000000
Plaintext:                00000000000000000000000000000000
Ciphertext:               531caa639b9f87228eb9dd45fd33112a2e8ba3b29d201d367c2886080fd661a18ce637bd523a411776016bfc075afe92
Reciphers for ciphertext: 0
Decipheredtext:           00000000000000000000000000000000
RESULT CIPHER-DECIPHER: -----OK-----


Test: 100
Hash algorithm:       5
Sector size in bytes: 16384
Data unit:   0
Start block: 0
Symmetric key bit length: 256
Plaintext bit length:     128
Symmetric key:            0000000000000000000000000000000000000000000000000000000008000000
Plaintext:                00000000000000000000000000000000
Ciphertext:               0156e74a93d35732799861284c530455d8cde33f253bfbec050f8d0dfa9d4de3583aaf4c3ca903ac97d04352
Reciphers for ciphertext: 0
Decipheredtext:           00000000000000000000000000000000
RESULT CIPHER-DECIPHER: -----OK-----


Test: 101
Hash algorithm:       8
Sector size in bytes: 16384
Data unit:   0
Start block: 0
Symmetric key bit length: 256
Plaintext bit length:     128
Symmetric key:            0000000000000000000000000000000000000000000000000000000004000000
Plaintext:                00000000000000000000000000000000
Ciphertext:               b7479efe04dfdf6db2e9da82c81798c4847627f2944d10d463c917a3d3e8d3347070fb02
Reciphers for ciphertext: 0
Decipheredtext:           00000000000000000000000000000000
RESULT CIPHER-DECIPHER: -----OK-----


Test: 102
Hash algorithm:       0
Sector size in bytes: 16384
Data unit:   0
Start block: 0
Symmetric key bit length: 256
Plaintext bit length:     128
Symmetric key:            0000000000000000000000000000000000000000000000000000000002000000
Plaintext:                00000000000000000000000000000000
Ciphertext:               b541de4a315c339e7bef14f551d19ad1af7a4e21fcebad350943501fe1d3865618c26b94
Reciphers for ciphertext: 0
Decipheredtext:           00000000000000000000000000000000
RESULT CIPHER-DECIPHER: -----OK-----


Test: 103
Hash algorithm:       2
Sector size in bytes: 16384
Data unit:   0
Start block: 0
Symmetric key bit length: 256
Plaintext bit length:     128
Symmetric key:            0000000000000000000000000000000000000000000000000000000001000000
Plaintext:                00000000000000000000000000000000
Ciphertext:               dcf31ec348f385b015b4bd8a26279935152e25485ac0f4360e30b96f31d264dc528533e9b74e44afb99c9c39376a35d0
Reciphers for ciphertext: 0
Decipheredtext:           00000000000000000000000000000000
RESULT CIPHER-DECIPHER: -----OK-----


Test: 104
Hash algorithm:       5
Sector size in bytes: 16384
Data unit:   0
Start block: 0
Symmetric key bit length: 256
Plaintext bit length:     128
Symmetric key:            0000000000000000000000000000000000000000000000000000000000800000
Plaintext:                00000000000000000000000000000000
Ciphertext:               72d6ace9787e17de1e870c9a6572abc73790c0de3cadf32da2a2190f80a060284f1d0386fcb6a0944d9e1ed0
Reciphers for ciphertext: 0
Decipheredtext:           00000000000000000000000000000000
RESULT CIPHER-DECIPHER: -----OK-----


Test: 105
Hash algorithm:       10
Sector size in bytes: 16384
Data unit:   0
Start block: 0
Symmetric key bit length: 256
Plaintext bit length:     128
Symmetric key:            0000000000000000000000000000000000000000000000000000000000400000
Plaintext:                00000000000000000000000000000000
Ciphertext:               ffc77aafde5c777a6d05a69d6322793998137d888392a9d16389217856094df7d7394060a530cf8a036a51db8da2699f0c33eee557e594af
Reciphers for ciphertext: 0
Decipheredtext:           00000000000000000000000000000000
RESULT CIPHER-DECIPHER: -----OK-----


Test: 106
Hash algorithm:       3
Sector size in bytes: 16384
Data unit:   0
Start block: 0
Symmetric key bit length: 256
Plaintext bit length:     128
Symmetric key:            0000000000000000000000000000000000000000000000000000000000200000
Plaintext:                00000000000000000000000000000000
Ciphertext:               91b3eb0cfbe45ff8ba31ed7b2687575b1fa69ae3fc5b60094e38c9f5e9ce8cef9b20f48eaba77254089c8b04f61c1eaa2f8846f1b5b95174cf17457b9744b18d
Reciphers for ciphertext: 0
Decipheredtext:           00000000000000000000000000000000
RESULT CIPHER-DECIPHER: -----OK-----


Test: 107
Hash algorithm:       12
Sector size in bytes: 16384
Data unit:   0
Start block: 0
Symmetric key bit length: 256
Plaintext bit length:     128
Symmetric key:            0000000000000000000000000000000000000000000000000000000000100000
Plaintext:                00000000000000000000000000000000
Ciphertext:               89c1da317a75abb2dbbec01028dea9cdef3c50ba0bf918736db9f9c08c653fec
Reciphers for ciphertext: 0
Decipheredtext:           00000000000000000000000000000000
RESULT CIPHER-DECIPHER: -----OK-----


Test: 108
Hash algorithm:       7
Sector size in bytes: 16384
Data unit:   0
Start block: 0
Symmetric key bit length: 256
Plaintext bit length:     128
Symmetric key:            0000000000000000000000000000000000000000000000000000000000080000
Plaintext:                00000000000000000000000000000000
Ciphertext:               956c014794ef14d56173c8abe8cf370d93d7006a04612e19de15b56fc42cec61
Reciphers for ciphertext: 0
Decipheredtext:           00000000000000000000000000000000
RESULT CIPHER-DECIPHER: -----OK-----


Test: 109
Hash algorithm:       9
Sector size in bytes: 16384
Data unit:   0
Start block: 0
Symmetric key bit length: 256
Plaintext bit length:     128
Symmetric key:            0000000000000000000000000000000000000000000000000000000000040000
Plaintext:                00000000000000000000000000000000
Ciphertext:               84dbc258407d83e4dab63a5dbb3827b02a438336556f34a742282ee9efe3f7d3802c3122c5386524c4c5599d01735ccb
Reciphers for ciphertext: 0
Decipheredtext:           00000000000000000000000000000000
RESULT CIPHER-DECIPHER: -----OK-----


Test: 110
Hash algorithm:       8
Sector size in bytes: 24576
Data unit:   0
Start block: 0
Symmetric key bit length: 256
Plaintext bit length:     128
Symmetric key:            0000000000000000000000000000000000000000000000000000000000020000
Plaintext:                00000000000000000000000000000000
Ciphertext:               1db05bae09a435bf5a7342ba006b0ac1e2957ed1eaacf6624a800b05e10432f4fbad156c
Reciphers for ciphertext: 0
Decipheredtext:           00000000000000000000000000000000
RESULT CIPHER-DECIPHER: -----OK-----


Test: 111
Hash algorithm:       6
Sector size in bytes: 24576
Data unit:   0
Start block: 0
Symmetric key bit length: 256
Plaintext bit length:     128
Symmetric key:            0000000000000000000000000000000000000000000000000000000000010000
Plaintext:                00000000000000000000000000000000
Ciphertext:               5c4e1948849c010d8245d020a7ca6a829ce9e60af2606fe8a55ce5aaf40a6c5611f3782cca90f3d4ba25027d24546077
Reciphers for ciphertext: 0
Decipheredtext:           00000000000000000000000000000000
RESULT CIPHER-DECIPHER: -----OK-----


Test: 112
Hash algorithm:       5
Sector size in bytes: 24576
Data unit:   0
Start block: 0
Symmetric key bit length: 256
Plaintext bit length:     128
Symmetric key:            0000000000000000000000000000000000000000000000000000000000008000
Plaintext:                00000000000000000000000000000000
Ciphertext:               07d019e73557c047223d8e6ebdaa9a8f7cee3e95932bb3fedb925b24bfa11618c8b591ac15ff6a52c1f20755
Reciphers for ciphertext: 0
Decipheredtext:           00000000000000000000000000000000
RESULT CIPHER-DECIPHER: -----OK-----


Test: 113
Hash algorithm:       4
Sector size in bytes: 24576
Data unit:   0
Start block: 0
Symmetric key bit length: 256
Plaintext bit length:     128
Symmetric key:            0000000000000000000000000000000000000000000000000000000000004000
Plaintext:                00000000000000000000000000000000
Ciphertext:               eecec1d84b471b2a8c5fb5e7da8323ebe29523f9c66b75cb7e124e845d262191fa909d3003c7be4ffc649645be0e4553b3a912351fde82816881abc0cc08d3dbb3a9e9db4d361d1d10abc55cb25c66ce
Reciphers for ciphertext: 0
Decipheredtext:           00000000000000000000000000000000
RESULT CIPHER-DECIPHER: -----OK-----


Test: 114
Hash algorithm:       13
Sector size in bytes: 24576
Data unit:   0
Start block: 0
Symmetric key bit length: 256
Plaintext bit length:     128
Symmetric key:            0000000000000000000000000000000000000000000000000000000000002000
Plaintext:                00000000000000000000000000000000
Ciphertext:               5d8e7a5aadbe91e874b0be440185c9cab2ce91dd19eb52fcd1cc487e8e03bffc
Reciphers for ciphertext: 0
Decipheredtext:           00000000000000000000000000000000
RESULT CIPHER-DECIPHER: -----OK-----


Test: 115
Hash algorithm:       11
Sector size in bytes: 24576
Data unit:   0
Start block: 0
Symmetric key bit length: 256
Plaintext bit length:     128
Symmetric key:            0000000000000000000000000000000000000000000000000000000000001000
Plaintext:                00000000000000000000000000000000
Ciphertext:               2f2296caca0fa4f41077e138c9b7aac2a087c7c0092e8664ec63dd2692c9762d
Reciphers for ciphertext: 0
Decipheredtext:           00000000000000000000000000000000
RESULT CIPHER-DECIPHER: -----OK-----


Test: 116
Hash algorithm:       12
Sector size in bytes: 24576
Data unit:   0
Start block: 0
Symmetric key bit length: 256
Plaintext bit length:     128
Symmetric key:            0000000000000000000000000000000000000000000000000000000000000800
Plaintext:                00000000000000000000000000000000
Ciphertext:               f9183e6891d462b0d62e0232fa727499732fc94f0240dd0c107c07fe5eb6116a
Reciphers for ciphertext: 0
Decipheredtext:           00000000000000000000000000000000
RESULT CIPHER-DECIPHER: -----OK-----


Test: 117
Hash algorithm:       12
Sector size in bytes: 24576
Data unit:   0
Start block: 0
Symmetric key bit length: 256
Plaintext bit length:     128
Symmetric key:            0000000000000000000000000000000000000000000000000000000000000400
Plaintext:                00000000000000000000000000000000
Ciphertext:               cb576223df668e0f6bdddf7c92f4926f13765e05bddb332a7dc04365d9346aa2
Reciphers for ciphertext: 0
Decipheredtext:           00000000000000000000000000000000
RESULT CIPHER-DECIPHER: -----OK-----


Test: 118
Hash algorithm:       7
Sector size in bytes: 24576
Data unit:   0
Start block: 0
Symmetric key bit length: 256
Plaintext bit length:     128
Symmetric key:            0000000000000000000000000000000000000000000000000000000000000200
Plaintext:                00000000000000000000000000000000
Ciphertext:               3c19f17d9d9dd6f79235c8fd09a29ec1e7466c6d1f9e1883d141463d2f47a489
Reciphers for ciphertext: 0
Decipheredtext:           00000000000000000000000000000000
RESULT CIPHER-DECIPHER: -----OK-----


Test: 119
Hash algorithm:       8
Sector size in bytes: 24576
Data unit:   0
Start block: 0
Symmetric key bit length: 256
Plaintext bit length:     128
Symmetric key:            0000000000000000000000000000000000000000000000000000000000000100
Plaintext:                00000000000000000000000000000000
Ciphertext:               b6af58d48702363d26a37c143c4fd7dd6f7e7979229662c552ab7f06c3bf482208112696
Reciphers for ciphertext: 0
Decipheredtext:           00000000000000000000000000000000
RESULT CIPHER-DECIPHER: -----OK-----


Test: 120
Hash algorithm:       4
Sector size in bytes: 32768
Data unit:   0
Start block: 0
Symmetric key bit length: 256
Plaintext bit length:     128
Symmetric key:            0000000000000000000000000000000000000000000000000000000000000080
Plaintext:                00000000000000000000000000000000
Ciphertext:               1473a9b6914a457ab1250b41a9c89a0def9a52791acb3a09e5758b57a0c0e3ce02c8e914736f1be97c43ded9344f478f4f6e3821a21f31a155cf3b2fa4c3775ff31b496c982c79984fbb78880571e586
Reciphers for ciphertext: 0
Decipheredtext:           00000000000000000000000000000000
RESULT CIPHER-DECIPHER: -----OK-----


Test: 121
Hash algorithm:       5
Sector size in bytes: 32768
Data unit:   0
Start block: 0
Symmetric key bit length: 256
Plaintext bit length:     128
Symmetric key:            0000000000000000000000000000000000000000000000000000000000000040
Plaintext:                00000000000000000000000000000000
Ciphertext:               fead16c683397ecdb22887cb3eb92fc357cb60f2f71a5395af4d8f379bdff7735f3e4105eda0752221aabe71
Reciphers for ciphertext: 0
Decipheredtext:           00000000000000000000000000000000
RESULT CIPHER-DECIPHER: -----OK-----


Test: 122
Hash algorithm:       10
Sector size in bytes: 32768
Data unit:   0
Start block: 0
Symmetric key bit length: 256
Plaintext bit length:     128
Symmetric key:            0000000000000000000000000000000000000000000000000000000000000020
Plaintext:                00000000000000000000000000000000
Ciphertext:               a5f0cbff6900a1eb0e802cf6e0a381d25b83bc41094001bd913dcd428c1259e57fe9e2afea560a3fcc55b759987de87b6980ac20a068296d
Reciphers for ciphertext: 0
Decipheredtext:           00000000000000000000000000000000
RESULT CIPHER-DECIPHER: -----OK-----


Test: 123
Hash algorithm:       5
Sector size in bytes: 32768
Data unit:   0
Start block: 0
Symmetric key bit length: 256
Plaintext bit length:     128
Symmetric key:            0000000000000000000000000000000000000000000000000000000000000010
Plaintext:                00000000000000000000000000000000
Ciphertext:               8af4d852ab9a2519225348ea0520f5ad0331d009c61ec64993fb135093bdb2c546fb0115528ff47ab98d2fc7
Reciphers for ciphertext: 0
Decipheredtext:           00000000000000000000000000000000
RESULT CIPHER-DECIPHER: -----OK-----


Test: 124
Hash algorithm:       1
Sector size in bytes: 32768
Data unit:   0
Start block: 0
Symmetric key bit length: 256
Plaintext bit length:     128
Symmetric key:            0000000000000000000000000000000000000000000000000000000000000008
Plaintext:                00000000000000000000000000000000
Ciphertext:               1f755190735709e845b8ac557de890172e4913f38d25183d8e12393d4606e2651ff8ad0d9e02975e5b3cb4f3
Reciphers for ciphertext: 0
Decipheredtext:           00000000000000000000000000000000
RESULT CIPHER-DECIPHER: -----OK-----


Test: 125
Hash algorithm:       13
Sector size in bytes: 32768
Data unit:   0
Start block: 0
Symmetric key bit length: 256
Plaintext bit length:     128
Symmetric key:            0000000000000000000000000000000000000000000000000000000000000004
Plaintext:                00000000000000000000000000000000
Ciphertext:               0734ec4f888b1027c4d482228dca2fd60bc936eada89ace7dffd4d351f8b5797
Reciphers for ciphertext: 0
Decipheredtext:           00000000000000000000000000000000
RESULT CIPHER-DECIPHER: -----OK-----


Test: 126
Hash algorithm:       2
Sector size in bytes: 32768
Data unit:   0
Start block: 0
Symmetric key bit length: 256
Plaintext bit length:     128
Symmetric key:            0000000000000000000000000000000000000000000000000000000000000002
Plaintext:                00000000000000000000000000000000
Ciphertext:               2b4a17c5813450e51be383ee40144339c77e9b69dd07bcf4c1462704332d32ef57f2927afa157577a3f47e6d45c8d45a
Reciphers for ciphertext: 0
Decipheredtext:           00000000000000000000000000000000
RESULT CIPHER-DECIPHER: -----OK-----


Test: 127
Hash algorithm:       4
Sector size in bytes: 32768
Data unit:   0
Start block: 0
Symmetric key bit length: 256
Plaintext bit length:     128
Symmetric key:            0000000000000000000000000000000000000000000000000000000000000001
Plaintext:                00000000000000000000000000000000
Ciphertext:               96ee9269e9d8302869d339a018db5f566a317ca090768425f9c7cb89301381f594bacb9d39c780a29f92bf3e7fc2593ffc1806803625f48ac9321e0814e9b1b137d739d1746a973c41189e2b018b2fdc
Reciphers for ciphertext: 0
Decipheredtext:           00000000000000000000000000000000
RESULT CIPHER-DECIPHER: -----OK-----


 DATA SHA1 (hexadecimal): ba9793ab2e9126307e99407cb8a40cc1a101351c

