
DiceLock 9.0.0.1

 TEST COMPONENTS:
 ----------------
 DiceLock:           DiceLockXTSDigested class
                     Operating over full text length
 Operation Mode:     XTS_Mode class
 Block Cipher:       Camellia128 class
 Hash algorithms:     0 - Sha1 class
                      1 - Sha224 class
                      2 - Sha256 class
                      3 - Sha384 class
                      4 - Sha512 class
                      5 - Sha512_224 class
                      6 - Sha512_256 class
                      7 - Ripemd128 class
                      8 - Ripemd160 class
                      9 - Ripemd256 class
                     10 - Ripemd320 class
                     11 - MD2 class
                     12 - MD4 class
                     13 - MD5 class
 Key Modifier:       IncreaseKeyModifier_6_0_0_1 class
 Random tests:       RandomTestSuite class
                     FrequencyTest class
                     BlockFrequencyTest class
                     CumulativeSumForwardTest class
                     LongestRunOfOnesTest class
                     RunsTest class
 Random alpha:       0.001

 VECTOR TEST: Test vector 6 - Plaintext lengths from 1 byte to 16 bytes with byte value 0xYY and symmetric key all byte value 0x00


##### INDIVIDUAL TESTS #####

Number tests: 128


Test: 0
Hash algorithm: 13
Data unit:      0
Start block:    1
Symmetric key bit length: 256
Plaintext bit length:     8
Symmetric key:            0000000000000000000000000000000000000000000000000000000000000000
Plaintext:                00
Ciphertext:               847c63f1f5d65ba01eac3b4b8baa70ec38
Reciphers for ciphertext: 0
Decipheredtext:           00
RESULT CIPHER-DECIPHER: -----OK-----


Test: 1
Hash algorithm: 4
Data unit:      1
Start block:    3
Symmetric key bit length: 256
Plaintext bit length:     8
Symmetric key:            0000000000000000000000000000000000000000000000000000000000000000
Plaintext:                01
Ciphertext:               45760ba357b8861df1379b0f42d277d1dbad6f8a492628a505d514748382099ad88307689c156cda84c3fe68de8d22e64ce2f9e0a844554c8e6bc879a1a421acfe
Reciphers for ciphertext: 0
Decipheredtext:           01
RESULT CIPHER-DECIPHER: -----OK-----


Test: 2
Hash algorithm: 11
Data unit:      2
Start block:    5
Symmetric key bit length: 256
Plaintext bit length:     8
Symmetric key:            0000000000000000000000000000000000000000000000000000000000000000
Plaintext:                02
Ciphertext:               25cf962d2505995417cf84ff4859457127
Reciphers for ciphertext: 0
Decipheredtext:           02
RESULT CIPHER-DECIPHER: -----OK-----


Test: 3
Hash algorithm: 9
Data unit:      3
Start block:    7
Symmetric key bit length: 256
Plaintext bit length:     8
Symmetric key:            0000000000000000000000000000000000000000000000000000000000000000
Plaintext:                03
Ciphertext:               17f3bfb7ba88f128b44766e2d553e047f8e4964555ac7d9e7d6289557a6faef21f
Reciphers for ciphertext: 0
Decipheredtext:           03
RESULT CIPHER-DECIPHER: -----OK-----


Test: 4
Hash algorithm: 5
Data unit:      4
Start block:    9
Symmetric key bit length: 256
Plaintext bit length:     8
Symmetric key:            0000000000000000000000000000000000000000000000000000000000000000
Plaintext:                04
Ciphertext:               63adea5679a68657f186ec92a8218ccfa9eb7a9538b02c7f1e0cdbfd44
Reciphers for ciphertext: 0
Decipheredtext:           04
RESULT CIPHER-DECIPHER: -----OK-----


Test: 5
Hash algorithm: 10
Data unit:      5
Start block:    11
Symmetric key bit length: 256
Plaintext bit length:     8
Symmetric key:            0000000000000000000000000000000000000000000000000000000000000000
Plaintext:                05
Ciphertext:               a96b5b85f19447e306ee1dfe43060303c0af218c69c164e6e8db187bb8746e3751595190b426b675ae
Reciphers for ciphertext: 0
Decipheredtext:           05
RESULT CIPHER-DECIPHER: -----OK-----


Test: 6
Hash algorithm: 10
Data unit:      6
Start block:    13
Symmetric key bit length: 256
Plaintext bit length:     8
Symmetric key:            0000000000000000000000000000000000000000000000000000000000000000
Plaintext:                06
Ciphertext:               59b983ef84437ed5f93bcac9f0a0c7bba10c65354d74a574a8f80424232cc0ffde74d2d1f815237bd5
Reciphers for ciphertext: 0
Decipheredtext:           06
RESULT CIPHER-DECIPHER: -----OK-----


Test: 7
Hash algorithm: 10
Data unit:      7
Start block:    15
Symmetric key bit length: 256
Plaintext bit length:     8
Symmetric key:            0000000000000000000000000000000000000000000000000000000000000000
Plaintext:                07
Ciphertext:               70d5d8f559e6b2672aef35ab1cd4d7e409b8d2d753654f3a2245db162ff862924369f210e181fa47bd
Reciphers for ciphertext: 0
Decipheredtext:           07
RESULT CIPHER-DECIPHER: -----OK-----


Test: 8
Hash algorithm: 13
Data unit:      8
Start block:    17
Symmetric key bit length: 256
Plaintext bit length:     16
Symmetric key:            0000000000000000000000000000000000000000000000000000000000000000
Plaintext:                0808
Ciphertext:               27689c922019e039ffd4cdfd3187c878e32d
Reciphers for ciphertext: 0
Decipheredtext:           0808
RESULT CIPHER-DECIPHER: -----OK-----


Test: 9
Hash algorithm: 5
Data unit:      9
Start block:    19
Symmetric key bit length: 256
Plaintext bit length:     16
Symmetric key:            0000000000000000000000000000000000000000000000000000000000000000
Plaintext:                0909
Ciphertext:               3988ce59fd0830e4f56541c41bf56fe540e2c10afc39b3ac0314e7d218b6
Reciphers for ciphertext: 0
Decipheredtext:           0909
RESULT CIPHER-DECIPHER: -----OK-----


Test: 10
Hash algorithm: 10
Data unit:      10
Start block:    21
Symmetric key bit length: 256
Plaintext bit length:     16
Symmetric key:            0000000000000000000000000000000000000000000000000000000000000000
Plaintext:                0a0a
Ciphertext:               55a30b632f63474f4fa2ab68b863c9a4541bf4fb05f971bfba0428ff48a6ae5d9083aa216bda8bd20c9d
Reciphers for ciphertext: 0
Decipheredtext:           0a0a
RESULT CIPHER-DECIPHER: -----OK-----


Test: 11
Hash algorithm: 8
Data unit:      11
Start block:    23
Symmetric key bit length: 256
Plaintext bit length:     16
Symmetric key:            0000000000000000000000000000000000000000000000000000000000000000
Plaintext:                0b0b
Ciphertext:               89eea4711f7dd350d915ee8bc9cbab0c8ab4ced3735e
Reciphers for ciphertext: 0
Decipheredtext:           0b0b
RESULT CIPHER-DECIPHER: -----OK-----


Test: 12
Hash algorithm: 1
Data unit:      12
Start block:    25
Symmetric key bit length: 256
Plaintext bit length:     16
Symmetric key:            0000000000000000000000000000000000000000000000000000000000000000
Plaintext:                0c0c
Ciphertext:               8da547fc54b869c0f9352faaf916cc06fd2ad8cba91e9207e9fdc129ff90
Reciphers for ciphertext: 0
Decipheredtext:           0c0c
RESULT CIPHER-DECIPHER: -----OK-----


Test: 13
Hash algorithm: 12
Data unit:      13
Start block:    27
Symmetric key bit length: 256
Plaintext bit length:     16
Symmetric key:            0000000000000000000000000000000000000000000000000000000000000000
Plaintext:                0d0d
Ciphertext:               cdbf40696a020cbd6158148d4a8a8926070b
Reciphers for ciphertext: 0
Decipheredtext:           0d0d
RESULT CIPHER-DECIPHER: -----OK-----


Test: 14
Hash algorithm: 10
Data unit:      14
Start block:    29
Symmetric key bit length: 256
Plaintext bit length:     16
Symmetric key:            0000000000000000000000000000000000000000000000000000000000000000
Plaintext:                0e0e
Ciphertext:               94d68f4aa08391c3953347785c2b389a3649bdd7a5f37a38065db87b807c974cee2984b3af8b0fa83174
Reciphers for ciphertext: 0
Decipheredtext:           0e0e
RESULT CIPHER-DECIPHER: -----OK-----


Test: 15
Hash algorithm: 12
Data unit:      15
Start block:    31
Symmetric key bit length: 256
Plaintext bit length:     16
Symmetric key:            0000000000000000000000000000000000000000000000000000000000000000
Plaintext:                0f0f
Ciphertext:               34f3b1a1c26c1a221658f3424f9feb97c435
Reciphers for ciphertext: 0
Decipheredtext:           0f0f
RESULT CIPHER-DECIPHER: -----OK-----


Test: 16
Hash algorithm: 6
Data unit:      16
Start block:    33
Symmetric key bit length: 256
Plaintext bit length:     24
Symmetric key:            0000000000000000000000000000000000000000000000000000000000000000
Plaintext:                101010
Ciphertext:               d36ed68b60c40e08716cce9dc64bd5b81a63bb2146838ac2e05a9e1fa5cd42e8536b84
Reciphers for ciphertext: 0
Decipheredtext:           101010
RESULT CIPHER-DECIPHER: -----OK-----


Test: 17
Hash algorithm: 1
Data unit:      17
Start block:    35
Symmetric key bit length: 256
Plaintext bit length:     24
Symmetric key:            0000000000000000000000000000000000000000000000000000000000000000
Plaintext:                111111
Ciphertext:               e423d4305f574cd32a89fd770c1da678fd0a750d651cf2661360f25505afec
Reciphers for ciphertext: 0
Decipheredtext:           111111
RESULT CIPHER-DECIPHER: -----OK-----


Test: 18
Hash algorithm: 4
Data unit:      18
Start block:    37
Symmetric key bit length: 256
Plaintext bit length:     24
Symmetric key:            0000000000000000000000000000000000000000000000000000000000000000
Plaintext:                121212
Ciphertext:               0f2ad35e4709742b8651d4570c0a6216616adba13fbbccaadeb2ccea08340ebf61acd6ae77c8fe28a3ddfc3bd9f4bcfd43ffd9baefa06226c310a0a7b3b042bebfa776
Reciphers for ciphertext: 0
Decipheredtext:           121212
RESULT CIPHER-DECIPHER: -----OK-----


Test: 19
Hash algorithm: 3
Data unit:      19
Start block:    39
Symmetric key bit length: 256
Plaintext bit length:     24
Symmetric key:            0000000000000000000000000000000000000000000000000000000000000000
Plaintext:                131313
Ciphertext:               19c36a5d0e574a9cb8246ad9d41ed28c83a1dab5af20160e1e9c4f9e38e95f266c1f764f44d468c0399a8b9964745d9778fdee
Reciphers for ciphertext: 0
Decipheredtext:           131313
RESULT CIPHER-DECIPHER: -----OK-----


Test: 20
Hash algorithm: 3
Data unit:      20
Start block:    41
Symmetric key bit length: 256
Plaintext bit length:     24
Symmetric key:            0000000000000000000000000000000000000000000000000000000000000000
Plaintext:                141414
Ciphertext:               119e6055dad8e7865236629459f6819e287c9ffa88c7eb21670030598518a7510507050bcc0c9df19acc0c58460ec05a384f7d
Reciphers for ciphertext: 0
Decipheredtext:           141414
RESULT CIPHER-DECIPHER: -----OK-----


Test: 21
Hash algorithm: 2
Data unit:      21
Start block:    43
Symmetric key bit length: 256
Plaintext bit length:     24
Symmetric key:            0000000000000000000000000000000000000000000000000000000000000000
Plaintext:                151515
Ciphertext:               54dabb537ca9097bccba4eb3b2d1c806463dba49ea50434e92c9ec7e3765fedf35a063
Reciphers for ciphertext: 0
Decipheredtext:           151515
RESULT CIPHER-DECIPHER: -----OK-----


Test: 22
Hash algorithm: 5
Data unit:      22
Start block:    45
Symmetric key bit length: 256
Plaintext bit length:     24
Symmetric key:            0000000000000000000000000000000000000000000000000000000000000000
Plaintext:                161616
Ciphertext:               66dbc4caeef15ce04a1448a0fa0f62639b4746450f27a0061b5e717afe5108
Reciphers for ciphertext: 0
Decipheredtext:           161616
RESULT CIPHER-DECIPHER: -----OK-----


Test: 23
Hash algorithm: 8
Data unit:      23
Start block:    47
Symmetric key bit length: 256
Plaintext bit length:     24
Symmetric key:            0000000000000000000000000000000000000000000000000000000000000000
Plaintext:                171717
Ciphertext:               80ed3d1cb5a1c569ecd67a904cfd3ede2b2e4ad4b7fb33
Reciphers for ciphertext: 0
Decipheredtext:           171717
RESULT CIPHER-DECIPHER: -----OK-----


Test: 24
Hash algorithm: 13
Data unit:      24
Start block:    49
Symmetric key bit length: 256
Plaintext bit length:     32
Symmetric key:            0000000000000000000000000000000000000000000000000000000000000000
Plaintext:                18181818
Ciphertext:               3613de1888a206a267cabd0af116ea8d83ee116b
Reciphers for ciphertext: 0
Decipheredtext:           18181818
RESULT CIPHER-DECIPHER: -----OK-----


Test: 25
Hash algorithm: 12
Data unit:      25
Start block:    51
Symmetric key bit length: 256
Plaintext bit length:     32
Symmetric key:            0000000000000000000000000000000000000000000000000000000000000000
Plaintext:                19191919
Ciphertext:               2016e01db24501c7368a7fdcacd681d2281a6205
Reciphers for ciphertext: 0
Decipheredtext:           19191919
RESULT CIPHER-DECIPHER: -----OK-----


Test: 26
Hash algorithm: 5
Data unit:      26
Start block:    53
Symmetric key bit length: 256
Plaintext bit length:     32
Symmetric key:            0000000000000000000000000000000000000000000000000000000000000000
Plaintext:                1a1a1a1a
Ciphertext:               edbd06cde3c878c54c9dc232bb7085dc911ac56408bb86fcfeac4cc3aad582c4
Reciphers for ciphertext: 0
Decipheredtext:           1a1a1a1a
RESULT CIPHER-DECIPHER: -----OK-----


Test: 27
Hash algorithm: 1
Data unit:      27
Start block:    55
Symmetric key bit length: 256
Plaintext bit length:     32
Symmetric key:            0000000000000000000000000000000000000000000000000000000000000000
Plaintext:                1b1b1b1b
Ciphertext:               831e48eeb5bef240d943e293a51cb3e0293bc85dc08a9926f89d3ece4330a588
Reciphers for ciphertext: 0
Decipheredtext:           1b1b1b1b
RESULT CIPHER-DECIPHER: -----OK-----


Test: 28
Hash algorithm: 6
Data unit:      28
Start block:    57
Symmetric key bit length: 256
Plaintext bit length:     32
Symmetric key:            0000000000000000000000000000000000000000000000000000000000000000
Plaintext:                1c1c1c1c
Ciphertext:               616d2a9b189a5626470ee4777e02ade575a8ec96bf2db755131ca08a5670a43726c99cf6
Reciphers for ciphertext: 0
Decipheredtext:           1c1c1c1c
RESULT CIPHER-DECIPHER: -----OK-----


Test: 29
Hash algorithm: 10
Data unit:      29
Start block:    59
Symmetric key bit length: 256
Plaintext bit length:     32
Symmetric key:            0000000000000000000000000000000000000000000000000000000000000000
Plaintext:                1d1d1d1d
Ciphertext:               a3597e158f52d411e05b80d01b0ec5071cf2365779a0146c91fa8b05bfdff9acf6bc3933ab4dd0c9559a745f
Reciphers for ciphertext: 0
Decipheredtext:           1d1d1d1d
RESULT CIPHER-DECIPHER: -----OK-----


Test: 30
Hash algorithm: 9
Data unit:      30
Start block:    61
Symmetric key bit length: 256
Plaintext bit length:     32
Symmetric key:            0000000000000000000000000000000000000000000000000000000000000000
Plaintext:                1e1e1e1e
Ciphertext:               3865455eeafa94f5a1a7fdcc0e4ef4292b22de0ec69eb93ef164c7dc8d05c49aec0e544f
Reciphers for ciphertext: 0
Decipheredtext:           1e1e1e1e
RESULT CIPHER-DECIPHER: -----OK-----


Test: 31
Hash algorithm: 7
Data unit:      31
Start block:    63
Symmetric key bit length: 256
Plaintext bit length:     32
Symmetric key:            0000000000000000000000000000000000000000000000000000000000000000
Plaintext:                1f1f1f1f
Ciphertext:               a36290537013da2ff229d559db0fd8b372529326
Reciphers for ciphertext: 0
Decipheredtext:           1f1f1f1f
RESULT CIPHER-DECIPHER: -----OK-----


Test: 32
Hash algorithm: 6
Data unit:      32
Start block:    65
Symmetric key bit length: 256
Plaintext bit length:     40
Symmetric key:            0000000000000000000000000000000000000000000000000000000000000000
Plaintext:                2020202020
Ciphertext:               eb0c86e6053309b96852eb743bf7854207b3387deae0b18973f9111d777eaee9951b98dc9e
Reciphers for ciphertext: 0
Decipheredtext:           2020202020
RESULT CIPHER-DECIPHER: -----OK-----


Test: 33
Hash algorithm: 9
Data unit:      33
Start block:    67
Symmetric key bit length: 256
Plaintext bit length:     40
Symmetric key:            0000000000000000000000000000000000000000000000000000000000000000
Plaintext:                2121212121
Ciphertext:               ffbdf50900d40260be86d4218dfd2ba3758e96c2e42eba6bf660b32285395ae642a81cade2
Reciphers for ciphertext: 0
Decipheredtext:           2121212121
RESULT CIPHER-DECIPHER: -----OK-----


Test: 34
Hash algorithm: 5
Data unit:      34
Start block:    69
Symmetric key bit length: 256
Plaintext bit length:     40
Symmetric key:            0000000000000000000000000000000000000000000000000000000000000000
Plaintext:                2222222222
Ciphertext:               cb5d7ce2847f50bf3f5b1d4430c5da7110296e8718f70f077ca7919dcb56df38b0
Reciphers for ciphertext: 0
Decipheredtext:           2222222222
RESULT CIPHER-DECIPHER: -----OK-----


Test: 35
Hash algorithm: 5
Data unit:      35
Start block:    71
Symmetric key bit length: 256
Plaintext bit length:     40
Symmetric key:            0000000000000000000000000000000000000000000000000000000000000000
Plaintext:                2323232323
Ciphertext:               ab21d7de678b81c26c3f34d3abec8bc386b2c2ce30d874f0cd35979dadf369b8a8
Reciphers for ciphertext: 0
Decipheredtext:           2323232323
RESULT CIPHER-DECIPHER: -----OK-----


Test: 36
Hash algorithm: 9
Data unit:      36
Start block:    73
Symmetric key bit length: 256
Plaintext bit length:     40
Symmetric key:            0000000000000000000000000000000000000000000000000000000000000000
Plaintext:                2424242424
Ciphertext:               a892427f51a9df0641b0235a83fe11998df4ec5974b97834ae0997da5f49e4b4dc3bd96648
Reciphers for ciphertext: 0
Decipheredtext:           2424242424
RESULT CIPHER-DECIPHER: -----OK-----


Test: 37
Hash algorithm: 4
Data unit:      37
Start block:    75
Symmetric key bit length: 256
Plaintext bit length:     40
Symmetric key:            0000000000000000000000000000000000000000000000000000000000000000
Plaintext:                2525252525
Ciphertext:               a64c63659217d215c5955c1ee61129207c587f09768f0ab385e5658cee89f4d52c9938343f4a3aa0bf30e5e8622571b1d64701bd74d9410967e2202ae0e45d1b21a1fc1b48
Reciphers for ciphertext: 0
Decipheredtext:           2525252525
RESULT CIPHER-DECIPHER: -----OK-----


Test: 38
Hash algorithm: 2
Data unit:      38
Start block:    77
Symmetric key bit length: 256
Plaintext bit length:     40
Symmetric key:            0000000000000000000000000000000000000000000000000000000000000000
Plaintext:                2626262626
Ciphertext:               0e3643b5366483a3eb2918055ffac987f4b1ecbce1caeed702554d123beaa4a891dd90dd11
Reciphers for ciphertext: 0
Decipheredtext:           2626262626
RESULT CIPHER-DECIPHER: -----OK-----


Test: 39
Hash algorithm: 3
Data unit:      39
Start block:    79
Symmetric key bit length: 256
Plaintext bit length:     40
Symmetric key:            0000000000000000000000000000000000000000000000000000000000000000
Plaintext:                2727272727
Ciphertext:               873101054be7547d000c4c1b70190c35bb75bf858ed48dcd38b9cad68510804f70a926936ea7864ebb2a8fbbf7872be842fe95d08f
Reciphers for ciphertext: 0
Decipheredtext:           2727272727
RESULT CIPHER-DECIPHER: -----OK-----


Test: 40
Hash algorithm: 7
Data unit:      40
Start block:    81
Symmetric key bit length: 256
Plaintext bit length:     48
Symmetric key:            0000000000000000000000000000000000000000000000000000000000000000
Plaintext:                282828282828
Ciphertext:               b40cb08aaab7f2cd80490fe4bff6386d2482103df184
Reciphers for ciphertext: 0
Decipheredtext:           282828282828
RESULT CIPHER-DECIPHER: -----OK-----


Test: 41
Hash algorithm: 13
Data unit:      41
Start block:    83
Symmetric key bit length: 256
Plaintext bit length:     48
Symmetric key:            0000000000000000000000000000000000000000000000000000000000000000
Plaintext:                292929292929
Ciphertext:               81c57aec13cfaaad1a2f22761014f782e0e682c6f8c4
Reciphers for ciphertext: 0
Decipheredtext:           292929292929
RESULT CIPHER-DECIPHER: -----OK-----


Test: 42
Hash algorithm: 0
Data unit:      42
Start block:    85
Symmetric key bit length: 256
Plaintext bit length:     48
Symmetric key:            0000000000000000000000000000000000000000000000000000000000000000
Plaintext:                2a2a2a2a2a2a
Ciphertext:               0ac2d19e78d16a6a3a21075c4703cc23e495230264cc27a95dd1
Reciphers for ciphertext: 0
Decipheredtext:           2a2a2a2a2a2a
RESULT CIPHER-DECIPHER: -----OK-----


Test: 43
Hash algorithm: 7
Data unit:      43
Start block:    87
Symmetric key bit length: 256
Plaintext bit length:     48
Symmetric key:            0000000000000000000000000000000000000000000000000000000000000000
Plaintext:                2b2b2b2b2b2b
Ciphertext:               1dc505b2b7a85b55484df737232fbdbd98a1c7e1d3b1
Reciphers for ciphertext: 0
Decipheredtext:           2b2b2b2b2b2b
RESULT CIPHER-DECIPHER: -----OK-----


Test: 44
Hash algorithm: 3
Data unit:      44
Start block:    89
Symmetric key bit length: 256
Plaintext bit length:     48
Symmetric key:            0000000000000000000000000000000000000000000000000000000000000000
Plaintext:                2c2c2c2c2c2c
Ciphertext:               070e60c569fac3967da5c60bc9f39632da0c3336c97ac8840e7e841a227b736f2a63303c9587669baed4c4043ecc04f6c899b3599ae2
Reciphers for ciphertext: 0
Decipheredtext:           2c2c2c2c2c2c
RESULT CIPHER-DECIPHER: -----OK-----


Test: 45
Hash algorithm: 11
Data unit:      45
Start block:    91
Symmetric key bit length: 256
Plaintext bit length:     48
Symmetric key:            0000000000000000000000000000000000000000000000000000000000000000
Plaintext:                2d2d2d2d2d2d
Ciphertext:               e8cecf4970bc021e14f3a424ecce06900de2bc1fa670
Reciphers for ciphertext: 0
Decipheredtext:           2d2d2d2d2d2d
RESULT CIPHER-DECIPHER: -----OK-----


Test: 46
Hash algorithm: 0
Data unit:      46
Start block:    93
Symmetric key bit length: 256
Plaintext bit length:     48
Symmetric key:            0000000000000000000000000000000000000000000000000000000000000000
Plaintext:                2e2e2e2e2e2e
Ciphertext:               42b36a6a0545cff1878df588775603062e89eec8bc18cb21d3f5
Reciphers for ciphertext: 0
Decipheredtext:           2e2e2e2e2e2e
RESULT CIPHER-DECIPHER: -----OK-----


Test: 47
Hash algorithm: 6
Data unit:      47
Start block:    95
Symmetric key bit length: 256
Plaintext bit length:     48
Symmetric key:            0000000000000000000000000000000000000000000000000000000000000000
Plaintext:                2f2f2f2f2f2f
Ciphertext:               97bf8c7f57fe28e8a3c93298e20a4074c664de4fb0a4ea1c3c8b4793d190cb87394b7b296e02
Reciphers for ciphertext: 0
Decipheredtext:           2f2f2f2f2f2f
RESULT CIPHER-DECIPHER: -----OK-----


Test: 48
Hash algorithm: 6
Data unit:      48
Start block:    97
Symmetric key bit length: 256
Plaintext bit length:     56
Symmetric key:            0000000000000000000000000000000000000000000000000000000000000000
Plaintext:                30303030303030
Ciphertext:               f9d7868cabbd48ac5877c6432c7ad66d207ba0214eaf9dbcc9b549eb7cb2d272345918127d37ae
Reciphers for ciphertext: 0
Decipheredtext:           30303030303030
RESULT CIPHER-DECIPHER: -----OK-----


Test: 49
Hash algorithm: 12
Data unit:      49
Start block:    99
Symmetric key bit length: 256
Plaintext bit length:     56
Symmetric key:            0000000000000000000000000000000000000000000000000000000000000000
Plaintext:                31313131313131
Ciphertext:               44bd39aa08c340c6f11e11f978b39bdcf2309a0c7831eb
Reciphers for ciphertext: 0
Decipheredtext:           31313131313131
RESULT CIPHER-DECIPHER: -----OK-----


Test: 50
Hash algorithm: 12
Data unit:      50
Start block:    101
Symmetric key bit length: 256
Plaintext bit length:     56
Symmetric key:            0000000000000000000000000000000000000000000000000000000000000000
Plaintext:                32323232323232
Ciphertext:               3648d8ab8dcf40e456e20faaf40563d8ad44534024c62d
Reciphers for ciphertext: 0
Decipheredtext:           32323232323232
RESULT CIPHER-DECIPHER: -----OK-----


Test: 51
Hash algorithm: 5
Data unit:      51
Start block:    103
Symmetric key bit length: 256
Plaintext bit length:     56
Symmetric key:            0000000000000000000000000000000000000000000000000000000000000000
Plaintext:                33333333333333
Ciphertext:               203d985e02ea2199517e22561edf796c2734dacb2133c7176c8bdce003beb53334ee25
Reciphers for ciphertext: 0
Decipheredtext:           33333333333333
RESULT CIPHER-DECIPHER: -----OK-----


Test: 52
Hash algorithm: 8
Data unit:      52
Start block:    105
Symmetric key bit length: 256
Plaintext bit length:     56
Symmetric key:            0000000000000000000000000000000000000000000000000000000000000000
Plaintext:                34343434343434
Ciphertext:               c0379f5c1d684700140b59eaebfbe7571cc395bb4f7b5d35ce675e
Reciphers for ciphertext: 0
Decipheredtext:           34343434343434
RESULT CIPHER-DECIPHER: -----OK-----


Test: 53
Hash algorithm: 11
Data unit:      53
Start block:    107
Symmetric key bit length: 256
Plaintext bit length:     56
Symmetric key:            0000000000000000000000000000000000000000000000000000000000000000
Plaintext:                35353535353535
Ciphertext:               a01c6d3f9b904c1429afbf62b5fd2e19b9364eaa5234dc
Reciphers for ciphertext: 0
Decipheredtext:           35353535353535
RESULT CIPHER-DECIPHER: -----OK-----


Test: 54
Hash algorithm: 2
Data unit:      54
Start block:    109
Symmetric key bit length: 256
Plaintext bit length:     56
Symmetric key:            0000000000000000000000000000000000000000000000000000000000000000
Plaintext:                36363636363636
Ciphertext:               490f79c4e4b872cc07d382b5e6e936a0fb4909b7b8b4db40e1f80c9b810aba72dbd3cfcc372822
Reciphers for ciphertext: 0
Decipheredtext:           36363636363636
RESULT CIPHER-DECIPHER: -----OK-----


Test: 55
Hash algorithm: 8
Data unit:      55
Start block:    111
Symmetric key bit length: 256
Plaintext bit length:     56
Symmetric key:            0000000000000000000000000000000000000000000000000000000000000000
Plaintext:                37373737373737
Ciphertext:               bd8b2d10926e601346e1fa70b9f0fbe40fd5d4ca5c2a107c421308
Reciphers for ciphertext: 0
Decipheredtext:           37373737373737
RESULT CIPHER-DECIPHER: -----OK-----


Test: 56
Hash algorithm: 1
Data unit:      56
Start block:    113
Symmetric key bit length: 256
Plaintext bit length:     64
Symmetric key:            0000000000000000000000000000000000000000000000000000000000000000
Plaintext:                3838383838383838
Ciphertext:               9af8a3e0bc9d0ee718f51adebc3a2d0451b8892773c71d1e259d083f4b74189a4659f58a
Reciphers for ciphertext: 0
Decipheredtext:           3838383838383838
RESULT CIPHER-DECIPHER: -----OK-----


Test: 57
Hash algorithm: 9
Data unit:      57
Start block:    115
Symmetric key bit length: 256
Plaintext bit length:     64
Symmetric key:            0000000000000000000000000000000000000000000000000000000000000000
Plaintext:                3939393939393939
Ciphertext:               e396f38ef83229315d33934715eaf1f240569a8fba3024c94b29d6305c7f730a0c13ffa7cf2bc93c
Reciphers for ciphertext: 0
Decipheredtext:           3939393939393939
RESULT CIPHER-DECIPHER: -----OK-----


Test: 58
Hash algorithm: 3
Data unit:      58
Start block:    117
Symmetric key bit length: 256
Plaintext bit length:     64
Symmetric key:            0000000000000000000000000000000000000000000000000000000000000000
Plaintext:                3a3a3a3a3a3a3a3a
Ciphertext:               ee2066e2ad48f8710f9c2e204bce6d30e00cd80f60b44e59c92a4b5790d87662063934b5aae9fbf2cdcdc398c117a09043e1417ade4dd914
Reciphers for ciphertext: 0
Decipheredtext:           3a3a3a3a3a3a3a3a
RESULT CIPHER-DECIPHER: -----OK-----


Test: 59
Hash algorithm: 10
Data unit:      59
Start block:    119
Symmetric key bit length: 256
Plaintext bit length:     64
Symmetric key:            0000000000000000000000000000000000000000000000000000000000000000
Plaintext:                3b3b3b3b3b3b3b3b
Ciphertext:               eab3496db226410c398ad1d9d39f0ae25562935b565da2ab7650a6f4ebe2b4c9bee90b4ee846b3551e333e3e941ec78b
Reciphers for ciphertext: 0
Decipheredtext:           3b3b3b3b3b3b3b3b
RESULT CIPHER-DECIPHER: -----OK-----


Test: 60
Hash algorithm: 3
Data unit:      60
Start block:    121
Symmetric key bit length: 256
Plaintext bit length:     64
Symmetric key:            0000000000000000000000000000000000000000000000000000000000000000
Plaintext:                3c3c3c3c3c3c3c3c
Ciphertext:               2db788445971de4a2d5786737724093aa1730a27dbc7aded70bdd50f5aef0e3b4f6907a2f54067d9f5a3465fc1bc9e61b3acb7bbece4953d
Reciphers for ciphertext: 0
Decipheredtext:           3c3c3c3c3c3c3c3c
RESULT CIPHER-DECIPHER: -----OK-----


Test: 61
Hash algorithm: 7
Data unit:      61
Start block:    123
Symmetric key bit length: 256
Plaintext bit length:     64
Symmetric key:            0000000000000000000000000000000000000000000000000000000000000000
Plaintext:                3d3d3d3d3d3d3d3d
Ciphertext:               5d63702064400a33d2bf78eeb83875c2ff5d44ab5193466e
Reciphers for ciphertext: 0
Decipheredtext:           3d3d3d3d3d3d3d3d
RESULT CIPHER-DECIPHER: -----OK-----


Test: 62
Hash algorithm: 11
Data unit:      62
Start block:    125
Symmetric key bit length: 256
Plaintext bit length:     64
Symmetric key:            0000000000000000000000000000000000000000000000000000000000000000
Plaintext:                3e3e3e3e3e3e3e3e
Ciphertext:               9630d44636a2032085f19088f51defb0c19f7bd059b55b01
Reciphers for ciphertext: 0
Decipheredtext:           3e3e3e3e3e3e3e3e
RESULT CIPHER-DECIPHER: -----OK-----


Test: 63
Hash algorithm: 7
Data unit:      63
Start block:    127
Symmetric key bit length: 256
Plaintext bit length:     64
Symmetric key:            0000000000000000000000000000000000000000000000000000000000000000
Plaintext:                3f3f3f3f3f3f3f3f
Ciphertext:               4be23a5bda193db0f4b152e153805e619bbd09db41f0cf37
Reciphers for ciphertext: 0
Decipheredtext:           3f3f3f3f3f3f3f3f
RESULT CIPHER-DECIPHER: -----OK-----


Test: 64
Hash algorithm: 5
Data unit:      64
Start block:    129
Symmetric key bit length: 256
Plaintext bit length:     72
Symmetric key:            0000000000000000000000000000000000000000000000000000000000000000
Plaintext:                404040404040404040
Ciphertext:               636bd849dd4708e1e181049d3fba47fa9f499c4f06fcc87c334fcdb26a8266766dd3045fe4
Reciphers for ciphertext: 0
Decipheredtext:           404040404040404040
RESULT CIPHER-DECIPHER: -----OK-----


Test: 65
Hash algorithm: 8
Data unit:      65
Start block:    131
Symmetric key bit length: 256
Plaintext bit length:     72
Symmetric key:            0000000000000000000000000000000000000000000000000000000000000000
Plaintext:                414141414141414141
Ciphertext:               109584ff7026408a9dd868055422d16c67349f02b644ae47df5ef71999
Reciphers for ciphertext: 0
Decipheredtext:           414141414141414141
RESULT CIPHER-DECIPHER: -----OK-----


Test: 66
Hash algorithm: 9
Data unit:      66
Start block:    133
Symmetric key bit length: 256
Plaintext bit length:     72
Symmetric key:            0000000000000000000000000000000000000000000000000000000000000000
Plaintext:                424242424242424242
Ciphertext:               dca816804983003fc337a6dbf40e84f45a53863f757c7900366af7f7dda130bd2b2a76c3dcd8a5b08e
Reciphers for ciphertext: 0
Decipheredtext:           424242424242424242
RESULT CIPHER-DECIPHER: -----OK-----


Test: 67
Hash algorithm: 8
Data unit:      67
Start block:    135
Symmetric key bit length: 256
Plaintext bit length:     72
Symmetric key:            0000000000000000000000000000000000000000000000000000000000000000
Plaintext:                434343434343434343
Ciphertext:               62380d9209e6327c1ca2c358d0eb799563dacf708dfc95a24c00f6083f
Reciphers for ciphertext: 0
Decipheredtext:           434343434343434343
RESULT CIPHER-DECIPHER: -----OK-----


Test: 68
Hash algorithm: 1
Data unit:      68
Start block:    137
Symmetric key bit length: 256
Plaintext bit length:     72
Symmetric key:            0000000000000000000000000000000000000000000000000000000000000000
Plaintext:                444444444444444444
Ciphertext:               bc45901c3f94ac2b3029be972a2163c2bfc39b83aabfec573e8ead4366fc6f020d527c35f5
Reciphers for ciphertext: 0
Decipheredtext:           444444444444444444
RESULT CIPHER-DECIPHER: -----OK-----


Test: 69
Hash algorithm: 4
Data unit:      69
Start block:    139
Symmetric key bit length: 256
Plaintext bit length:     72
Symmetric key:            0000000000000000000000000000000000000000000000000000000000000000
Plaintext:                454545454545454545
Ciphertext:               b7fcc85b2ceb5e1250ae03482daf22feb2b080251de1b35719d7fc4a40fb383cf27aa1070925e9874c6b21b2bdbaf3ba7bc4a94b950dd1856433f16c88c263f25cb2f8083fad4f5043
Reciphers for ciphertext: 0
Decipheredtext:           454545454545454545
RESULT CIPHER-DECIPHER: -----OK-----


Test: 70
Hash algorithm: 13
Data unit:      70
Start block:    141
Symmetric key bit length: 256
Plaintext bit length:     72
Symmetric key:            0000000000000000000000000000000000000000000000000000000000000000
Plaintext:                464646464646464646
Ciphertext:               93fdcc2ed4184529110161112f2711e89c73e45a69833aebe7
Reciphers for ciphertext: 0
Decipheredtext:           464646464646464646
RESULT CIPHER-DECIPHER: -----OK-----


Test: 71
Hash algorithm: 0
Data unit:      71
Start block:    143
Symmetric key bit length: 256
Plaintext bit length:     72
Symmetric key:            0000000000000000000000000000000000000000000000000000000000000000
Plaintext:                474747474747474747
Ciphertext:               acc6476efae79e0e4deb0794e28796b14c0da7948226852a52edd65136
Reciphers for ciphertext: 0
Decipheredtext:           474747474747474747
RESULT CIPHER-DECIPHER: -----OK-----


Test: 72
Hash algorithm: 6
Data unit:      72
Start block:    145
Symmetric key bit length: 256
Plaintext bit length:     80
Symmetric key:            0000000000000000000000000000000000000000000000000000000000000000
Plaintext:                48484848484848484848
Ciphertext:               3d8107e05f92e39ab3c20035d312f066878c0c50a74412c6bb02e3a058e4431d783d72ef5a781384eff8
Reciphers for ciphertext: 0
Decipheredtext:           48484848484848484848
RESULT CIPHER-DECIPHER: -----OK-----


Test: 73
Hash algorithm: 1
Data unit:      73
Start block:    147
Symmetric key bit length: 256
Plaintext bit length:     80
Symmetric key:            0000000000000000000000000000000000000000000000000000000000000000
Plaintext:                49494949494949494949
Ciphertext:               d50be53e5bdfc43d94320edbdb7903c0f440c682e851734d53b947b3cd0d1a46b9f1cafd2762
Reciphers for ciphertext: 0
Decipheredtext:           49494949494949494949
RESULT CIPHER-DECIPHER: -----OK-----


Test: 74
Hash algorithm: 3
Data unit:      74
Start block:    149
Symmetric key bit length: 256
Plaintext bit length:     80
Symmetric key:            0000000000000000000000000000000000000000000000000000000000000000
Plaintext:                4a4a4a4a4a4a4a4a4a4a
Ciphertext:               2d37324a6ae5b1d89d72f7faae94372913eeebabe0a1121ab28653ba8bbe750495350b2636e79f4ac2c0d7931e876f92f506add5710b60c00886
Reciphers for ciphertext: 0
Decipheredtext:           4a4a4a4a4a4a4a4a4a4a
RESULT CIPHER-DECIPHER: -----OK-----


Test: 75
Hash algorithm: 5
Data unit:      75
Start block:    151
Symmetric key bit length: 256
Plaintext bit length:     80
Symmetric key:            0000000000000000000000000000000000000000000000000000000000000000
Plaintext:                4b4b4b4b4b4b4b4b4b4b
Ciphertext:               39d7a1109f1a9b895ff678cf9e8930289f64e1b02cc0af76d1ff3489cec4cd1a84de837de7f9
Reciphers for ciphertext: 0
Decipheredtext:           4b4b4b4b4b4b4b4b4b4b
RESULT CIPHER-DECIPHER: -----OK-----


Test: 76
Hash algorithm: 10
Data unit:      76
Start block:    153
Symmetric key bit length: 256
Plaintext bit length:     80
Symmetric key:            0000000000000000000000000000000000000000000000000000000000000000
Plaintext:                4c4c4c4c4c4c4c4c4c4c
Ciphertext:               efa70e29bf00d100fa5a7191a93c0fb75add16b207511d8ba18a152acd18eab1f42bd95c16f62dc627e4b2b7c78b82cf9fb5
Reciphers for ciphertext: 0
Decipheredtext:           4c4c4c4c4c4c4c4c4c4c
RESULT CIPHER-DECIPHER: -----OK-----


Test: 77
Hash algorithm: 7
Data unit:      77
Start block:    155
Symmetric key bit length: 256
Plaintext bit length:     80
Symmetric key:            0000000000000000000000000000000000000000000000000000000000000000
Plaintext:                4d4d4d4d4d4d4d4d4d4d
Ciphertext:               60aaea720043e5b70bd43b6f4c6ad1c4e72160a3e3a6d44e67f0
Reciphers for ciphertext: 0
Decipheredtext:           4d4d4d4d4d4d4d4d4d4d
RESULT CIPHER-DECIPHER: -----OK-----


Test: 78
Hash algorithm: 13
Data unit:      78
Start block:    157
Symmetric key bit length: 256
Plaintext bit length:     80
Symmetric key:            0000000000000000000000000000000000000000000000000000000000000000
Plaintext:                4e4e4e4e4e4e4e4e4e4e
Ciphertext:               8d99f576cb75cffbeec3bc5da473b3b0996382efe8f84d691003
Reciphers for ciphertext: 0
Decipheredtext:           4e4e4e4e4e4e4e4e4e4e
RESULT CIPHER-DECIPHER: -----OK-----


Test: 79
Hash algorithm: 9
Data unit:      79
Start block:    159
Symmetric key bit length: 256
Plaintext bit length:     80
Symmetric key:            0000000000000000000000000000000000000000000000000000000000000000
Plaintext:                4f4f4f4f4f4f4f4f4f4f
Ciphertext:               f3df3d49c1608a95fd3317b00e3c9cf0e3edc7b617a0fc2d68af5b1fea053e5df06d82fb0e166027e614
Reciphers for ciphertext: 0
Decipheredtext:           4f4f4f4f4f4f4f4f4f4f
RESULT CIPHER-DECIPHER: -----OK-----


Test: 80
Hash algorithm: 12
Data unit:      80
Start block:    161
Symmetric key bit length: 256
Plaintext bit length:     88
Symmetric key:            0000000000000000000000000000000000000000000000000000000000000000
Plaintext:                5050505050505050505050
Ciphertext:               8419bcf6996aea897655aebc722ef7f762dac3c230d553344cff90
Reciphers for ciphertext: 1
Decipheredtext:           5050505050505050505050
RESULT CIPHER-DECIPHER: -----OK-----


Test: 81
Hash algorithm: 5
Data unit:      81
Start block:    163
Symmetric key bit length: 256
Plaintext bit length:     88
Symmetric key:            0000000000000000000000000000000000000000000000000000000000000000
Plaintext:                5151515151515151515151
Ciphertext:               3896d866bcca75fc71b10608d74c9aa75b3a50ef47fef557a84918dbe3c4d580d2c130bd0d4486
Reciphers for ciphertext: 0
Decipheredtext:           5151515151515151515151
RESULT CIPHER-DECIPHER: -----OK-----


Test: 82
Hash algorithm: 6
Data unit:      82
Start block:    165
Symmetric key bit length: 256
Plaintext bit length:     88
Symmetric key:            0000000000000000000000000000000000000000000000000000000000000000
Plaintext:                5252525252525252525252
Ciphertext:               e5b064c36ae9ca4d3275c4b36b8dadb817ce9717f0d2be1651e3776d894baab7ae67fdf970c204e3383ca4
Reciphers for ciphertext: 0
Decipheredtext:           5252525252525252525252
RESULT CIPHER-DECIPHER: -----OK-----


Test: 83
Hash algorithm: 7
Data unit:      83
Start block:    167
Symmetric key bit length: 256
Plaintext bit length:     88
Symmetric key:            0000000000000000000000000000000000000000000000000000000000000000
Plaintext:                5353535353535353535353
Ciphertext:               ac1fcdf4561fbf26f7c62d4b69c10fb838c880b4c8b4ab118b08f4
Reciphers for ciphertext: 0
Decipheredtext:           5353535353535353535353
RESULT CIPHER-DECIPHER: -----OK-----


Test: 84
Hash algorithm: 9
Data unit:      84
Start block:    169
Symmetric key bit length: 256
Plaintext bit length:     88
Symmetric key:            0000000000000000000000000000000000000000000000000000000000000000
Plaintext:                5454545454545454545454
Ciphertext:               7f547a39ec4372a390f60b5b6a5cee9b80f6876b3bd1c477bc2e48f3fa6e02a111ecea896cc3b5cef3f651
Reciphers for ciphertext: 0
Decipheredtext:           5454545454545454545454
RESULT CIPHER-DECIPHER: -----OK-----


Test: 85
Hash algorithm: 4
Data unit:      85
Start block:    171
Symmetric key bit length: 256
Plaintext bit length:     88
Symmetric key:            0000000000000000000000000000000000000000000000000000000000000000
Plaintext:                5555555555555555555555
Ciphertext:               ad80595cbea712f3510ba10d352a58284baa7bab4849959e18ea4a7fbaab1cbabd80bfcd47fe4b461c7e147666c60f3f63a848e034307d865886b11070f39e2ab0de98a1551acd2080895f
Reciphers for ciphertext: 0
Decipheredtext:           5555555555555555555555
RESULT CIPHER-DECIPHER: -----OK-----


Test: 86
Hash algorithm: 13
Data unit:      86
Start block:    173
Symmetric key bit length: 256
Plaintext bit length:     88
Symmetric key:            0000000000000000000000000000000000000000000000000000000000000000
Plaintext:                5656565656565656565656
Ciphertext:               7c5fb7d51ebf0dce0c9287d92d9ff2964ecc8cefbb20c9d6b95c79
Reciphers for ciphertext: 0
Decipheredtext:           5656565656565656565656
RESULT CIPHER-DECIPHER: -----OK-----


Test: 87
Hash algorithm: 0
Data unit:      87
Start block:    175
Symmetric key bit length: 256
Plaintext bit length:     88
Symmetric key:            0000000000000000000000000000000000000000000000000000000000000000
Plaintext:                5757575757575757575757
Ciphertext:               1a60100b2a632b2ac5b33286d56dc638a390a0e96a7bbf0508db5123e5515e
Reciphers for ciphertext: 0
Decipheredtext:           5757575757575757575757
RESULT CIPHER-DECIPHER: -----OK-----


Test: 88
Hash algorithm: 6
Data unit:      88
Start block:    177
Symmetric key bit length: 256
Plaintext bit length:     96
Symmetric key:            0000000000000000000000000000000000000000000000000000000000000000
Plaintext:                585858585858585858585858
Ciphertext:               3ad9a3f8763afe5ad9f4e2ef638297a1a5c4e3f42b30059376b39400e1fd4512bcb8b3b5c3b703107f7018ed
Reciphers for ciphertext: 0
Decipheredtext:           585858585858585858585858
RESULT CIPHER-DECIPHER: -----OK-----


Test: 89
Hash algorithm: 13
Data unit:      89
Start block:    179
Symmetric key bit length: 256
Plaintext bit length:     96
Symmetric key:            0000000000000000000000000000000000000000000000000000000000000000
Plaintext:                595959595959595959595959
Ciphertext:               4c7d85caef550d1493eeaf18818cf28234869f579a874d9174290700
Reciphers for ciphertext: 0
Decipheredtext:           595959595959595959595959
RESULT CIPHER-DECIPHER: -----OK-----


Test: 90
Hash algorithm: 8
Data unit:      90
Start block:    181
Symmetric key bit length: 256
Plaintext bit length:     96
Symmetric key:            0000000000000000000000000000000000000000000000000000000000000000
Plaintext:                5a5a5a5a5a5a5a5a5a5a5a5a
Ciphertext:               76937981ef0dd749c8ebbb3c20c2adfc01ae3a38485866d50375a66df4ec9213
Reciphers for ciphertext: 0
Decipheredtext:           5a5a5a5a5a5a5a5a5a5a5a5a
RESULT CIPHER-DECIPHER: -----OK-----


Test: 91
Hash algorithm: 13
Data unit:      91
Start block:    183
Symmetric key bit length: 256
Plaintext bit length:     96
Symmetric key:            0000000000000000000000000000000000000000000000000000000000000000
Plaintext:                5b5b5b5b5b5b5b5b5b5b5b5b
Ciphertext:               18ea8908508e77c4e49975440f0a05ace7129e118846a4a9d677b598
Reciphers for ciphertext: 0
Decipheredtext:           5b5b5b5b5b5b5b5b5b5b5b5b
RESULT CIPHER-DECIPHER: -----OK-----


Test: 92
Hash algorithm: 7
Data unit:      92
Start block:    185
Symmetric key bit length: 256
Plaintext bit length:     96
Symmetric key:            0000000000000000000000000000000000000000000000000000000000000000
Plaintext:                5c5c5c5c5c5c5c5c5c5c5c5c
Ciphertext:               d5c91c90ab5dea0747edf005b9609c23e862f354988b1db1af137e29
Reciphers for ciphertext: 0
Decipheredtext:           5c5c5c5c5c5c5c5c5c5c5c5c
RESULT CIPHER-DECIPHER: -----OK-----


Test: 93
Hash algorithm: 11
Data unit:      93
Start block:    187
Symmetric key bit length: 256
Plaintext bit length:     96
Symmetric key:            0000000000000000000000000000000000000000000000000000000000000000
Plaintext:                5d5d5d5d5d5d5d5d5d5d5d5d
Ciphertext:               87749c181ace1e0043b00347464b12bd55945516ce661616f76e6260
Reciphers for ciphertext: 0
Decipheredtext:           5d5d5d5d5d5d5d5d5d5d5d5d
RESULT CIPHER-DECIPHER: -----OK-----


Test: 94
Hash algorithm: 13
Data unit:      94
Start block:    189
Symmetric key bit length: 256
Plaintext bit length:     96
Symmetric key:            0000000000000000000000000000000000000000000000000000000000000000
Plaintext:                5e5e5e5e5e5e5e5e5e5e5e5e
Ciphertext:               edc8428b742bd75c82281f6e9d660da83c77412e90faa89cec342651
Reciphers for ciphertext: 0
Decipheredtext:           5e5e5e5e5e5e5e5e5e5e5e5e
RESULT CIPHER-DECIPHER: -----OK-----


Test: 95
Hash algorithm: 0
Data unit:      95
Start block:    191
Symmetric key bit length: 256
Plaintext bit length:     96
Symmetric key:            0000000000000000000000000000000000000000000000000000000000000000
Plaintext:                5f5f5f5f5f5f5f5f5f5f5f5f
Ciphertext:               3d436e6b75a25ea7bfb54fde87d4a2f51a7ac8967f2e7ce7784004405b4109b3
Reciphers for ciphertext: 0
Decipheredtext:           5f5f5f5f5f5f5f5f5f5f5f5f
RESULT CIPHER-DECIPHER: -----OK-----


Test: 96
Hash algorithm: 9
Data unit:      96
Start block:    193
Symmetric key bit length: 256
Plaintext bit length:     104
Symmetric key:            0000000000000000000000000000000000000000000000000000000000000000
Plaintext:                60606060606060606060606060
Ciphertext:               d082466ad0aa3705247ee7afbcd21092a24aa41f91ff0baaf1b7e086a2046428e9f9737795492ae31f276aba35
Reciphers for ciphertext: 0
Decipheredtext:           60606060606060606060606060
RESULT CIPHER-DECIPHER: -----OK-----


Test: 97
Hash algorithm: 9
Data unit:      97
Start block:    195
Symmetric key bit length: 256
Plaintext bit length:     104
Symmetric key:            0000000000000000000000000000000000000000000000000000000000000000
Plaintext:                61616161616161616161616161
Ciphertext:               f7b78a835eacb9428ce8c23320c88880d1beb2e8965989b2ace68f15eea05107e4d33a376526ab3f8e8d923411
Reciphers for ciphertext: 0
Decipheredtext:           61616161616161616161616161
RESULT CIPHER-DECIPHER: -----OK-----


Test: 98
Hash algorithm: 6
Data unit:      98
Start block:    197
Symmetric key bit length: 256
Plaintext bit length:     104
Symmetric key:            0000000000000000000000000000000000000000000000000000000000000000
Plaintext:                62626262626262626262626262
Ciphertext:               3ac0679377132f78286119d40ee69bdab22a958899480df0e5c6f451f987008afe5493ace4390d298225d0e6a7
Reciphers for ciphertext: 0
Decipheredtext:           62626262626262626262626262
RESULT CIPHER-DECIPHER: -----OK-----


Test: 99
Hash algorithm: 1
Data unit:      99
Start block:    199
Symmetric key bit length: 256
Plaintext bit length:     104
Symmetric key:            0000000000000000000000000000000000000000000000000000000000000000
Plaintext:                63636363636363636363636363
Ciphertext:               4575ec2743892a1212176ae11966894bbb3ecbbc43fcb11bb44cf80ca15dd5ffb49d9a5c785bd1e5a3
Reciphers for ciphertext: 0
Decipheredtext:           63636363636363636363636363
RESULT CIPHER-DECIPHER: -----OK-----


Test: 100
Hash algorithm: 7
Data unit:      100
Start block:    201
Symmetric key bit length: 256
Plaintext bit length:     104
Symmetric key:            0000000000000000000000000000000000000000000000000000000000000000
Plaintext:                64646464646464646464646464
Ciphertext:               250cf7815a5a5698490e977731614b5f392853eac544691097f536ed3e
Reciphers for ciphertext: 0
Decipheredtext:           64646464646464646464646464
RESULT CIPHER-DECIPHER: -----OK-----


Test: 101
Hash algorithm: 10
Data unit:      101
Start block:    203
Symmetric key bit length: 256
Plaintext bit length:     104
Symmetric key:            0000000000000000000000000000000000000000000000000000000000000000
Plaintext:                65656565656565656565656565
Ciphertext:               1c3a86ab36c57a5b4f6788b88837a936a49495f01aca38a6ee2154c3b1b87eb34e855794b145c17ceba1fc5b19a5d413d74c6931cc
Reciphers for ciphertext: 0
Decipheredtext:           65656565656565656565656565
RESULT CIPHER-DECIPHER: -----OK-----


Test: 102
Hash algorithm: 5
Data unit:      102
Start block:    205
Symmetric key bit length: 256
Plaintext bit length:     104
Symmetric key:            0000000000000000000000000000000000000000000000000000000000000000
Plaintext:                66666666666666666666666666
Ciphertext:               190a002b67f0d5c4650070a83b60d646046128b961c43fb03d21c9deec94403b1a62b29df9ff13fb04
Reciphers for ciphertext: 0
Decipheredtext:           66666666666666666666666666
RESULT CIPHER-DECIPHER: -----OK-----


Test: 103
Hash algorithm: 13
Data unit:      103
Start block:    207
Symmetric key bit length: 256
Plaintext bit length:     104
Symmetric key:            0000000000000000000000000000000000000000000000000000000000000000
Plaintext:                67676767676767676767676767
Ciphertext:               2b9cc96a8dc8906e44e526e82630e11e4405b1534fcec26f07a3323d60
Reciphers for ciphertext: 0
Decipheredtext:           67676767676767676767676767
RESULT CIPHER-DECIPHER: -----OK-----


Test: 104
Hash algorithm: 13
Data unit:      104
Start block:    209
Symmetric key bit length: 256
Plaintext bit length:     112
Symmetric key:            0000000000000000000000000000000000000000000000000000000000000000
Plaintext:                6868686868686868686868686868
Ciphertext:               f8bfd26e553f528589b59d0657800d35a25ac692142b4314fdac54dca824
Reciphers for ciphertext: 0
Decipheredtext:           6868686868686868686868686868
RESULT CIPHER-DECIPHER: -----OK-----


Test: 105
Hash algorithm: 10
Data unit:      105
Start block:    211
Symmetric key bit length: 256
Plaintext bit length:     112
Symmetric key:            0000000000000000000000000000000000000000000000000000000000000000
Plaintext:                6969696969696969696969696969
Ciphertext:               b8daae5ec5ac340c166840b5f7d955bb33db13edd0328efb97465ece4c3ef197c2d9dc3aa5ea271cf0dddc7c7e2529ef1898d844eda7
Reciphers for ciphertext: 0
Decipheredtext:           6969696969696969696969696969
RESULT CIPHER-DECIPHER: -----OK-----


Test: 106
Hash algorithm: 11
Data unit:      106
Start block:    213
Symmetric key bit length: 256
Plaintext bit length:     112
Symmetric key:            0000000000000000000000000000000000000000000000000000000000000000
Plaintext:                6a6a6a6a6a6a6a6a6a6a6a6a6a6a
Ciphertext:               c0813df871aaa28c2cd9399d82ebfdcd0d936cd9d18f0e8f3d485955c95b
Reciphers for ciphertext: 0
Decipheredtext:           6a6a6a6a6a6a6a6a6a6a6a6a6a6a
RESULT CIPHER-DECIPHER: -----OK-----


Test: 107
Hash algorithm: 3
Data unit:      107
Start block:    215
Symmetric key bit length: 256
Plaintext bit length:     112
Symmetric key:            0000000000000000000000000000000000000000000000000000000000000000
Plaintext:                6b6b6b6b6b6b6b6b6b6b6b6b6b6b
Ciphertext:               81ad94bf025c9b11541a389844ce5a2be9278cbd05a355b77701118f958099e21b4adbe1489e0a22881fb1aa946e38fd91de7b58dc810b11f967fe86cf9c
Reciphers for ciphertext: 0
Decipheredtext:           6b6b6b6b6b6b6b6b6b6b6b6b6b6b
RESULT CIPHER-DECIPHER: -----OK-----


Test: 108
Hash algorithm: 8
Data unit:      108
Start block:    217
Symmetric key bit length: 256
Plaintext bit length:     112
Symmetric key:            0000000000000000000000000000000000000000000000000000000000000000
Plaintext:                6c6c6c6c6c6c6c6c6c6c6c6c6c6c
Ciphertext:               ba79d44bfdf0f55f946c54ccd51b819994dbfdbf1164833d4e2d4b663643e9c29ccd
Reciphers for ciphertext: 0
Decipheredtext:           6c6c6c6c6c6c6c6c6c6c6c6c6c6c
RESULT CIPHER-DECIPHER: -----OK-----


Test: 109
Hash algorithm: 13
Data unit:      109
Start block:    219
Symmetric key bit length: 256
Plaintext bit length:     112
Symmetric key:            0000000000000000000000000000000000000000000000000000000000000000
Plaintext:                6d6d6d6d6d6d6d6d6d6d6d6d6d6d
Ciphertext:               74d62ab7556b139034333bb92f5d60a74bb728dcf2630c360dd1da562eff
Reciphers for ciphertext: 0
Decipheredtext:           6d6d6d6d6d6d6d6d6d6d6d6d6d6d
RESULT CIPHER-DECIPHER: -----OK-----


Test: 110
Hash algorithm: 3
Data unit:      110
Start block:    221
Symmetric key bit length: 256
Plaintext bit length:     112
Symmetric key:            0000000000000000000000000000000000000000000000000000000000000000
Plaintext:                6e6e6e6e6e6e6e6e6e6e6e6e6e6e
Ciphertext:               1f5094c38106384fe85669a7b1d51ddcc4c3eeb2f3328e8700370fef7e2206e1829dfe22f54eac4a6e9ddf56ed46b1ea25efc8446e4690dfcb1f7f987854
Reciphers for ciphertext: 0
Decipheredtext:           6e6e6e6e6e6e6e6e6e6e6e6e6e6e
RESULT CIPHER-DECIPHER: -----OK-----


Test: 111
Hash algorithm: 10
Data unit:      111
Start block:    223
Symmetric key bit length: 256
Plaintext bit length:     112
Symmetric key:            0000000000000000000000000000000000000000000000000000000000000000
Plaintext:                6f6f6f6f6f6f6f6f6f6f6f6f6f6f
Ciphertext:               0ed3e166a8e2a9630465fc0f22a336ffdcde480d2f46bbea648220d6675fca8725e940a7bd02e617fab30025a6546b288dc3a3d1cef7
Reciphers for ciphertext: 0
Decipheredtext:           6f6f6f6f6f6f6f6f6f6f6f6f6f6f
RESULT CIPHER-DECIPHER: -----OK-----


Test: 112
Hash algorithm: 4
Data unit:      112
Start block:    225
Symmetric key bit length: 256
Plaintext bit length:     120
Symmetric key:            0000000000000000000000000000000000000000000000000000000000000000
Plaintext:                707070707070707070707070707070
Ciphertext:               5463fbd84c9ea0868ad73600a109b1e304aaae48670ebb3d1cd8170f186c5edd25fc9c99a7881692c563d3bbec46123fc88024d40de0db65ad2907fdff239c0e21146d503b25fb651fa1504d40cc37
Reciphers for ciphertext: 0
Decipheredtext:           707070707070707070707070707070
RESULT CIPHER-DECIPHER: -----OK-----


Test: 113
Hash algorithm: 4
Data unit:      113
Start block:    227
Symmetric key bit length: 256
Plaintext bit length:     120
Symmetric key:            0000000000000000000000000000000000000000000000000000000000000000
Plaintext:                717171717171717171717171717171
Ciphertext:               4fdaba0d6f92aaff1b24ff6cd56716e138b3e9e31d755f6db76d70069851e6efa7920e1c3b279651be50fc56cc9126f3f271163d6f88b9977e28385c58dbdb77116c65423a3adb3ff9baa7ec8ca1c0
Reciphers for ciphertext: 0
Decipheredtext:           717171717171717171717171717171
RESULT CIPHER-DECIPHER: -----OK-----


Test: 114
Hash algorithm: 7
Data unit:      114
Start block:    229
Symmetric key bit length: 256
Plaintext bit length:     120
Symmetric key:            0000000000000000000000000000000000000000000000000000000000000000
Plaintext:                727272727272727272727272727272
Ciphertext:               4f118c08187dd03dcc0dbc0a20c793e356cf7ac4f1c1b4b5760be63e2e4b48
Reciphers for ciphertext: 0
Decipheredtext:           727272727272727272727272727272
RESULT CIPHER-DECIPHER: -----OK-----


Test: 115
Hash algorithm: 12
Data unit:      115
Start block:    231
Symmetric key bit length: 256
Plaintext bit length:     120
Symmetric key:            0000000000000000000000000000000000000000000000000000000000000000
Plaintext:                737373737373737373737373737373
Ciphertext:               1d0e8e4ba019e6aca35a423ffa18ed01dd09f29449654709a6b1813246c972
Reciphers for ciphertext: 0
Decipheredtext:           737373737373737373737373737373
RESULT CIPHER-DECIPHER: -----OK-----


Test: 116
Hash algorithm: 11
Data unit:      116
Start block:    233
Symmetric key bit length: 256
Plaintext bit length:     120
Symmetric key:            0000000000000000000000000000000000000000000000000000000000000000
Plaintext:                747474747474747474747474747474
Ciphertext:               7bcda311f68935de3fe7a16ef95c815e5d379c46e8fd9fe256acd0da9e9833
Reciphers for ciphertext: 0
Decipheredtext:           747474747474747474747474747474
RESULT CIPHER-DECIPHER: -----OK-----


Test: 117
Hash algorithm: 10
Data unit:      117
Start block:    235
Symmetric key bit length: 256
Plaintext bit length:     120
Symmetric key:            0000000000000000000000000000000000000000000000000000000000000000
Plaintext:                757575757575757575757575757575
Ciphertext:               839988f4b2d5b785c0b83a5ee225959a5536f2c3229c4c3aabc998287631091db9d43b2b94610570e10f4d6090d88386b65a475ced4d42
Reciphers for ciphertext: 0
Decipheredtext:           757575757575757575757575757575
RESULT CIPHER-DECIPHER: -----OK-----


Test: 118
Hash algorithm: 2
Data unit:      118
Start block:    237
Symmetric key bit length: 256
Plaintext bit length:     120
Symmetric key:            0000000000000000000000000000000000000000000000000000000000000000
Plaintext:                767676767676767676767676767676
Ciphertext:               cc171fef7690f09ddfcbda4a73c1a39335f89c0bb6c91fade3c0137357a3f5abe762ce93f2e3fb71ff98e22f469455
Reciphers for ciphertext: 0
Decipheredtext:           767676767676767676767676767676
RESULT CIPHER-DECIPHER: -----OK-----


Test: 119
Hash algorithm: 11
Data unit:      119
Start block:    239
Symmetric key bit length: 256
Plaintext bit length:     120
Symmetric key:            0000000000000000000000000000000000000000000000000000000000000000
Plaintext:                777777777777777777777777777777
Ciphertext:               189aa394af24d4327f8a354d7c68c2b409de30445bd5f93637aa835691a44a
Reciphers for ciphertext: 0
Decipheredtext:           777777777777777777777777777777
RESULT CIPHER-DECIPHER: -----OK-----


Test: 120
Hash algorithm: 7
Data unit:      120
Start block:    241
Symmetric key bit length: 256
Plaintext bit length:     128
Symmetric key:            0000000000000000000000000000000000000000000000000000000000000000
Plaintext:                78787878787878787878787878787878
Ciphertext:               be9cef9e2d867f8a39fb60f633b45ccc2be9a9959bafc4542333333d2f04ae1b
Reciphers for ciphertext: 0
Decipheredtext:           78787878787878787878787878787878
RESULT CIPHER-DECIPHER: -----OK-----


Test: 121
Hash algorithm: 10
Data unit:      121
Start block:    243
Symmetric key bit length: 256
Plaintext bit length:     128
Symmetric key:            0000000000000000000000000000000000000000000000000000000000000000
Plaintext:                79797979797979797979797979797979
Ciphertext:               f9310d421179f276b01640ab24049f478f51cd19078849b1018475ceaa40d2fa0ce2570812fe5ec1616d6815ad26eae02543f2053a6ae270
Reciphers for ciphertext: 0
Decipheredtext:           79797979797979797979797979797979
RESULT CIPHER-DECIPHER: -----OK-----


Test: 122
Hash algorithm: 6
Data unit:      122
Start block:    245
Symmetric key bit length: 256
Plaintext bit length:     128
Symmetric key:            0000000000000000000000000000000000000000000000000000000000000000
Plaintext:                7a7a7a7a7a7a7a7a7a7a7a7a7a7a7a7a
Ciphertext:               d24134019a00c9cf6aabeaa5336dc54efb2d73678f172ec1123b2aba3e6c886db41c0b394cf1f1fcbfd459051e8f3f06
Reciphers for ciphertext: 0
Decipheredtext:           7a7a7a7a7a7a7a7a7a7a7a7a7a7a7a7a
RESULT CIPHER-DECIPHER: -----OK-----


Test: 123
Hash algorithm: 4
Data unit:      123
Start block:    247
Symmetric key bit length: 256
Plaintext bit length:     128
Symmetric key:            0000000000000000000000000000000000000000000000000000000000000000
Plaintext:                7b7b7b7b7b7b7b7b7b7b7b7b7b7b7b7b
Ciphertext:               f93810a873c15c75d970c2f2a33cff9c084f7dae3a34b9acb7191ced7b2762575af588600548b3d277c8439399c03715ad4851c308955840996821add92fb93762188cb434e438e453e6ce8c994dbfff
Reciphers for ciphertext: 0
Decipheredtext:           7b7b7b7b7b7b7b7b7b7b7b7b7b7b7b7b
RESULT CIPHER-DECIPHER: -----OK-----


Test: 124
Hash algorithm: 5
Data unit:      124
Start block:    249
Symmetric key bit length: 256
Plaintext bit length:     128
Symmetric key:            0000000000000000000000000000000000000000000000000000000000000000
Plaintext:                7c7c7c7c7c7c7c7c7c7c7c7c7c7c7c7c
Ciphertext:               521e9adfe6805620317a5c6db827eb87153057f8365a6cc57086f9f3d352ed10c66052efea4fa88cd9f1b434
Reciphers for ciphertext: 0
Decipheredtext:           7c7c7c7c7c7c7c7c7c7c7c7c7c7c7c7c
RESULT CIPHER-DECIPHER: -----OK-----


Test: 125
Hash algorithm: 0
Data unit:      125
Start block:    251
Symmetric key bit length: 256
Plaintext bit length:     128
Symmetric key:            0000000000000000000000000000000000000000000000000000000000000000
Plaintext:                7d7d7d7d7d7d7d7d7d7d7d7d7d7d7d7d
Ciphertext:               df90e2b5bdeaffb6284fd6f9c11318d5ea050ca671a80f2d11034863a0111e055e9ac304
Reciphers for ciphertext: 0
Decipheredtext:           7d7d7d7d7d7d7d7d7d7d7d7d7d7d7d7d
RESULT CIPHER-DECIPHER: -----OK-----


Test: 126
Hash algorithm: 5
Data unit:      126
Start block:    253
Symmetric key bit length: 256
Plaintext bit length:     128
Symmetric key:            0000000000000000000000000000000000000000000000000000000000000000
Plaintext:                7e7e7e7e7e7e7e7e7e7e7e7e7e7e7e7e
Ciphertext:               6a918062c9745ef421abf4df306a0f3d8bce7dd51c2e49d80bd5e04ac1a14d4a0673428ccc3ba7733067515a
Reciphers for ciphertext: 0
Decipheredtext:           7e7e7e7e7e7e7e7e7e7e7e7e7e7e7e7e
RESULT CIPHER-DECIPHER: -----OK-----


Test: 127
Hash algorithm: 6
Data unit:      127
Start block:    255
Symmetric key bit length: 256
Plaintext bit length:     128
Symmetric key:            0000000000000000000000000000000000000000000000000000000000000000
Plaintext:                7f7f7f7f7f7f7f7f7f7f7f7f7f7f7f7f
Ciphertext:               86222fe6a0ccd56c467bac4eadc549ed8067189405e9ba78b5d242548625dbbfb3262b10d316805bfcab8a9c1fd47a69
Reciphers for ciphertext: 0
Decipheredtext:           7f7f7f7f7f7f7f7f7f7f7f7f7f7f7f7f
RESULT CIPHER-DECIPHER: -----OK-----


 DATA SHA1 (hexadecimal): 02fafde79ee2fbe18698293494549ad02674b434

