
DiceLock 9.0.0.1

 TEST COMPONENTS:
 ----------------
 DiceLock:           DiceLockXTSDigested class
                     Operating over full text length
 Operation Mode:     XTS_Mode class
 Block Cipher:       Camellia128 class
 Hash algorithms:     0 - Sha1 class
                      1 - Sha224 class
                      2 - Sha256 class
                      3 - Sha384 class
                      4 - Sha512 class
                      5 - Sha512_224 class
                      6 - Sha512_256 class
                      7 - Ripemd128 class
                      8 - Ripemd160 class
                      9 - Ripemd256 class
                     10 - Ripemd320 class
                     11 - MD2 class
                     12 - MD4 class
                     13 - MD5 class
 Key Modifier:       IncreaseKeyModifier_6_0_0_1 class
 Random tests:       RandomTestSuite class
                     FrequencyTest class
                     BlockFrequencyTest class
                     CumulativeSumForwardTest class
                     LongestRunOfOnesTest class
                     RunsTest class
 Random alpha:       0.001

 VECTOR TEST: Test vector 5 - Symmetric key all byte value 0xXX and plaintext all byte value 0xYY


##### INDIVIDUAL TESTS #####

Number tests: 128


Test: 0
Hash algorithm: 7
Data unit:      0
Start block:    1
Symmetric key bit length: 256
Plaintext bit length:     136
Symmetric key:            0000000000000000000000000000000000000000000000000000000000000000
Plaintext:                ffffffffffffffffffffffffffffffffff
Ciphertext:               172d5cc2b47d38004b46ba40d0d4ff5849f437852071fcd48f5a47f3e3cba9f70d
Reciphers for ciphertext: 0
Decipheredtext:           ffffffffffffffffffffffffffffffffff
RESULT CIPHER-DECIPHER: -----OK-----


Test: 1
Hash algorithm: 5
Data unit:      1
Start block:    3
Symmetric key bit length: 256
Plaintext bit length:     136
Symmetric key:            0101010101010101010101010101010101010101010101010101010101010101
Plaintext:                fefefefefefefefefefefefefefefefefe
Ciphertext:               dbed20ef3d16566cc10c0e5ca88f1bfbce34a5cedce20526c31f1981bb1049e71d14eb8fea41fd62dfeabf835a
Reciphers for ciphertext: 0
Decipheredtext:           fefefefefefefefefefefefefefefefefe
RESULT CIPHER-DECIPHER: -----OK-----


Test: 2
Hash algorithm: 4
Data unit:      2
Start block:    5
Symmetric key bit length: 256
Plaintext bit length:     136
Symmetric key:            0202020202020202020202020202020202020202020202020202020202020202
Plaintext:                fdfdfdfdfdfdfdfdfdfdfdfdfdfdfdfdfd
Ciphertext:               0eae2db04e9dada5da04dea0b3030bcee856a084596590ca17c11f882e23a1b6a8f1e93013f40d4fa0e59f32fcbd0ffee2e6e4c7b888ed2904fb41a70fa536dfbd26403eb60eb7ce3f803e05fdefebb7d9
Reciphers for ciphertext: 0
Decipheredtext:           fdfdfdfdfdfdfdfdfdfdfdfdfdfdfdfdfd
RESULT CIPHER-DECIPHER: -----OK-----


Test: 3
Hash algorithm: 8
Data unit:      3
Start block:    7
Symmetric key bit length: 256
Plaintext bit length:     136
Symmetric key:            0303030303030303030303030303030303030303030303030303030303030303
Plaintext:                fcfcfcfcfcfcfcfcfcfcfcfcfcfcfcfcfc
Ciphertext:               1cc6c09625f3029f58f133507298bad5a9f13ffea91899baa9cd02289cf8f76957a4ccdb15
Reciphers for ciphertext: 0
Decipheredtext:           fcfcfcfcfcfcfcfcfcfcfcfcfcfcfcfcfc
RESULT CIPHER-DECIPHER: -----OK-----


Test: 4
Hash algorithm: 6
Data unit:      4
Start block:    9
Symmetric key bit length: 256
Plaintext bit length:     136
Symmetric key:            0404040404040404040404040404040404040404040404040404040404040404
Plaintext:                fbfbfbfbfbfbfbfbfbfbfbfbfbfbfbfbfb
Ciphertext:               6d6c5b997cc46688631eccb3370c8d65316e148d25ed26e00fec478fedc6545c5782751d2feecfce3a111525491c81d8db
Reciphers for ciphertext: 0
Decipheredtext:           fbfbfbfbfbfbfbfbfbfbfbfbfbfbfbfbfb
RESULT CIPHER-DECIPHER: -----OK-----


Test: 5
Hash algorithm: 11
Data unit:      5
Start block:    11
Symmetric key bit length: 256
Plaintext bit length:     136
Symmetric key:            0505050505050505050505050505050505050505050505050505050505050505
Plaintext:                fafafafafafafafafafafafafafafafafa
Ciphertext:               f80341d38969edfe8abfc5c772e8f867d1613be494033b653e0eade55a45922fde
Reciphers for ciphertext: 0
Decipheredtext:           fafafafafafafafafafafafafafafafafa
RESULT CIPHER-DECIPHER: -----OK-----


Test: 6
Hash algorithm: 1
Data unit:      6
Start block:    13
Symmetric key bit length: 256
Plaintext bit length:     136
Symmetric key:            0606060606060606060606060606060606060606060606060606060606060606
Plaintext:                f9f9f9f9f9f9f9f9f9f9f9f9f9f9f9f9f9
Ciphertext:               a6aae135258a4cd837a6d0e174d9b7830cb69f27597fbc80d5d6d6a56696eddc5207afc22eca2fc434ae227950
Reciphers for ciphertext: 0
Decipheredtext:           f9f9f9f9f9f9f9f9f9f9f9f9f9f9f9f9f9
RESULT CIPHER-DECIPHER: -----OK-----


Test: 7
Hash algorithm: 4
Data unit:      7
Start block:    15
Symmetric key bit length: 256
Plaintext bit length:     136
Symmetric key:            0707070707070707070707070707070707070707070707070707070707070707
Plaintext:                f8f8f8f8f8f8f8f8f8f8f8f8f8f8f8f8f8
Ciphertext:               c1268eb528803f0d34ff3f48f6e36b31b1bd9038701582c5f661750b641b37059e303244922ee04b09982d1cbeb4bf5b4c97df6f4cc5b32e7ebb39e026a77ded025e0e13f0bba8857cfaa5ae02c5b10de2
Reciphers for ciphertext: 0
Decipheredtext:           f8f8f8f8f8f8f8f8f8f8f8f8f8f8f8f8f8
RESULT CIPHER-DECIPHER: -----OK-----


Test: 8
Hash algorithm: 9
Data unit:      8
Start block:    17
Symmetric key bit length: 256
Plaintext bit length:     136
Symmetric key:            0808080808080808080808080808080808080808080808080808080808080808
Plaintext:                f7f7f7f7f7f7f7f7f7f7f7f7f7f7f7f7f7
Ciphertext:               6d25eb873c94f641b8ca65701bd8b09f26d8c47edf6a0451446089befde4bd414eb926528839738c53694edcc0c9cd6330
Reciphers for ciphertext: 0
Decipheredtext:           f7f7f7f7f7f7f7f7f7f7f7f7f7f7f7f7f7
RESULT CIPHER-DECIPHER: -----OK-----


Test: 9
Hash algorithm: 10
Data unit:      9
Start block:    19
Symmetric key bit length: 256
Plaintext bit length:     136
Symmetric key:            0909090909090909090909090909090909090909090909090909090909090909
Plaintext:                f6f6f6f6f6f6f6f6f6f6f6f6f6f6f6f6f6
Ciphertext:               1fbdb404e89e3f79e94f320a86dc4d7dbd9d546a405faa3d0cd7b8f0246cbfa0cc8ed39591689cd2e56750543a59ccadd974d2c8529fadbb14
Reciphers for ciphertext: 0
Decipheredtext:           f6f6f6f6f6f6f6f6f6f6f6f6f6f6f6f6f6
RESULT CIPHER-DECIPHER: -----OK-----


Test: 10
Hash algorithm: 12
Data unit:      10
Start block:    21
Symmetric key bit length: 256
Plaintext bit length:     136
Symmetric key:            0a0a0a0a0a0a0a0a0a0a0a0a0a0a0a0a0a0a0a0a0a0a0a0a0a0a0a0a0a0a0a0a
Plaintext:                f5f5f5f5f5f5f5f5f5f5f5f5f5f5f5f5f5
Ciphertext:               d7f095539a76235d54095e178f04b3e59fbc6631f8d00f5878428e107267e325ad
Reciphers for ciphertext: 0
Decipheredtext:           f5f5f5f5f5f5f5f5f5f5f5f5f5f5f5f5f5
RESULT CIPHER-DECIPHER: -----OK-----


Test: 11
Hash algorithm: 4
Data unit:      11
Start block:    23
Symmetric key bit length: 256
Plaintext bit length:     136
Symmetric key:            0b0b0b0b0b0b0b0b0b0b0b0b0b0b0b0b0b0b0b0b0b0b0b0b0b0b0b0b0b0b0b0b
Plaintext:                f4f4f4f4f4f4f4f4f4f4f4f4f4f4f4f4f4
Ciphertext:               bb24433e0c0008fa019250a3b4062ba2e403479964dc9d38456b2ce9aa97da880e48a925f17d90fa8250e52a05a63c709d83b36fcf8c828fed94071f9f0a7c34314dddcf2b9affbaf0e27ead333fcb5a68
Reciphers for ciphertext: 0
Decipheredtext:           f4f4f4f4f4f4f4f4f4f4f4f4f4f4f4f4f4
RESULT CIPHER-DECIPHER: -----OK-----


Test: 12
Hash algorithm: 0
Data unit:      12
Start block:    25
Symmetric key bit length: 256
Plaintext bit length:     136
Symmetric key:            0c0c0c0c0c0c0c0c0c0c0c0c0c0c0c0c0c0c0c0c0c0c0c0c0c0c0c0c0c0c0c0c
Plaintext:                f3f3f3f3f3f3f3f3f3f3f3f3f3f3f3f3f3
Ciphertext:               aba16f8f2b8d03419d93662fcbc9eef69e0e09303974bb62f81ac2f122ceb3e6303256c603
Reciphers for ciphertext: 0
Decipheredtext:           f3f3f3f3f3f3f3f3f3f3f3f3f3f3f3f3f3
RESULT CIPHER-DECIPHER: -----OK-----


Test: 13
Hash algorithm: 9
Data unit:      13
Start block:    27
Symmetric key bit length: 256
Plaintext bit length:     136
Symmetric key:            0d0d0d0d0d0d0d0d0d0d0d0d0d0d0d0d0d0d0d0d0d0d0d0d0d0d0d0d0d0d0d0d
Plaintext:                f2f2f2f2f2f2f2f2f2f2f2f2f2f2f2f2f2
Ciphertext:               126ab7a4e28b60c45ea7ae0a5677721406cc587d57f5bbb20e046ca0b3b7c3636daf5bb5cb94a69cc455efdd6c45782a11
Reciphers for ciphertext: 0
Decipheredtext:           f2f2f2f2f2f2f2f2f2f2f2f2f2f2f2f2f2
RESULT CIPHER-DECIPHER: -----OK-----


Test: 14
Hash algorithm: 0
Data unit:      14
Start block:    29
Symmetric key bit length: 256
Plaintext bit length:     136
Symmetric key:            0e0e0e0e0e0e0e0e0e0e0e0e0e0e0e0e0e0e0e0e0e0e0e0e0e0e0e0e0e0e0e0e
Plaintext:                f1f1f1f1f1f1f1f1f1f1f1f1f1f1f1f1f1
Ciphertext:               12a08488f0e12714164db458f32e54e9c85bb4d516ea601f0f1aa714feca36c79d9d515f0d
Reciphers for ciphertext: 0
Decipheredtext:           f1f1f1f1f1f1f1f1f1f1f1f1f1f1f1f1f1
RESULT CIPHER-DECIPHER: -----OK-----


Test: 15
Hash algorithm: 8
Data unit:      15
Start block:    31
Symmetric key bit length: 256
Plaintext bit length:     136
Symmetric key:            0f0f0f0f0f0f0f0f0f0f0f0f0f0f0f0f0f0f0f0f0f0f0f0f0f0f0f0f0f0f0f0f
Plaintext:                f0f0f0f0f0f0f0f0f0f0f0f0f0f0f0f0f0
Ciphertext:               6ded8304d95a7e29a544d89d5578613a630f94e80349caba0d277d21486ad6f72dca4e0744
Reciphers for ciphertext: 0
Decipheredtext:           f0f0f0f0f0f0f0f0f0f0f0f0f0f0f0f0f0
RESULT CIPHER-DECIPHER: -----OK-----


Test: 16
Hash algorithm: 12
Data unit:      16
Start block:    33
Symmetric key bit length: 256
Plaintext bit length:     136
Symmetric key:            1010101010101010101010101010101010101010101010101010101010101010
Plaintext:                efefefefefefefefefefefefefefefefef
Ciphertext:               722eae2277ce4da1af752599c21ecaba5f3ab3223c381834df814fc35eb11d739a
Reciphers for ciphertext: 0
Decipheredtext:           efefefefefefefefefefefefefefefefef
RESULT CIPHER-DECIPHER: -----OK-----


Test: 17
Hash algorithm: 6
Data unit:      17
Start block:    35
Symmetric key bit length: 256
Plaintext bit length:     136
Symmetric key:            1111111111111111111111111111111111111111111111111111111111111111
Plaintext:                eeeeeeeeeeeeeeeeeeeeeeeeeeeeeeeeee
Ciphertext:               27f33e0b5ff4467e9e64d1b0b8841a6dd563d3daa6be3895f3f15ccc3bd148055aa57700356759b3cdc187b492e6ff8de2
Reciphers for ciphertext: 0
Decipheredtext:           eeeeeeeeeeeeeeeeeeeeeeeeeeeeeeeeee
RESULT CIPHER-DECIPHER: -----OK-----


Test: 18
Hash algorithm: 11
Data unit:      18
Start block:    37
Symmetric key bit length: 256
Plaintext bit length:     136
Symmetric key:            1212121212121212121212121212121212121212121212121212121212121212
Plaintext:                ededededededededededededededededed
Ciphertext:               5b05e5a534ea4d063804081b2f7a796f7e7daa427f1c58280987af593e4c933186
Reciphers for ciphertext: 0
Decipheredtext:           ededededededededededededededededed
RESULT CIPHER-DECIPHER: -----OK-----


Test: 19
Hash algorithm: 10
Data unit:      19
Start block:    39
Symmetric key bit length: 256
Plaintext bit length:     136
Symmetric key:            1313131313131313131313131313131313131313131313131313131313131313
Plaintext:                ececececececececececececececececec
Ciphertext:               0e8d24c073eadbd6429b32bfef180950c01f9ae836ff672007a2c1daa33fb205caddb70f57bc5433766958c3c38a8ac8a0c29a59b833063072
Reciphers for ciphertext: 0
Decipheredtext:           ececececececececececececececececec
RESULT CIPHER-DECIPHER: -----OK-----


Test: 20
Hash algorithm: 0
Data unit:      20
Start block:    41
Symmetric key bit length: 256
Plaintext bit length:     136
Symmetric key:            1414141414141414141414141414141414141414141414141414141414141414
Plaintext:                ebebebebebebebebebebebebebebebebeb
Ciphertext:               61fdca2fa3c9f2d05394a9f8c5d19d34e4c5e8ae4fd282fd02fe88d6f300205bd8517870ca
Reciphers for ciphertext: 0
Decipheredtext:           ebebebebebebebebebebebebebebebebeb
RESULT CIPHER-DECIPHER: -----OK-----


Test: 21
Hash algorithm: 2
Data unit:      21
Start block:    43
Symmetric key bit length: 256
Plaintext bit length:     136
Symmetric key:            1515151515151515151515151515151515151515151515151515151515151515
Plaintext:                eaeaeaeaeaeaeaeaeaeaeaeaeaeaeaeaea
Ciphertext:               cd886826d977182bbd1e24c3b49e32608fbfb5c3bfc69a484aab7ae122af3cf9dacb9b5bc455f82e472481b5b718fee481
Reciphers for ciphertext: 0
Decipheredtext:           eaeaeaeaeaeaeaeaeaeaeaeaeaeaeaeaea
RESULT CIPHER-DECIPHER: -----OK-----


Test: 22
Hash algorithm: 13
Data unit:      22
Start block:    45
Symmetric key bit length: 256
Plaintext bit length:     136
Symmetric key:            1616161616161616161616161616161616161616161616161616161616161616
Plaintext:                e9e9e9e9e9e9e9e9e9e9e9e9e9e9e9e9e9
Ciphertext:               146f770640456ad7b8486049a764fd53cbfe91f2fc9d07f9642b79fb0edebe1628
Reciphers for ciphertext: 0
Decipheredtext:           e9e9e9e9e9e9e9e9e9e9e9e9e9e9e9e9e9
RESULT CIPHER-DECIPHER: -----OK-----


Test: 23
Hash algorithm: 7
Data unit:      23
Start block:    47
Symmetric key bit length: 256
Plaintext bit length:     136
Symmetric key:            1717171717171717171717171717171717171717171717171717171717171717
Plaintext:                e8e8e8e8e8e8e8e8e8e8e8e8e8e8e8e8e8
Ciphertext:               d1a6acebd68e68271fe38e892263a599e6d5c678ef446ba14ec976f8e5c3ac4cff
Reciphers for ciphertext: 0
Decipheredtext:           e8e8e8e8e8e8e8e8e8e8e8e8e8e8e8e8e8
RESULT CIPHER-DECIPHER: -----OK-----


Test: 24
Hash algorithm: 11
Data unit:      24
Start block:    49
Symmetric key bit length: 256
Plaintext bit length:     136
Symmetric key:            1818181818181818181818181818181818181818181818181818181818181818
Plaintext:                e7e7e7e7e7e7e7e7e7e7e7e7e7e7e7e7e7
Ciphertext:               607505922b5deb9517fb7c33ec77bb6a1325e64ac56b7bfff856d08e52678d86fb
Reciphers for ciphertext: 0
Decipheredtext:           e7e7e7e7e7e7e7e7e7e7e7e7e7e7e7e7e7
RESULT CIPHER-DECIPHER: -----OK-----


Test: 25
Hash algorithm: 9
Data unit:      25
Start block:    51
Symmetric key bit length: 256
Plaintext bit length:     136
Symmetric key:            1919191919191919191919191919191919191919191919191919191919191919
Plaintext:                e6e6e6e6e6e6e6e6e6e6e6e6e6e6e6e6e6
Ciphertext:               52deca5d358d43266fe1581f54e8af154667d791ca45fb0b4ea37c584bc27c5d94f16e3eabcdcaaa9203938b41bf3bdc5f
Reciphers for ciphertext: 0
Decipheredtext:           e6e6e6e6e6e6e6e6e6e6e6e6e6e6e6e6e6
RESULT CIPHER-DECIPHER: -----OK-----


Test: 26
Hash algorithm: 12
Data unit:      26
Start block:    53
Symmetric key bit length: 256
Plaintext bit length:     136
Symmetric key:            1a1a1a1a1a1a1a1a1a1a1a1a1a1a1a1a1a1a1a1a1a1a1a1a1a1a1a1a1a1a1a1a
Plaintext:                e5e5e5e5e5e5e5e5e5e5e5e5e5e5e5e5e5
Ciphertext:               dda0f2e1c2c64ecbefd97abf931e99ab3481f12900c4005977126521570d79ed4d
Reciphers for ciphertext: 0
Decipheredtext:           e5e5e5e5e5e5e5e5e5e5e5e5e5e5e5e5e5
RESULT CIPHER-DECIPHER: -----OK-----


Test: 27
Hash algorithm: 0
Data unit:      27
Start block:    55
Symmetric key bit length: 256
Plaintext bit length:     136
Symmetric key:            1b1b1b1b1b1b1b1b1b1b1b1b1b1b1b1b1b1b1b1b1b1b1b1b1b1b1b1b1b1b1b1b
Plaintext:                e4e4e4e4e4e4e4e4e4e4e4e4e4e4e4e4e4
Ciphertext:               3a06706e0d6877e4342f984992249451d03f72e9cc89e0cf8af19201355f3ed220fe3e1356
Reciphers for ciphertext: 0
Decipheredtext:           e4e4e4e4e4e4e4e4e4e4e4e4e4e4e4e4e4
RESULT CIPHER-DECIPHER: -----OK-----


Test: 28
Hash algorithm: 12
Data unit:      28
Start block:    57
Symmetric key bit length: 256
Plaintext bit length:     136
Symmetric key:            1c1c1c1c1c1c1c1c1c1c1c1c1c1c1c1c1c1c1c1c1c1c1c1c1c1c1c1c1c1c1c1c
Plaintext:                e3e3e3e3e3e3e3e3e3e3e3e3e3e3e3e3e3
Ciphertext:               f5af27d2d2c87e592e59aad84c668146d73c5a9298c9aa582ab65986da1ec6b9ff
Reciphers for ciphertext: 0
Decipheredtext:           e3e3e3e3e3e3e3e3e3e3e3e3e3e3e3e3e3
RESULT CIPHER-DECIPHER: -----OK-----


Test: 29
Hash algorithm: 2
Data unit:      29
Start block:    59
Symmetric key bit length: 256
Plaintext bit length:     136
Symmetric key:            1d1d1d1d1d1d1d1d1d1d1d1d1d1d1d1d1d1d1d1d1d1d1d1d1d1d1d1d1d1d1d1d
Plaintext:                e2e2e2e2e2e2e2e2e2e2e2e2e2e2e2e2e2
Ciphertext:               e279cb6ed8c4e9ff08cc01c9b94428b5268ab38ac08d10bd98ebe3dc557d159340266a96b39e360b964133ad1098b6f6bb
Reciphers for ciphertext: 0
Decipheredtext:           e2e2e2e2e2e2e2e2e2e2e2e2e2e2e2e2e2
RESULT CIPHER-DECIPHER: -----OK-----


Test: 30
Hash algorithm: 13
Data unit:      30
Start block:    61
Symmetric key bit length: 256
Plaintext bit length:     136
Symmetric key:            1e1e1e1e1e1e1e1e1e1e1e1e1e1e1e1e1e1e1e1e1e1e1e1e1e1e1e1e1e1e1e1e
Plaintext:                e1e1e1e1e1e1e1e1e1e1e1e1e1e1e1e1e1
Ciphertext:               cad961a196006b8fbe367fc904870fea4f961eec83fcaa7e27f1363d88e014c85f
Reciphers for ciphertext: 0
Decipheredtext:           e1e1e1e1e1e1e1e1e1e1e1e1e1e1e1e1e1
RESULT CIPHER-DECIPHER: -----OK-----


Test: 31
Hash algorithm: 8
Data unit:      31
Start block:    63
Symmetric key bit length: 256
Plaintext bit length:     136
Symmetric key:            1f1f1f1f1f1f1f1f1f1f1f1f1f1f1f1f1f1f1f1f1f1f1f1f1f1f1f1f1f1f1f1f
Plaintext:                e0e0e0e0e0e0e0e0e0e0e0e0e0e0e0e0e0
Ciphertext:               800f870ecc3f5e557cb56e8e8d8230718e0da1b352db3f12f5571cb52e7ca2a0d01893b019
Reciphers for ciphertext: 0
Decipheredtext:           e0e0e0e0e0e0e0e0e0e0e0e0e0e0e0e0e0
RESULT CIPHER-DECIPHER: -----OK-----


Test: 32
Hash algorithm: 12
Data unit:      32
Start block:    65
Symmetric key bit length: 256
Plaintext bit length:     136
Symmetric key:            2020202020202020202020202020202020202020202020202020202020202020
Plaintext:                dfdfdfdfdfdfdfdfdfdfdfdfdfdfdfdfdf
Ciphertext:               dca36eefe58621aa8c6607282019226b2795acb1f89e2bc9f14aa9c861723117a1
Reciphers for ciphertext: 0
Decipheredtext:           dfdfdfdfdfdfdfdfdfdfdfdfdfdfdfdfdf
RESULT CIPHER-DECIPHER: -----OK-----


Test: 33
Hash algorithm: 9
Data unit:      33
Start block:    67
Symmetric key bit length: 256
Plaintext bit length:     136
Symmetric key:            2121212121212121212121212121212121212121212121212121212121212121
Plaintext:                dedededededededededededededededede
Ciphertext:               060cdab5fb7c02777bca665424c1504db774e221329e7398d016e56e4058cf34c213b6daa1836f3a865df9f4b61bd94e9c
Reciphers for ciphertext: 0
Decipheredtext:           dedededededededededededededededede
RESULT CIPHER-DECIPHER: -----OK-----


Test: 34
Hash algorithm: 1
Data unit:      34
Start block:    69
Symmetric key bit length: 256
Plaintext bit length:     136
Symmetric key:            2222222222222222222222222222222222222222222222222222222222222222
Plaintext:                dddddddddddddddddddddddddddddddddd
Ciphertext:               6052aaa230637baa3310adaff07fbec9a1897525773cf3154ba134237bcbb422cfb1d26f67234658d666eb3e9e
Reciphers for ciphertext: 0
Decipheredtext:           dddddddddddddddddddddddddddddddddd
RESULT CIPHER-DECIPHER: -----OK-----


Test: 35
Hash algorithm: 8
Data unit:      35
Start block:    71
Symmetric key bit length: 256
Plaintext bit length:     136
Symmetric key:            2323232323232323232323232323232323232323232323232323232323232323
Plaintext:                dcdcdcdcdcdcdcdcdcdcdcdcdcdcdcdcdc
Ciphertext:               fb38528b7456045c99eb7719e9b5ac9850c22b8a9348322e357ee5ad5bf6d37045d375c708
Reciphers for ciphertext: 0
Decipheredtext:           dcdcdcdcdcdcdcdcdcdcdcdcdcdcdcdcdc
RESULT CIPHER-DECIPHER: -----OK-----


Test: 36
Hash algorithm: 13
Data unit:      36
Start block:    73
Symmetric key bit length: 256
Plaintext bit length:     136
Symmetric key:            2424242424242424242424242424242424242424242424242424242424242424
Plaintext:                dbdbdbdbdbdbdbdbdbdbdbdbdbdbdbdbdb
Ciphertext:               f9c240222dbf63119b2ce25b88b13aebb3b2035fcba19c25fa6469b2cd4fff0cd2
Reciphers for ciphertext: 0
Decipheredtext:           dbdbdbdbdbdbdbdbdbdbdbdbdbdbdbdbdb
RESULT CIPHER-DECIPHER: -----OK-----


Test: 37
Hash algorithm: 5
Data unit:      37
Start block:    75
Symmetric key bit length: 256
Plaintext bit length:     136
Symmetric key:            2525252525252525252525252525252525252525252525252525252525252525
Plaintext:                dadadadadadadadadadadadadadadadada
Ciphertext:               1d7beccc231947d0f82bd35ee7f471104e6b6faa82784c162ebb65302152a28bd3f95d76b406f0e96070998972
Reciphers for ciphertext: 0
Decipheredtext:           dadadadadadadadadadadadadadadadada
RESULT CIPHER-DECIPHER: -----OK-----


Test: 38
Hash algorithm: 0
Data unit:      38
Start block:    77
Symmetric key bit length: 256
Plaintext bit length:     136
Symmetric key:            2626262626262626262626262626262626262626262626262626262626262626
Plaintext:                d9d9d9d9d9d9d9d9d9d9d9d9d9d9d9d9d9
Ciphertext:               4a1dde1471946e3970594933dd6d302452ca04097f655e0866230bfbf6887c4280b1d09bda
Reciphers for ciphertext: 0
Decipheredtext:           d9d9d9d9d9d9d9d9d9d9d9d9d9d9d9d9d9
RESULT CIPHER-DECIPHER: -----OK-----


Test: 39
Hash algorithm: 9
Data unit:      39
Start block:    79
Symmetric key bit length: 256
Plaintext bit length:     136
Symmetric key:            2727272727272727272727272727272727272727272727272727272727272727
Plaintext:                d8d8d8d8d8d8d8d8d8d8d8d8d8d8d8d8d8
Ciphertext:               1a71e3599da1420402a451d1520266eca050505b0d98581c5bd28cc9a30f6f5865c446d52662150f9329c46cb55f9e638b
Reciphers for ciphertext: 0
Decipheredtext:           d8d8d8d8d8d8d8d8d8d8d8d8d8d8d8d8d8
RESULT CIPHER-DECIPHER: -----OK-----


Test: 40
Hash algorithm: 0
Data unit:      40
Start block:    81
Symmetric key bit length: 256
Plaintext bit length:     136
Symmetric key:            2828282828282828282828282828282828282828282828282828282828282828
Plaintext:                d7d7d7d7d7d7d7d7d7d7d7d7d7d7d7d7d7
Ciphertext:               d8f6be0689511823998e692b885cb0af5b21c01f507455e18cf6573fe851b265eb200280f4
Reciphers for ciphertext: 0
Decipheredtext:           d7d7d7d7d7d7d7d7d7d7d7d7d7d7d7d7d7
RESULT CIPHER-DECIPHER: -----OK-----


Test: 41
Hash algorithm: 8
Data unit:      41
Start block:    83
Symmetric key bit length: 256
Plaintext bit length:     136
Symmetric key:            2929292929292929292929292929292929292929292929292929292929292929
Plaintext:                d6d6d6d6d6d6d6d6d6d6d6d6d6d6d6d6d6
Ciphertext:               49f0e47780f7514b15703634f9c8eed11eab611f5bfaaee989505bafabd5c733edc357b134
Reciphers for ciphertext: 0
Decipheredtext:           d6d6d6d6d6d6d6d6d6d6d6d6d6d6d6d6d6
RESULT CIPHER-DECIPHER: -----OK-----


Test: 42
Hash algorithm: 2
Data unit:      42
Start block:    85
Symmetric key bit length: 256
Plaintext bit length:     136
Symmetric key:            2a2a2a2a2a2a2a2a2a2a2a2a2a2a2a2a2a2a2a2a2a2a2a2a2a2a2a2a2a2a2a2a
Plaintext:                d5d5d5d5d5d5d5d5d5d5d5d5d5d5d5d5d5
Ciphertext:               ff8cfef5aaaf9ae0b61e3023b71ea8a55f09afccf5acfed13c02603c2a1645a709dd4b91de0a0368da386be207b0ce2ae5
Reciphers for ciphertext: 0
Decipheredtext:           d5d5d5d5d5d5d5d5d5d5d5d5d5d5d5d5d5
RESULT CIPHER-DECIPHER: -----OK-----


Test: 43
Hash algorithm: 13
Data unit:      43
Start block:    87
Symmetric key bit length: 256
Plaintext bit length:     136
Symmetric key:            2b2b2b2b2b2b2b2b2b2b2b2b2b2b2b2b2b2b2b2b2b2b2b2b2b2b2b2b2b2b2b2b
Plaintext:                d4d4d4d4d4d4d4d4d4d4d4d4d4d4d4d4d4
Ciphertext:               cf7c76f64585dee4f3d59729d235e79b4777c636eff0619febbbe89de6233170c1
Reciphers for ciphertext: 0
Decipheredtext:           d4d4d4d4d4d4d4d4d4d4d4d4d4d4d4d4d4
RESULT CIPHER-DECIPHER: -----OK-----


Test: 44
Hash algorithm: 10
Data unit:      44
Start block:    89
Symmetric key bit length: 256
Plaintext bit length:     136
Symmetric key:            2c2c2c2c2c2c2c2c2c2c2c2c2c2c2c2c2c2c2c2c2c2c2c2c2c2c2c2c2c2c2c2c
Plaintext:                d3d3d3d3d3d3d3d3d3d3d3d3d3d3d3d3d3
Ciphertext:               4dacaf084c16d41f2b98d733672810368abbfcbd89c8401e6e93c21f40ce08755b6df89f0820faae4a9f5c7ae3f29c1911aec5d8657860f995
Reciphers for ciphertext: 0
Decipheredtext:           d3d3d3d3d3d3d3d3d3d3d3d3d3d3d3d3d3
RESULT CIPHER-DECIPHER: -----OK-----


Test: 45
Hash algorithm: 7
Data unit:      45
Start block:    91
Symmetric key bit length: 256
Plaintext bit length:     136
Symmetric key:            2d2d2d2d2d2d2d2d2d2d2d2d2d2d2d2d2d2d2d2d2d2d2d2d2d2d2d2d2d2d2d2d
Plaintext:                d2d2d2d2d2d2d2d2d2d2d2d2d2d2d2d2d2
Ciphertext:               a39d495fc8f8881c9fe3e9bbd0d2e64d16fb309c621ae449ad9ada06ae23aaea39
Reciphers for ciphertext: 0
Decipheredtext:           d2d2d2d2d2d2d2d2d2d2d2d2d2d2d2d2d2
RESULT CIPHER-DECIPHER: -----OK-----


Test: 46
Hash algorithm: 7
Data unit:      46
Start block:    93
Symmetric key bit length: 256
Plaintext bit length:     136
Symmetric key:            2e2e2e2e2e2e2e2e2e2e2e2e2e2e2e2e2e2e2e2e2e2e2e2e2e2e2e2e2e2e2e2e
Plaintext:                d1d1d1d1d1d1d1d1d1d1d1d1d1d1d1d1d1
Ciphertext:               c20a332929d8a26cd295bec078620f6f65075099e938beda2439259acc6c74a494
Reciphers for ciphertext: 0
Decipheredtext:           d1d1d1d1d1d1d1d1d1d1d1d1d1d1d1d1d1
RESULT CIPHER-DECIPHER: -----OK-----


Test: 47
Hash algorithm: 2
Data unit:      47
Start block:    95
Symmetric key bit length: 256
Plaintext bit length:     136
Symmetric key:            2f2f2f2f2f2f2f2f2f2f2f2f2f2f2f2f2f2f2f2f2f2f2f2f2f2f2f2f2f2f2f2f
Plaintext:                d0d0d0d0d0d0d0d0d0d0d0d0d0d0d0d0d0
Ciphertext:               59b88107fe452d540994f5954a247305151daf4cc67a94dd2b18526c14afcd6e0fc407f9c665a30cbe9aa3bbfc54bf94de
Reciphers for ciphertext: 0
Decipheredtext:           d0d0d0d0d0d0d0d0d0d0d0d0d0d0d0d0d0
RESULT CIPHER-DECIPHER: -----OK-----


Test: 48
Hash algorithm: 8
Data unit:      48
Start block:    97
Symmetric key bit length: 256
Plaintext bit length:     136
Symmetric key:            3030303030303030303030303030303030303030303030303030303030303030
Plaintext:                cfcfcfcfcfcfcfcfcfcfcfcfcfcfcfcfcf
Ciphertext:               637872861c599176f5bd003744daed04a428abf8b0ab0342a8d64257c56e0110f08b388b66
Reciphers for ciphertext: 0
Decipheredtext:           cfcfcfcfcfcfcfcfcfcfcfcfcfcfcfcfcf
RESULT CIPHER-DECIPHER: -----OK-----


Test: 49
Hash algorithm: 10
Data unit:      49
Start block:    99
Symmetric key bit length: 256
Plaintext bit length:     136
Symmetric key:            3131313131313131313131313131313131313131313131313131313131313131
Plaintext:                cecececececececececececececececece
Ciphertext:               ac9d893cf4a9e11e28cf6d0040410df0cb4891a7ef1e8f58b917cd25731a9ef981c61b781c1798a3bc01400c2bebc6cb4c3df401c1a024a4d6
Reciphers for ciphertext: 0
Decipheredtext:           cecececececececececececececececece
RESULT CIPHER-DECIPHER: -----OK-----


Test: 50
Hash algorithm: 10
Data unit:      50
Start block:    101
Symmetric key bit length: 256
Plaintext bit length:     136
Symmetric key:            3232323232323232323232323232323232323232323232323232323232323232
Plaintext:                cdcdcdcdcdcdcdcdcdcdcdcdcdcdcdcdcd
Ciphertext:               27167137d6f8bb0a22178c57faf9ad24fbf65e396017d163d851b6e072ad0820d5ce9b624ea045b3460dbbc02fce5e8d5b1a7400dbde476fa4
Reciphers for ciphertext: 0
Decipheredtext:           cdcdcdcdcdcdcdcdcdcdcdcdcdcdcdcdcd
RESULT CIPHER-DECIPHER: -----OK-----


Test: 51
Hash algorithm: 11
Data unit:      51
Start block:    103
Symmetric key bit length: 256
Plaintext bit length:     136
Symmetric key:            3333333333333333333333333333333333333333333333333333333333333333
Plaintext:                cccccccccccccccccccccccccccccccccc
Ciphertext:               8380480511a2a6503e0326b754487271e95f02be77a1cc7bd2e928d955ec5444a8
Reciphers for ciphertext: 0
Decipheredtext:           cccccccccccccccccccccccccccccccccc
RESULT CIPHER-DECIPHER: -----OK-----


Test: 52
Hash algorithm: 3
Data unit:      52
Start block:    105
Symmetric key bit length: 256
Plaintext bit length:     136
Symmetric key:            3434343434343434343434343434343434343434343434343434343434343434
Plaintext:                cbcbcbcbcbcbcbcbcbcbcbcbcbcbcbcbcb
Ciphertext:               19a80c5bc4a7825a397fdcb2d124903e1c7a0e92e385498d05e4e130b5f476a8f9f315056ed77fc03d02af2c4b37ee095b0344eeedec58787988a68e6f39fb54c5
Reciphers for ciphertext: 0
Decipheredtext:           cbcbcbcbcbcbcbcbcbcbcbcbcbcbcbcbcb
RESULT CIPHER-DECIPHER: -----OK-----


Test: 53
Hash algorithm: 2
Data unit:      53
Start block:    107
Symmetric key bit length: 256
Plaintext bit length:     136
Symmetric key:            3535353535353535353535353535353535353535353535353535353535353535
Plaintext:                cacacacacacacacacacacacacacacacaca
Ciphertext:               37bee969e1704ca5fab1defa1423003c1683755d96d043ff0da14fd2d91a5bb3130a997ae791cb3e03b948aad073e5566f
Reciphers for ciphertext: 0
Decipheredtext:           cacacacacacacacacacacacacacacacaca
RESULT CIPHER-DECIPHER: -----OK-----


Test: 54
Hash algorithm: 2
Data unit:      54
Start block:    109
Symmetric key bit length: 256
Plaintext bit length:     136
Symmetric key:            3636363636363636363636363636363636363636363636363636363636363636
Plaintext:                c9c9c9c9c9c9c9c9c9c9c9c9c9c9c9c9c9
Ciphertext:               80891e359474ad652d7d5cffdbaf87af56d6db979f592d398c82f98cca8c1e107549bb6509e3de149eac04c220b8986608
Reciphers for ciphertext: 0
Decipheredtext:           c9c9c9c9c9c9c9c9c9c9c9c9c9c9c9c9c9
RESULT CIPHER-DECIPHER: -----OK-----


Test: 55
Hash algorithm: 4
Data unit:      55
Start block:    111
Symmetric key bit length: 256
Plaintext bit length:     136
Symmetric key:            3737373737373737373737373737373737373737373737373737373737373737
Plaintext:                c8c8c8c8c8c8c8c8c8c8c8c8c8c8c8c8c8
Ciphertext:               098ed085df4b7928a6344df575575a61058ef37b10b036444eebe2188d6dae377f19c937706099acbf841446503dfee8638a0dddfa7afee8d184e349bf77ec23e5e3d5309e34d3a70e768c1d4ff05c1264
Reciphers for ciphertext: 0
Decipheredtext:           c8c8c8c8c8c8c8c8c8c8c8c8c8c8c8c8c8
RESULT CIPHER-DECIPHER: -----OK-----


Test: 56
Hash algorithm: 2
Data unit:      56
Start block:    113
Symmetric key bit length: 256
Plaintext bit length:     136
Symmetric key:            3838383838383838383838383838383838383838383838383838383838383838
Plaintext:                c7c7c7c7c7c7c7c7c7c7c7c7c7c7c7c7c7
Ciphertext:               300083822c3e53d9f7f7ce380b75d6a402a08a769ae650b0098eddc000631416bebed536c1fb0d2485db9a113765db4196
Reciphers for ciphertext: 0
Decipheredtext:           c7c7c7c7c7c7c7c7c7c7c7c7c7c7c7c7c7
RESULT CIPHER-DECIPHER: -----OK-----


Test: 57
Hash algorithm: 1
Data unit:      57
Start block:    115
Symmetric key bit length: 256
Plaintext bit length:     136
Symmetric key:            3939393939393939393939393939393939393939393939393939393939393939
Plaintext:                c6c6c6c6c6c6c6c6c6c6c6c6c6c6c6c6c6
Ciphertext:               4a042bd15d330b4485336ce6128c407ee87ad7bad7f7796f441665c93191bd6bd65b0a42403127779dc1c431e5
Reciphers for ciphertext: 0
Decipheredtext:           c6c6c6c6c6c6c6c6c6c6c6c6c6c6c6c6c6
RESULT CIPHER-DECIPHER: -----OK-----


Test: 58
Hash algorithm: 2
Data unit:      58
Start block:    117
Symmetric key bit length: 256
Plaintext bit length:     136
Symmetric key:            3a3a3a3a3a3a3a3a3a3a3a3a3a3a3a3a3a3a3a3a3a3a3a3a3a3a3a3a3a3a3a3a
Plaintext:                c5c5c5c5c5c5c5c5c5c5c5c5c5c5c5c5c5
Ciphertext:               b3129e83500c00c2fb7e83efca4adcede7fe0676ba4c508b3161bc44c77c269ddb2c00ea6fb1c52c986702cc96d6493664
Reciphers for ciphertext: 0
Decipheredtext:           c5c5c5c5c5c5c5c5c5c5c5c5c5c5c5c5c5
RESULT CIPHER-DECIPHER: -----OK-----


Test: 59
Hash algorithm: 0
Data unit:      59
Start block:    119
Symmetric key bit length: 256
Plaintext bit length:     136
Symmetric key:            3b3b3b3b3b3b3b3b3b3b3b3b3b3b3b3b3b3b3b3b3b3b3b3b3b3b3b3b3b3b3b3b
Plaintext:                c4c4c4c4c4c4c4c4c4c4c4c4c4c4c4c4c4
Ciphertext:               2f6545189c6b210ff902e741a100989eefd838188030e57088247f4248e6c04c6ff86af177
Reciphers for ciphertext: 0
Decipheredtext:           c4c4c4c4c4c4c4c4c4c4c4c4c4c4c4c4c4
RESULT CIPHER-DECIPHER: -----OK-----


Test: 60
Hash algorithm: 7
Data unit:      60
Start block:    121
Symmetric key bit length: 256
Plaintext bit length:     136
Symmetric key:            3c3c3c3c3c3c3c3c3c3c3c3c3c3c3c3c3c3c3c3c3c3c3c3c3c3c3c3c3c3c3c3c
Plaintext:                c3c3c3c3c3c3c3c3c3c3c3c3c3c3c3c3c3
Ciphertext:               918b52c1425c322370724e269a33b435636b37fb1d2142581994c1836c66ddbaec
Reciphers for ciphertext: 0
Decipheredtext:           c3c3c3c3c3c3c3c3c3c3c3c3c3c3c3c3c3
RESULT CIPHER-DECIPHER: -----OK-----


Test: 61
Hash algorithm: 11
Data unit:      61
Start block:    123
Symmetric key bit length: 256
Plaintext bit length:     136
Symmetric key:            3d3d3d3d3d3d3d3d3d3d3d3d3d3d3d3d3d3d3d3d3d3d3d3d3d3d3d3d3d3d3d3d
Plaintext:                c2c2c2c2c2c2c2c2c2c2c2c2c2c2c2c2c2
Ciphertext:               6cd4df2679f8b95600b761edfee7e6669c4dc5dbaeead766ed9370cf7f91c7d16f
Reciphers for ciphertext: 0
Decipheredtext:           c2c2c2c2c2c2c2c2c2c2c2c2c2c2c2c2c2
RESULT CIPHER-DECIPHER: -----OK-----


Test: 62
Hash algorithm: 9
Data unit:      62
Start block:    125
Symmetric key bit length: 256
Plaintext bit length:     136
Symmetric key:            3e3e3e3e3e3e3e3e3e3e3e3e3e3e3e3e3e3e3e3e3e3e3e3e3e3e3e3e3e3e3e3e
Plaintext:                c1c1c1c1c1c1c1c1c1c1c1c1c1c1c1c1c1
Ciphertext:               1521e69a5bf4fcb67df399c186e052f62a4e225cc17ef52deebc40140cc5ce2f9810330cac2a095dfb49f71e5132f36782
Reciphers for ciphertext: 0
Decipheredtext:           c1c1c1c1c1c1c1c1c1c1c1c1c1c1c1c1c1
RESULT CIPHER-DECIPHER: -----OK-----


Test: 63
Hash algorithm: 11
Data unit:      63
Start block:    127
Symmetric key bit length: 256
Plaintext bit length:     136
Symmetric key:            3f3f3f3f3f3f3f3f3f3f3f3f3f3f3f3f3f3f3f3f3f3f3f3f3f3f3f3f3f3f3f3f
Plaintext:                c0c0c0c0c0c0c0c0c0c0c0c0c0c0c0c0c0
Ciphertext:               9d00ee05227beef057892aa288b4196e46106e3ba97f83a7d06ed5a5c65031cc68
Reciphers for ciphertext: 0
Decipheredtext:           c0c0c0c0c0c0c0c0c0c0c0c0c0c0c0c0c0
RESULT CIPHER-DECIPHER: -----OK-----


Test: 64
Hash algorithm: 11
Data unit:      64
Start block:    129
Symmetric key bit length: 256
Plaintext bit length:     136
Symmetric key:            4040404040404040404040404040404040404040404040404040404040404040
Plaintext:                bfbfbfbfbfbfbfbfbfbfbfbfbfbfbfbfbf
Ciphertext:               31bc7c6b462f52eeb2fb4967536384d7dad21b8d780ea076d2af4692d9da9eb78f
Reciphers for ciphertext: 0
Decipheredtext:           bfbfbfbfbfbfbfbfbfbfbfbfbfbfbfbfbf
RESULT CIPHER-DECIPHER: -----OK-----


Test: 65
Hash algorithm: 12
Data unit:      65
Start block:    131
Symmetric key bit length: 256
Plaintext bit length:     136
Symmetric key:            4141414141414141414141414141414141414141414141414141414141414141
Plaintext:                bebebebebebebebebebebebebebebebebe
Ciphertext:               d0c77fee024989c2810e6435169c571563ba7a16f6527b102dfd0fde27d58ea91c
Reciphers for ciphertext: 0
Decipheredtext:           bebebebebebebebebebebebebebebebebe
RESULT CIPHER-DECIPHER: -----OK-----


Test: 66
Hash algorithm: 4
Data unit:      66
Start block:    133
Symmetric key bit length: 256
Plaintext bit length:     136
Symmetric key:            4242424242424242424242424242424242424242424242424242424242424242
Plaintext:                bdbdbdbdbdbdbdbdbdbdbdbdbdbdbdbdbd
Ciphertext:               2ec25e0321612e0d962ff3bb9641012dc3f46b6d37cf6635bcefbd559802a48ecd3ce5cb2b4101eeb6f8413d3100e693173f3a7e26c20f6c0b6c6cd9a566da7247ae036be529536f222c0d4e799b4a3f1a
Reciphers for ciphertext: 0
Decipheredtext:           bdbdbdbdbdbdbdbdbdbdbdbdbdbdbdbdbd
RESULT CIPHER-DECIPHER: -----OK-----


Test: 67
Hash algorithm: 13
Data unit:      67
Start block:    135
Symmetric key bit length: 256
Plaintext bit length:     136
Symmetric key:            4343434343434343434343434343434343434343434343434343434343434343
Plaintext:                bcbcbcbcbcbcbcbcbcbcbcbcbcbcbcbcbc
Ciphertext:               0966a69159acedfaf28cbb4241b83e4e3841c3d7dd44183a6e3b37b5c3e8d8991f
Reciphers for ciphertext: 0
Decipheredtext:           bcbcbcbcbcbcbcbcbcbcbcbcbcbcbcbcbc
RESULT CIPHER-DECIPHER: -----OK-----


Test: 68
Hash algorithm: 4
Data unit:      68
Start block:    137
Symmetric key bit length: 256
Plaintext bit length:     136
Symmetric key:            4444444444444444444444444444444444444444444444444444444444444444
Plaintext:                bbbbbbbbbbbbbbbbbbbbbbbbbbbbbbbbbb
Ciphertext:               f16e005d7ae0b15a6707ff35ac1c126f637290056d66097a8898a7708dd319acd095969e0f6023d96be56e1322d2a085bea7febc8075dcfee9a2eb4f5ac923d8650736f71177e4c4084719a9a3e884e583
Reciphers for ciphertext: 0
Decipheredtext:           bbbbbbbbbbbbbbbbbbbbbbbbbbbbbbbbbb
RESULT CIPHER-DECIPHER: -----OK-----


Test: 69
Hash algorithm: 10
Data unit:      69
Start block:    139
Symmetric key bit length: 256
Plaintext bit length:     136
Symmetric key:            4545454545454545454545454545454545454545454545454545454545454545
Plaintext:                bababababababababababababababababa
Ciphertext:               ed3ce2378b104be33263312312d974ed83ddb8049008aea9ea720986ed8917367fab70132fd655fc153c95ff99e1383fab9c7fa0d53b70c92f
Reciphers for ciphertext: 0
Decipheredtext:           bababababababababababababababababa
RESULT CIPHER-DECIPHER: -----OK-----


Test: 70
Hash algorithm: 13
Data unit:      70
Start block:    141
Symmetric key bit length: 256
Plaintext bit length:     136
Symmetric key:            4646464646464646464646464646464646464646464646464646464646464646
Plaintext:                b9b9b9b9b9b9b9b9b9b9b9b9b9b9b9b9b9
Ciphertext:               c8e1f227a99d6447eaaf7cc2d2816eaeb09286f96b173e5f9cda01950e58f42d60
Reciphers for ciphertext: 0
Decipheredtext:           b9b9b9b9b9b9b9b9b9b9b9b9b9b9b9b9b9
RESULT CIPHER-DECIPHER: -----OK-----


Test: 71
Hash algorithm: 13
Data unit:      71
Start block:    143
Symmetric key bit length: 256
Plaintext bit length:     136
Symmetric key:            4747474747474747474747474747474747474747474747474747474747474747
Plaintext:                b8b8b8b8b8b8b8b8b8b8b8b8b8b8b8b8b8
Ciphertext:               17f021972e7dc293345049cef0162562506783f95a2575536ed8a28e5b67451b98
Reciphers for ciphertext: 0
Decipheredtext:           b8b8b8b8b8b8b8b8b8b8b8b8b8b8b8b8b8
RESULT CIPHER-DECIPHER: -----OK-----


Test: 72
Hash algorithm: 0
Data unit:      72
Start block:    145
Symmetric key bit length: 256
Plaintext bit length:     136
Symmetric key:            4848484848484848484848484848484848484848484848484848484848484848
Plaintext:                b7b7b7b7b7b7b7b7b7b7b7b7b7b7b7b7b7
Ciphertext:               2a48bef65f02a17a4ff89925703fb1a5dcc8eca13d8e409101830bb4075e1cb8e8fb7c17c5
Reciphers for ciphertext: 0
Decipheredtext:           b7b7b7b7b7b7b7b7b7b7b7b7b7b7b7b7b7
RESULT CIPHER-DECIPHER: -----OK-----


Test: 73
Hash algorithm: 5
Data unit:      73
Start block:    147
Symmetric key bit length: 256
Plaintext bit length:     136
Symmetric key:            4949494949494949494949494949494949494949494949494949494949494949
Plaintext:                b6b6b6b6b6b6b6b6b6b6b6b6b6b6b6b6b6
Ciphertext:               e4d3851d12873ba086762882eec2fba7d192f8e4c4feb0e47807bdcc3d8091d30b71d09ad724fc85bc49bfcf9f
Reciphers for ciphertext: 0
Decipheredtext:           b6b6b6b6b6b6b6b6b6b6b6b6b6b6b6b6b6
RESULT CIPHER-DECIPHER: -----OK-----


Test: 74
Hash algorithm: 4
Data unit:      74
Start block:    149
Symmetric key bit length: 256
Plaintext bit length:     136
Symmetric key:            4a4a4a4a4a4a4a4a4a4a4a4a4a4a4a4a4a4a4a4a4a4a4a4a4a4a4a4a4a4a4a4a
Plaintext:                b5b5b5b5b5b5b5b5b5b5b5b5b5b5b5b5b5
Ciphertext:               2a4639e2bb34bdc07b77c6544ccacb5331f58c005eaa8a295ecd57f9d68b29541bc9cb98c3b8af94b40821bca625ba8ebb1c778e8d0ff68a6395a28c7ef0ea8c0980299122e46ff2c8dba9631fb74d80a0
Reciphers for ciphertext: 0
Decipheredtext:           b5b5b5b5b5b5b5b5b5b5b5b5b5b5b5b5b5
RESULT CIPHER-DECIPHER: -----OK-----


Test: 75
Hash algorithm: 13
Data unit:      75
Start block:    151
Symmetric key bit length: 256
Plaintext bit length:     136
Symmetric key:            4b4b4b4b4b4b4b4b4b4b4b4b4b4b4b4b4b4b4b4b4b4b4b4b4b4b4b4b4b4b4b4b
Plaintext:                b4b4b4b4b4b4b4b4b4b4b4b4b4b4b4b4b4
Ciphertext:               139eaab8b3359aaa1f7ba51b74643775f11b01fd99a6d23ce3e739812de12e5e9f
Reciphers for ciphertext: 0
Decipheredtext:           b4b4b4b4b4b4b4b4b4b4b4b4b4b4b4b4b4
RESULT CIPHER-DECIPHER: -----OK-----


Test: 76
Hash algorithm: 0
Data unit:      76
Start block:    153
Symmetric key bit length: 256
Plaintext bit length:     136
Symmetric key:            4c4c4c4c4c4c4c4c4c4c4c4c4c4c4c4c4c4c4c4c4c4c4c4c4c4c4c4c4c4c4c4c
Plaintext:                b3b3b3b3b3b3b3b3b3b3b3b3b3b3b3b3b3
Ciphertext:               bd37e7b9534822905fcd5fbb0532287e5e58f3f19e198484ecdb36d983b00c346f317a6bd9
Reciphers for ciphertext: 0
Decipheredtext:           b3b3b3b3b3b3b3b3b3b3b3b3b3b3b3b3b3
RESULT CIPHER-DECIPHER: -----OK-----


Test: 77
Hash algorithm: 4
Data unit:      77
Start block:    155
Symmetric key bit length: 256
Plaintext bit length:     136
Symmetric key:            4d4d4d4d4d4d4d4d4d4d4d4d4d4d4d4d4d4d4d4d4d4d4d4d4d4d4d4d4d4d4d4d
Plaintext:                b2b2b2b2b2b2b2b2b2b2b2b2b2b2b2b2b2
Ciphertext:               1881e7c04cf2d8f5767f3057d9502263d5274343aac6f8dba0611271818f0ad87e47bd805f53a0dc60c1887e6267503801c42a055cd1d8111a8c0aabb3be516b7d1aa43982750e6ac29c1d10f7a537b5ee
Reciphers for ciphertext: 0
Decipheredtext:           b2b2b2b2b2b2b2b2b2b2b2b2b2b2b2b2b2
RESULT CIPHER-DECIPHER: -----OK-----


Test: 78
Hash algorithm: 1
Data unit:      78
Start block:    157
Symmetric key bit length: 256
Plaintext bit length:     136
Symmetric key:            4e4e4e4e4e4e4e4e4e4e4e4e4e4e4e4e4e4e4e4e4e4e4e4e4e4e4e4e4e4e4e4e
Plaintext:                b1b1b1b1b1b1b1b1b1b1b1b1b1b1b1b1b1
Ciphertext:               7d997587a88aec23c3c73d5401b7ac1a92783e0f426b8a4005c00fbc87324a5d19fd781a9a0201e5468344acf1
Reciphers for ciphertext: 0
Decipheredtext:           b1b1b1b1b1b1b1b1b1b1b1b1b1b1b1b1b1
RESULT CIPHER-DECIPHER: -----OK-----


Test: 79
Hash algorithm: 11
Data unit:      79
Start block:    159
Symmetric key bit length: 256
Plaintext bit length:     136
Symmetric key:            4f4f4f4f4f4f4f4f4f4f4f4f4f4f4f4f4f4f4f4f4f4f4f4f4f4f4f4f4f4f4f4f
Plaintext:                b0b0b0b0b0b0b0b0b0b0b0b0b0b0b0b0b0
Ciphertext:               a11663c1e7f7c1a824cd173508802b7e5f048e7631044c9e0978e3408eabeecb27
Reciphers for ciphertext: 0
Decipheredtext:           b0b0b0b0b0b0b0b0b0b0b0b0b0b0b0b0b0
RESULT CIPHER-DECIPHER: -----OK-----


Test: 80
Hash algorithm: 7
Data unit:      80
Start block:    161
Symmetric key bit length: 256
Plaintext bit length:     136
Symmetric key:            5050505050505050505050505050505050505050505050505050505050505050
Plaintext:                afafafafafafafafafafafafafafafafaf
Ciphertext:               5a6d29c5d147a0c5e10f1887cf0f26230bf91eeb286c4f854cffef648199625d09
Reciphers for ciphertext: 0
Decipheredtext:           afafafafafafafafafafafafafafafafaf
RESULT CIPHER-DECIPHER: -----OK-----


Test: 81
Hash algorithm: 4
Data unit:      81
Start block:    163
Symmetric key bit length: 256
Plaintext bit length:     136
Symmetric key:            5151515151515151515151515151515151515151515151515151515151515151
Plaintext:                aeaeaeaeaeaeaeaeaeaeaeaeaeaeaeaeae
Ciphertext:               9b82a22267283e60de8b8f147f24e11d2817ee3a6eaa9abd65ef73e62fc3ddad7244d1676010e0a77339a976563115fed83afd0cca16f0cf802aff42ae63e37fa9fb0f683ba0591089ff1408a5fc3d0e31
Reciphers for ciphertext: 0
Decipheredtext:           aeaeaeaeaeaeaeaeaeaeaeaeaeaeaeaeae
RESULT CIPHER-DECIPHER: -----OK-----


Test: 82
Hash algorithm: 4
Data unit:      82
Start block:    165
Symmetric key bit length: 256
Plaintext bit length:     136
Symmetric key:            5252525252525252525252525252525252525252525252525252525252525252
Plaintext:                adadadadadadadadadadadadadadadadad
Ciphertext:               3b921893f781e9fa4b6a66e2bf6ba4414ed715cdfd0a7fb5bee5bef8dac49c619898bef46de5facd85bcd0024f0fecf6e3fe16861a482eeeadfa179d3cda12049a9f66091f7e9b18c5b81734e479829c24
Reciphers for ciphertext: 0
Decipheredtext:           adadadadadadadadadadadadadadadadad
RESULT CIPHER-DECIPHER: -----OK-----


Test: 83
Hash algorithm: 9
Data unit:      83
Start block:    167
Symmetric key bit length: 256
Plaintext bit length:     136
Symmetric key:            5353535353535353535353535353535353535353535353535353535353535353
Plaintext:                acacacacacacacacacacacacacacacacac
Ciphertext:               0054bc95099166ad1904cfdb3b3447cb9e5f72a0e90a13e22ab3bcee2a25c6094fef620bcc25a453b5d1a7aba0b0da9d7b
Reciphers for ciphertext: 0
Decipheredtext:           acacacacacacacacacacacacacacacacac
RESULT CIPHER-DECIPHER: -----OK-----


Test: 84
Hash algorithm: 9
Data unit:      84
Start block:    169
Symmetric key bit length: 256
Plaintext bit length:     136
Symmetric key:            5454545454545454545454545454545454545454545454545454545454545454
Plaintext:                ababababababababababababababababab
Ciphertext:               d20fc4f5567044fdc7657537739c724fc58d874181b0972e0845328de22771c0154ae648f80bf5214f960b27dc551b452d
Reciphers for ciphertext: 0
Decipheredtext:           ababababababababababababababababab
RESULT CIPHER-DECIPHER: -----OK-----


Test: 85
Hash algorithm: 12
Data unit:      85
Start block:    171
Symmetric key bit length: 256
Plaintext bit length:     136
Symmetric key:            5555555555555555555555555555555555555555555555555555555555555555
Plaintext:                aaaaaaaaaaaaaaaaaaaaaaaaaaaaaaaaaa
Ciphertext:               74c0675c4477c1d40934b05f449c54d0d95428362a36653a49469fdf59536f0b1c
Reciphers for ciphertext: 0
Decipheredtext:           aaaaaaaaaaaaaaaaaaaaaaaaaaaaaaaaaa
RESULT CIPHER-DECIPHER: -----OK-----


Test: 86
Hash algorithm: 0
Data unit:      86
Start block:    173
Symmetric key bit length: 256
Plaintext bit length:     136
Symmetric key:            5656565656565656565656565656565656565656565656565656565656565656
Plaintext:                a9a9a9a9a9a9a9a9a9a9a9a9a9a9a9a9a9
Ciphertext:               c7984a6fbef0ab6e94d644eab95c7b88e71413a66b2c4bc518f47c546ad300d43250265007
Reciphers for ciphertext: 0
Decipheredtext:           a9a9a9a9a9a9a9a9a9a9a9a9a9a9a9a9a9
RESULT CIPHER-DECIPHER: -----OK-----


Test: 87
Hash algorithm: 13
Data unit:      87
Start block:    175
Symmetric key bit length: 256
Plaintext bit length:     136
Symmetric key:            5757575757575757575757575757575757575757575757575757575757575757
Plaintext:                a8a8a8a8a8a8a8a8a8a8a8a8a8a8a8a8a8
Ciphertext:               5615ca1dd78fccfbc94f80fa1a4e12029c72ad4d99cf15b05c047d8790c8cf5dec
Reciphers for ciphertext: 0
Decipheredtext:           a8a8a8a8a8a8a8a8a8a8a8a8a8a8a8a8a8
RESULT CIPHER-DECIPHER: -----OK-----


Test: 88
Hash algorithm: 3
Data unit:      88
Start block:    177
Symmetric key bit length: 256
Plaintext bit length:     136
Symmetric key:            5858585858585858585858585858585858585858585858585858585858585858
Plaintext:                a7a7a7a7a7a7a7a7a7a7a7a7a7a7a7a7a7
Ciphertext:               7f7d49be93351abe49becc4bacb21b44fa295183065d163d69cb41f7871a8f656f1efc06b5697893ca96f0a9d31bef65f88bbf357ab7f811152e3bded0c49cadbe
Reciphers for ciphertext: 0
Decipheredtext:           a7a7a7a7a7a7a7a7a7a7a7a7a7a7a7a7a7
RESULT CIPHER-DECIPHER: -----OK-----


Test: 89
Hash algorithm: 10
Data unit:      89
Start block:    179
Symmetric key bit length: 256
Plaintext bit length:     136
Symmetric key:            5959595959595959595959595959595959595959595959595959595959595959
Plaintext:                a6a6a6a6a6a6a6a6a6a6a6a6a6a6a6a6a6
Ciphertext:               47d970f0b264cf6dec301cecc9fba1063b4cca1fd472bf0496ed21637684c820d6b2ac640e3b6083c2f3d74c7fca6e8670ab30a8fcfe3bce2c
Reciphers for ciphertext: 0
Decipheredtext:           a6a6a6a6a6a6a6a6a6a6a6a6a6a6a6a6a6
RESULT CIPHER-DECIPHER: -----OK-----


Test: 90
Hash algorithm: 5
Data unit:      90
Start block:    181
Symmetric key bit length: 256
Plaintext bit length:     136
Symmetric key:            5a5a5a5a5a5a5a5a5a5a5a5a5a5a5a5a5a5a5a5a5a5a5a5a5a5a5a5a5a5a5a5a
Plaintext:                a5a5a5a5a5a5a5a5a5a5a5a5a5a5a5a5a5
Ciphertext:               d786b51d51dde52d7c222cd96c9f73a2196aa48e7b6b0be1b768840f7558a6e65bfcffac5c62204ba505e3f00e
Reciphers for ciphertext: 0
Decipheredtext:           a5a5a5a5a5a5a5a5a5a5a5a5a5a5a5a5a5
RESULT CIPHER-DECIPHER: -----OK-----


Test: 91
Hash algorithm: 7
Data unit:      91
Start block:    183
Symmetric key bit length: 256
Plaintext bit length:     136
Symmetric key:            5b5b5b5b5b5b5b5b5b5b5b5b5b5b5b5b5b5b5b5b5b5b5b5b5b5b5b5b5b5b5b5b
Plaintext:                a4a4a4a4a4a4a4a4a4a4a4a4a4a4a4a4a4
Ciphertext:               5de53b2195e60610cfaa1d1e0e2b5ba09a3cd9d3e6cefac3b114bbeef669a0374e
Reciphers for ciphertext: 0
Decipheredtext:           a4a4a4a4a4a4a4a4a4a4a4a4a4a4a4a4a4
RESULT CIPHER-DECIPHER: -----OK-----


Test: 92
Hash algorithm: 8
Data unit:      92
Start block:    185
Symmetric key bit length: 256
Plaintext bit length:     136
Symmetric key:            5c5c5c5c5c5c5c5c5c5c5c5c5c5c5c5c5c5c5c5c5c5c5c5c5c5c5c5c5c5c5c5c
Plaintext:                a3a3a3a3a3a3a3a3a3a3a3a3a3a3a3a3a3
Ciphertext:               9b5a312870a5a0fe353db8975fd05e0491cff72276da674dad68f5ef31cf3507ead8ecdf1d
Reciphers for ciphertext: 0
Decipheredtext:           a3a3a3a3a3a3a3a3a3a3a3a3a3a3a3a3a3
RESULT CIPHER-DECIPHER: -----OK-----


Test: 93
Hash algorithm: 9
Data unit:      93
Start block:    187
Symmetric key bit length: 256
Plaintext bit length:     136
Symmetric key:            5d5d5d5d5d5d5d5d5d5d5d5d5d5d5d5d5d5d5d5d5d5d5d5d5d5d5d5d5d5d5d5d
Plaintext:                a2a2a2a2a2a2a2a2a2a2a2a2a2a2a2a2a2
Ciphertext:               ad1eed3f18784edb6ff301b45280126c33927e69b43318b3d3332a635b007c7ace6b24290da9b2de8a1eaf7e05344563ef
Reciphers for ciphertext: 0
Decipheredtext:           a2a2a2a2a2a2a2a2a2a2a2a2a2a2a2a2a2
RESULT CIPHER-DECIPHER: -----OK-----


Test: 94
Hash algorithm: 9
Data unit:      94
Start block:    189
Symmetric key bit length: 256
Plaintext bit length:     136
Symmetric key:            5e5e5e5e5e5e5e5e5e5e5e5e5e5e5e5e5e5e5e5e5e5e5e5e5e5e5e5e5e5e5e5e
Plaintext:                a1a1a1a1a1a1a1a1a1a1a1a1a1a1a1a1a1
Ciphertext:               23494d68c837347b3723ba2563b1badae684fc5ad140f15db7392efda590c62bda31e2f58f60da6b315637d2b2797af90c
Reciphers for ciphertext: 0
Decipheredtext:           a1a1a1a1a1a1a1a1a1a1a1a1a1a1a1a1a1
RESULT CIPHER-DECIPHER: -----OK-----


Test: 95
Hash algorithm: 8
Data unit:      95
Start block:    191
Symmetric key bit length: 256
Plaintext bit length:     136
Symmetric key:            5f5f5f5f5f5f5f5f5f5f5f5f5f5f5f5f5f5f5f5f5f5f5f5f5f5f5f5f5f5f5f5f
Plaintext:                a0a0a0a0a0a0a0a0a0a0a0a0a0a0a0a0a0
Ciphertext:               db70f425bfa524494077283cd812bda1c7a062b8da92e616efd431b25a14310826f17ada3d
Reciphers for ciphertext: 0
Decipheredtext:           a0a0a0a0a0a0a0a0a0a0a0a0a0a0a0a0a0
RESULT CIPHER-DECIPHER: -----OK-----


Test: 96
Hash algorithm: 10
Data unit:      96
Start block:    193
Symmetric key bit length: 256
Plaintext bit length:     136
Symmetric key:            6060606060606060606060606060606060606060606060606060606060606060
Plaintext:                9f9f9f9f9f9f9f9f9f9f9f9f9f9f9f9f9f
Ciphertext:               3fa8686fd3a0faef78a29ba900225c841a57c18121742c5a256f24e50bccbc41dd7e93c07fb45efe39ad81328a406247ce83cb720f0f2098ca
Reciphers for ciphertext: 0
Decipheredtext:           9f9f9f9f9f9f9f9f9f9f9f9f9f9f9f9f9f
RESULT CIPHER-DECIPHER: -----OK-----


Test: 97
Hash algorithm: 6
Data unit:      97
Start block:    195
Symmetric key bit length: 256
Plaintext bit length:     136
Symmetric key:            6161616161616161616161616161616161616161616161616161616161616161
Plaintext:                9e9e9e9e9e9e9e9e9e9e9e9e9e9e9e9e9e
Ciphertext:               bcd2c5ec585ce8b2e822e5cbd912be0aefbec5eacdf8132a4560fd30d2e3ad12a82e13c2866a74903abf11a95cdef0bd90
Reciphers for ciphertext: 0
Decipheredtext:           9e9e9e9e9e9e9e9e9e9e9e9e9e9e9e9e9e
RESULT CIPHER-DECIPHER: -----OK-----


Test: 98
Hash algorithm: 5
Data unit:      98
Start block:    197
Symmetric key bit length: 256
Plaintext bit length:     136
Symmetric key:            6262626262626262626262626262626262626262626262626262626262626262
Plaintext:                9d9d9d9d9d9d9d9d9d9d9d9d9d9d9d9d9d
Ciphertext:               f75c1d97307f33c72d39f9c11145e09d6c2ee6a457751c1bb8069cc0237b287f67233efaa2d68190883073d190
Reciphers for ciphertext: 0
Decipheredtext:           9d9d9d9d9d9d9d9d9d9d9d9d9d9d9d9d9d
RESULT CIPHER-DECIPHER: -----OK-----


Test: 99
Hash algorithm: 13
Data unit:      99
Start block:    199
Symmetric key bit length: 256
Plaintext bit length:     136
Symmetric key:            6363636363636363636363636363636363636363636363636363636363636363
Plaintext:                9c9c9c9c9c9c9c9c9c9c9c9c9c9c9c9c9c
Ciphertext:               c5dbcc37fe0da2ad01b0116972a51d988ac06c3a606fa7dbdeb15a78531567047e
Reciphers for ciphertext: 0
Decipheredtext:           9c9c9c9c9c9c9c9c9c9c9c9c9c9c9c9c9c
RESULT CIPHER-DECIPHER: -----OK-----


Test: 100
Hash algorithm: 13
Data unit:      100
Start block:    201
Symmetric key bit length: 256
Plaintext bit length:     136
Symmetric key:            6464646464646464646464646464646464646464646464646464646464646464
Plaintext:                9b9b9b9b9b9b9b9b9b9b9b9b9b9b9b9b9b
Ciphertext:               f090919d57a398d03ac09b8877c61fd5606e7a716db7d1881c0132005648a04f86
Reciphers for ciphertext: 0
Decipheredtext:           9b9b9b9b9b9b9b9b9b9b9b9b9b9b9b9b9b
RESULT CIPHER-DECIPHER: -----OK-----


Test: 101
Hash algorithm: 4
Data unit:      101
Start block:    203
Symmetric key bit length: 256
Plaintext bit length:     136
Symmetric key:            6565656565656565656565656565656565656565656565656565656565656565
Plaintext:                9a9a9a9a9a9a9a9a9a9a9a9a9a9a9a9a9a
Ciphertext:               9130ffc525277fc6925f0ea5bfdf6c137ae27caf6b6058af917a1e014beb3c78006aa3055a21c5a910762e4581eea326a0fa3273adb8c993b7d94093250fa4bf39b67f90054197ef529491eb2479774add
Reciphers for ciphertext: 0
Decipheredtext:           9a9a9a9a9a9a9a9a9a9a9a9a9a9a9a9a9a
RESULT CIPHER-DECIPHER: -----OK-----


Test: 102
Hash algorithm: 3
Data unit:      102
Start block:    205
Symmetric key bit length: 256
Plaintext bit length:     136
Symmetric key:            6666666666666666666666666666666666666666666666666666666666666666
Plaintext:                9999999999999999999999999999999999
Ciphertext:               d9fa5b07e93fada28765d0c48acfeed913f3446148d550270942358247ed198106c6317bb62f2b23a6a17a689baa2c9f56fd265a4afab036e4daafc23aeb2a6129
Reciphers for ciphertext: 0
Decipheredtext:           9999999999999999999999999999999999
RESULT CIPHER-DECIPHER: -----OK-----


Test: 103
Hash algorithm: 8
Data unit:      103
Start block:    207
Symmetric key bit length: 256
Plaintext bit length:     136
Symmetric key:            6767676767676767676767676767676767676767676767676767676767676767
Plaintext:                9898989898989898989898989898989898
Ciphertext:               3b3ac102b1002a3717742750dfbf867d3420b103a8945405c3ec45a2af10bc6707e017748f
Reciphers for ciphertext: 0
Decipheredtext:           9898989898989898989898989898989898
RESULT CIPHER-DECIPHER: -----OK-----


Test: 104
Hash algorithm: 6
Data unit:      104
Start block:    209
Symmetric key bit length: 256
Plaintext bit length:     136
Symmetric key:            6868686868686868686868686868686868686868686868686868686868686868
Plaintext:                9797979797979797979797979797979797
Ciphertext:               d9bb3bf88883fbbe12cec97fd65dc2847936f04acc3c0040eb58c5b9a2e932de418487f46bb6b4be3fd2d00e4211fb99e5
Reciphers for ciphertext: 0
Decipheredtext:           9797979797979797979797979797979797
RESULT CIPHER-DECIPHER: -----OK-----


Test: 105
Hash algorithm: 12
Data unit:      105
Start block:    211
Symmetric key bit length: 256
Plaintext bit length:     136
Symmetric key:            6969696969696969696969696969696969696969696969696969696969696969
Plaintext:                9696969696969696969696969696969696
Ciphertext:               50a77d46e9337c7a63c277b3e3c9ecbd789e050b180f4aa53d6949531f4ad7c1c3
Reciphers for ciphertext: 0
Decipheredtext:           9696969696969696969696969696969696
RESULT CIPHER-DECIPHER: -----OK-----


Test: 106
Hash algorithm: 5
Data unit:      106
Start block:    213
Symmetric key bit length: 256
Plaintext bit length:     136
Symmetric key:            6a6a6a6a6a6a6a6a6a6a6a6a6a6a6a6a6a6a6a6a6a6a6a6a6a6a6a6a6a6a6a6a
Plaintext:                9595959595959595959595959595959595
Ciphertext:               97fc877c99a72d07585cd6ce8a63a0f20d424c454e153362bf12e4efa3cce7578af7335892e93ec9f112f408a5
Reciphers for ciphertext: 0
Decipheredtext:           9595959595959595959595959595959595
RESULT CIPHER-DECIPHER: -----OK-----


Test: 107
Hash algorithm: 4
Data unit:      107
Start block:    215
Symmetric key bit length: 256
Plaintext bit length:     136
Symmetric key:            6b6b6b6b6b6b6b6b6b6b6b6b6b6b6b6b6b6b6b6b6b6b6b6b6b6b6b6b6b6b6b6b
Plaintext:                9494949494949494949494949494949494
Ciphertext:               9de0d519c5cec9a6c82f8f08618ef51a1d8b88e2f0b09dc981b2129426110d9321e057cbb911709402d2f70a7292744631ec0ad73c08caf46e5a816138b3bb7c8a22ec0456b558e6b6b71d4fbed6b69efe
Reciphers for ciphertext: 0
Decipheredtext:           9494949494949494949494949494949494
RESULT CIPHER-DECIPHER: -----OK-----


Test: 108
Hash algorithm: 1
Data unit:      108
Start block:    217
Symmetric key bit length: 256
Plaintext bit length:     136
Symmetric key:            6c6c6c6c6c6c6c6c6c6c6c6c6c6c6c6c6c6c6c6c6c6c6c6c6c6c6c6c6c6c6c6c
Plaintext:                9393939393939393939393939393939393
Ciphertext:               2e6506764ff8501393608aad9fdcb6bd375a592bae2862d48380f00b49a1f231b86a114acd807681055c27c709
Reciphers for ciphertext: 0
Decipheredtext:           9393939393939393939393939393939393
RESULT CIPHER-DECIPHER: -----OK-----


Test: 109
Hash algorithm: 6
Data unit:      109
Start block:    219
Symmetric key bit length: 256
Plaintext bit length:     136
Symmetric key:            6d6d6d6d6d6d6d6d6d6d6d6d6d6d6d6d6d6d6d6d6d6d6d6d6d6d6d6d6d6d6d6d
Plaintext:                9292929292929292929292929292929292
Ciphertext:               f0f4a155b654bb37a65d46fc5701ab87a00315bb91e9f73f91470b66f674817c608397cbacfdcade645887fa0fddd3b336
Reciphers for ciphertext: 0
Decipheredtext:           9292929292929292929292929292929292
RESULT CIPHER-DECIPHER: -----OK-----


Test: 110
Hash algorithm: 13
Data unit:      110
Start block:    221
Symmetric key bit length: 256
Plaintext bit length:     136
Symmetric key:            6e6e6e6e6e6e6e6e6e6e6e6e6e6e6e6e6e6e6e6e6e6e6e6e6e6e6e6e6e6e6e6e
Plaintext:                9191919191919191919191919191919191
Ciphertext:               aba28fcdb9aa7f05871fc5c2955e5ae20b8c92c1a5d070436bc4e852aa267c3908
Reciphers for ciphertext: 1
Decipheredtext:           9191919191919191919191919191919191
RESULT CIPHER-DECIPHER: -----OK-----


Test: 111
Hash algorithm: 1
Data unit:      111
Start block:    223
Symmetric key bit length: 256
Plaintext bit length:     136
Symmetric key:            6f6f6f6f6f6f6f6f6f6f6f6f6f6f6f6f6f6f6f6f6f6f6f6f6f6f6f6f6f6f6f6f
Plaintext:                9090909090909090909090909090909090
Ciphertext:               cf577da5cec1640f2c5427b9d5cf5471a80744d9f1ddfaab4ac18deecee74213c4a525cfa06857cab0e52ff91b
Reciphers for ciphertext: 0
Decipheredtext:           9090909090909090909090909090909090
RESULT CIPHER-DECIPHER: -----OK-----


Test: 112
Hash algorithm: 12
Data unit:      112
Start block:    225
Symmetric key bit length: 256
Plaintext bit length:     136
Symmetric key:            7070707070707070707070707070707070707070707070707070707070707070
Plaintext:                8f8f8f8f8f8f8f8f8f8f8f8f8f8f8f8f8f
Ciphertext:               1c3e0c6cc84a2b399f2de2e5dbf9806589f4d18219023ce202b3317aafe94da4d1
Reciphers for ciphertext: 0
Decipheredtext:           8f8f8f8f8f8f8f8f8f8f8f8f8f8f8f8f8f
RESULT CIPHER-DECIPHER: -----OK-----


Test: 113
Hash algorithm: 7
Data unit:      113
Start block:    227
Symmetric key bit length: 256
Plaintext bit length:     136
Symmetric key:            7171717171717171717171717171717171717171717171717171717171717171
Plaintext:                8e8e8e8e8e8e8e8e8e8e8e8e8e8e8e8e8e
Ciphertext:               b987f8f5b332ad3bf406d98d38bac3fdc816b612e06b88706ee178e838ec65d7f1
Reciphers for ciphertext: 0
Decipheredtext:           8e8e8e8e8e8e8e8e8e8e8e8e8e8e8e8e8e
RESULT CIPHER-DECIPHER: -----OK-----


Test: 114
Hash algorithm: 5
Data unit:      114
Start block:    229
Symmetric key bit length: 256
Plaintext bit length:     136
Symmetric key:            7272727272727272727272727272727272727272727272727272727272727272
Plaintext:                8d8d8d8d8d8d8d8d8d8d8d8d8d8d8d8d8d
Ciphertext:               f4291ff8b82d3360fb3b5ef134fa2f635cfa6d494ec4031ce16fb188ab54947a3015ee560fbeeb87845f4e5f87
Reciphers for ciphertext: 0
Decipheredtext:           8d8d8d8d8d8d8d8d8d8d8d8d8d8d8d8d8d
RESULT CIPHER-DECIPHER: -----OK-----


Test: 115
Hash algorithm: 11
Data unit:      115
Start block:    231
Symmetric key bit length: 256
Plaintext bit length:     136
Symmetric key:            7373737373737373737373737373737373737373737373737373737373737373
Plaintext:                8c8c8c8c8c8c8c8c8c8c8c8c8c8c8c8c8c
Ciphertext:               9fab7fd9e191d32916e506c13b2632d568532493f4355ec9ab3adcc7f5553f146e
Reciphers for ciphertext: 0
Decipheredtext:           8c8c8c8c8c8c8c8c8c8c8c8c8c8c8c8c8c
RESULT CIPHER-DECIPHER: -----OK-----


Test: 116
Hash algorithm: 13
Data unit:      116
Start block:    233
Symmetric key bit length: 256
Plaintext bit length:     136
Symmetric key:            7474747474747474747474747474747474747474747474747474747474747474
Plaintext:                8b8b8b8b8b8b8b8b8b8b8b8b8b8b8b8b8b
Ciphertext:               2b1e374f09804d123f27f8ec2bdda13e5675466cf0fec6b61ad743969963bdc28c
Reciphers for ciphertext: 0
Decipheredtext:           8b8b8b8b8b8b8b8b8b8b8b8b8b8b8b8b8b
RESULT CIPHER-DECIPHER: -----OK-----


Test: 117
Hash algorithm: 11
Data unit:      117
Start block:    235
Symmetric key bit length: 256
Plaintext bit length:     136
Symmetric key:            7575757575757575757575757575757575757575757575757575757575757575
Plaintext:                8a8a8a8a8a8a8a8a8a8a8a8a8a8a8a8a8a
Ciphertext:               d9e6d8d36fe94590e2b91513bcf320efd9c3eb2a85f5427d4d8cd840c8b80d1be7
Reciphers for ciphertext: 0
Decipheredtext:           8a8a8a8a8a8a8a8a8a8a8a8a8a8a8a8a8a
RESULT CIPHER-DECIPHER: -----OK-----


Test: 118
Hash algorithm: 11
Data unit:      118
Start block:    237
Symmetric key bit length: 256
Plaintext bit length:     136
Symmetric key:            7676767676767676767676767676767676767676767676767676767676767676
Plaintext:                8989898989898989898989898989898989
Ciphertext:               a15793f1c930d549df7bf2304167ad5d774e128413035d7e1f5aa50a913854a4de
Reciphers for ciphertext: 0
Decipheredtext:           8989898989898989898989898989898989
RESULT CIPHER-DECIPHER: -----OK-----


Test: 119
Hash algorithm: 8
Data unit:      119
Start block:    239
Symmetric key bit length: 256
Plaintext bit length:     136
Symmetric key:            7777777777777777777777777777777777777777777777777777777777777777
Plaintext:                8888888888888888888888888888888888
Ciphertext:               f1025547c15da3d1b7d38073bddd51c438e4cb5501d19bfd928f33e0119a1a5fff0da23a75
Reciphers for ciphertext: 0
Decipheredtext:           8888888888888888888888888888888888
RESULT CIPHER-DECIPHER: -----OK-----


Test: 120
Hash algorithm: 5
Data unit:      120
Start block:    241
Symmetric key bit length: 256
Plaintext bit length:     136
Symmetric key:            7878787878787878787878787878787878787878787878787878787878787878
Plaintext:                8787878787878787878787878787878787
Ciphertext:               dadcea811bfe347c32bc6081e49abb194d602ba680c7b48bad5d64d847a6686cb3c25462f494d03b6d66fcd69f
Reciphers for ciphertext: 0
Decipheredtext:           8787878787878787878787878787878787
RESULT CIPHER-DECIPHER: -----OK-----


Test: 121
Hash algorithm: 4
Data unit:      121
Start block:    243
Symmetric key bit length: 256
Plaintext bit length:     136
Symmetric key:            7979797979797979797979797979797979797979797979797979797979797979
Plaintext:                8686868686868686868686868686868686
Ciphertext:               cf459d25540fada9e4aca80d3c9fe73be1b07ef162fa869efda6d3b4c67ea43860ca82a0c22754f7dfc5975246bd54fb31b060150388f3126d514a6d79e70af6b27873a683f83b24176422571169140a92
Reciphers for ciphertext: 0
Decipheredtext:           8686868686868686868686868686868686
RESULT CIPHER-DECIPHER: -----OK-----


Test: 122
Hash algorithm: 10
Data unit:      122
Start block:    245
Symmetric key bit length: 256
Plaintext bit length:     136
Symmetric key:            7a7a7a7a7a7a7a7a7a7a7a7a7a7a7a7a7a7a7a7a7a7a7a7a7a7a7a7a7a7a7a7a
Plaintext:                8585858585858585858585858585858585
Ciphertext:               f4d6ff1d71065d29da5d4d104d20db93898a62ef38b616f47a1eeb5d2343905504cf895f651ff8903a2f7aff9c4bebbbecac2c8736d2500b53
Reciphers for ciphertext: 0
Decipheredtext:           8585858585858585858585858585858585
RESULT CIPHER-DECIPHER: -----OK-----


Test: 123
Hash algorithm: 11
Data unit:      123
Start block:    247
Symmetric key bit length: 256
Plaintext bit length:     136
Symmetric key:            7b7b7b7b7b7b7b7b7b7b7b7b7b7b7b7b7b7b7b7b7b7b7b7b7b7b7b7b7b7b7b7b
Plaintext:                8484848484848484848484848484848484
Ciphertext:               5434d5753a8d31701cb70af19979e86d520e50ada0d45204d312e0c5e91646e8cf
Reciphers for ciphertext: 0
Decipheredtext:           8484848484848484848484848484848484
RESULT CIPHER-DECIPHER: -----OK-----


Test: 124
Hash algorithm: 3
Data unit:      124
Start block:    249
Symmetric key bit length: 256
Plaintext bit length:     136
Symmetric key:            7c7c7c7c7c7c7c7c7c7c7c7c7c7c7c7c7c7c7c7c7c7c7c7c7c7c7c7c7c7c7c7c
Plaintext:                8383838383838383838383838383838383
Ciphertext:               72d399799d172591d3a7c8cb4bbc2de867dcc616f743769c9e902ba6ced325094b8f85cc07af4824e1525597fe75f55aa04ca42e310739e6d52e9b12319c59c16e
Reciphers for ciphertext: 0
Decipheredtext:           8383838383838383838383838383838383
RESULT CIPHER-DECIPHER: -----OK-----


Test: 125
Hash algorithm: 8
Data unit:      125
Start block:    251
Symmetric key bit length: 256
Plaintext bit length:     136
Symmetric key:            7d7d7d7d7d7d7d7d7d7d7d7d7d7d7d7d7d7d7d7d7d7d7d7d7d7d7d7d7d7d7d7d
Plaintext:                8282828282828282828282828282828282
Ciphertext:               63d4200426362c34c1271c33da57d9689653ba27c88e680d94e2215ed2f00f0f8a11a31b69
Reciphers for ciphertext: 0
Decipheredtext:           8282828282828282828282828282828282
RESULT CIPHER-DECIPHER: -----OK-----


Test: 126
Hash algorithm: 13
Data unit:      126
Start block:    253
Symmetric key bit length: 256
Plaintext bit length:     136
Symmetric key:            7e7e7e7e7e7e7e7e7e7e7e7e7e7e7e7e7e7e7e7e7e7e7e7e7e7e7e7e7e7e7e7e
Plaintext:                8181818181818181818181818181818181
Ciphertext:               9ca2490e65b80ff6b41e7c24677b093b2013030d88296e1a6147b1ccd47c999a20
Reciphers for ciphertext: 0
Decipheredtext:           8181818181818181818181818181818181
RESULT CIPHER-DECIPHER: -----OK-----


Test: 127
Hash algorithm: 7
Data unit:      127
Start block:    255
Symmetric key bit length: 256
Plaintext bit length:     136
Symmetric key:            7f7f7f7f7f7f7f7f7f7f7f7f7f7f7f7f7f7f7f7f7f7f7f7f7f7f7f7f7f7f7f7f
Plaintext:                8080808080808080808080808080808080
Ciphertext:               aafc12810827da5a14aebf70ebaaea33139930989e4a2a2fce69a3e7c0dd555ec2
Reciphers for ciphertext: 0
Decipheredtext:           8080808080808080808080808080808080
RESULT CIPHER-DECIPHER: -----OK-----


 DATA SHA1 (hexadecimal): 4e0edbce0f9e3590cdbbf0d878bc78e415d44023

