
DiceLock 9.0.0.1

 TEST COMPONENTS:
 ----------------
 DiceLock:           DiceLockXTSDigested class
                     Operating over full text length
 Operation Mode:     XTS_Mode class
 Block Cipher:       Twofish192 class
 Hash algorithms:     0 - Sha1 class
                      1 - Sha224 class
                      2 - Sha256 class
                      3 - Sha384 class
                      4 - Sha512 class
                      5 - Sha512_224 class
                      6 - Sha512_256 class
                      7 - Ripemd128 class
                      8 - Ripemd160 class
                      9 - Ripemd256 class
                     10 - Ripemd320 class
                     11 - MD2 class
                     12 - MD4 class
                     13 - MD5 class
 Key Modifier:       DecreaseKeyModifier_6_0_0_1 class
 Random tests:       RandomTestSuite class
                     FrequencyTest class
                     BlockFrequencyTest class
                     CumulativeSumForwardTest class
                     LongestRunOfOnesTest class
                     RunsTest class
 Random alpha:       0.001

 VECTOR TEST: Test vector 2 - Changing symmetric key and plaintext, shifting 1 bit set


##### INDIVIDUAL TESTS #####

Number tests: 128


Test: 0
Hash algorithm: 8
Data unit:      0
Start block:    0
Symmetric key bit length: 384
Plaintext bit length:     128
Symmetric key:            000000000000000000000000000000000000000000000000000000000000000080000000000000000000000000000000
Plaintext:                80000000000000000000000000000000
Ciphertext:               f2f33d55586ef6861940488e427c586f3eaf42ccd46456eecc2783da1fe4de00b8e5347d
Reciphers for ciphertext: 0
Decipheredtext:           80000000000000000000000000000000
RESULT CIPHER-DECIPHER: -----OK-----


Test: 1
Hash algorithm: 12
Data unit:      0
Start block:    0
Symmetric key bit length: 384
Plaintext bit length:     128
Symmetric key:            000000000000000000000000000000000000000000000000000000000000000040000000000000000000000000000000
Plaintext:                40000000000000000000000000000000
Ciphertext:               f98d9e540929786754fead2494c59cf87e6b8ca71c8cf58d2e5d305b4a66772d
Reciphers for ciphertext: 0
Decipheredtext:           40000000000000000000000000000000
RESULT CIPHER-DECIPHER: -----OK-----


Test: 2
Hash algorithm: 3
Data unit:      0
Start block:    0
Symmetric key bit length: 384
Plaintext bit length:     128
Symmetric key:            000000000000000000000000000000000000000000000000000000000000000020000000000000000000000000000000
Plaintext:                20000000000000000000000000000000
Ciphertext:               28337199013517206263893a4890bf4797c8da1add30af41a8c8d8aa9a6e4e1240e2ccd0d891fd21e2273129b3823774eceed9e42f61bda254299eb300e9d11e
Reciphers for ciphertext: 0
Decipheredtext:           20000000000000000000000000000000
RESULT CIPHER-DECIPHER: -----OK-----


Test: 3
Hash algorithm: 13
Data unit:      0
Start block:    0
Symmetric key bit length: 384
Plaintext bit length:     128
Symmetric key:            000000000000000000000000000000000000000000000000000000000000000010000000000000000000000000000000
Plaintext:                10000000000000000000000000000000
Ciphertext:               8481b53c9b8d9e382a4d555acbd46f06c70c45d3434a4b9abe523850e2991db2
Reciphers for ciphertext: 0
Decipheredtext:           10000000000000000000000000000000
RESULT CIPHER-DECIPHER: -----OK-----


Test: 4
Hash algorithm: 9
Data unit:      0
Start block:    0
Symmetric key bit length: 384
Plaintext bit length:     128
Symmetric key:            000000000000000000000000000000000000000000000000000000000000000008000000000000000000000000000000
Plaintext:                08000000000000000000000000000000
Ciphertext:               18b2da3d715cb611dda1c77036c29c382813211c9ef76ba940a9357feb2b11859066e517babe5892174463c3f367610c
Reciphers for ciphertext: 0
Decipheredtext:           08000000000000000000000000000000
RESULT CIPHER-DECIPHER: -----OK-----


Test: 5
Hash algorithm: 10
Data unit:      0
Start block:    0
Symmetric key bit length: 384
Plaintext bit length:     128
Symmetric key:            000000000000000000000000000000000000000000000000000000000000000004000000000000000000000000000000
Plaintext:                04000000000000000000000000000000
Ciphertext:               f498d16352261e45e174e8c607a93a5dc140c6dade033c0f67204566b91ab8367c8349c7f082e4129eae1fdd1c97db8a020c6494c7a5daf6
Reciphers for ciphertext: 0
Decipheredtext:           04000000000000000000000000000000
RESULT CIPHER-DECIPHER: -----OK-----


Test: 6
Hash algorithm: 1
Data unit:      0
Start block:    0
Symmetric key bit length: 384
Plaintext bit length:     128
Symmetric key:            000000000000000000000000000000000000000000000000000000000000000002000000000000000000000000000000
Plaintext:                02000000000000000000000000000000
Ciphertext:               eaf8429512ce12e211338db04dde0ec779f1e732664671e8031f534eddc42132339bb8a691f4c6ca4662c5bd
Reciphers for ciphertext: 0
Decipheredtext:           02000000000000000000000000000000
RESULT CIPHER-DECIPHER: -----OK-----


Test: 7
Hash algorithm: 7
Data unit:      0
Start block:    0
Symmetric key bit length: 384
Plaintext bit length:     128
Symmetric key:            000000000000000000000000000000000000000000000000000000000000000001000000000000000000000000000000
Plaintext:                01000000000000000000000000000000
Ciphertext:               e61dfe392c5b4150707b5d0a8b2ad3554b70599a498d0f0b4aaece87927d665f
Reciphers for ciphertext: 0
Decipheredtext:           01000000000000000000000000000000
RESULT CIPHER-DECIPHER: -----OK-----


Test: 8
Hash algorithm: 6
Data unit:      0
Start block:    0
Symmetric key bit length: 384
Plaintext bit length:     128
Symmetric key:            000000000000000000000000000000000000000000000000000000000000000000800000000000000000000000000000
Plaintext:                00800000000000000000000000000000
Ciphertext:               7816f0011b456c55a2a50383681066ce6199acf09c249c51e7f1a7b744bdcab82bf0f2f457485aa274dcdf693aeaca47
Reciphers for ciphertext: 0
Decipheredtext:           00800000000000000000000000000000
RESULT CIPHER-DECIPHER: -----OK-----


Test: 9
Hash algorithm: 0
Data unit:      0
Start block:    0
Symmetric key bit length: 384
Plaintext bit length:     128
Symmetric key:            000000000000000000000000000000000000000000000000000000000000000000400000000000000000000000000000
Plaintext:                00400000000000000000000000000000
Ciphertext:               dc2020391c0f9804e8fafcc20f91fb632c2f462e1d9b0b529cdfc1bd82f94328c8cbac2a
Reciphers for ciphertext: 0
Decipheredtext:           00400000000000000000000000000000
RESULT CIPHER-DECIPHER: -----OK-----


Test: 10
Hash algorithm: 2
Data unit:      0
Start block:    0
Symmetric key bit length: 384
Plaintext bit length:     128
Symmetric key:            000000000000000000000000000000000000000000000000000000000000000000200000000000000000000000000000
Plaintext:                00200000000000000000000000000000
Ciphertext:               52c498a7faf4e371a4586c5b95c46e228d01710b81bd445fba3bf73e55db1ef509a2f3020c958b00e18ed6bf53ed7fbc
Reciphers for ciphertext: 0
Decipheredtext:           00200000000000000000000000000000
RESULT CIPHER-DECIPHER: -----OK-----


Test: 11
Hash algorithm: 5
Data unit:      0
Start block:    0
Symmetric key bit length: 384
Plaintext bit length:     128
Symmetric key:            000000000000000000000000000000000000000000000000000000000000000000100000000000000000000000000000
Plaintext:                00100000000000000000000000000000
Ciphertext:               f86c3d5914dc05dbd0feadab9a9736756981f435dc4ca9233943eed9d1ca7f8a6461d7a1408393acf14488be
Reciphers for ciphertext: 0
Decipheredtext:           00100000000000000000000000000000
RESULT CIPHER-DECIPHER: -----OK-----


Test: 12
Hash algorithm: 0
Data unit:      0
Start block:    0
Symmetric key bit length: 384
Plaintext bit length:     128
Symmetric key:            000000000000000000000000000000000000000000000000000000000000000000080000000000000000000000000000
Plaintext:                00080000000000000000000000000000
Ciphertext:               34e6bcfdff2b444c75b4ac77e6dd23b19714f6790f5c3a8e8088bf0596419591293f3664
Reciphers for ciphertext: 0
Decipheredtext:           00080000000000000000000000000000
RESULT CIPHER-DECIPHER: -----OK-----


Test: 13
Hash algorithm: 1
Data unit:      0
Start block:    0
Symmetric key bit length: 384
Plaintext bit length:     128
Symmetric key:            000000000000000000000000000000000000000000000000000000000000000000040000000000000000000000000000
Plaintext:                00040000000000000000000000000000
Ciphertext:               4079cc49b457e4661b5da7d1fa401eee0865aa824b90399dcc34855f7267b4002bfdf6a6b6e14e45caef59a4
Reciphers for ciphertext: 0
Decipheredtext:           00040000000000000000000000000000
RESULT CIPHER-DECIPHER: -----OK-----


Test: 14
Hash algorithm: 3
Data unit:      0
Start block:    0
Symmetric key bit length: 384
Plaintext bit length:     128
Symmetric key:            000000000000000000000000000000000000000000000000000000000000000000020000000000000000000000000000
Plaintext:                00020000000000000000000000000000
Ciphertext:               1303c2ab03d1e9703dd85dc2e24248254d3044c5fe280ac05c4ae81c68803d616071278aafb54c9cf17fd7f7e5b6fc819ddb08cb4b074853bbee37477c1aae27
Reciphers for ciphertext: 0
Decipheredtext:           00020000000000000000000000000000
RESULT CIPHER-DECIPHER: -----OK-----


Test: 15
Hash algorithm: 10
Data unit:      0
Start block:    0
Symmetric key bit length: 384
Plaintext bit length:     128
Symmetric key:            000000000000000000000000000000000000000000000000000000000000000000010000000000000000000000000000
Plaintext:                00010000000000000000000000000000
Ciphertext:               dff251aa8db8a151e70c1fc79d5255b7b75aea52bb538377c6fa01b3e79db045ae17eb01a4da1ab756a0d89ed72fb0844bb80643e6d1e723
Reciphers for ciphertext: 0
Decipheredtext:           00010000000000000000000000000000
RESULT CIPHER-DECIPHER: -----OK-----


Test: 16
Hash algorithm: 12
Data unit:      0
Start block:    0
Symmetric key bit length: 384
Plaintext bit length:     128
Symmetric key:            000000000000000000000000000000000000000000000000000000000000000000008000000000000000000000000000
Plaintext:                00008000000000000000000000000000
Ciphertext:               35f123c7c9f6371b7e5ac0e35ba3437e184802b6ad20c6ed1e4e29a659f8de90
Reciphers for ciphertext: 0
Decipheredtext:           00008000000000000000000000000000
RESULT CIPHER-DECIPHER: -----OK-----


Test: 17
Hash algorithm: 7
Data unit:      0
Start block:    0
Symmetric key bit length: 384
Plaintext bit length:     128
Symmetric key:            000000000000000000000000000000000000000000000000000000000000000000004000000000000000000000000000
Plaintext:                00004000000000000000000000000000
Ciphertext:               275519f0681c15115424469cb150098949f065ec0d32d7c3aca7ccceea6baf84
Reciphers for ciphertext: 0
Decipheredtext:           00004000000000000000000000000000
RESULT CIPHER-DECIPHER: -----OK-----


Test: 18
Hash algorithm: 9
Data unit:      0
Start block:    0
Symmetric key bit length: 384
Plaintext bit length:     128
Symmetric key:            000000000000000000000000000000000000000000000000000000000000000000002000000000000000000000000000
Plaintext:                00002000000000000000000000000000
Ciphertext:               b3b0f9a582b7c8f6ea95a8f0d4a3e3770822415c0e39ed6c62168a3293b5ccb6d71841ef08f695923e5c230a0bbd991f
Reciphers for ciphertext: 0
Decipheredtext:           00002000000000000000000000000000
RESULT CIPHER-DECIPHER: -----OK-----


Test: 19
Hash algorithm: 9
Data unit:      0
Start block:    0
Symmetric key bit length: 384
Plaintext bit length:     128
Symmetric key:            000000000000000000000000000000000000000000000000000000000000000000001000000000000000000000000000
Plaintext:                00001000000000000000000000000000
Ciphertext:               d7b092728a2fa9800aaefd0722af98575f2e131d6f9bdeb6ec69c7e98c53900de2c4e983c1c024965ce8f466fdc8e2b8
Reciphers for ciphertext: 1
Decipheredtext:           00001000000000000000000000000000
RESULT CIPHER-DECIPHER: -----OK-----


Test: 20
Hash algorithm: 11
Data unit:      0
Start block:    0
Symmetric key bit length: 384
Plaintext bit length:     128
Symmetric key:            000000000000000000000000000000000000000000000000000000000000000000000800000000000000000000000000
Plaintext:                00000800000000000000000000000000
Ciphertext:               4b44dbf6d979490b2cdcf684fd5a5dfb67062a7e17deb3219b4d0278dcac6fbb
Reciphers for ciphertext: 0
Decipheredtext:           00000800000000000000000000000000
RESULT CIPHER-DECIPHER: -----OK-----


Test: 21
Hash algorithm: 6
Data unit:      0
Start block:    0
Symmetric key bit length: 384
Plaintext bit length:     128
Symmetric key:            000000000000000000000000000000000000000000000000000000000000000000000400000000000000000000000000
Plaintext:                00000400000000000000000000000000
Ciphertext:               742e72daa30ba36d516178504e76cc7ad4b8f3de1324f9bb25fbe073acaf5de05a28487d4e07c6bf4a55ea5847eb1a9c
Reciphers for ciphertext: 0
Decipheredtext:           00000400000000000000000000000000
RESULT CIPHER-DECIPHER: -----OK-----


Test: 22
Hash algorithm: 8
Data unit:      0
Start block:    0
Symmetric key bit length: 384
Plaintext bit length:     128
Symmetric key:            000000000000000000000000000000000000000000000000000000000000000000000200000000000000000000000000
Plaintext:                00000200000000000000000000000000
Ciphertext:               8d1d6c2caa45b5678b4fe4353b33a7df70c08c6e21647f73826eae0c493bd0b39459cfb5
Reciphers for ciphertext: 0
Decipheredtext:           00000200000000000000000000000000
RESULT CIPHER-DECIPHER: -----OK-----


Test: 23
Hash algorithm: 8
Data unit:      0
Start block:    0
Symmetric key bit length: 384
Plaintext bit length:     128
Symmetric key:            000000000000000000000000000000000000000000000000000000000000000000000100000000000000000000000000
Plaintext:                00000100000000000000000000000000
Ciphertext:               b1258d02cf602d1938986b3b82f7d94d41f299547208ba3877ba2c3cd9eb6878d53d9193
Reciphers for ciphertext: 0
Decipheredtext:           00000100000000000000000000000000
RESULT CIPHER-DECIPHER: -----OK-----


Test: 24
Hash algorithm: 9
Data unit:      0
Start block:    0
Symmetric key bit length: 384
Plaintext bit length:     128
Symmetric key:            000000000000000000000000000000000000000000000000000000000000000000000080000000000000000000000000
Plaintext:                00000080000000000000000000000000
Ciphertext:               cab2231698c78fef7b64313d30f47f3d76e06d1c241542ab94361224b2fbcd96d37d0eb9b885bc0fb92ec7f1d2fd9e48
Reciphers for ciphertext: 0
Decipheredtext:           00000080000000000000000000000000
RESULT CIPHER-DECIPHER: -----OK-----


Test: 25
Hash algorithm: 11
Data unit:      0
Start block:    0
Symmetric key bit length: 384
Plaintext bit length:     128
Symmetric key:            000000000000000000000000000000000000000000000000000000000000000000000040000000000000000000000000
Plaintext:                00000040000000000000000000000000
Ciphertext:               6c2279594a2168c095ad77ecf785b3324d0b86536f8a951acaac09721c7c945a
Reciphers for ciphertext: 0
Decipheredtext:           00000040000000000000000000000000
RESULT CIPHER-DECIPHER: -----OK-----


Test: 26
Hash algorithm: 8
Data unit:      0
Start block:    0
Symmetric key bit length: 384
Plaintext bit length:     128
Symmetric key:            000000000000000000000000000000000000000000000000000000000000000000000020000000000000000000000000
Plaintext:                00000020000000000000000000000000
Ciphertext:               4c97d7a92fab8677ac0bc000328ba4d2228ce9a9bd7e6b64774be9e36ad1cb0bb6447dfb
Reciphers for ciphertext: 0
Decipheredtext:           00000020000000000000000000000000
RESULT CIPHER-DECIPHER: -----OK-----


Test: 27
Hash algorithm: 3
Data unit:      0
Start block:    0
Symmetric key bit length: 384
Plaintext bit length:     128
Symmetric key:            000000000000000000000000000000000000000000000000000000000000000000000010000000000000000000000000
Plaintext:                00000010000000000000000000000000
Ciphertext:               b97413f55d1a508cf45351c495e1a1b2f66b8fe92fbe868254f0d02f41ae92b9cbbaa205af2254fa12c869d0ae04dcf48de729f11ec6424060a750d7c19df424
Reciphers for ciphertext: 0
Decipheredtext:           00000010000000000000000000000000
RESULT CIPHER-DECIPHER: -----OK-----


Test: 28
Hash algorithm: 13
Data unit:      0
Start block:    0
Symmetric key bit length: 384
Plaintext bit length:     128
Symmetric key:            000000000000000000000000000000000000000000000000000000000000000000000008000000000000000000000000
Plaintext:                00000008000000000000000000000000
Ciphertext:               4def167140f8923a217f1c74c171bf11dc46865aadfd6c51f74722812bb2f349
Reciphers for ciphertext: 0
Decipheredtext:           00000008000000000000000000000000
RESULT CIPHER-DECIPHER: -----OK-----


Test: 29
Hash algorithm: 11
Data unit:      0
Start block:    0
Symmetric key bit length: 384
Plaintext bit length:     128
Symmetric key:            000000000000000000000000000000000000000000000000000000000000000000000004000000000000000000000000
Plaintext:                00000004000000000000000000000000
Ciphertext:               31c1bad56602fddcd6c2b1729037691fe27c0583be37fdca9c13cacc170524f5
Reciphers for ciphertext: 0
Decipheredtext:           00000004000000000000000000000000
RESULT CIPHER-DECIPHER: -----OK-----


Test: 30
Hash algorithm: 1
Data unit:      0
Start block:    0
Symmetric key bit length: 384
Plaintext bit length:     128
Symmetric key:            000000000000000000000000000000000000000000000000000000000000000000000002000000000000000000000000
Plaintext:                00000002000000000000000000000000
Ciphertext:               f0b4863218e938243d6b67b66b3f40e28d28a7f269dc18f33852e60335c1e74f0096010d5cac7b7d4d038a76
Reciphers for ciphertext: 0
Decipheredtext:           00000002000000000000000000000000
RESULT CIPHER-DECIPHER: -----OK-----


Test: 31
Hash algorithm: 2
Data unit:      0
Start block:    0
Symmetric key bit length: 384
Plaintext bit length:     128
Symmetric key:            000000000000000000000000000000000000000000000000000000000000000000000001000000000000000000000000
Plaintext:                00000001000000000000000000000000
Ciphertext:               b1f7ef75043ce438df1923c500e25a24c0c4c910a4e38a74b4aa3fcdf94f95c56a436fe03880cd105979dd00c9c5f5a9
Reciphers for ciphertext: 0
Decipheredtext:           00000001000000000000000000000000
RESULT CIPHER-DECIPHER: -----OK-----


Test: 32
Hash algorithm: 3
Data unit:      0
Start block:    0
Symmetric key bit length: 384
Plaintext bit length:     128
Symmetric key:            000000000000000000000000000000000000000000000000000000000000000000000000800000000000000000000000
Plaintext:                00000000800000000000000000000000
Ciphertext:               21842ea2256380d2cb00316e7cce2b22ef4a99c78ba0c2062cd7ccc7887044f5283d92a94d93f080e61fb39a857a5d9bbefb1319885614c67867665b39629e77
Reciphers for ciphertext: 0
Decipheredtext:           00000000800000000000000000000000
RESULT CIPHER-DECIPHER: -----OK-----


Test: 33
Hash algorithm: 2
Data unit:      0
Start block:    0
Symmetric key bit length: 384
Plaintext bit length:     128
Symmetric key:            000000000000000000000000000000000000000000000000000000000000000000000000400000000000000000000000
Plaintext:                00000000400000000000000000000000
Ciphertext:               563919d2f49692db4a4b40dcf2ce078dc32a97a72e326d368df9067f20be3f533f516027300f09353bd4c7c53aacd6bc
Reciphers for ciphertext: 0
Decipheredtext:           00000000400000000000000000000000
RESULT CIPHER-DECIPHER: -----OK-----


Test: 34
Hash algorithm: 4
Data unit:      0
Start block:    0
Symmetric key bit length: 384
Plaintext bit length:     128
Symmetric key:            000000000000000000000000000000000000000000000000000000000000000000000000200000000000000000000000
Plaintext:                00000000200000000000000000000000
Ciphertext:               4a3eb6d715176bf85566e5d9a523a32dec10a8466607f548e667e7175f2e3ff9b40038bcfbde1ac10b909fb7d9fa901a573e3899e7d8cf5fc82a87ba9986ba24c69db9bf33e5d8c75346f59cad8ecddc
Reciphers for ciphertext: 0
Decipheredtext:           00000000200000000000000000000000
RESULT CIPHER-DECIPHER: -----OK-----


Test: 35
Hash algorithm: 11
Data unit:      0
Start block:    0
Symmetric key bit length: 384
Plaintext bit length:     128
Symmetric key:            000000000000000000000000000000000000000000000000000000000000000000000000100000000000000000000000
Plaintext:                00000000100000000000000000000000
Ciphertext:               ff891f139d8a602076f08020aca6e4a2f718e87f0be4f89abf4b7a97538d108b
Reciphers for ciphertext: 0
Decipheredtext:           00000000100000000000000000000000
RESULT CIPHER-DECIPHER: -----OK-----


Test: 36
Hash algorithm: 10
Data unit:      0
Start block:    0
Symmetric key bit length: 384
Plaintext bit length:     128
Symmetric key:            000000000000000000000000000000000000000000000000000000000000000000000000080000000000000000000000
Plaintext:                00000000080000000000000000000000
Ciphertext:               31c624e39ea2b7045536ad990eac8222d946ec8e97dfaf3a7ba89f206fbc4733a8621a0afd47f3de80654120137696c783144adc83b7fc19
Reciphers for ciphertext: 0
Decipheredtext:           00000000080000000000000000000000
RESULT CIPHER-DECIPHER: -----OK-----


Test: 37
Hash algorithm: 8
Data unit:      0
Start block:    0
Symmetric key bit length: 384
Plaintext bit length:     128
Symmetric key:            000000000000000000000000000000000000000000000000000000000000000000000000040000000000000000000000
Plaintext:                00000000040000000000000000000000
Ciphertext:               041f7ffaaff0b65df278fc853439612cf463ea9e927c886270c508aa4514fcf9d1adbf34
Reciphers for ciphertext: 0
Decipheredtext:           00000000040000000000000000000000
RESULT CIPHER-DECIPHER: -----OK-----


Test: 38
Hash algorithm: 8
Data unit:      0
Start block:    0
Symmetric key bit length: 384
Plaintext bit length:     128
Symmetric key:            000000000000000000000000000000000000000000000000000000000000000000000000020000000000000000000000
Plaintext:                00000000020000000000000000000000
Ciphertext:               3a8a79db04c6f0ec0a3075dd82da721607e5101330f4b26e2eeef488e5ba04fe8c6531fb
Reciphers for ciphertext: 0
Decipheredtext:           00000000020000000000000000000000
RESULT CIPHER-DECIPHER: -----OK-----


Test: 39
Hash algorithm: 11
Data unit:      0
Start block:    0
Symmetric key bit length: 384
Plaintext bit length:     128
Symmetric key:            000000000000000000000000000000000000000000000000000000000000000000000000010000000000000000000000
Plaintext:                00000000010000000000000000000000
Ciphertext:               f8300ff52534a08f17658bf0639d624380b098656a6b2504c620515dcba5d708
Reciphers for ciphertext: 0
Decipheredtext:           00000000010000000000000000000000
RESULT CIPHER-DECIPHER: -----OK-----


Test: 40
Hash algorithm: 8
Data unit:      0
Start block:    0
Symmetric key bit length: 384
Plaintext bit length:     128
Symmetric key:            000000000000000000000000000000000000000000000000000000000000000000000000008000000000000000000000
Plaintext:                00000000008000000000000000000000
Ciphertext:               5bc13b0f3c85041a93803ce6bb7446bb45d215234fbf102885f00d313278de796650972a
Reciphers for ciphertext: 0
Decipheredtext:           00000000008000000000000000000000
RESULT CIPHER-DECIPHER: -----OK-----


Test: 41
Hash algorithm: 4
Data unit:      0
Start block:    0
Symmetric key bit length: 384
Plaintext bit length:     128
Symmetric key:            000000000000000000000000000000000000000000000000000000000000000000000000004000000000000000000000
Plaintext:                00000000004000000000000000000000
Ciphertext:               e07921b49295c6aaf2f62d579881925511b401e297ddfe6b96d4ffb53aadfcac4b51c72afd6d3f6315c2781240d6008dce407e45b31ad6c7e3f723d2f93bb9df0ef79ed19ca360883d0bf4df620df831
Reciphers for ciphertext: 0
Decipheredtext:           00000000004000000000000000000000
RESULT CIPHER-DECIPHER: -----OK-----


Test: 42
Hash algorithm: 9
Data unit:      0
Start block:    0
Symmetric key bit length: 384
Plaintext bit length:     128
Symmetric key:            000000000000000000000000000000000000000000000000000000000000000000000000002000000000000000000000
Plaintext:                00000000002000000000000000000000
Ciphertext:               f2bd7b8d62d2269f83e8b4cd76993ef01960c7a719aa8fa546aa999128bc0882a0ab66bb3aebca75a41ecdc156ddb5f7
Reciphers for ciphertext: 0
Decipheredtext:           00000000002000000000000000000000
RESULT CIPHER-DECIPHER: -----OK-----


Test: 43
Hash algorithm: 0
Data unit:      0
Start block:    0
Symmetric key bit length: 384
Plaintext bit length:     128
Symmetric key:            000000000000000000000000000000000000000000000000000000000000000000000000001000000000000000000000
Plaintext:                00000000001000000000000000000000
Ciphertext:               7fc0ebcaf80ad9b2ffcc5c0a66353bf95d871748e92fa5e543fb7ca7c334b280ed9e8c34
Reciphers for ciphertext: 0
Decipheredtext:           00000000001000000000000000000000
RESULT CIPHER-DECIPHER: -----OK-----


Test: 44
Hash algorithm: 5
Data unit:      0
Start block:    0
Symmetric key bit length: 384
Plaintext bit length:     128
Symmetric key:            000000000000000000000000000000000000000000000000000000000000000000000000000800000000000000000000
Plaintext:                00000000000800000000000000000000
Ciphertext:               0bff81766b8daaec9921712cb60d49132d44f0d7c40934fd927cd5b6fd77b3aee3d6a1e17a4c51c0b95a2a03
Reciphers for ciphertext: 0
Decipheredtext:           00000000000800000000000000000000
RESULT CIPHER-DECIPHER: -----OK-----


Test: 45
Hash algorithm: 5
Data unit:      0
Start block:    0
Symmetric key bit length: 384
Plaintext bit length:     128
Symmetric key:            000000000000000000000000000000000000000000000000000000000000000000000000000400000000000000000000
Plaintext:                00000000000400000000000000000000
Ciphertext:               541a4c1bc4d48121a47a5e98421d0ae2eca770c5c876972f84f155fe16f58dd8dfb04a6d4127a780e0e15bc9
Reciphers for ciphertext: 0
Decipheredtext:           00000000000400000000000000000000
RESULT CIPHER-DECIPHER: -----OK-----


Test: 46
Hash algorithm: 12
Data unit:      0
Start block:    0
Symmetric key bit length: 384
Plaintext bit length:     128
Symmetric key:            000000000000000000000000000000000000000000000000000000000000000000000000000200000000000000000000
Plaintext:                00000000000200000000000000000000
Ciphertext:               e29b0bdfe0510ada5a029fbd6798da9cb181a01c6f1d42bb71f258ada84c1890
Reciphers for ciphertext: 0
Decipheredtext:           00000000000200000000000000000000
RESULT CIPHER-DECIPHER: -----OK-----


Test: 47
Hash algorithm: 1
Data unit:      0
Start block:    0
Symmetric key bit length: 384
Plaintext bit length:     128
Symmetric key:            000000000000000000000000000000000000000000000000000000000000000000000000000100000000000000000000
Plaintext:                00000000000100000000000000000000
Ciphertext:               e14edb4cd5be908327915a7aca9c1d86b396d7bee60b904fd9f43da930050adef04bdf6120161a941653d00e
Reciphers for ciphertext: 0
Decipheredtext:           00000000000100000000000000000000
RESULT CIPHER-DECIPHER: -----OK-----


Test: 48
Hash algorithm: 3
Data unit:      0
Start block:    0
Symmetric key bit length: 384
Plaintext bit length:     128
Symmetric key:            000000000000000000000000000000000000000000000000000000000000000000000000000080000000000000000000
Plaintext:                00000000000080000000000000000000
Ciphertext:               97c77f7e063d5b085cb09b548adb6f1207febe89b6de48c724b0f2e0cb2083878e6a31c9a48e3696864c15cadb0a691ca7d5a0fad608071407f56d75d003bae3
Reciphers for ciphertext: 0
Decipheredtext:           00000000000080000000000000000000
RESULT CIPHER-DECIPHER: -----OK-----


Test: 49
Hash algorithm: 10
Data unit:      0
Start block:    0
Symmetric key bit length: 384
Plaintext bit length:     128
Symmetric key:            000000000000000000000000000000000000000000000000000000000000000000000000000040000000000000000000
Plaintext:                00000000000040000000000000000000
Ciphertext:               c9ce8ea82602f5a65be02da8cbb0c5a82bbeafd6f98bcc0045566d3e5ca950656e3a7341c4ff511d6fd3ce1d80f1381ca55cceaa79e5f66c
Reciphers for ciphertext: 0
Decipheredtext:           00000000000040000000000000000000
RESULT CIPHER-DECIPHER: -----OK-----


Test: 50
Hash algorithm: 11
Data unit:      0
Start block:    0
Symmetric key bit length: 384
Plaintext bit length:     128
Symmetric key:            000000000000000000000000000000000000000000000000000000000000000000000000000020000000000000000000
Plaintext:                00000000000020000000000000000000
Ciphertext:               e02201c19e1108f463ba491b9ca6fd3f04399ca89284ed07cd26b1f0c39d6317
Reciphers for ciphertext: 0
Decipheredtext:           00000000000020000000000000000000
RESULT CIPHER-DECIPHER: -----OK-----


Test: 51
Hash algorithm: 2
Data unit:      0
Start block:    0
Symmetric key bit length: 384
Plaintext bit length:     128
Symmetric key:            000000000000000000000000000000000000000000000000000000000000000000000000000010000000000000000000
Plaintext:                00000000000010000000000000000000
Ciphertext:               784444ad3c3f342bbcf9f9597d79e976011cffe6bd54713e3577d43fb7f376feada4ac71bbdf0b86b458a947678b83ff
Reciphers for ciphertext: 0
Decipheredtext:           00000000000010000000000000000000
RESULT CIPHER-DECIPHER: -----OK-----


Test: 52
Hash algorithm: 0
Data unit:      0
Start block:    0
Symmetric key bit length: 384
Plaintext bit length:     128
Symmetric key:            000000000000000000000000000000000000000000000000000000000000000000000000000008000000000000000000
Plaintext:                00000000000008000000000000000000
Ciphertext:               e44400c82ea0d1c0d3a371e1524cff1b387e4b16e21d103569d0630848e8fe898a7a7908
Reciphers for ciphertext: 0
Decipheredtext:           00000000000008000000000000000000
RESULT CIPHER-DECIPHER: -----OK-----


Test: 53
Hash algorithm: 12
Data unit:      0
Start block:    0
Symmetric key bit length: 384
Plaintext bit length:     128
Symmetric key:            000000000000000000000000000000000000000000000000000000000000000000000000000004000000000000000000
Plaintext:                00000000000004000000000000000000
Ciphertext:               a5fc553f063ff8b976efb6f49020abce8790270101266fd8194623ffbcad6441
Reciphers for ciphertext: 0
Decipheredtext:           00000000000004000000000000000000
RESULT CIPHER-DECIPHER: -----OK-----


Test: 54
Hash algorithm: 6
Data unit:      0
Start block:    0
Symmetric key bit length: 384
Plaintext bit length:     128
Symmetric key:            000000000000000000000000000000000000000000000000000000000000000000000000000002000000000000000000
Plaintext:                00000000000002000000000000000000
Ciphertext:               431fc13d92767b1d1e340aeee4ddabab38fd9ec4713ae16695f1464b18c1c104a3d98213892a5c89966f23d234fe6bdb
Reciphers for ciphertext: 0
Decipheredtext:           00000000000002000000000000000000
RESULT CIPHER-DECIPHER: -----OK-----


Test: 55
Hash algorithm: 0
Data unit:      0
Start block:    0
Symmetric key bit length: 384
Plaintext bit length:     128
Symmetric key:            000000000000000000000000000000000000000000000000000000000000000000000000000001000000000000000000
Plaintext:                00000000000001000000000000000000
Ciphertext:               a41ee97852d592b89b8af911d2edeabe339d400adbb432b3e52f7a5d6fd2532b18d76a52
Reciphers for ciphertext: 0
Decipheredtext:           00000000000001000000000000000000
RESULT CIPHER-DECIPHER: -----OK-----


Test: 56
Hash algorithm: 8
Data unit:      0
Start block:    0
Symmetric key bit length: 384
Plaintext bit length:     128
Symmetric key:            000000000000000000000000000000000000000000000000000000000000000000000000000000800000000000000000
Plaintext:                00000000000000800000000000000000
Ciphertext:               1c3ef9584d7abbd7fb09a05c56b332208eebe0d27e9f0f7321833a42b0d927a8c793fad2
Reciphers for ciphertext: 0
Decipheredtext:           00000000000000800000000000000000
RESULT CIPHER-DECIPHER: -----OK-----


Test: 57
Hash algorithm: 2
Data unit:      0
Start block:    0
Symmetric key bit length: 384
Plaintext bit length:     128
Symmetric key:            000000000000000000000000000000000000000000000000000000000000000000000000000000400000000000000000
Plaintext:                00000000000000400000000000000000
Ciphertext:               e7c674c78a1ac5d19e389c7e15d03a36aed1b90ccc4af2cfed122cc1151ee8e6f5f92e2b2e15422469d4100606f8d068
Reciphers for ciphertext: 0
Decipheredtext:           00000000000000400000000000000000
RESULT CIPHER-DECIPHER: -----OK-----


Test: 58
Hash algorithm: 3
Data unit:      0
Start block:    0
Symmetric key bit length: 384
Plaintext bit length:     128
Symmetric key:            000000000000000000000000000000000000000000000000000000000000000000000000000000200000000000000000
Plaintext:                00000000000000200000000000000000
Ciphertext:               75567cb486849ce6a54c4abd02e8819673ed0f8b44c21fa3977480bdecb6547f1b34bdd7bedcc56539089f898975a5ce4e9386b2dcdf90cc2ea8082ef3dc4421
Reciphers for ciphertext: 0
Decipheredtext:           00000000000000200000000000000000
RESULT CIPHER-DECIPHER: -----OK-----


Test: 59
Hash algorithm: 6
Data unit:      0
Start block:    0
Symmetric key bit length: 384
Plaintext bit length:     128
Symmetric key:            000000000000000000000000000000000000000000000000000000000000000000000000000000100000000000000000
Plaintext:                00000000000000100000000000000000
Ciphertext:               8d4e82e7d42cfb4c39f6344b3ebbd902c4b86cf20d5725d9a224c8199c1196f3779a101ea24bc59c3454f3c00a4db8fe
Reciphers for ciphertext: 0
Decipheredtext:           00000000000000100000000000000000
RESULT CIPHER-DECIPHER: -----OK-----


Test: 60
Hash algorithm: 3
Data unit:      0
Start block:    0
Symmetric key bit length: 384
Plaintext bit length:     128
Symmetric key:            000000000000000000000000000000000000000000000000000000000000000000000000000000080000000000000000
Plaintext:                00000000000000080000000000000000
Ciphertext:               680db2b3bb60339925a5c98ed9827a5f5b895dc0876bb1b5ef67110c67090951aab4d21b4e2d38fc1894adb5e3f797c1918a6cc1e815fe6f178fea6cb019c6dd
Reciphers for ciphertext: 0
Decipheredtext:           00000000000000080000000000000000
RESULT CIPHER-DECIPHER: -----OK-----


Test: 61
Hash algorithm: 4
Data unit:      0
Start block:    0
Symmetric key bit length: 384
Plaintext bit length:     128
Symmetric key:            000000000000000000000000000000000000000000000000000000000000000000000000000000040000000000000000
Plaintext:                00000000000000040000000000000000
Ciphertext:               c4ee32c31ab1eeeb6977cce9962b43f9475abbec1e393b3df4c15080fcb810cc4eead6bdaa1f99cea536058d0759dbd500073d97e4436a9bf47d0d38f1aac150b5e947bde01e8995a0634f12c8b7641f
Reciphers for ciphertext: 0
Decipheredtext:           00000000000000040000000000000000
RESULT CIPHER-DECIPHER: -----OK-----


Test: 62
Hash algorithm: 13
Data unit:      0
Start block:    0
Symmetric key bit length: 384
Plaintext bit length:     128
Symmetric key:            000000000000000000000000000000000000000000000000000000000000000000000000000000020000000000000000
Plaintext:                00000000000000020000000000000000
Ciphertext:               2d532bc29dc79e4d63987eb25ff78da1bbb3695cc151943d4e6bf6d3ae27530c
Reciphers for ciphertext: 0
Decipheredtext:           00000000000000020000000000000000
RESULT CIPHER-DECIPHER: -----OK-----


Test: 63
Hash algorithm: 11
Data unit:      0
Start block:    0
Symmetric key bit length: 384
Plaintext bit length:     128
Symmetric key:            000000000000000000000000000000000000000000000000000000000000000000000000000000010000000000000000
Plaintext:                00000000000000010000000000000000
Ciphertext:               0322069e8e37721c5fc5beeb54d327e6cb66d63ec48b197f9ce1865eeec461f1
Reciphers for ciphertext: 0
Decipheredtext:           00000000000000010000000000000000
RESULT CIPHER-DECIPHER: -----OK-----


Test: 64
Hash algorithm: 5
Data unit:      0
Start block:    0
Symmetric key bit length: 384
Plaintext bit length:     128
Symmetric key:            000000000000000000000000000000000000000000000000000000000000000000000000000000008000000000000000
Plaintext:                00000000000000008000000000000000
Ciphertext:               d2e1e0a902614648acfbd24f1d6b4b6dd3554b2560ef1e4b3f33840869cc7a123610f0a7102c1a14ade1d3d5
Reciphers for ciphertext: 0
Decipheredtext:           00000000000000008000000000000000
RESULT CIPHER-DECIPHER: -----OK-----


Test: 65
Hash algorithm: 10
Data unit:      0
Start block:    0
Symmetric key bit length: 384
Plaintext bit length:     128
Symmetric key:            000000000000000000000000000000000000000000000000000000000000000000000000000000004000000000000000
Plaintext:                00000000000000004000000000000000
Ciphertext:               71b28397272c929e4a1aa40ba5327aa9627e217575d1b73543a1b3f9578d65efa11fafe2dbbcaa65db2d1dcaa38ab512b368d72bf136a641
Reciphers for ciphertext: 0
Decipheredtext:           00000000000000004000000000000000
RESULT CIPHER-DECIPHER: -----OK-----


Test: 66
Hash algorithm: 6
Data unit:      0
Start block:    0
Symmetric key bit length: 384
Plaintext bit length:     128
Symmetric key:            000000000000000000000000000000000000000000000000000000000000000000000000000000002000000000000000
Plaintext:                00000000000000002000000000000000
Ciphertext:               9a9dbce08f111052ac1724d324b4ef33cccf2815186db48182d1ba4f618f9d11f4da1d5c5400eb45557c7f142ab6318e
Reciphers for ciphertext: 0
Decipheredtext:           00000000000000002000000000000000
RESULT CIPHER-DECIPHER: -----OK-----


Test: 67
Hash algorithm: 9
Data unit:      0
Start block:    0
Symmetric key bit length: 384
Plaintext bit length:     128
Symmetric key:            000000000000000000000000000000000000000000000000000000000000000000000000000000001000000000000000
Plaintext:                00000000000000001000000000000000
Ciphertext:               bb7bac80aae958ebf2c15fce5de0ec1a5136483a758ac185e4e270a910df7566b24b55e4406824c72ec33c57435c679c
Reciphers for ciphertext: 0
Decipheredtext:           00000000000000001000000000000000
RESULT CIPHER-DECIPHER: -----OK-----


Test: 68
Hash algorithm: 0
Data unit:      0
Start block:    0
Symmetric key bit length: 384
Plaintext bit length:     128
Symmetric key:            000000000000000000000000000000000000000000000000000000000000000000000000000000000800000000000000
Plaintext:                00000000000000000800000000000000
Ciphertext:               3a80f264632c6b3e9419770126eea9902b55c9af77031d72b255d10e12f09d9b22278b37
Reciphers for ciphertext: 0
Decipheredtext:           00000000000000000800000000000000
RESULT CIPHER-DECIPHER: -----OK-----


Test: 69
Hash algorithm: 1
Data unit:      0
Start block:    0
Symmetric key bit length: 384
Plaintext bit length:     128
Symmetric key:            000000000000000000000000000000000000000000000000000000000000000000000000000000000400000000000000
Plaintext:                00000000000000000400000000000000
Ciphertext:               8743ad31801bcbf26bc9db39532672c82c3d1ac99b6cb03e4129c8cc7241a13689c09cdfbce395a7897019fb
Reciphers for ciphertext: 0
Decipheredtext:           00000000000000000400000000000000
RESULT CIPHER-DECIPHER: -----OK-----


Test: 70
Hash algorithm: 0
Data unit:      0
Start block:    0
Symmetric key bit length: 384
Plaintext bit length:     128
Symmetric key:            000000000000000000000000000000000000000000000000000000000000000000000000000000000200000000000000
Plaintext:                00000000000000000200000000000000
Ciphertext:               008cfcacf9be4eb6374a181f7dcf104dc42bf534016ef064cf0a845ff5823475e567a86f
Reciphers for ciphertext: 0
Decipheredtext:           00000000000000000200000000000000
RESULT CIPHER-DECIPHER: -----OK-----


Test: 71
Hash algorithm: 10
Data unit:      0
Start block:    0
Symmetric key bit length: 384
Plaintext bit length:     128
Symmetric key:            000000000000000000000000000000000000000000000000000000000000000000000000000000000100000000000000
Plaintext:                00000000000000000100000000000000
Ciphertext:               53f3a3b83cf549be4c6d0023d1375dc6ec217b07ef0031c76ba255c7e206ef097ad00fc8e8b5c36ea208f185c926035367cd2397bc6f7658
Reciphers for ciphertext: 0
Decipheredtext:           00000000000000000100000000000000
RESULT CIPHER-DECIPHER: -----OK-----


Test: 72
Hash algorithm: 10
Data unit:      0
Start block:    0
Symmetric key bit length: 384
Plaintext bit length:     128
Symmetric key:            000000000000000000000000000000000000000000000000000000000000000000000000000000000080000000000000
Plaintext:                00000000000000000080000000000000
Ciphertext:               c2a423d7b7797bb34daad6c0704d7e9f65bfa60bef0c10322a7476cf2d17412e7775600eb724afbe39b0c98aa615c5db32ae59181ec7b81c
Reciphers for ciphertext: 0
Decipheredtext:           00000000000000000080000000000000
RESULT CIPHER-DECIPHER: -----OK-----


Test: 73
Hash algorithm: 1
Data unit:      0
Start block:    0
Symmetric key bit length: 384
Plaintext bit length:     128
Symmetric key:            000000000000000000000000000000000000000000000000000000000000000000000000000000000040000000000000
Plaintext:                00000000000000000040000000000000
Ciphertext:               fa5717804fda951e4026c5aa817aadc0a665542afc4a89aa85cf740d6a7fd77645853f04cc9e46624e7ed368
Reciphers for ciphertext: 0
Decipheredtext:           00000000000000000040000000000000
RESULT CIPHER-DECIPHER: -----OK-----


Test: 74
Hash algorithm: 13
Data unit:      0
Start block:    0
Symmetric key bit length: 384
Plaintext bit length:     128
Symmetric key:            000000000000000000000000000000000000000000000000000000000000000000000000000000000020000000000000
Plaintext:                00000000000000000020000000000000
Ciphertext:               539d6ebf2226f96ede1d1da30c5eaef3d4148a8bddc70b0b5ffbf32186a9b071
Reciphers for ciphertext: 0
Decipheredtext:           00000000000000000020000000000000
RESULT CIPHER-DECIPHER: -----OK-----


Test: 75
Hash algorithm: 1
Data unit:      0
Start block:    0
Symmetric key bit length: 384
Plaintext bit length:     128
Symmetric key:            000000000000000000000000000000000000000000000000000000000000000000000000000000000010000000000000
Plaintext:                00000000000000000010000000000000
Ciphertext:               f6a3f2348b79452ed14fd985df0393728a0e780c5eb49b0846bcd94ce49dbbefd1c0defde3613d2ffab1bc11
Reciphers for ciphertext: 0
Decipheredtext:           00000000000000000010000000000000
RESULT CIPHER-DECIPHER: -----OK-----


Test: 76
Hash algorithm: 9
Data unit:      0
Start block:    0
Symmetric key bit length: 384
Plaintext bit length:     128
Symmetric key:            000000000000000000000000000000000000000000000000000000000000000000000000000000000008000000000000
Plaintext:                00000000000000000008000000000000
Ciphertext:               7b0669b2d8cbc4018094575c08e5245fb8b65035799d169500c01e644b940f91e06a993612ff79651abe1802f12a0e9e
Reciphers for ciphertext: 0
Decipheredtext:           00000000000000000008000000000000
RESULT CIPHER-DECIPHER: -----OK-----


Test: 77
Hash algorithm: 1
Data unit:      0
Start block:    0
Symmetric key bit length: 384
Plaintext bit length:     128
Symmetric key:            000000000000000000000000000000000000000000000000000000000000000000000000000000000004000000000000
Plaintext:                00000000000000000004000000000000
Ciphertext:               a6fec4aeb3e079363153c65c1b6ce46553559012eb688b98006b01d8d9266fd2e11a1e1ae408847b0b984749
Reciphers for ciphertext: 0
Decipheredtext:           00000000000000000004000000000000
RESULT CIPHER-DECIPHER: -----OK-----


Test: 78
Hash algorithm: 8
Data unit:      0
Start block:    0
Symmetric key bit length: 384
Plaintext bit length:     128
Symmetric key:            000000000000000000000000000000000000000000000000000000000000000000000000000000000002000000000000
Plaintext:                00000000000000000002000000000000
Ciphertext:               60f37753259c528485214bda25848c66b492b63de6241ada6980b8f300420192efdb3a47
Reciphers for ciphertext: 0
Decipheredtext:           00000000000000000002000000000000
RESULT CIPHER-DECIPHER: -----OK-----


Test: 79
Hash algorithm: 11
Data unit:      0
Start block:    0
Symmetric key bit length: 384
Plaintext bit length:     128
Symmetric key:            000000000000000000000000000000000000000000000000000000000000000000000000000000000001000000000000
Plaintext:                00000000000000000001000000000000
Ciphertext:               8870a15f7a61f4a8a187399a86170e3199e046c441732485dd547f06e554cddc
Reciphers for ciphertext: 0
Decipheredtext:           00000000000000000001000000000000
RESULT CIPHER-DECIPHER: -----OK-----


Test: 80
Hash algorithm: 0
Data unit:      0
Start block:    0
Symmetric key bit length: 384
Plaintext bit length:     128
Symmetric key:            000000000000000000000000000000000000000000000000000000000000000000000000000000000000800000000000
Plaintext:                00000000000000000000800000000000
Ciphertext:               cc9632350126c35bae6a3cc6c910d9680e6f141caf0fcd51fe32775c15a28d23b5af543f
Reciphers for ciphertext: 0
Decipheredtext:           00000000000000000000800000000000
RESULT CIPHER-DECIPHER: -----OK-----


Test: 81
Hash algorithm: 3
Data unit:      0
Start block:    0
Symmetric key bit length: 384
Plaintext bit length:     128
Symmetric key:            000000000000000000000000000000000000000000000000000000000000000000000000000000000000400000000000
Plaintext:                00000000000000000000400000000000
Ciphertext:               bd701a66f1068370ed8f782f54dc3ed8d7a614f4f3776afba64ef99dadd0383f96bd1c49d254e300797fae9f0aca90a2893149bcd904f27eab7ddbdf04d030d5
Reciphers for ciphertext: 0
Decipheredtext:           00000000000000000000400000000000
RESULT CIPHER-DECIPHER: -----OK-----


Test: 82
Hash algorithm: 4
Data unit:      0
Start block:    0
Symmetric key bit length: 384
Plaintext bit length:     128
Symmetric key:            000000000000000000000000000000000000000000000000000000000000000000000000000000000000200000000000
Plaintext:                00000000000000000000200000000000
Ciphertext:               e4a6ecd55cc5c58bc165e0b5d3fd8ab73ffe94b3b39df0fd45905d93117c4080482f5d2671c7bed94683d89fad062a5d9b8d2efc6c4f750119888522342a9e099eb6a970e3ccc9c9a51891c7d2c1809d
Reciphers for ciphertext: 0
Decipheredtext:           00000000000000000000200000000000
RESULT CIPHER-DECIPHER: -----OK-----


Test: 83
Hash algorithm: 13
Data unit:      0
Start block:    0
Symmetric key bit length: 384
Plaintext bit length:     128
Symmetric key:            000000000000000000000000000000000000000000000000000000000000000000000000000000000000100000000000
Plaintext:                00000000000000000000100000000000
Ciphertext:               893d6a34c757974c205708f65ef1be13e461d0ec01e99aff59da87cc1eefc8db
Reciphers for ciphertext: 0
Decipheredtext:           00000000000000000000100000000000
RESULT CIPHER-DECIPHER: -----OK-----


Test: 84
Hash algorithm: 10
Data unit:      0
Start block:    0
Symmetric key bit length: 384
Plaintext bit length:     128
Symmetric key:            000000000000000000000000000000000000000000000000000000000000000000000000000000000000080000000000
Plaintext:                00000000000000000000080000000000
Ciphertext:               388cf640fb6459bbba9e8a90e41bf2ca244e8f8066f77ba886e053bfae5e4cda6d28fbf26dcae23eb9ff1139b204458635520644048fb714
Reciphers for ciphertext: 0
Decipheredtext:           00000000000000000000080000000000
RESULT CIPHER-DECIPHER: -----OK-----


Test: 85
Hash algorithm: 10
Data unit:      0
Start block:    0
Symmetric key bit length: 384
Plaintext bit length:     128
Symmetric key:            000000000000000000000000000000000000000000000000000000000000000000000000000000000000040000000000
Plaintext:                00000000000000000000040000000000
Ciphertext:               fdd2b570c222fb39661d7dc441916d80b1cfc0227b0f5f5a2cdf8dc0acf9cdbaa299d85e0e465c0752641a9a946a2fe46455470466fc17d9
Reciphers for ciphertext: 0
Decipheredtext:           00000000000000000000040000000000
RESULT CIPHER-DECIPHER: -----OK-----


Test: 86
Hash algorithm: 7
Data unit:      0
Start block:    0
Symmetric key bit length: 384
Plaintext bit length:     128
Symmetric key:            000000000000000000000000000000000000000000000000000000000000000000000000000000000000020000000000
Plaintext:                00000000000000000000020000000000
Ciphertext:               b794b14d590d6cb9f74cb364ecf3d0468010db2539f980413f208eaf2ad37b8f
Reciphers for ciphertext: 0
Decipheredtext:           00000000000000000000020000000000
RESULT CIPHER-DECIPHER: -----OK-----


Test: 87
Hash algorithm: 13
Data unit:      0
Start block:    0
Symmetric key bit length: 384
Plaintext bit length:     128
Symmetric key:            000000000000000000000000000000000000000000000000000000000000000000000000000000000000010000000000
Plaintext:                00000000000000000000010000000000
Ciphertext:               0ca1af1d7b235c639abd1d06860636cbf63991001f65ae17d41e5a25c6fd5721
Reciphers for ciphertext: 0
Decipheredtext:           00000000000000000000010000000000
RESULT CIPHER-DECIPHER: -----OK-----


Test: 88
Hash algorithm: 3
Data unit:      0
Start block:    0
Symmetric key bit length: 384
Plaintext bit length:     128
Symmetric key:            000000000000000000000000000000000000000000000000000000000000000000000000000000000000008000000000
Plaintext:                00000000000000000000008000000000
Ciphertext:               3ae680272ecffc85cce2be1dd0e8938724c2652ac01a3f40db293cc83ae2d0ceadb9e37e31b35b4bf0bd18c3078235926530359e598cc39c9a75bbc0b2fc5768
Reciphers for ciphertext: 0
Decipheredtext:           00000000000000000000008000000000
RESULT CIPHER-DECIPHER: -----OK-----


Test: 89
Hash algorithm: 3
Data unit:      0
Start block:    0
Symmetric key bit length: 384
Plaintext bit length:     128
Symmetric key:            000000000000000000000000000000000000000000000000000000000000000000000000000000000000004000000000
Plaintext:                00000000000000000000004000000000
Ciphertext:               51599412a72a493072b32904cdb5d5e1b8dd4961ac326ca9a55d1e74e818cb52fd1e153d38f3636f474be4cce023a0a587990df7ad0972ca9e28daea6c97b198
Reciphers for ciphertext: 0
Decipheredtext:           00000000000000000000004000000000
RESULT CIPHER-DECIPHER: -----OK-----


Test: 90
Hash algorithm: 13
Data unit:      0
Start block:    0
Symmetric key bit length: 384
Plaintext bit length:     128
Symmetric key:            000000000000000000000000000000000000000000000000000000000000000000000000000000000000002000000000
Plaintext:                00000000000000000000002000000000
Ciphertext:               e32a51d3439e5ddac74d6bf68a16a41fb13a757e08fc906dbc75cb2df59eb22a
Reciphers for ciphertext: 0
Decipheredtext:           00000000000000000000002000000000
RESULT CIPHER-DECIPHER: -----OK-----


Test: 91
Hash algorithm: 2
Data unit:      0
Start block:    0
Symmetric key bit length: 384
Plaintext bit length:     128
Symmetric key:            000000000000000000000000000000000000000000000000000000000000000000000000000000000000001000000000
Plaintext:                00000000000000000000001000000000
Ciphertext:               67dee1bd5cd3aaef22582f8ee935b73e6f38b4e0ddd2e5043751e90c9253a56f3dd2462799ac9a133437befd543ebf40
Reciphers for ciphertext: 0
Decipheredtext:           00000000000000000000001000000000
RESULT CIPHER-DECIPHER: -----OK-----


Test: 92
Hash algorithm: 0
Data unit:      0
Start block:    0
Symmetric key bit length: 384
Plaintext bit length:     128
Symmetric key:            000000000000000000000000000000000000000000000000000000000000000000000000000000000000000800000000
Plaintext:                00000000000000000000000800000000
Ciphertext:               20951dd9ec9bfcb4a3299ace081b1fc6427b24f81cdcc2af135da3da51b3b33272c2e8bf
Reciphers for ciphertext: 0
Decipheredtext:           00000000000000000000000800000000
RESULT CIPHER-DECIPHER: -----OK-----


Test: 93
Hash algorithm: 12
Data unit:      0
Start block:    0
Symmetric key bit length: 384
Plaintext bit length:     128
Symmetric key:            000000000000000000000000000000000000000000000000000000000000000000000000000000000000000400000000
Plaintext:                00000000000000000000000400000000
Ciphertext:               9e2340d48b9c111858063b0f3a721cc81759ed286a39ef835b4c029f46964cf0
Reciphers for ciphertext: 0
Decipheredtext:           00000000000000000000000400000000
RESULT CIPHER-DECIPHER: -----OK-----


Test: 94
Hash algorithm: 3
Data unit:      0
Start block:    0
Symmetric key bit length: 384
Plaintext bit length:     128
Symmetric key:            000000000000000000000000000000000000000000000000000000000000000000000000000000000000000200000000
Plaintext:                00000000000000000000000200000000
Ciphertext:               245a21b93692e6e2eb288590e8c8757fa60a70e2b52dc17df78cc5da85376bac3037fae786f710672cc10d190b9348675e00447085c9e34f032a94f7298d6c20
Reciphers for ciphertext: 0
Decipheredtext:           00000000000000000000000200000000
RESULT CIPHER-DECIPHER: -----OK-----


Test: 95
Hash algorithm: 8
Data unit:      0
Start block:    0
Symmetric key bit length: 384
Plaintext bit length:     128
Symmetric key:            000000000000000000000000000000000000000000000000000000000000000000000000000000000000000100000000
Plaintext:                00000000000000000000000100000000
Ciphertext:               eb7c186ce12676a49b6dad69c242c81fbfad56450737a5c9369e9bce106b9d77c6aa8aa1
Reciphers for ciphertext: 0
Decipheredtext:           00000000000000000000000100000000
RESULT CIPHER-DECIPHER: -----OK-----


Test: 96
Hash algorithm: 3
Data unit:      0
Start block:    0
Symmetric key bit length: 384
Plaintext bit length:     128
Symmetric key:            000000000000000000000000000000000000000000000000000000000000000000000000000000000000000080000000
Plaintext:                00000000000000000000000080000000
Ciphertext:               c8a10ef05b9ceb4a8a2a6306f7f12feba493c65a7664e2118c0b40d251dd9cef44581d8091190151802388f1ccb447ec1b2367c972ac253480a4eb9f963852c5
Reciphers for ciphertext: 0
Decipheredtext:           00000000000000000000000080000000
RESULT CIPHER-DECIPHER: -----OK-----


Test: 97
Hash algorithm: 8
Data unit:      0
Start block:    0
Symmetric key bit length: 384
Plaintext bit length:     128
Symmetric key:            000000000000000000000000000000000000000000000000000000000000000000000000000000000000000040000000
Plaintext:                00000000000000000000000040000000
Ciphertext:               1e3f0d680eb16051737c43584966e23fa714cbd56d1f89b5f01e7f13b03d0591fea77221
Reciphers for ciphertext: 0
Decipheredtext:           00000000000000000000000040000000
RESULT CIPHER-DECIPHER: -----OK-----


Test: 98
Hash algorithm: 8
Data unit:      0
Start block:    0
Symmetric key bit length: 384
Plaintext bit length:     128
Symmetric key:            000000000000000000000000000000000000000000000000000000000000000000000000000000000000000020000000
Plaintext:                00000000000000000000000020000000
Ciphertext:               dc996fa790c92bd5111a97ccecdadb33cfd3f5f329f5037f5ba006cce998a7bf312ec39f
Reciphers for ciphertext: 0
Decipheredtext:           00000000000000000000000020000000
RESULT CIPHER-DECIPHER: -----OK-----


Test: 99
Hash algorithm: 10
Data unit:      0
Start block:    0
Symmetric key bit length: 384
Plaintext bit length:     128
Symmetric key:            000000000000000000000000000000000000000000000000000000000000000000000000000000000000000010000000
Plaintext:                00000000000000000000000010000000
Ciphertext:               f33d926bc2c1fdc0afcc03212521cf40135aff35102bacdc870dde8e7ad865582d52d1f7fef7f2f9b48b8c4aaecc52df24862cb01b56c55e
Reciphers for ciphertext: 0
Decipheredtext:           00000000000000000000000010000000
RESULT CIPHER-DECIPHER: -----OK-----


Test: 100
Hash algorithm: 12
Data unit:      0
Start block:    0
Symmetric key bit length: 384
Plaintext bit length:     128
Symmetric key:            000000000000000000000000000000000000000000000000000000000000000000000000000000000000000008000000
Plaintext:                00000000000000000000000008000000
Ciphertext:               c5b573d01f7f5b310a213c88d30e2a519138e5d8b5ab9530f6718268be126b88
Reciphers for ciphertext: 0
Decipheredtext:           00000000000000000000000008000000
RESULT CIPHER-DECIPHER: -----OK-----


Test: 101
Hash algorithm: 3
Data unit:      0
Start block:    0
Symmetric key bit length: 384
Plaintext bit length:     128
Symmetric key:            000000000000000000000000000000000000000000000000000000000000000000000000000000000000000004000000
Plaintext:                00000000000000000000000004000000
Ciphertext:               f0d790753f05649646c82a941714aedf49e8eaeb05fdb6261e7bee0f828949de20793385c691bc3d88054315860d40477d5c495803edba734696369239a7d713
Reciphers for ciphertext: 0
Decipheredtext:           00000000000000000000000004000000
RESULT CIPHER-DECIPHER: -----OK-----


Test: 102
Hash algorithm: 10
Data unit:      0
Start block:    0
Symmetric key bit length: 384
Plaintext bit length:     128
Symmetric key:            000000000000000000000000000000000000000000000000000000000000000000000000000000000000000002000000
Plaintext:                00000000000000000000000002000000
Ciphertext:               eafa41b496ab62a067483ef71d9eeba797a686a59c24a109af8610e9e3ce79ac642eeab93bbd79d52ab8c0c419c841bae5dbe18090b790f5
Reciphers for ciphertext: 0
Decipheredtext:           00000000000000000000000002000000
RESULT CIPHER-DECIPHER: -----OK-----


Test: 103
Hash algorithm: 7
Data unit:      0
Start block:    0
Symmetric key bit length: 384
Plaintext bit length:     128
Symmetric key:            000000000000000000000000000000000000000000000000000000000000000000000000000000000000000001000000
Plaintext:                00000000000000000000000001000000
Ciphertext:               36e35bbcb12a06347ca6668a9ca4692fcbca119d8011341802b66b078229a244
Reciphers for ciphertext: 0
Decipheredtext:           00000000000000000000000001000000
RESULT CIPHER-DECIPHER: -----OK-----


Test: 104
Hash algorithm: 7
Data unit:      0
Start block:    0
Symmetric key bit length: 384
Plaintext bit length:     128
Symmetric key:            000000000000000000000000000000000000000000000000000000000000000000000000000000000000000000800000
Plaintext:                00000000000000000000000000800000
Ciphertext:               c95d75cc03710ed0e7f0195894eacc17b3675ff6850e367d02d5f3909b153077
Reciphers for ciphertext: 0
Decipheredtext:           00000000000000000000000000800000
RESULT CIPHER-DECIPHER: -----OK-----


Test: 105
Hash algorithm: 6
Data unit:      0
Start block:    0
Symmetric key bit length: 384
Plaintext bit length:     128
Symmetric key:            000000000000000000000000000000000000000000000000000000000000000000000000000000000000000000400000
Plaintext:                00000000000000000000000000400000
Ciphertext:               0075421343a59017e1ce4aeb54773ab8e976d59f3b0e4e9e13447a7ecfef35caabd03f3f76509dcdd18a6aaa6884ff47
Reciphers for ciphertext: 0
Decipheredtext:           00000000000000000000000000400000
RESULT CIPHER-DECIPHER: -----OK-----


Test: 106
Hash algorithm: 11
Data unit:      0
Start block:    0
Symmetric key bit length: 384
Plaintext bit length:     128
Symmetric key:            000000000000000000000000000000000000000000000000000000000000000000000000000000000000000000200000
Plaintext:                00000000000000000000000000200000
Ciphertext:               366315f31f750151760af8392ad1c08deb6f621fe64bfa5e21a55dfe3f9f1452
Reciphers for ciphertext: 0
Decipheredtext:           00000000000000000000000000200000
RESULT CIPHER-DECIPHER: -----OK-----


Test: 107
Hash algorithm: 5
Data unit:      0
Start block:    0
Symmetric key bit length: 384
Plaintext bit length:     128
Symmetric key:            000000000000000000000000000000000000000000000000000000000000000000000000000000000000000000100000
Plaintext:                00000000000000000000000000100000
Ciphertext:               44f03244012bef3b2cc8392bb5100b74db87941953145c088d8ddd539c152536831979d11f6d21e52860d9e3
Reciphers for ciphertext: 0
Decipheredtext:           00000000000000000000000000100000
RESULT CIPHER-DECIPHER: -----OK-----


Test: 108
Hash algorithm: 9
Data unit:      0
Start block:    0
Symmetric key bit length: 384
Plaintext bit length:     128
Symmetric key:            000000000000000000000000000000000000000000000000000000000000000000000000000000000000000000080000
Plaintext:                00000000000000000000000000080000
Ciphertext:               e9e796278e5178f6fa803f33dc157d50337b1e1b8ba7e08e8d81cec39b6e41c711d34371f0df4521a998cb747916c62d
Reciphers for ciphertext: 0
Decipheredtext:           00000000000000000000000000080000
RESULT CIPHER-DECIPHER: -----OK-----


Test: 109
Hash algorithm: 7
Data unit:      0
Start block:    0
Symmetric key bit length: 384
Plaintext bit length:     128
Symmetric key:            000000000000000000000000000000000000000000000000000000000000000000000000000000000000000000040000
Plaintext:                00000000000000000000000000040000
Ciphertext:               fd221157d97e8965a00d9a176a3f259ef0790ca566c4fa38389d276abf0048e7
Reciphers for ciphertext: 0
Decipheredtext:           00000000000000000000000000040000
RESULT CIPHER-DECIPHER: -----OK-----


Test: 110
Hash algorithm: 3
Data unit:      0
Start block:    0
Symmetric key bit length: 384
Plaintext bit length:     128
Symmetric key:            000000000000000000000000000000000000000000000000000000000000000000000000000000000000000000020000
Plaintext:                00000000000000000000000000020000
Ciphertext:               ebcf2d14b0e340710a39f6ac385e4e0d4788d4160c0f30bac9cff85a136d235cd1ee0b9c70dcc69583e9f81ca2b22cb5adc7aa7ac0991788e781c95557cd9e87
Reciphers for ciphertext: 0
Decipheredtext:           00000000000000000000000000020000
RESULT CIPHER-DECIPHER: -----OK-----


Test: 111
Hash algorithm: 1
Data unit:      0
Start block:    0
Symmetric key bit length: 384
Plaintext bit length:     128
Symmetric key:            000000000000000000000000000000000000000000000000000000000000000000000000000000000000000000010000
Plaintext:                00000000000000000000000000010000
Ciphertext:               f54d647cef328283a5c3f141183024392d4556002b6ac4932c3124348aba7df9b897876100227254a07a2b26
Reciphers for ciphertext: 0
Decipheredtext:           00000000000000000000000000010000
RESULT CIPHER-DECIPHER: -----OK-----


Test: 112
Hash algorithm: 10
Data unit:      0
Start block:    0
Symmetric key bit length: 384
Plaintext bit length:     128
Symmetric key:            000000000000000000000000000000000000000000000000000000000000000000000000000000000000000000008000
Plaintext:                00000000000000000000000000008000
Ciphertext:               33048b6e8ec61422227acf91ca1c63d18a62965659db062ff6dc5c2a3bab6f0eb1ef37e768f5efdc49f9bc6185a959440538cb111b9c636a
Reciphers for ciphertext: 0
Decipheredtext:           00000000000000000000000000008000
RESULT CIPHER-DECIPHER: -----OK-----


Test: 113
Hash algorithm: 12
Data unit:      0
Start block:    0
Symmetric key bit length: 384
Plaintext bit length:     128
Symmetric key:            000000000000000000000000000000000000000000000000000000000000000000000000000000000000000000004000
Plaintext:                00000000000000000000000000004000
Ciphertext:               c3a4ea9bfdb6a6f2fafaafa73ae99d7ee6d959c844b8caf739674d33e824bca4
Reciphers for ciphertext: 0
Decipheredtext:           00000000000000000000000000004000
RESULT CIPHER-DECIPHER: -----OK-----


Test: 114
Hash algorithm: 12
Data unit:      0
Start block:    0
Symmetric key bit length: 384
Plaintext bit length:     128
Symmetric key:            000000000000000000000000000000000000000000000000000000000000000000000000000000000000000000002000
Plaintext:                00000000000000000000000000002000
Ciphertext:               6bfbf8b56e58cbb9863dd94935e8f469c0546313a8620af270ba704faeb3afcf
Reciphers for ciphertext: 0
Decipheredtext:           00000000000000000000000000002000
RESULT CIPHER-DECIPHER: -----OK-----


Test: 115
Hash algorithm: 9
Data unit:      0
Start block:    0
Symmetric key bit length: 384
Plaintext bit length:     128
Symmetric key:            000000000000000000000000000000000000000000000000000000000000000000000000000000000000000000001000
Plaintext:                00000000000000000000000000001000
Ciphertext:               0bb6df19e81057c27bf2dcaa8d013563e16c4a16a247678b885d566cd2842aa687738e8cf01d048a907713639562c0a0
Reciphers for ciphertext: 0
Decipheredtext:           00000000000000000000000000001000
RESULT CIPHER-DECIPHER: -----OK-----


Test: 116
Hash algorithm: 9
Data unit:      0
Start block:    0
Symmetric key bit length: 384
Plaintext bit length:     128
Symmetric key:            000000000000000000000000000000000000000000000000000000000000000000000000000000000000000000000800
Plaintext:                00000000000000000000000000000800
Ciphertext:               34a8c319e4f5621bcbca1b2d3408d61452d63e2b6c85018985c6fb6f3ef5abd0dfacd2e0a606029cd71361c3c0fddfde
Reciphers for ciphertext: 0
Decipheredtext:           00000000000000000000000000000800
RESULT CIPHER-DECIPHER: -----OK-----


Test: 117
Hash algorithm: 10
Data unit:      0
Start block:    0
Symmetric key bit length: 384
Plaintext bit length:     128
Symmetric key:            000000000000000000000000000000000000000000000000000000000000000000000000000000000000000000000400
Plaintext:                00000000000000000000000000000400
Ciphertext:               3099ab513b1776955116fe3cd050e0134c0e592e76aa060afcf67774862245f5dca65fd0294bf92e0c94936088e0707b7fef1e9d2d951805
Reciphers for ciphertext: 0
Decipheredtext:           00000000000000000000000000000400
RESULT CIPHER-DECIPHER: -----OK-----


Test: 118
Hash algorithm: 9
Data unit:      0
Start block:    0
Symmetric key bit length: 384
Plaintext bit length:     128
Symmetric key:            000000000000000000000000000000000000000000000000000000000000000000000000000000000000000000000200
Plaintext:                00000000000000000000000000000200
Ciphertext:               92a68fcccc67ab226ad9d31c659da29413b796bbd932c2e815ebcdd92bf9f23f466e2c5ab9d5458186375b8f6d9f5d46
Reciphers for ciphertext: 0
Decipheredtext:           00000000000000000000000000000200
RESULT CIPHER-DECIPHER: -----OK-----


Test: 119
Hash algorithm: 2
Data unit:      0
Start block:    0
Symmetric key bit length: 384
Plaintext bit length:     128
Symmetric key:            000000000000000000000000000000000000000000000000000000000000000000000000000000000000000000000100
Plaintext:                00000000000000000000000000000100
Ciphertext:               55d073c093d63da1e9de50d59a09c81b724a5b8d5822fd4351f107669de104b0bee3e7becd94dd683d785846b24b2d47
Reciphers for ciphertext: 0
Decipheredtext:           00000000000000000000000000000100
RESULT CIPHER-DECIPHER: -----OK-----


Test: 120
Hash algorithm: 8
Data unit:      0
Start block:    0
Symmetric key bit length: 384
Plaintext bit length:     128
Symmetric key:            000000000000000000000000000000000000000000000000000000000000000000000000000000000000000000000080
Plaintext:                00000000000000000000000000000080
Ciphertext:               16137e5dde74a14b6cee266509ac2964e1bf57139eacfca729a3c231de16da83fba6d8b9
Reciphers for ciphertext: 0
Decipheredtext:           00000000000000000000000000000080
RESULT CIPHER-DECIPHER: -----OK-----


Test: 121
Hash algorithm: 9
Data unit:      0
Start block:    0
Symmetric key bit length: 384
Plaintext bit length:     128
Symmetric key:            000000000000000000000000000000000000000000000000000000000000000000000000000000000000000000000040
Plaintext:                00000000000000000000000000000040
Ciphertext:               e9f066616a16a415303b484ad9a6dcb0e10fa5dd4d8658f2c2920d49a19cfc797439195c86cfca23c09a2e14af20361d
Reciphers for ciphertext: 0
Decipheredtext:           00000000000000000000000000000040
RESULT CIPHER-DECIPHER: -----OK-----


Test: 122
Hash algorithm: 9
Data unit:      0
Start block:    0
Symmetric key bit length: 384
Plaintext bit length:     128
Symmetric key:            000000000000000000000000000000000000000000000000000000000000000000000000000000000000000000000020
Plaintext:                00000000000000000000000000000020
Ciphertext:               4137f784b4c371dcc9088e8886086b2bccda0c5f0ec50fa9fa70d233d80fee8eaa166ab5a07840454a05b2b995f0d8c0
Reciphers for ciphertext: 0
Decipheredtext:           00000000000000000000000000000020
RESULT CIPHER-DECIPHER: -----OK-----


Test: 123
Hash algorithm: 9
Data unit:      0
Start block:    0
Symmetric key bit length: 384
Plaintext bit length:     128
Symmetric key:            000000000000000000000000000000000000000000000000000000000000000000000000000000000000000000000010
Plaintext:                00000000000000000000000000000010
Ciphertext:               54c91d47bbc21ba36b91c48465c5f24d2e901ef03e4b38ecd337842eafce8c325bb8e60fb96cac517dae7a3019a14e09
Reciphers for ciphertext: 0
Decipheredtext:           00000000000000000000000000000010
RESULT CIPHER-DECIPHER: -----OK-----


Test: 124
Hash algorithm: 11
Data unit:      0
Start block:    0
Symmetric key bit length: 384
Plaintext bit length:     128
Symmetric key:            000000000000000000000000000000000000000000000000000000000000000000000000000000000000000000000008
Plaintext:                00000000000000000000000000000008
Ciphertext:               243e860f1b243ca69999c6ca5a7b51dadfeef3dccdfd47eb54921f9bafedd00c
Reciphers for ciphertext: 0
Decipheredtext:           00000000000000000000000000000008
RESULT CIPHER-DECIPHER: -----OK-----


Test: 125
Hash algorithm: 1
Data unit:      0
Start block:    0
Symmetric key bit length: 384
Plaintext bit length:     128
Symmetric key:            000000000000000000000000000000000000000000000000000000000000000000000000000000000000000000000004
Plaintext:                00000000000000000000000000000004
Ciphertext:               efb5f7dfe7233b8a85d2dd2dcbb2a815bfb2680a7cf89db348af5e434bb54279af4a4da0a51caea114eb0d3a
Reciphers for ciphertext: 0
Decipheredtext:           00000000000000000000000000000004
RESULT CIPHER-DECIPHER: -----OK-----


Test: 126
Hash algorithm: 9
Data unit:      0
Start block:    0
Symmetric key bit length: 384
Plaintext bit length:     128
Symmetric key:            000000000000000000000000000000000000000000000000000000000000000000000000000000000000000000000002
Plaintext:                00000000000000000000000000000002
Ciphertext:               b7060482768bb0f847500c7cb928a14580c0089fa2499fbffb2160c25216d339aa0d94a66e2332223f4859e675b51c57
Reciphers for ciphertext: 0
Decipheredtext:           00000000000000000000000000000002
RESULT CIPHER-DECIPHER: -----OK-----


Test: 127
Hash algorithm: 3
Data unit:      0
Start block:    0
Symmetric key bit length: 384
Plaintext bit length:     128
Symmetric key:            000000000000000000000000000000000000000000000000000000000000000000000000000000000000000000000001
Plaintext:                00000000000000000000000000000001
Ciphertext:               4d7767235a5ef7399518e32ff91534505587505a6229a3ce16a3e64a4ec42fa80fcdd323a139087ad5dcd97e54e693495af029e9288a06ba9721cd19356782f3
Reciphers for ciphertext: 0
Decipheredtext:           00000000000000000000000000000001
RESULT CIPHER-DECIPHER: -----OK-----


 DATA SHA1 (hexadecimal): dbc9799467b685c9a2844fd9bbb044d42e75b69b

