
DiceLock 9.0.0.1

 TEST COMPONENTS:
 ----------------
 DiceLock:           DiceLockXTSDigested class
                     Operating over full text length
 Operation Mode:     XTS_Mode class
 Block Cipher:       Serpent256 class
 Hash algorithms:     0 - Sha1 class
                      1 - Sha224 class
                      2 - Sha256 class
                      3 - Sha384 class
                      4 - Sha512 class
                      5 - Sha512_224 class
                      6 - Sha512_256 class
                      7 - Ripemd128 class
                      8 - Ripemd160 class
                      9 - Ripemd256 class
                     10 - Ripemd320 class
                     11 - MD2 class
                     12 - MD4 class
                     13 - MD5 class
 Key Modifier:       DecreaseKeyModifier_6_0_0_1 class
 Random tests:       RandomTestSuite class
                     FrequencyTest class
                     BlockFrequencyTest class
                     CumulativeSumForwardTest class
                     LongestRunOfOnesTest class
                     RunsTest class
 Random alpha:       0.001

 VECTOR TEST: Test vector 3 - Symmetric key all byte value 0xXX


##### INDIVIDUAL TESTS #####

Number tests: 128


Test: 0
Hash algorithm: 5
Data unit:      0
Start block:    1
Symmetric key bit length: 512
Plaintext bit length:     128
Symmetric key:            00000000000000000000000000000000000000000000000000000000000000000000000000000000000000000000000000000000000000000000000000000000
Plaintext:                00000000000000000000000000000000
Ciphertext:               e99df18b21f7841a16e7a46edb57ae56300d516e2472d3d9f6733c882c306af3ec57c9ad3169bc59ccbe2541
Reciphers for ciphertext: 0
Decipheredtext:           00000000000000000000000000000000
RESULT CIPHER-DECIPHER: -----OK-----


Test: 1
Hash algorithm: 4
Data unit:      1
Start block:    3
Symmetric key bit length: 512
Plaintext bit length:     128
Symmetric key:            01010101010101010101010101010101010101010101010101010101010101010101010101010101010101010101010101010101010101010101010101010101
Plaintext:                00000000000000000000000000000000
Ciphertext:               aa76b5404627db03125b6c856cd529e7b9e2f93975ac70d5e85118cbf28b66d4cce0904409d7c9926d829bf9094ea8d2f2e09968e53909e3e5b9cfff1199ad1b668e077d69073239616c6b46f9495d0a
Reciphers for ciphertext: 0
Decipheredtext:           00000000000000000000000000000000
RESULT CIPHER-DECIPHER: -----OK-----


Test: 2
Hash algorithm: 7
Data unit:      2
Start block:    5
Symmetric key bit length: 512
Plaintext bit length:     128
Symmetric key:            02020202020202020202020202020202020202020202020202020202020202020202020202020202020202020202020202020202020202020202020202020202
Plaintext:                00000000000000000000000000000000
Ciphertext:               8bccb385c4760c370dd108490b0d5259455606269017277d10b1dd738eceefac
Reciphers for ciphertext: 0
Decipheredtext:           00000000000000000000000000000000
RESULT CIPHER-DECIPHER: -----OK-----


Test: 3
Hash algorithm: 4
Data unit:      3
Start block:    7
Symmetric key bit length: 512
Plaintext bit length:     128
Symmetric key:            03030303030303030303030303030303030303030303030303030303030303030303030303030303030303030303030303030303030303030303030303030303
Plaintext:                00000000000000000000000000000000
Ciphertext:               982fee17af229d9b03643ded8ba0676d5aa80d534e187f257fee8e6c77041fc31098335dd8a8a440ff847ee3cc6de8efebfda1de1fe70246b66dcbf7ec50786d2f32148683a2dc7000c2673b987d9cd8
Reciphers for ciphertext: 0
Decipheredtext:           00000000000000000000000000000000
RESULT CIPHER-DECIPHER: -----OK-----


Test: 4
Hash algorithm: 13
Data unit:      4
Start block:    9
Symmetric key bit length: 512
Plaintext bit length:     128
Symmetric key:            04040404040404040404040404040404040404040404040404040404040404040404040404040404040404040404040404040404040404040404040404040404
Plaintext:                00000000000000000000000000000000
Ciphertext:               82b78a1e6e4d9a5397971cf290308e3d99accf5aed5e413530e79710cc91434c
Reciphers for ciphertext: 0
Decipheredtext:           00000000000000000000000000000000
RESULT CIPHER-DECIPHER: -----OK-----


Test: 5
Hash algorithm: 10
Data unit:      5
Start block:    11
Symmetric key bit length: 512
Plaintext bit length:     128
Symmetric key:            05050505050505050505050505050505050505050505050505050505050505050505050505050505050505050505050505050505050505050505050505050505
Plaintext:                00000000000000000000000000000000
Ciphertext:               5e6f3a38b8c75d911b93b906231a6f7698f997c760c400ccea81c46e8ba816c7728a3d6944f1a1a737c13fbe3791ca68ad4f730141e59317
Reciphers for ciphertext: 0
Decipheredtext:           00000000000000000000000000000000
RESULT CIPHER-DECIPHER: -----OK-----


Test: 6
Hash algorithm: 6
Data unit:      6
Start block:    13
Symmetric key bit length: 512
Plaintext bit length:     128
Symmetric key:            06060606060606060606060606060606060606060606060606060606060606060606060606060606060606060606060606060606060606060606060606060606
Plaintext:                00000000000000000000000000000000
Ciphertext:               2d15700cee0ee50ccc173aaf3a0d4601b771d831da07c960ef4ddf0bec017f9bcb6d3ef8baff1993bb02cfb0831f27dc
Reciphers for ciphertext: 0
Decipheredtext:           00000000000000000000000000000000
RESULT CIPHER-DECIPHER: -----OK-----


Test: 7
Hash algorithm: 10
Data unit:      7
Start block:    15
Symmetric key bit length: 512
Plaintext bit length:     128
Symmetric key:            07070707070707070707070707070707070707070707070707070707070707070707070707070707070707070707070707070707070707070707070707070707
Plaintext:                00000000000000000000000000000000
Ciphertext:               ddf38c5e506fd9cac928c230c3576abd5de6a5e65bc797201dbf02c9d2c5d77fb88fa9c0aa21af1ba87a0072ba38acad885bb1db853d1bce
Reciphers for ciphertext: 0
Decipheredtext:           00000000000000000000000000000000
RESULT CIPHER-DECIPHER: -----OK-----


Test: 8
Hash algorithm: 4
Data unit:      8
Start block:    17
Symmetric key bit length: 512
Plaintext bit length:     128
Symmetric key:            08080808080808080808080808080808080808080808080808080808080808080808080808080808080808080808080808080808080808080808080808080808
Plaintext:                00000000000000000000000000000000
Ciphertext:               29cba7f482c73d040aee93f01166834e929d391624e1d8c5527d3bf0d9660d6b62097baa4e19a90d401335243dcacecf8a6af0688a7868e083a6b2a3b7f7bae4b959bfc64765b898c577b6aaffe3040b
Reciphers for ciphertext: 0
Decipheredtext:           00000000000000000000000000000000
RESULT CIPHER-DECIPHER: -----OK-----


Test: 9
Hash algorithm: 1
Data unit:      9
Start block:    19
Symmetric key bit length: 512
Plaintext bit length:     128
Symmetric key:            09090909090909090909090909090909090909090909090909090909090909090909090909090909090909090909090909090909090909090909090909090909
Plaintext:                00000000000000000000000000000000
Ciphertext:               ecef9eaf98841dc4e53d7c4c129c060925834e9bd9c8d67caf57199381943e1de5239e75bcdd6532db83ecb6
Reciphers for ciphertext: 0
Decipheredtext:           00000000000000000000000000000000
RESULT CIPHER-DECIPHER: -----OK-----


Test: 10
Hash algorithm: 8
Data unit:      10
Start block:    21
Symmetric key bit length: 512
Plaintext bit length:     128
Symmetric key:            0a0a0a0a0a0a0a0a0a0a0a0a0a0a0a0a0a0a0a0a0a0a0a0a0a0a0a0a0a0a0a0a0a0a0a0a0a0a0a0a0a0a0a0a0a0a0a0a0a0a0a0a0a0a0a0a0a0a0a0a0a0a0a0a
Plaintext:                00000000000000000000000000000000
Ciphertext:               682d651faa80b8efcd6f77e6bbc4951fe90a5dab040addaebdaccfdde9c06e033cff53d7
Reciphers for ciphertext: 0
Decipheredtext:           00000000000000000000000000000000
RESULT CIPHER-DECIPHER: -----OK-----


Test: 11
Hash algorithm: 4
Data unit:      11
Start block:    23
Symmetric key bit length: 512
Plaintext bit length:     128
Symmetric key:            0b0b0b0b0b0b0b0b0b0b0b0b0b0b0b0b0b0b0b0b0b0b0b0b0b0b0b0b0b0b0b0b0b0b0b0b0b0b0b0b0b0b0b0b0b0b0b0b0b0b0b0b0b0b0b0b0b0b0b0b0b0b0b0b
Plaintext:                00000000000000000000000000000000
Ciphertext:               c90cf3959a8b766afb5a4f928b0ccafc5f67724db981694c2cf74452a2ee5f50b1a507ee34db841d2888ebe137887b800d1c3ffa37646597e07519fdf030a6b545d0dd7178dcb6f81e5070a18411291b
Reciphers for ciphertext: 0
Decipheredtext:           00000000000000000000000000000000
RESULT CIPHER-DECIPHER: -----OK-----


Test: 12
Hash algorithm: 3
Data unit:      12
Start block:    25
Symmetric key bit length: 512
Plaintext bit length:     128
Symmetric key:            0c0c0c0c0c0c0c0c0c0c0c0c0c0c0c0c0c0c0c0c0c0c0c0c0c0c0c0c0c0c0c0c0c0c0c0c0c0c0c0c0c0c0c0c0c0c0c0c0c0c0c0c0c0c0c0c0c0c0c0c0c0c0c0c
Plaintext:                00000000000000000000000000000000
Ciphertext:               f2488a9628b3ba6dcf4ec257d0940775ae862710d5cfd6085a1ebcbb6cfd20227f7c389f71a59da2dfda41fe323607a40bf866e82131980654b263046434817b
Reciphers for ciphertext: 0
Decipheredtext:           00000000000000000000000000000000
RESULT CIPHER-DECIPHER: -----OK-----


Test: 13
Hash algorithm: 0
Data unit:      13
Start block:    27
Symmetric key bit length: 512
Plaintext bit length:     128
Symmetric key:            0d0d0d0d0d0d0d0d0d0d0d0d0d0d0d0d0d0d0d0d0d0d0d0d0d0d0d0d0d0d0d0d0d0d0d0d0d0d0d0d0d0d0d0d0d0d0d0d0d0d0d0d0d0d0d0d0d0d0d0d0d0d0d0d
Plaintext:                00000000000000000000000000000000
Ciphertext:               128c37879a3fac3b52db7d77a4765e96fceaa323da14c7a28b9663eaabdc4226803e5b02
Reciphers for ciphertext: 0
Decipheredtext:           00000000000000000000000000000000
RESULT CIPHER-DECIPHER: -----OK-----


Test: 14
Hash algorithm: 6
Data unit:      14
Start block:    29
Symmetric key bit length: 512
Plaintext bit length:     128
Symmetric key:            0e0e0e0e0e0e0e0e0e0e0e0e0e0e0e0e0e0e0e0e0e0e0e0e0e0e0e0e0e0e0e0e0e0e0e0e0e0e0e0e0e0e0e0e0e0e0e0e0e0e0e0e0e0e0e0e0e0e0e0e0e0e0e0e
Plaintext:                00000000000000000000000000000000
Ciphertext:               66b197ce1c036c112b28378e89557ed89c75957ccd655b3fcf3a5f643ebfac312824d80fa88526636b292ad01216cda8
Reciphers for ciphertext: 0
Decipheredtext:           00000000000000000000000000000000
RESULT CIPHER-DECIPHER: -----OK-----


Test: 15
Hash algorithm: 6
Data unit:      15
Start block:    31
Symmetric key bit length: 512
Plaintext bit length:     128
Symmetric key:            0f0f0f0f0f0f0f0f0f0f0f0f0f0f0f0f0f0f0f0f0f0f0f0f0f0f0f0f0f0f0f0f0f0f0f0f0f0f0f0f0f0f0f0f0f0f0f0f0f0f0f0f0f0f0f0f0f0f0f0f0f0f0f0f
Plaintext:                00000000000000000000000000000000
Ciphertext:               72e726a68f2b9ffe4fe8454e79e2ec75aa8150814c07cc445d0eb434b90b6502ee41d00b8fc795fd7761e5b58badd9da
Reciphers for ciphertext: 0
Decipheredtext:           00000000000000000000000000000000
RESULT CIPHER-DECIPHER: -----OK-----


Test: 16
Hash algorithm: 5
Data unit:      16
Start block:    33
Symmetric key bit length: 512
Plaintext bit length:     128
Symmetric key:            10101010101010101010101010101010101010101010101010101010101010101010101010101010101010101010101010101010101010101010101010101010
Plaintext:                00000000000000000000000000000000
Ciphertext:               b6a71ef67cbcdb02d7c4a365cd5c5f6f37221fe688cb08374f8d7120c0a1a445db81f2d39c313996604697cd
Reciphers for ciphertext: 0
Decipheredtext:           00000000000000000000000000000000
RESULT CIPHER-DECIPHER: -----OK-----


Test: 17
Hash algorithm: 4
Data unit:      17
Start block:    35
Symmetric key bit length: 512
Plaintext bit length:     128
Symmetric key:            11111111111111111111111111111111111111111111111111111111111111111111111111111111111111111111111111111111111111111111111111111111
Plaintext:                00000000000000000000000000000000
Ciphertext:               be2b62ea66561a74bc2d7c3a54664bf7cc0d9ab37d8d07fe239c88d8fafb4b16b1afe0b1b6c7ec3281691805cffc24060da07601cfc0cf89196c092d45cdbf5122f94b8ff0f1d236cbbc5de789b9b58e
Reciphers for ciphertext: 0
Decipheredtext:           00000000000000000000000000000000
RESULT CIPHER-DECIPHER: -----OK-----


Test: 18
Hash algorithm: 1
Data unit:      18
Start block:    37
Symmetric key bit length: 512
Plaintext bit length:     128
Symmetric key:            12121212121212121212121212121212121212121212121212121212121212121212121212121212121212121212121212121212121212121212121212121212
Plaintext:                00000000000000000000000000000000
Ciphertext:               8554f8c0fec3e47286dc118b15f73a6384f36580a7e446382df00cbcf1d55dd308b20811af17bb881344bfc0
Reciphers for ciphertext: 0
Decipheredtext:           00000000000000000000000000000000
RESULT CIPHER-DECIPHER: -----OK-----


Test: 19
Hash algorithm: 13
Data unit:      19
Start block:    39
Symmetric key bit length: 512
Plaintext bit length:     128
Symmetric key:            13131313131313131313131313131313131313131313131313131313131313131313131313131313131313131313131313131313131313131313131313131313
Plaintext:                00000000000000000000000000000000
Ciphertext:               d6064353681d730a8a2ed12217cf84edf262535ae58b441b656e6b7a9e1b01d9
Reciphers for ciphertext: 0
Decipheredtext:           00000000000000000000000000000000
RESULT CIPHER-DECIPHER: -----OK-----


Test: 20
Hash algorithm: 2
Data unit:      20
Start block:    41
Symmetric key bit length: 512
Plaintext bit length:     128
Symmetric key:            14141414141414141414141414141414141414141414141414141414141414141414141414141414141414141414141414141414141414141414141414141414
Plaintext:                00000000000000000000000000000000
Ciphertext:               6e150e15e0d14dc5717c5531b624d5f2bc4d22366b0dcc42b07e42190050fa5627bc06b3e79b1fc1193c1cf4b9cdae67
Reciphers for ciphertext: 0
Decipheredtext:           00000000000000000000000000000000
RESULT CIPHER-DECIPHER: -----OK-----


Test: 21
Hash algorithm: 12
Data unit:      21
Start block:    43
Symmetric key bit length: 512
Plaintext bit length:     128
Symmetric key:            15151515151515151515151515151515151515151515151515151515151515151515151515151515151515151515151515151515151515151515151515151515
Plaintext:                00000000000000000000000000000000
Ciphertext:               07caf4138cb4305e59304bbbe8c59e9a2fd6293dcfb11017a697a0323d549937
Reciphers for ciphertext: 0
Decipheredtext:           00000000000000000000000000000000
RESULT CIPHER-DECIPHER: -----OK-----


Test: 22
Hash algorithm: 8
Data unit:      22
Start block:    45
Symmetric key bit length: 512
Plaintext bit length:     128
Symmetric key:            16161616161616161616161616161616161616161616161616161616161616161616161616161616161616161616161616161616161616161616161616161616
Plaintext:                00000000000000000000000000000000
Ciphertext:               93849b40abfff1f882b9ed43e6c1e9bad575d69036c547ed25ac32d552f7393eaee63ff3
Reciphers for ciphertext: 0
Decipheredtext:           00000000000000000000000000000000
RESULT CIPHER-DECIPHER: -----OK-----


Test: 23
Hash algorithm: 3
Data unit:      23
Start block:    47
Symmetric key bit length: 512
Plaintext bit length:     128
Symmetric key:            17171717171717171717171717171717171717171717171717171717171717171717171717171717171717171717171717171717171717171717171717171717
Plaintext:                00000000000000000000000000000000
Ciphertext:               b19a2395f83ced0fd5c2e8047cd543edde582977e6af305394cef19a846a69b19681f06fda378dd78a068a4975eae041f2e0c541cc1584ed3f404b7d135bb36a
Reciphers for ciphertext: 0
Decipheredtext:           00000000000000000000000000000000
RESULT CIPHER-DECIPHER: -----OK-----


Test: 24
Hash algorithm: 6
Data unit:      24
Start block:    49
Symmetric key bit length: 512
Plaintext bit length:     128
Symmetric key:            18181818181818181818181818181818181818181818181818181818181818181818181818181818181818181818181818181818181818181818181818181818
Plaintext:                00000000000000000000000000000000
Ciphertext:               eac7f5fe86e6592b4d2c7ffdd5f2e477e99c58d8e8ae84a43cfd1596f9cdc9496da8880425ff1e65d13ae195f1881747
Reciphers for ciphertext: 0
Decipheredtext:           00000000000000000000000000000000
RESULT CIPHER-DECIPHER: -----OK-----


Test: 25
Hash algorithm: 4
Data unit:      25
Start block:    51
Symmetric key bit length: 512
Plaintext bit length:     128
Symmetric key:            19191919191919191919191919191919191919191919191919191919191919191919191919191919191919191919191919191919191919191919191919191919
Plaintext:                00000000000000000000000000000000
Ciphertext:               a5cc3875c8886b4d5bffa47948967ad7659242fae5bc2b302fb1002b778f3af4d909b0765da75642da7de55142c415d2287b698c17d82bb00beb1248124ffc36d2bbab45d31acbd49f68c03149ab3b06
Reciphers for ciphertext: 0
Decipheredtext:           00000000000000000000000000000000
RESULT CIPHER-DECIPHER: -----OK-----


Test: 26
Hash algorithm: 10
Data unit:      26
Start block:    53
Symmetric key bit length: 512
Plaintext bit length:     128
Symmetric key:            1a1a1a1a1a1a1a1a1a1a1a1a1a1a1a1a1a1a1a1a1a1a1a1a1a1a1a1a1a1a1a1a1a1a1a1a1a1a1a1a1a1a1a1a1a1a1a1a1a1a1a1a1a1a1a1a1a1a1a1a1a1a1a1a
Plaintext:                00000000000000000000000000000000
Ciphertext:               8faaff6f43529da3635401cf809661eea4ee5bbfbe8605d5dd6b276efc9a5991938e1edad98a6b9c69e63cac5de0e4c23814435cefe0c064
Reciphers for ciphertext: 0
Decipheredtext:           00000000000000000000000000000000
RESULT CIPHER-DECIPHER: -----OK-----


Test: 27
Hash algorithm: 8
Data unit:      27
Start block:    55
Symmetric key bit length: 512
Plaintext bit length:     128
Symmetric key:            1b1b1b1b1b1b1b1b1b1b1b1b1b1b1b1b1b1b1b1b1b1b1b1b1b1b1b1b1b1b1b1b1b1b1b1b1b1b1b1b1b1b1b1b1b1b1b1b1b1b1b1b1b1b1b1b1b1b1b1b1b1b1b1b
Plaintext:                00000000000000000000000000000000
Ciphertext:               0e425385f447762ccea9817b6b76cd831ce9afe75639101486e654a99c9a9c30e911e62d
Reciphers for ciphertext: 0
Decipheredtext:           00000000000000000000000000000000
RESULT CIPHER-DECIPHER: -----OK-----


Test: 28
Hash algorithm: 11
Data unit:      28
Start block:    57
Symmetric key bit length: 512
Plaintext bit length:     128
Symmetric key:            1c1c1c1c1c1c1c1c1c1c1c1c1c1c1c1c1c1c1c1c1c1c1c1c1c1c1c1c1c1c1c1c1c1c1c1c1c1c1c1c1c1c1c1c1c1c1c1c1c1c1c1c1c1c1c1c1c1c1c1c1c1c1c1c
Plaintext:                00000000000000000000000000000000
Ciphertext:               05f8a191c2e87af5d097cac1a217ff4a817f36fe1ba4ec16c7484be52ea6fcb5
Reciphers for ciphertext: 0
Decipheredtext:           00000000000000000000000000000000
RESULT CIPHER-DECIPHER: -----OK-----


Test: 29
Hash algorithm: 2
Data unit:      29
Start block:    59
Symmetric key bit length: 512
Plaintext bit length:     128
Symmetric key:            1d1d1d1d1d1d1d1d1d1d1d1d1d1d1d1d1d1d1d1d1d1d1d1d1d1d1d1d1d1d1d1d1d1d1d1d1d1d1d1d1d1d1d1d1d1d1d1d1d1d1d1d1d1d1d1d1d1d1d1d1d1d1d1d
Plaintext:                00000000000000000000000000000000
Ciphertext:               7dd8546d9675a81dd73c4e5e26f5cc65f2733f4c69a318f6bf65201453a94d5239fda26f7e243b91a8e08b1acd0de6f1
Reciphers for ciphertext: 0
Decipheredtext:           00000000000000000000000000000000
RESULT CIPHER-DECIPHER: -----OK-----


Test: 30
Hash algorithm: 8
Data unit:      30
Start block:    61
Symmetric key bit length: 512
Plaintext bit length:     128
Symmetric key:            1e1e1e1e1e1e1e1e1e1e1e1e1e1e1e1e1e1e1e1e1e1e1e1e1e1e1e1e1e1e1e1e1e1e1e1e1e1e1e1e1e1e1e1e1e1e1e1e1e1e1e1e1e1e1e1e1e1e1e1e1e1e1e1e
Plaintext:                00000000000000000000000000000000
Ciphertext:               be94615df302038304edb6b9000fab11221bae77584fad6666224ddec6a25e9d971f4e24
Reciphers for ciphertext: 0
Decipheredtext:           00000000000000000000000000000000
RESULT CIPHER-DECIPHER: -----OK-----


Test: 31
Hash algorithm: 7
Data unit:      31
Start block:    63
Symmetric key bit length: 512
Plaintext bit length:     128
Symmetric key:            1f1f1f1f1f1f1f1f1f1f1f1f1f1f1f1f1f1f1f1f1f1f1f1f1f1f1f1f1f1f1f1f1f1f1f1f1f1f1f1f1f1f1f1f1f1f1f1f1f1f1f1f1f1f1f1f1f1f1f1f1f1f1f1f
Plaintext:                00000000000000000000000000000000
Ciphertext:               05988095b08de404d25a10c568c8509c365a41e4b7c22543ae7ce3b8d3624792
Reciphers for ciphertext: 0
Decipheredtext:           00000000000000000000000000000000
RESULT CIPHER-DECIPHER: -----OK-----


Test: 32
Hash algorithm: 4
Data unit:      32
Start block:    65
Symmetric key bit length: 512
Plaintext bit length:     128
Symmetric key:            20202020202020202020202020202020202020202020202020202020202020202020202020202020202020202020202020202020202020202020202020202020
Plaintext:                00000000000000000000000000000000
Ciphertext:               dfb686a7ceed47b4cc1c8b75d01196d2adb69030e14366fbd70cae5ca64cbc324239d89f976298ea8de71a95818a14e389b8f69f62e896439252d2fa26a1ac180fc7798c1c08d2547d1c9e9fc0713885
Reciphers for ciphertext: 0
Decipheredtext:           00000000000000000000000000000000
RESULT CIPHER-DECIPHER: -----OK-----


Test: 33
Hash algorithm: 12
Data unit:      33
Start block:    67
Symmetric key bit length: 512
Plaintext bit length:     128
Symmetric key:            21212121212121212121212121212121212121212121212121212121212121212121212121212121212121212121212121212121212121212121212121212121
Plaintext:                00000000000000000000000000000000
Ciphertext:               8cbe1e8c5bf719302cc9fd7880727da30fea81219b5d978931ed766d0429fe17
Reciphers for ciphertext: 0
Decipheredtext:           00000000000000000000000000000000
RESULT CIPHER-DECIPHER: -----OK-----


Test: 34
Hash algorithm: 6
Data unit:      34
Start block:    69
Symmetric key bit length: 512
Plaintext bit length:     128
Symmetric key:            22222222222222222222222222222222222222222222222222222222222222222222222222222222222222222222222222222222222222222222222222222222
Plaintext:                00000000000000000000000000000000
Ciphertext:               c165c50e0a8fe2fe067db79aa8b457587f1aa7de02057dd35299f67932f658f077f36fc73e9434aecf64cf8f03bd6e46
Reciphers for ciphertext: 0
Decipheredtext:           00000000000000000000000000000000
RESULT CIPHER-DECIPHER: -----OK-----


Test: 35
Hash algorithm: 11
Data unit:      35
Start block:    71
Symmetric key bit length: 512
Plaintext bit length:     128
Symmetric key:            23232323232323232323232323232323232323232323232323232323232323232323232323232323232323232323232323232323232323232323232323232323
Plaintext:                00000000000000000000000000000000
Ciphertext:               a31ab896ed6268b0c01f0a6a479e24d6fe25b54335fb882ab534cff96b43484d
Reciphers for ciphertext: 0
Decipheredtext:           00000000000000000000000000000000
RESULT CIPHER-DECIPHER: -----OK-----


Test: 36
Hash algorithm: 0
Data unit:      36
Start block:    73
Symmetric key bit length: 512
Plaintext bit length:     128
Symmetric key:            24242424242424242424242424242424242424242424242424242424242424242424242424242424242424242424242424242424242424242424242424242424
Plaintext:                00000000000000000000000000000000
Ciphertext:               c8a2d7df407327abed957008f9c334a3d3c614f17d2c83ee6d040c349fcc13960665acec
Reciphers for ciphertext: 0
Decipheredtext:           00000000000000000000000000000000
RESULT CIPHER-DECIPHER: -----OK-----


Test: 37
Hash algorithm: 6
Data unit:      37
Start block:    75
Symmetric key bit length: 512
Plaintext bit length:     128
Symmetric key:            25252525252525252525252525252525252525252525252525252525252525252525252525252525252525252525252525252525252525252525252525252525
Plaintext:                00000000000000000000000000000000
Ciphertext:               5d43b69ae2f173b13a717add843184dc8c7f52997705098672b667b8e31d3a3a7346b33434f33f3516b105462b1306fa
Reciphers for ciphertext: 0
Decipheredtext:           00000000000000000000000000000000
RESULT CIPHER-DECIPHER: -----OK-----


Test: 38
Hash algorithm: 1
Data unit:      38
Start block:    77
Symmetric key bit length: 512
Plaintext bit length:     128
Symmetric key:            26262626262626262626262626262626262626262626262626262626262626262626262626262626262626262626262626262626262626262626262626262626
Plaintext:                00000000000000000000000000000000
Ciphertext:               7ae4b34b2efbb96d69dfe47d0ec93a8dd48dea1d50c98422a80fa1c1779b27ce2338e121167659b90f993f88
Reciphers for ciphertext: 0
Decipheredtext:           00000000000000000000000000000000
RESULT CIPHER-DECIPHER: -----OK-----


Test: 39
Hash algorithm: 2
Data unit:      39
Start block:    79
Symmetric key bit length: 512
Plaintext bit length:     128
Symmetric key:            27272727272727272727272727272727272727272727272727272727272727272727272727272727272727272727272727272727272727272727272727272727
Plaintext:                00000000000000000000000000000000
Ciphertext:               9009c8d64904b1f2c1e0f1161b5675ab7a693fbbcf449a4d7c9823cb78720098a45332ab2e50fec535896044d4596cc9
Reciphers for ciphertext: 0
Decipheredtext:           00000000000000000000000000000000
RESULT CIPHER-DECIPHER: -----OK-----


Test: 40
Hash algorithm: 13
Data unit:      40
Start block:    81
Symmetric key bit length: 512
Plaintext bit length:     128
Symmetric key:            28282828282828282828282828282828282828282828282828282828282828282828282828282828282828282828282828282828282828282828282828282828
Plaintext:                00000000000000000000000000000000
Ciphertext:               ba9b58e15be9752c96a02eb65b161d02f34ba95c4941bf7e6790591d4fac1ece
Reciphers for ciphertext: 0
Decipheredtext:           00000000000000000000000000000000
RESULT CIPHER-DECIPHER: -----OK-----


Test: 41
Hash algorithm: 7
Data unit:      41
Start block:    83
Symmetric key bit length: 512
Plaintext bit length:     128
Symmetric key:            29292929292929292929292929292929292929292929292929292929292929292929292929292929292929292929292929292929292929292929292929292929
Plaintext:                00000000000000000000000000000000
Ciphertext:               1f40181220a44641ef886277fab43dc12845a4bc3f446dd41bfb4b560b5ec3ce
Reciphers for ciphertext: 0
Decipheredtext:           00000000000000000000000000000000
RESULT CIPHER-DECIPHER: -----OK-----


Test: 42
Hash algorithm: 9
Data unit:      42
Start block:    85
Symmetric key bit length: 512
Plaintext bit length:     128
Symmetric key:            2a2a2a2a2a2a2a2a2a2a2a2a2a2a2a2a2a2a2a2a2a2a2a2a2a2a2a2a2a2a2a2a2a2a2a2a2a2a2a2a2a2a2a2a2a2a2a2a2a2a2a2a2a2a2a2a2a2a2a2a2a2a2a2a
Plaintext:                00000000000000000000000000000000
Ciphertext:               263da5832050b7c93fd70981dedd89ee4e740428a291b1bf8aee9a1df4bf3fa5c10d1feb58ffeef98cd2de730f76455c
Reciphers for ciphertext: 0
Decipheredtext:           00000000000000000000000000000000
RESULT CIPHER-DECIPHER: -----OK-----


Test: 43
Hash algorithm: 9
Data unit:      43
Start block:    87
Symmetric key bit length: 512
Plaintext bit length:     128
Symmetric key:            2b2b2b2b2b2b2b2b2b2b2b2b2b2b2b2b2b2b2b2b2b2b2b2b2b2b2b2b2b2b2b2b2b2b2b2b2b2b2b2b2b2b2b2b2b2b2b2b2b2b2b2b2b2b2b2b2b2b2b2b2b2b2b2b
Plaintext:                00000000000000000000000000000000
Ciphertext:               62e09a8223d7cee2e2b0740e4d8534497b7fc890ac838ed8b3dd84fdd4ddb86e87b1519c357e0c9b71ea0c8df0c72378
Reciphers for ciphertext: 0
Decipheredtext:           00000000000000000000000000000000
RESULT CIPHER-DECIPHER: -----OK-----


Test: 44
Hash algorithm: 0
Data unit:      44
Start block:    89
Symmetric key bit length: 512
Plaintext bit length:     128
Symmetric key:            2c2c2c2c2c2c2c2c2c2c2c2c2c2c2c2c2c2c2c2c2c2c2c2c2c2c2c2c2c2c2c2c2c2c2c2c2c2c2c2c2c2c2c2c2c2c2c2c2c2c2c2c2c2c2c2c2c2c2c2c2c2c2c2c
Plaintext:                00000000000000000000000000000000
Ciphertext:               1ef82be4e2fae4a91bb79b6a4c79fa70133b187099ffa51eb7857ba27604526221124dc5
Reciphers for ciphertext: 0
Decipheredtext:           00000000000000000000000000000000
RESULT CIPHER-DECIPHER: -----OK-----


Test: 45
Hash algorithm: 13
Data unit:      45
Start block:    91
Symmetric key bit length: 512
Plaintext bit length:     128
Symmetric key:            2d2d2d2d2d2d2d2d2d2d2d2d2d2d2d2d2d2d2d2d2d2d2d2d2d2d2d2d2d2d2d2d2d2d2d2d2d2d2d2d2d2d2d2d2d2d2d2d2d2d2d2d2d2d2d2d2d2d2d2d2d2d2d2d
Plaintext:                00000000000000000000000000000000
Ciphertext:               43b2af32efb18c5001710c0c4ec201ac6371b9e52afa13155d81332fd6f5f5a6
Reciphers for ciphertext: 0
Decipheredtext:           00000000000000000000000000000000
RESULT CIPHER-DECIPHER: -----OK-----


Test: 46
Hash algorithm: 6
Data unit:      46
Start block:    93
Symmetric key bit length: 512
Plaintext bit length:     128
Symmetric key:            2e2e2e2e2e2e2e2e2e2e2e2e2e2e2e2e2e2e2e2e2e2e2e2e2e2e2e2e2e2e2e2e2e2e2e2e2e2e2e2e2e2e2e2e2e2e2e2e2e2e2e2e2e2e2e2e2e2e2e2e2e2e2e2e
Plaintext:                00000000000000000000000000000000
Ciphertext:               331618f9b3f3d6be1adb8510c1583f66aa36b9787808b89501d296d0626c22eec7790bcaeffa5f1c923780350d461af3
Reciphers for ciphertext: 0
Decipheredtext:           00000000000000000000000000000000
RESULT CIPHER-DECIPHER: -----OK-----


Test: 47
Hash algorithm: 5
Data unit:      47
Start block:    95
Symmetric key bit length: 512
Plaintext bit length:     128
Symmetric key:            2f2f2f2f2f2f2f2f2f2f2f2f2f2f2f2f2f2f2f2f2f2f2f2f2f2f2f2f2f2f2f2f2f2f2f2f2f2f2f2f2f2f2f2f2f2f2f2f2f2f2f2f2f2f2f2f2f2f2f2f2f2f2f2f
Plaintext:                00000000000000000000000000000000
Ciphertext:               8abaf4ee8ed8ad0767f331c948faac3aefce3cd29f36ef0af7450f54c4578647b0b427f5cb0e786299004272
Reciphers for ciphertext: 0
Decipheredtext:           00000000000000000000000000000000
RESULT CIPHER-DECIPHER: -----OK-----


Test: 48
Hash algorithm: 11
Data unit:      48
Start block:    97
Symmetric key bit length: 512
Plaintext bit length:     128
Symmetric key:            30303030303030303030303030303030303030303030303030303030303030303030303030303030303030303030303030303030303030303030303030303030
Plaintext:                00000000000000000000000000000000
Ciphertext:               4cbc5930cc76e724c5b19f409ccaf721d2f65224127dc6dc9a52debd0a0ce231
Reciphers for ciphertext: 0
Decipheredtext:           00000000000000000000000000000000
RESULT CIPHER-DECIPHER: -----OK-----


Test: 49
Hash algorithm: 13
Data unit:      49
Start block:    99
Symmetric key bit length: 512
Plaintext bit length:     128
Symmetric key:            31313131313131313131313131313131313131313131313131313131313131313131313131313131313131313131313131313131313131313131313131313131
Plaintext:                00000000000000000000000000000000
Ciphertext:               01c9638df0489797f8f6676981b428da666376449b879b21aca26dfbdccad997
Reciphers for ciphertext: 0
Decipheredtext:           00000000000000000000000000000000
RESULT CIPHER-DECIPHER: -----OK-----


Test: 50
Hash algorithm: 1
Data unit:      50
Start block:    101
Symmetric key bit length: 512
Plaintext bit length:     128
Symmetric key:            32323232323232323232323232323232323232323232323232323232323232323232323232323232323232323232323232323232323232323232323232323232
Plaintext:                00000000000000000000000000000000
Ciphertext:               378aee8c7976a4d7deecddfdbf18f25775697206453c4fd76101bfbc636c854d6d1d08fcb1bb91b396222963
Reciphers for ciphertext: 0
Decipheredtext:           00000000000000000000000000000000
RESULT CIPHER-DECIPHER: -----OK-----


Test: 51
Hash algorithm: 12
Data unit:      51
Start block:    103
Symmetric key bit length: 512
Plaintext bit length:     128
Symmetric key:            33333333333333333333333333333333333333333333333333333333333333333333333333333333333333333333333333333333333333333333333333333333
Plaintext:                00000000000000000000000000000000
Ciphertext:               df2045c77ba6e5d1661655418c432da9f21b31e7601e9303a4c52617c1db4fd6
Reciphers for ciphertext: 0
Decipheredtext:           00000000000000000000000000000000
RESULT CIPHER-DECIPHER: -----OK-----


Test: 52
Hash algorithm: 7
Data unit:      52
Start block:    105
Symmetric key bit length: 512
Plaintext bit length:     128
Symmetric key:            34343434343434343434343434343434343434343434343434343434343434343434343434343434343434343434343434343434343434343434343434343434
Plaintext:                00000000000000000000000000000000
Ciphertext:               e5886aeb93946832084e9e43dd8afb928c68d08fae3fb7b008e7fa5b822fd532
Reciphers for ciphertext: 0
Decipheredtext:           00000000000000000000000000000000
RESULT CIPHER-DECIPHER: -----OK-----


Test: 53
Hash algorithm: 13
Data unit:      53
Start block:    107
Symmetric key bit length: 512
Plaintext bit length:     128
Symmetric key:            35353535353535353535353535353535353535353535353535353535353535353535353535353535353535353535353535353535353535353535353535353535
Plaintext:                00000000000000000000000000000000
Ciphertext:               7d5393d36ad85b1b368590255615ca6a0bd36a037b4ff893912f56081890278d
Reciphers for ciphertext: 0
Decipheredtext:           00000000000000000000000000000000
RESULT CIPHER-DECIPHER: -----OK-----


Test: 54
Hash algorithm: 10
Data unit:      54
Start block:    109
Symmetric key bit length: 512
Plaintext bit length:     128
Symmetric key:            36363636363636363636363636363636363636363636363636363636363636363636363636363636363636363636363636363636363636363636363636363636
Plaintext:                00000000000000000000000000000000
Ciphertext:               11c233f8e93eb02e8e73602bf475e5a5ad2a9e0524bdf6ae30204bb9df5fccb4c5a3906f31e688b1ce1768d76679b785f2347109727602ed
Reciphers for ciphertext: 0
Decipheredtext:           00000000000000000000000000000000
RESULT CIPHER-DECIPHER: -----OK-----


Test: 55
Hash algorithm: 10
Data unit:      55
Start block:    111
Symmetric key bit length: 512
Plaintext bit length:     128
Symmetric key:            37373737373737373737373737373737373737373737373737373737373737373737373737373737373737373737373737373737373737373737373737373737
Plaintext:                00000000000000000000000000000000
Ciphertext:               3daa823985dfb3a634bcd30c4f5b9299a08d88361142261bf5abccfa52728b03f01d5e2cddb9faa99a2e15513717dbe2d3dd3a45a326e54d
Reciphers for ciphertext: 0
Decipheredtext:           00000000000000000000000000000000
RESULT CIPHER-DECIPHER: -----OK-----


Test: 56
Hash algorithm: 4
Data unit:      56
Start block:    113
Symmetric key bit length: 512
Plaintext bit length:     128
Symmetric key:            38383838383838383838383838383838383838383838383838383838383838383838383838383838383838383838383838383838383838383838383838383838
Plaintext:                00000000000000000000000000000000
Ciphertext:               62660e1af920de0cd21b2d7206bae851f882148bf094102e90818fbab14e9ff31a2af47b233b1bea543ec1d68d75e7690d1df5b67d09487edd5119b4a845ac1dba609c5a86ec00dd75a24a8f5ea6954c
Reciphers for ciphertext: 0
Decipheredtext:           00000000000000000000000000000000
RESULT CIPHER-DECIPHER: -----OK-----


Test: 57
Hash algorithm: 8
Data unit:      57
Start block:    115
Symmetric key bit length: 512
Plaintext bit length:     128
Symmetric key:            39393939393939393939393939393939393939393939393939393939393939393939393939393939393939393939393939393939393939393939393939393939
Plaintext:                00000000000000000000000000000000
Ciphertext:               bb2e392b860674bb20230d792f43f3b1f42dfef5ecced8b3996834f239a5317cdaaeb1a3
Reciphers for ciphertext: 0
Decipheredtext:           00000000000000000000000000000000
RESULT CIPHER-DECIPHER: -----OK-----


Test: 58
Hash algorithm: 4
Data unit:      58
Start block:    117
Symmetric key bit length: 512
Plaintext bit length:     128
Symmetric key:            3a3a3a3a3a3a3a3a3a3a3a3a3a3a3a3a3a3a3a3a3a3a3a3a3a3a3a3a3a3a3a3a3a3a3a3a3a3a3a3a3a3a3a3a3a3a3a3a3a3a3a3a3a3a3a3a3a3a3a3a3a3a3a3a
Plaintext:                00000000000000000000000000000000
Ciphertext:               4f98f044aec4d58d72bf37dea5f6ed9e0ced5a939b3f1859e3c3bc4043e5d18ce54a1acf3111a17239a20a993b9fb593ec8e1a7386b9c3e4b1982b2823766cd6f864077c9fd7ca8501540fdc0e58e218
Reciphers for ciphertext: 0
Decipheredtext:           00000000000000000000000000000000
RESULT CIPHER-DECIPHER: -----OK-----


Test: 59
Hash algorithm: 11
Data unit:      59
Start block:    119
Symmetric key bit length: 512
Plaintext bit length:     128
Symmetric key:            3b3b3b3b3b3b3b3b3b3b3b3b3b3b3b3b3b3b3b3b3b3b3b3b3b3b3b3b3b3b3b3b3b3b3b3b3b3b3b3b3b3b3b3b3b3b3b3b3b3b3b3b3b3b3b3b3b3b3b3b3b3b3b3b
Plaintext:                00000000000000000000000000000000
Ciphertext:               ce2f5fbd7dffad2b2623b083edff20a55f7675ace7918960e89b5c2e81c38829
Reciphers for ciphertext: 0
Decipheredtext:           00000000000000000000000000000000
RESULT CIPHER-DECIPHER: -----OK-----


Test: 60
Hash algorithm: 11
Data unit:      60
Start block:    121
Symmetric key bit length: 512
Plaintext bit length:     128
Symmetric key:            3c3c3c3c3c3c3c3c3c3c3c3c3c3c3c3c3c3c3c3c3c3c3c3c3c3c3c3c3c3c3c3c3c3c3c3c3c3c3c3c3c3c3c3c3c3c3c3c3c3c3c3c3c3c3c3c3c3c3c3c3c3c3c3c
Plaintext:                00000000000000000000000000000000
Ciphertext:               dafc01a81d6e79083e13bb9ab8e8291c46bff5941d62b9df5a2cb9dcfc2c6571
Reciphers for ciphertext: 0
Decipheredtext:           00000000000000000000000000000000
RESULT CIPHER-DECIPHER: -----OK-----


Test: 61
Hash algorithm: 13
Data unit:      61
Start block:    123
Symmetric key bit length: 512
Plaintext bit length:     128
Symmetric key:            3d3d3d3d3d3d3d3d3d3d3d3d3d3d3d3d3d3d3d3d3d3d3d3d3d3d3d3d3d3d3d3d3d3d3d3d3d3d3d3d3d3d3d3d3d3d3d3d3d3d3d3d3d3d3d3d3d3d3d3d3d3d3d3d
Plaintext:                00000000000000000000000000000000
Ciphertext:               b771cbf82ad04811ae238ebce283cc640a4cb7b79ed57c0bf079757e1f722bc0
Reciphers for ciphertext: 0
Decipheredtext:           00000000000000000000000000000000
RESULT CIPHER-DECIPHER: -----OK-----


Test: 62
Hash algorithm: 5
Data unit:      62
Start block:    125
Symmetric key bit length: 512
Plaintext bit length:     128
Symmetric key:            3e3e3e3e3e3e3e3e3e3e3e3e3e3e3e3e3e3e3e3e3e3e3e3e3e3e3e3e3e3e3e3e3e3e3e3e3e3e3e3e3e3e3e3e3e3e3e3e3e3e3e3e3e3e3e3e3e3e3e3e3e3e3e3e
Plaintext:                00000000000000000000000000000000
Ciphertext:               d3ff77fee5d30536db495f420013cd2d360ebb3d811d9cd28889e5e2b338cff48c0f1a62a75f17a5f9caf10f
Reciphers for ciphertext: 0
Decipheredtext:           00000000000000000000000000000000
RESULT CIPHER-DECIPHER: -----OK-----


Test: 63
Hash algorithm: 5
Data unit:      63
Start block:    127
Symmetric key bit length: 512
Plaintext bit length:     128
Symmetric key:            3f3f3f3f3f3f3f3f3f3f3f3f3f3f3f3f3f3f3f3f3f3f3f3f3f3f3f3f3f3f3f3f3f3f3f3f3f3f3f3f3f3f3f3f3f3f3f3f3f3f3f3f3f3f3f3f3f3f3f3f3f3f3f3f
Plaintext:                00000000000000000000000000000000
Ciphertext:               e6c8c73085d60e2eb979fa934e183c7c2323d4accbd530c6ba44f497e93767c774fcc2129c872143fc47902a
Reciphers for ciphertext: 0
Decipheredtext:           00000000000000000000000000000000
RESULT CIPHER-DECIPHER: -----OK-----


Test: 64
Hash algorithm: 1
Data unit:      64
Start block:    129
Symmetric key bit length: 512
Plaintext bit length:     128
Symmetric key:            40404040404040404040404040404040404040404040404040404040404040404040404040404040404040404040404040404040404040404040404040404040
Plaintext:                00000000000000000000000000000000
Ciphertext:               7521ba47a0168cc91595eb1f93118da8c1ac1f8ee2b749753b7a8c5b76f7df85a914fa5e93eae3ccfd0ef42f
Reciphers for ciphertext: 0
Decipheredtext:           00000000000000000000000000000000
RESULT CIPHER-DECIPHER: -----OK-----


Test: 65
Hash algorithm: 7
Data unit:      65
Start block:    131
Symmetric key bit length: 512
Plaintext bit length:     128
Symmetric key:            41414141414141414141414141414141414141414141414141414141414141414141414141414141414141414141414141414141414141414141414141414141
Plaintext:                00000000000000000000000000000000
Ciphertext:               b44d56a27b686260243a593a18707c4d5acef1fede03b4971d6e3c302dc9ea12
Reciphers for ciphertext: 0
Decipheredtext:           00000000000000000000000000000000
RESULT CIPHER-DECIPHER: -----OK-----


Test: 66
Hash algorithm: 7
Data unit:      66
Start block:    133
Symmetric key bit length: 512
Plaintext bit length:     128
Symmetric key:            42424242424242424242424242424242424242424242424242424242424242424242424242424242424242424242424242424242424242424242424242424242
Plaintext:                00000000000000000000000000000000
Ciphertext:               12fea53a4e6a7c781428cf7b36b48b97883076c26c8c4e6ef4fff90621cc2dcc
Reciphers for ciphertext: 0
Decipheredtext:           00000000000000000000000000000000
RESULT CIPHER-DECIPHER: -----OK-----


Test: 67
Hash algorithm: 4
Data unit:      67
Start block:    135
Symmetric key bit length: 512
Plaintext bit length:     128
Symmetric key:            43434343434343434343434343434343434343434343434343434343434343434343434343434343434343434343434343434343434343434343434343434343
Plaintext:                00000000000000000000000000000000
Ciphertext:               17171d88448235edc75cfba3df202c77b1892df4ffababfc0f84b8040cc26e421ac2337979c97ca613b185de5a96d5d84011bac558773ba614e994537e472a8cb66f0fbcbf1172365d4691a25927f03d
Reciphers for ciphertext: 0
Decipheredtext:           00000000000000000000000000000000
RESULT CIPHER-DECIPHER: -----OK-----


Test: 68
Hash algorithm: 12
Data unit:      68
Start block:    137
Symmetric key bit length: 512
Plaintext bit length:     128
Symmetric key:            44444444444444444444444444444444444444444444444444444444444444444444444444444444444444444444444444444444444444444444444444444444
Plaintext:                00000000000000000000000000000000
Ciphertext:               968ee5d5b595a5f48f5cdc83f6db1e2f0bccaba4c83924aa6f546ada7da43f70
Reciphers for ciphertext: 0
Decipheredtext:           00000000000000000000000000000000
RESULT CIPHER-DECIPHER: -----OK-----


Test: 69
Hash algorithm: 5
Data unit:      69
Start block:    139
Symmetric key bit length: 512
Plaintext bit length:     128
Symmetric key:            45454545454545454545454545454545454545454545454545454545454545454545454545454545454545454545454545454545454545454545454545454545
Plaintext:                00000000000000000000000000000000
Ciphertext:               095b492e24312f071940d9962ae33cabf0655344a5fe16b3531115de29c886fde4b56fa140b46814da621acb
Reciphers for ciphertext: 0
Decipheredtext:           00000000000000000000000000000000
RESULT CIPHER-DECIPHER: -----OK-----


Test: 70
Hash algorithm: 3
Data unit:      70
Start block:    141
Symmetric key bit length: 512
Plaintext bit length:     128
Symmetric key:            46464646464646464646464646464646464646464646464646464646464646464646464646464646464646464646464646464646464646464646464646464646
Plaintext:                00000000000000000000000000000000
Ciphertext:               8e21dcf921a6640adea084546006262e5007a5e78ce382deaf81087b718b1418348834d5b9b6d30e8bcc72f43bd601d72a04f3b8f38386b7c39ded2cd13f1f4f
Reciphers for ciphertext: 0
Decipheredtext:           00000000000000000000000000000000
RESULT CIPHER-DECIPHER: -----OK-----


Test: 71
Hash algorithm: 9
Data unit:      71
Start block:    143
Symmetric key bit length: 512
Plaintext bit length:     128
Symmetric key:            47474747474747474747474747474747474747474747474747474747474747474747474747474747474747474747474747474747474747474747474747474747
Plaintext:                00000000000000000000000000000000
Ciphertext:               dc1243d3a3febfb3fa0aeee7fc219d9716142feae2069750ee0545549a6deb7ec178cfc9a492f88b4978a8968752e796
Reciphers for ciphertext: 0
Decipheredtext:           00000000000000000000000000000000
RESULT CIPHER-DECIPHER: -----OK-----


Test: 72
Hash algorithm: 13
Data unit:      72
Start block:    145
Symmetric key bit length: 512
Plaintext bit length:     128
Symmetric key:            48484848484848484848484848484848484848484848484848484848484848484848484848484848484848484848484848484848484848484848484848484848
Plaintext:                00000000000000000000000000000000
Ciphertext:               40bb010d3fe550b85285f12a1554fa9a1a648149f1f29f86f5e4553426762973
Reciphers for ciphertext: 0
Decipheredtext:           00000000000000000000000000000000
RESULT CIPHER-DECIPHER: -----OK-----


Test: 73
Hash algorithm: 2
Data unit:      73
Start block:    147
Symmetric key bit length: 512
Plaintext bit length:     128
Symmetric key:            49494949494949494949494949494949494949494949494949494949494949494949494949494949494949494949494949494949494949494949494949494949
Plaintext:                00000000000000000000000000000000
Ciphertext:               ea06178d3df1566be939e93ee0f83a5f1911a2a57b27ce741204fa20e8b15e4c0c81158b13b75141e0d7c996ece11ab9
Reciphers for ciphertext: 0
Decipheredtext:           00000000000000000000000000000000
RESULT CIPHER-DECIPHER: -----OK-----


Test: 74
Hash algorithm: 10
Data unit:      74
Start block:    149
Symmetric key bit length: 512
Plaintext bit length:     128
Symmetric key:            4a4a4a4a4a4a4a4a4a4a4a4a4a4a4a4a4a4a4a4a4a4a4a4a4a4a4a4a4a4a4a4a4a4a4a4a4a4a4a4a4a4a4a4a4a4a4a4a4a4a4a4a4a4a4a4a4a4a4a4a4a4a4a4a
Plaintext:                00000000000000000000000000000000
Ciphertext:               c6705017a5240fa5c0bb8963a769a7426d8993f73475e237bef57b79502b3e7497206c5579ab4ed27853c84cc462c754f7bc3030d069dc52
Reciphers for ciphertext: 0
Decipheredtext:           00000000000000000000000000000000
RESULT CIPHER-DECIPHER: -----OK-----


Test: 75
Hash algorithm: 10
Data unit:      75
Start block:    151
Symmetric key bit length: 512
Plaintext bit length:     128
Symmetric key:            4b4b4b4b4b4b4b4b4b4b4b4b4b4b4b4b4b4b4b4b4b4b4b4b4b4b4b4b4b4b4b4b4b4b4b4b4b4b4b4b4b4b4b4b4b4b4b4b4b4b4b4b4b4b4b4b4b4b4b4b4b4b4b4b
Plaintext:                00000000000000000000000000000000
Ciphertext:               06411d3ef46fa2c274e3ee73d64bffed56e2fafaeaec745cce833ca04477df1917eac95fbd3eb47ab0a7f2ae0e1f859cbfa6b1937e0494a9
Reciphers for ciphertext: 0
Decipheredtext:           00000000000000000000000000000000
RESULT CIPHER-DECIPHER: -----OK-----


Test: 76
Hash algorithm: 13
Data unit:      76
Start block:    153
Symmetric key bit length: 512
Plaintext bit length:     128
Symmetric key:            4c4c4c4c4c4c4c4c4c4c4c4c4c4c4c4c4c4c4c4c4c4c4c4c4c4c4c4c4c4c4c4c4c4c4c4c4c4c4c4c4c4c4c4c4c4c4c4c4c4c4c4c4c4c4c4c4c4c4c4c4c4c4c4c
Plaintext:                00000000000000000000000000000000
Ciphertext:               489b1173dbf754f91bfe88aa312dbf9e0a0c5011cf415ec367c156164a6de824
Reciphers for ciphertext: 0
Decipheredtext:           00000000000000000000000000000000
RESULT CIPHER-DECIPHER: -----OK-----


Test: 77
Hash algorithm: 9
Data unit:      77
Start block:    155
Symmetric key bit length: 512
Plaintext bit length:     128
Symmetric key:            4d4d4d4d4d4d4d4d4d4d4d4d4d4d4d4d4d4d4d4d4d4d4d4d4d4d4d4d4d4d4d4d4d4d4d4d4d4d4d4d4d4d4d4d4d4d4d4d4d4d4d4d4d4d4d4d4d4d4d4d4d4d4d4d
Plaintext:                00000000000000000000000000000000
Ciphertext:               1cb300585fd1ca247cc0f369f182a6d60c9e02bfbe87a2a664628ebc0c49cb007b646c6c399bdd2b7d8518db279efe87
Reciphers for ciphertext: 0
Decipheredtext:           00000000000000000000000000000000
RESULT CIPHER-DECIPHER: -----OK-----


Test: 78
Hash algorithm: 4
Data unit:      78
Start block:    157
Symmetric key bit length: 512
Plaintext bit length:     128
Symmetric key:            4e4e4e4e4e4e4e4e4e4e4e4e4e4e4e4e4e4e4e4e4e4e4e4e4e4e4e4e4e4e4e4e4e4e4e4e4e4e4e4e4e4e4e4e4e4e4e4e4e4e4e4e4e4e4e4e4e4e4e4e4e4e4e4e
Plaintext:                00000000000000000000000000000000
Ciphertext:               24767f2a32d07d66d232a806d9aea9aa49bbce46e58ef6fd35cbcaa6a9f745f4f83f7a3d356f7a5b85f37140060b32b211e16ccad7ad804452d9230bb226eae59a33c102799bd5e3c184fd44ebd59621
Reciphers for ciphertext: 0
Decipheredtext:           00000000000000000000000000000000
RESULT CIPHER-DECIPHER: -----OK-----


Test: 79
Hash algorithm: 3
Data unit:      79
Start block:    159
Symmetric key bit length: 512
Plaintext bit length:     128
Symmetric key:            4f4f4f4f4f4f4f4f4f4f4f4f4f4f4f4f4f4f4f4f4f4f4f4f4f4f4f4f4f4f4f4f4f4f4f4f4f4f4f4f4f4f4f4f4f4f4f4f4f4f4f4f4f4f4f4f4f4f4f4f4f4f4f4f
Plaintext:                00000000000000000000000000000000
Ciphertext:               e3a0c40f4a45ae9bcaa72926c38a7973f1c584dda8c43dfd75530e7755e7fe884c9388c2ef9194f65088307ce8906a74c2d1d2ae1a80e93ca30dcc6a90e5d5a8
Reciphers for ciphertext: 0
Decipheredtext:           00000000000000000000000000000000
RESULT CIPHER-DECIPHER: -----OK-----


Test: 80
Hash algorithm: 6
Data unit:      80
Start block:    161
Symmetric key bit length: 512
Plaintext bit length:     128
Symmetric key:            50505050505050505050505050505050505050505050505050505050505050505050505050505050505050505050505050505050505050505050505050505050
Plaintext:                00000000000000000000000000000000
Ciphertext:               97a48f260a092066916cf5e0f168e06550935b737798ceaa2e7716c9f03989e1f1f8de4abc58746d3ddf5c2a8456a60e
Reciphers for ciphertext: 0
Decipheredtext:           00000000000000000000000000000000
RESULT CIPHER-DECIPHER: -----OK-----


Test: 81
Hash algorithm: 0
Data unit:      81
Start block:    163
Symmetric key bit length: 512
Plaintext bit length:     128
Symmetric key:            51515151515151515151515151515151515151515151515151515151515151515151515151515151515151515151515151515151515151515151515151515151
Plaintext:                00000000000000000000000000000000
Ciphertext:               d9e5105f3bce3f8ca197e31453087071ffde80addc4efad22e81c0bb9bdf2245f1d23707
Reciphers for ciphertext: 0
Decipheredtext:           00000000000000000000000000000000
RESULT CIPHER-DECIPHER: -----OK-----


Test: 82
Hash algorithm: 2
Data unit:      82
Start block:    165
Symmetric key bit length: 512
Plaintext bit length:     128
Symmetric key:            52525252525252525252525252525252525252525252525252525252525252525252525252525252525252525252525252525252525252525252525252525252
Plaintext:                00000000000000000000000000000000
Ciphertext:               f86508355178587954f0bc640937df0fde9e96bb989555148d02727b19851b3ef946fb2c02d99bf3ae8f1d8f1d3d4226
Reciphers for ciphertext: 0
Decipheredtext:           00000000000000000000000000000000
RESULT CIPHER-DECIPHER: -----OK-----


Test: 83
Hash algorithm: 9
Data unit:      83
Start block:    167
Symmetric key bit length: 512
Plaintext bit length:     128
Symmetric key:            53535353535353535353535353535353535353535353535353535353535353535353535353535353535353535353535353535353535353535353535353535353
Plaintext:                00000000000000000000000000000000
Ciphertext:               a7977c49e7fe86045ae17d6dd8ff12aa1f26e32baebb8b697d63c726749fd3588855e2f6d4055755fde5c22ec54fc93e
Reciphers for ciphertext: 0
Decipheredtext:           00000000000000000000000000000000
RESULT CIPHER-DECIPHER: -----OK-----


Test: 84
Hash algorithm: 12
Data unit:      84
Start block:    169
Symmetric key bit length: 512
Plaintext bit length:     128
Symmetric key:            54545454545454545454545454545454545454545454545454545454545454545454545454545454545454545454545454545454545454545454545454545454
Plaintext:                00000000000000000000000000000000
Ciphertext:               f6fc95dd7b46a0314f30cd90dbc016900dedfe26306cd975e29ca775c694c599
Reciphers for ciphertext: 0
Decipheredtext:           00000000000000000000000000000000
RESULT CIPHER-DECIPHER: -----OK-----


Test: 85
Hash algorithm: 6
Data unit:      85
Start block:    171
Symmetric key bit length: 512
Plaintext bit length:     128
Symmetric key:            55555555555555555555555555555555555555555555555555555555555555555555555555555555555555555555555555555555555555555555555555555555
Plaintext:                00000000000000000000000000000000
Ciphertext:               6f84a594f5073fdfed8468d5e8277f5482943ea5b303186d731ce3bf5abe26151d44c7eae6fa0c4749cd807e2003af19
Reciphers for ciphertext: 0
Decipheredtext:           00000000000000000000000000000000
RESULT CIPHER-DECIPHER: -----OK-----


Test: 86
Hash algorithm: 12
Data unit:      86
Start block:    173
Symmetric key bit length: 512
Plaintext bit length:     128
Symmetric key:            56565656565656565656565656565656565656565656565656565656565656565656565656565656565656565656565656565656565656565656565656565656
Plaintext:                00000000000000000000000000000000
Ciphertext:               960664238720ead53ccb9eb7f85a1dabeb38c8f9cb1fb383885fe3ebb4bf9ff4
Reciphers for ciphertext: 0
Decipheredtext:           00000000000000000000000000000000
RESULT CIPHER-DECIPHER: -----OK-----


Test: 87
Hash algorithm: 2
Data unit:      87
Start block:    175
Symmetric key bit length: 512
Plaintext bit length:     128
Symmetric key:            57575757575757575757575757575757575757575757575757575757575757575757575757575757575757575757575757575757575757575757575757575757
Plaintext:                00000000000000000000000000000000
Ciphertext:               7277c88a6f466fc9e03339051a0a813021508f142e2dec0d1fefbe4c9b3092eb34d5a5adeec900a57b2df96e85272708
Reciphers for ciphertext: 0
Decipheredtext:           00000000000000000000000000000000
RESULT CIPHER-DECIPHER: -----OK-----


Test: 88
Hash algorithm: 1
Data unit:      88
Start block:    177
Symmetric key bit length: 512
Plaintext bit length:     128
Symmetric key:            58585858585858585858585858585858585858585858585858585858585858585858585858585858585858585858585858585858585858585858585858585858
Plaintext:                00000000000000000000000000000000
Ciphertext:               9fa44d257c05791246538f39843d44bdced5684818950e02373d8a4cda0ac65242ea32eda4665b717b6ac348
Reciphers for ciphertext: 0
Decipheredtext:           00000000000000000000000000000000
RESULT CIPHER-DECIPHER: -----OK-----


Test: 89
Hash algorithm: 2
Data unit:      89
Start block:    179
Symmetric key bit length: 512
Plaintext bit length:     128
Symmetric key:            59595959595959595959595959595959595959595959595959595959595959595959595959595959595959595959595959595959595959595959595959595959
Plaintext:                00000000000000000000000000000000
Ciphertext:               e5ae903965000719570dc1f2c40f319caf6bce53d999053780c9af2e4bb9d20a759029b05f4699c99de14fbee7799e15
Reciphers for ciphertext: 0
Decipheredtext:           00000000000000000000000000000000
RESULT CIPHER-DECIPHER: -----OK-----


Test: 90
Hash algorithm: 1
Data unit:      90
Start block:    181
Symmetric key bit length: 512
Plaintext bit length:     128
Symmetric key:            5a5a5a5a5a5a5a5a5a5a5a5a5a5a5a5a5a5a5a5a5a5a5a5a5a5a5a5a5a5a5a5a5a5a5a5a5a5a5a5a5a5a5a5a5a5a5a5a5a5a5a5a5a5a5a5a5a5a5a5a5a5a5a5a
Plaintext:                00000000000000000000000000000000
Ciphertext:               2a7263283e2f856b6b487e991048647371f398597df70995a688b0fd2be6dd6f13be7380c30fb4ebaf0c2938
Reciphers for ciphertext: 0
Decipheredtext:           00000000000000000000000000000000
RESULT CIPHER-DECIPHER: -----OK-----


Test: 91
Hash algorithm: 9
Data unit:      91
Start block:    183
Symmetric key bit length: 512
Plaintext bit length:     128
Symmetric key:            5b5b5b5b5b5b5b5b5b5b5b5b5b5b5b5b5b5b5b5b5b5b5b5b5b5b5b5b5b5b5b5b5b5b5b5b5b5b5b5b5b5b5b5b5b5b5b5b5b5b5b5b5b5b5b5b5b5b5b5b5b5b5b5b
Plaintext:                00000000000000000000000000000000
Ciphertext:               bb589536844d199685cf5f1130210c0640091e2a00b2edd98d95e4052f12734125d67b5e10a413ffdc79723d9f712119
Reciphers for ciphertext: 0
Decipheredtext:           00000000000000000000000000000000
RESULT CIPHER-DECIPHER: -----OK-----


Test: 92
Hash algorithm: 11
Data unit:      92
Start block:    185
Symmetric key bit length: 512
Plaintext bit length:     128
Symmetric key:            5c5c5c5c5c5c5c5c5c5c5c5c5c5c5c5c5c5c5c5c5c5c5c5c5c5c5c5c5c5c5c5c5c5c5c5c5c5c5c5c5c5c5c5c5c5c5c5c5c5c5c5c5c5c5c5c5c5c5c5c5c5c5c5c
Plaintext:                00000000000000000000000000000000
Ciphertext:               d75bd3d71243ca1a1250dc4cf6fc0408297d1ad298734a2eb728b340f09aa16c
Reciphers for ciphertext: 0
Decipheredtext:           00000000000000000000000000000000
RESULT CIPHER-DECIPHER: -----OK-----


Test: 93
Hash algorithm: 5
Data unit:      93
Start block:    187
Symmetric key bit length: 512
Plaintext bit length:     128
Symmetric key:            5d5d5d5d5d5d5d5d5d5d5d5d5d5d5d5d5d5d5d5d5d5d5d5d5d5d5d5d5d5d5d5d5d5d5d5d5d5d5d5d5d5d5d5d5d5d5d5d5d5d5d5d5d5d5d5d5d5d5d5d5d5d5d5d
Plaintext:                00000000000000000000000000000000
Ciphertext:               d29b8b1c12c3e1dd81556b2faf9e4df9fa145d971401183a5a19c65f9a81238f41c80399e5ad31d777824f1c
Reciphers for ciphertext: 0
Decipheredtext:           00000000000000000000000000000000
RESULT CIPHER-DECIPHER: -----OK-----


Test: 94
Hash algorithm: 7
Data unit:      94
Start block:    189
Symmetric key bit length: 512
Plaintext bit length:     128
Symmetric key:            5e5e5e5e5e5e5e5e5e5e5e5e5e5e5e5e5e5e5e5e5e5e5e5e5e5e5e5e5e5e5e5e5e5e5e5e5e5e5e5e5e5e5e5e5e5e5e5e5e5e5e5e5e5e5e5e5e5e5e5e5e5e5e5e
Plaintext:                00000000000000000000000000000000
Ciphertext:               1c207bf44aecfee1d3fdfdc25bd8bec95c6ef784b84b1060a91e3d8853d0573a
Reciphers for ciphertext: 0
Decipheredtext:           00000000000000000000000000000000
RESULT CIPHER-DECIPHER: -----OK-----


Test: 95
Hash algorithm: 10
Data unit:      95
Start block:    191
Symmetric key bit length: 512
Plaintext bit length:     128
Symmetric key:            5f5f5f5f5f5f5f5f5f5f5f5f5f5f5f5f5f5f5f5f5f5f5f5f5f5f5f5f5f5f5f5f5f5f5f5f5f5f5f5f5f5f5f5f5f5f5f5f5f5f5f5f5f5f5f5f5f5f5f5f5f5f5f5f
Plaintext:                00000000000000000000000000000000
Ciphertext:               c6d36da734472d5296285889bd47f78dac8478e6a07ac7b24dfe17916cd8ab0bf009596e639f3fcd6e4d1a125713efe9e7051a4f91c681f2
Reciphers for ciphertext: 0
Decipheredtext:           00000000000000000000000000000000
RESULT CIPHER-DECIPHER: -----OK-----


Test: 96
Hash algorithm: 3
Data unit:      96
Start block:    193
Symmetric key bit length: 512
Plaintext bit length:     128
Symmetric key:            60606060606060606060606060606060606060606060606060606060606060606060606060606060606060606060606060606060606060606060606060606060
Plaintext:                00000000000000000000000000000000
Ciphertext:               ee00914f210324e99f6d322f8cb4898227f23d0eafabc7b280fcb1935d09a46bd8a31045722b60456c2ac01e051cff9b01f8f41a817b71246c0d36d79aeff080
Reciphers for ciphertext: 0
Decipheredtext:           00000000000000000000000000000000
RESULT CIPHER-DECIPHER: -----OK-----


Test: 97
Hash algorithm: 13
Data unit:      97
Start block:    195
Symmetric key bit length: 512
Plaintext bit length:     128
Symmetric key:            61616161616161616161616161616161616161616161616161616161616161616161616161616161616161616161616161616161616161616161616161616161
Plaintext:                00000000000000000000000000000000
Ciphertext:               1a294aae736534f642d5e554e6712ff3deaeb48d7ebcc61057bd8bd5bce0eb99
Reciphers for ciphertext: 0
Decipheredtext:           00000000000000000000000000000000
RESULT CIPHER-DECIPHER: -----OK-----


Test: 98
Hash algorithm: 9
Data unit:      98
Start block:    197
Symmetric key bit length: 512
Plaintext bit length:     128
Symmetric key:            62626262626262626262626262626262626262626262626262626262626262626262626262626262626262626262626262626262626262626262626262626262
Plaintext:                00000000000000000000000000000000
Ciphertext:               4d92e5a595f1e60dd5aa989e7a6409e6561eba7ad8d59d2b0ec53afc5f4f3d7014728707c302be3dd76c73cb78387695
Reciphers for ciphertext: 0
Decipheredtext:           00000000000000000000000000000000
RESULT CIPHER-DECIPHER: -----OK-----


Test: 99
Hash algorithm: 3
Data unit:      99
Start block:    199
Symmetric key bit length: 512
Plaintext bit length:     128
Symmetric key:            63636363636363636363636363636363636363636363636363636363636363636363636363636363636363636363636363636363636363636363636363636363
Plaintext:                00000000000000000000000000000000
Ciphertext:               6c43f9c75c91d038f8e3eddea12e47e7b1319bd4acd069b43a915a0d1197c4591ba241b56304266372672426c14928854368562705379151acf60e1c17e8a959
Reciphers for ciphertext: 0
Decipheredtext:           00000000000000000000000000000000
RESULT CIPHER-DECIPHER: -----OK-----


Test: 100
Hash algorithm: 13
Data unit:      100
Start block:    201
Symmetric key bit length: 512
Plaintext bit length:     128
Symmetric key:            64646464646464646464646464646464646464646464646464646464646464646464646464646464646464646464646464646464646464646464646464646464
Plaintext:                00000000000000000000000000000000
Ciphertext:               b5dd45cb91fd2d8ace9261f3ec8f7a12eb393d293205e8741d34f516c5329129
Reciphers for ciphertext: 0
Decipheredtext:           00000000000000000000000000000000
RESULT CIPHER-DECIPHER: -----OK-----


Test: 101
Hash algorithm: 10
Data unit:      101
Start block:    203
Symmetric key bit length: 512
Plaintext bit length:     128
Symmetric key:            65656565656565656565656565656565656565656565656565656565656565656565656565656565656565656565656565656565656565656565656565656565
Plaintext:                00000000000000000000000000000000
Ciphertext:               3a63891f4c108eced98d77c78d85589e20b1f9b23da00668a52afff7f52a674b1295eb384f0bb3bedee7b40f2c480905d9c623870e4ac012
Reciphers for ciphertext: 0
Decipheredtext:           00000000000000000000000000000000
RESULT CIPHER-DECIPHER: -----OK-----


Test: 102
Hash algorithm: 12
Data unit:      102
Start block:    205
Symmetric key bit length: 512
Plaintext bit length:     128
Symmetric key:            66666666666666666666666666666666666666666666666666666666666666666666666666666666666666666666666666666666666666666666666666666666
Plaintext:                00000000000000000000000000000000
Ciphertext:               fae513ea92747a427ecf8d588a1141f06bc1b0af1bdd636b9c50721fe901abd8
Reciphers for ciphertext: 0
Decipheredtext:           00000000000000000000000000000000
RESULT CIPHER-DECIPHER: -----OK-----


Test: 103
Hash algorithm: 7
Data unit:      103
Start block:    207
Symmetric key bit length: 512
Plaintext bit length:     128
Symmetric key:            67676767676767676767676767676767676767676767676767676767676767676767676767676767676767676767676767676767676767676767676767676767
Plaintext:                00000000000000000000000000000000
Ciphertext:               3465a5a6596984334bb4020a96d664a632db8a5fa5bca9399bf893d65b50c124
Reciphers for ciphertext: 0
Decipheredtext:           00000000000000000000000000000000
RESULT CIPHER-DECIPHER: -----OK-----


Test: 104
Hash algorithm: 6
Data unit:      104
Start block:    209
Symmetric key bit length: 512
Plaintext bit length:     128
Symmetric key:            68686868686868686868686868686868686868686868686868686868686868686868686868686868686868686868686868686868686868686868686868686868
Plaintext:                00000000000000000000000000000000
Ciphertext:               01b5f0ba2dd4de5b33fb3dcc157373cc3aa0a580c6a8141524d5fdcab4cc831502c3359d8798c55581478cf3b6b05c33
Reciphers for ciphertext: 0
Decipheredtext:           00000000000000000000000000000000
RESULT CIPHER-DECIPHER: -----OK-----


Test: 105
Hash algorithm: 7
Data unit:      105
Start block:    211
Symmetric key bit length: 512
Plaintext bit length:     128
Symmetric key:            69696969696969696969696969696969696969696969696969696969696969696969696969696969696969696969696969696969696969696969696969696969
Plaintext:                00000000000000000000000000000000
Ciphertext:               76ba323f3ac0ac1326f8ce69d3e9803e159acc2dcb2107135e666a0d75d743a9
Reciphers for ciphertext: 0
Decipheredtext:           00000000000000000000000000000000
RESULT CIPHER-DECIPHER: -----OK-----


Test: 106
Hash algorithm: 5
Data unit:      106
Start block:    213
Symmetric key bit length: 512
Plaintext bit length:     128
Symmetric key:            6a6a6a6a6a6a6a6a6a6a6a6a6a6a6a6a6a6a6a6a6a6a6a6a6a6a6a6a6a6a6a6a6a6a6a6a6a6a6a6a6a6a6a6a6a6a6a6a6a6a6a6a6a6a6a6a6a6a6a6a6a6a6a6a
Plaintext:                00000000000000000000000000000000
Ciphertext:               26bf2d7b011be5d5fbddb0b9cb59a9be73d4e8bcb223a0b20bb75f96132c8df1564c4d52a6aeaf8b8b425773
Reciphers for ciphertext: 0
Decipheredtext:           00000000000000000000000000000000
RESULT CIPHER-DECIPHER: -----OK-----


Test: 107
Hash algorithm: 11
Data unit:      107
Start block:    215
Symmetric key bit length: 512
Plaintext bit length:     128
Symmetric key:            6b6b6b6b6b6b6b6b6b6b6b6b6b6b6b6b6b6b6b6b6b6b6b6b6b6b6b6b6b6b6b6b6b6b6b6b6b6b6b6b6b6b6b6b6b6b6b6b6b6b6b6b6b6b6b6b6b6b6b6b6b6b6b6b
Plaintext:                00000000000000000000000000000000
Ciphertext:               32dcba10147089c08fde39c8ea3bbd228822063fd962234c5abd00088ea15e96
Reciphers for ciphertext: 0
Decipheredtext:           00000000000000000000000000000000
RESULT CIPHER-DECIPHER: -----OK-----


Test: 108
Hash algorithm: 13
Data unit:      108
Start block:    217
Symmetric key bit length: 512
Plaintext bit length:     128
Symmetric key:            6c6c6c6c6c6c6c6c6c6c6c6c6c6c6c6c6c6c6c6c6c6c6c6c6c6c6c6c6c6c6c6c6c6c6c6c6c6c6c6c6c6c6c6c6c6c6c6c6c6c6c6c6c6c6c6c6c6c6c6c6c6c6c6c
Plaintext:                00000000000000000000000000000000
Ciphertext:               340e54b4412b7230fc55cda5da7596c8e71250a9ef90f725154213a8cc4d1fa4
Reciphers for ciphertext: 0
Decipheredtext:           00000000000000000000000000000000
RESULT CIPHER-DECIPHER: -----OK-----


Test: 109
Hash algorithm: 3
Data unit:      109
Start block:    219
Symmetric key bit length: 512
Plaintext bit length:     128
Symmetric key:            6d6d6d6d6d6d6d6d6d6d6d6d6d6d6d6d6d6d6d6d6d6d6d6d6d6d6d6d6d6d6d6d6d6d6d6d6d6d6d6d6d6d6d6d6d6d6d6d6d6d6d6d6d6d6d6d6d6d6d6d6d6d6d6d
Plaintext:                00000000000000000000000000000000
Ciphertext:               00b7911c13fc0806947846d164d10a7ef50e2025c6965261b188bfe09a2c613d4a7835a51d31844127d8dff0a98219ac962d30e0164afc59f5248a4b32606540
Reciphers for ciphertext: 0
Decipheredtext:           00000000000000000000000000000000
RESULT CIPHER-DECIPHER: -----OK-----


Test: 110
Hash algorithm: 9
Data unit:      110
Start block:    221
Symmetric key bit length: 512
Plaintext bit length:     128
Symmetric key:            6e6e6e6e6e6e6e6e6e6e6e6e6e6e6e6e6e6e6e6e6e6e6e6e6e6e6e6e6e6e6e6e6e6e6e6e6e6e6e6e6e6e6e6e6e6e6e6e6e6e6e6e6e6e6e6e6e6e6e6e6e6e6e6e
Plaintext:                00000000000000000000000000000000
Ciphertext:               90b456596e36de2f6f146c32541a13777dd04c77f32bafbf840d58e83aa726ea6390825f9bac9fa0711c2b9552243db0
Reciphers for ciphertext: 0
Decipheredtext:           00000000000000000000000000000000
RESULT CIPHER-DECIPHER: -----OK-----


Test: 111
Hash algorithm: 3
Data unit:      111
Start block:    223
Symmetric key bit length: 512
Plaintext bit length:     128
Symmetric key:            6f6f6f6f6f6f6f6f6f6f6f6f6f6f6f6f6f6f6f6f6f6f6f6f6f6f6f6f6f6f6f6f6f6f6f6f6f6f6f6f6f6f6f6f6f6f6f6f6f6f6f6f6f6f6f6f6f6f6f6f6f6f6f6f
Plaintext:                00000000000000000000000000000000
Ciphertext:               d9e54fc6c100e1409a3861729d59a064197e2ae79df2d80fb27dcc9245f894ccd9b67f0f155399173a29df2dd270f35d145e7e0c293f538f1da91c0eb2870b34
Reciphers for ciphertext: 0
Decipheredtext:           00000000000000000000000000000000
RESULT CIPHER-DECIPHER: -----OK-----


Test: 112
Hash algorithm: 4
Data unit:      112
Start block:    225
Symmetric key bit length: 512
Plaintext bit length:     128
Symmetric key:            70707070707070707070707070707070707070707070707070707070707070707070707070707070707070707070707070707070707070707070707070707070
Plaintext:                00000000000000000000000000000000
Ciphertext:               cda426c8a984a12a1ae84afdbc1a33150e4ee6aaeae4cbf49353a07d8905d744ac42ad1eff37517984b529086634430d21f2fa7cdcc64511b37e155269394c8e2a0290176bca3821e388755e050c8c49
Reciphers for ciphertext: 0
Decipheredtext:           00000000000000000000000000000000
RESULT CIPHER-DECIPHER: -----OK-----


Test: 113
Hash algorithm: 4
Data unit:      113
Start block:    227
Symmetric key bit length: 512
Plaintext bit length:     128
Symmetric key:            71717171717171717171717171717171717171717171717171717171717171717171717171717171717171717171717171717171717171717171717171717171
Plaintext:                00000000000000000000000000000000
Ciphertext:               6c10b4c400ce31d9c9899b9130f5b2d7e855461bb23a66a00d7eac75bb5691dd167317224fa2c17f61c1b42b7d3ff323170bc9970c0bb6192c3620586e246c79b26f6cf432a62a386b19355d20de7b04
Reciphers for ciphertext: 0
Decipheredtext:           00000000000000000000000000000000
RESULT CIPHER-DECIPHER: -----OK-----


Test: 114
Hash algorithm: 1
Data unit:      114
Start block:    229
Symmetric key bit length: 512
Plaintext bit length:     128
Symmetric key:            72727272727272727272727272727272727272727272727272727272727272727272727272727272727272727272727272727272727272727272727272727272
Plaintext:                00000000000000000000000000000000
Ciphertext:               e6e2786cd01acdbe2503f50bff7453ba6940ca55699f57fadb9d2c84ce374cdef0f677049029b238552e2a35
Reciphers for ciphertext: 0
Decipheredtext:           00000000000000000000000000000000
RESULT CIPHER-DECIPHER: -----OK-----


Test: 115
Hash algorithm: 8
Data unit:      115
Start block:    231
Symmetric key bit length: 512
Plaintext bit length:     128
Symmetric key:            73737373737373737373737373737373737373737373737373737373737373737373737373737373737373737373737373737373737373737373737373737373
Plaintext:                00000000000000000000000000000000
Ciphertext:               d6418ac0e27191d314d5a89eb7bc539d58e29edb50c5cbdc833e7b244554a44f75705925
Reciphers for ciphertext: 0
Decipheredtext:           00000000000000000000000000000000
RESULT CIPHER-DECIPHER: -----OK-----


Test: 116
Hash algorithm: 9
Data unit:      116
Start block:    233
Symmetric key bit length: 512
Plaintext bit length:     128
Symmetric key:            74747474747474747474747474747474747474747474747474747474747474747474747474747474747474747474747474747474747474747474747474747474
Plaintext:                00000000000000000000000000000000
Ciphertext:               1b14e537bd75033ce2ebe8be1151c4b95fae58a5d0628f5cf3cfcfc9ce0cd4cf50f686af0e63bef5bdc0eb73cc37d39f
Reciphers for ciphertext: 0
Decipheredtext:           00000000000000000000000000000000
RESULT CIPHER-DECIPHER: -----OK-----


Test: 117
Hash algorithm: 2
Data unit:      117
Start block:    235
Symmetric key bit length: 512
Plaintext bit length:     128
Symmetric key:            75757575757575757575757575757575757575757575757575757575757575757575757575757575757575757575757575757575757575757575757575757575
Plaintext:                00000000000000000000000000000000
Ciphertext:               fe75e5a357d26aaea51b38921d62957df367256ed421aa896d1bf13b3b2d20f624e62211c43b24f8967a3d934a9a6dec
Reciphers for ciphertext: 0
Decipheredtext:           00000000000000000000000000000000
RESULT CIPHER-DECIPHER: -----OK-----


Test: 118
Hash algorithm: 13
Data unit:      118
Start block:    237
Symmetric key bit length: 512
Plaintext bit length:     128
Symmetric key:            76767676767676767676767676767676767676767676767676767676767676767676767676767676767676767676767676767676767676767676767676767676
Plaintext:                00000000000000000000000000000000
Ciphertext:               9f05a9b98911880fe7b7a33620447cbe5a26a0c9785bcf2e845287d961f3274e
Reciphers for ciphertext: 0
Decipheredtext:           00000000000000000000000000000000
RESULT CIPHER-DECIPHER: -----OK-----


Test: 119
Hash algorithm: 3
Data unit:      119
Start block:    239
Symmetric key bit length: 512
Plaintext bit length:     128
Symmetric key:            77777777777777777777777777777777777777777777777777777777777777777777777777777777777777777777777777777777777777777777777777777777
Plaintext:                00000000000000000000000000000000
Ciphertext:               f2fedb62554331f263d9b9b627e8dd80571bfb15c9cd379e677cf02d5a991c768b346dbe18f7664d3e788c9afd6fcc2a22d86d5dc2db6c23abd440e8caaa1aae
Reciphers for ciphertext: 0
Decipheredtext:           00000000000000000000000000000000
RESULT CIPHER-DECIPHER: -----OK-----


Test: 120
Hash algorithm: 11
Data unit:      120
Start block:    241
Symmetric key bit length: 512
Plaintext bit length:     128
Symmetric key:            78787878787878787878787878787878787878787878787878787878787878787878787878787878787878787878787878787878787878787878787878787878
Plaintext:                00000000000000000000000000000000
Ciphertext:               bedcac95d416a2f6d17b724b94199a4370b9b88c71510f1e794f51bdf56f200d
Reciphers for ciphertext: 0
Decipheredtext:           00000000000000000000000000000000
RESULT CIPHER-DECIPHER: -----OK-----


Test: 121
Hash algorithm: 9
Data unit:      121
Start block:    243
Symmetric key bit length: 512
Plaintext bit length:     128
Symmetric key:            79797979797979797979797979797979797979797979797979797979797979797979797979797979797979797979797979797979797979797979797979797979
Plaintext:                00000000000000000000000000000000
Ciphertext:               b33150b4ccbc8b9f9d33f2e13daf9a51dbafaa209e4eba70ee01981cc43894dbf768cbd6adb9d10168f1490df000f808
Reciphers for ciphertext: 0
Decipheredtext:           00000000000000000000000000000000
RESULT CIPHER-DECIPHER: -----OK-----


Test: 122
Hash algorithm: 5
Data unit:      122
Start block:    245
Symmetric key bit length: 512
Plaintext bit length:     128
Symmetric key:            7a7a7a7a7a7a7a7a7a7a7a7a7a7a7a7a7a7a7a7a7a7a7a7a7a7a7a7a7a7a7a7a7a7a7a7a7a7a7a7a7a7a7a7a7a7a7a7a7a7a7a7a7a7a7a7a7a7a7a7a7a7a7a7a
Plaintext:                00000000000000000000000000000000
Ciphertext:               160458df89a6ee7725d6569ddb3191a24647a31c9c17482a6eb3ae1e377e3729ec70767734e2fb14a361937c
Reciphers for ciphertext: 0
Decipheredtext:           00000000000000000000000000000000
RESULT CIPHER-DECIPHER: -----OK-----


Test: 123
Hash algorithm: 3
Data unit:      123
Start block:    247
Symmetric key bit length: 512
Plaintext bit length:     128
Symmetric key:            7b7b7b7b7b7b7b7b7b7b7b7b7b7b7b7b7b7b7b7b7b7b7b7b7b7b7b7b7b7b7b7b7b7b7b7b7b7b7b7b7b7b7b7b7b7b7b7b7b7b7b7b7b7b7b7b7b7b7b7b7b7b7b7b
Plaintext:                00000000000000000000000000000000
Ciphertext:               0067df4aeff18309c397b954b6479b0f1fe7aed70bf2b5a7db48834e417db09374ba1e0c356c53f79d007fa77e4ca80ec33c1fa63695b8789712fda601f88b9a
Reciphers for ciphertext: 0
Decipheredtext:           00000000000000000000000000000000
RESULT CIPHER-DECIPHER: -----OK-----


Test: 124
Hash algorithm: 5
Data unit:      124
Start block:    249
Symmetric key bit length: 512
Plaintext bit length:     128
Symmetric key:            7c7c7c7c7c7c7c7c7c7c7c7c7c7c7c7c7c7c7c7c7c7c7c7c7c7c7c7c7c7c7c7c7c7c7c7c7c7c7c7c7c7c7c7c7c7c7c7c7c7c7c7c7c7c7c7c7c7c7c7c7c7c7c7c
Plaintext:                00000000000000000000000000000000
Ciphertext:               d59bae52cc64daa7c5a26a7fa08f6bf051a7ebf6c2f185e994cfd61ff4931bd333553a1dc9dcb118798f7400
Reciphers for ciphertext: 0
Decipheredtext:           00000000000000000000000000000000
RESULT CIPHER-DECIPHER: -----OK-----


Test: 125
Hash algorithm: 6
Data unit:      125
Start block:    251
Symmetric key bit length: 512
Plaintext bit length:     128
Symmetric key:            7d7d7d7d7d7d7d7d7d7d7d7d7d7d7d7d7d7d7d7d7d7d7d7d7d7d7d7d7d7d7d7d7d7d7d7d7d7d7d7d7d7d7d7d7d7d7d7d7d7d7d7d7d7d7d7d7d7d7d7d7d7d7d7d
Plaintext:                00000000000000000000000000000000
Ciphertext:               6367d85911aa8b4fb173f3913beb61d40850acb5545767c7c73b3b78277adeb23ad0f1db5c4fdfedf79eb0d2217bd77f
Reciphers for ciphertext: 0
Decipheredtext:           00000000000000000000000000000000
RESULT CIPHER-DECIPHER: -----OK-----


Test: 126
Hash algorithm: 13
Data unit:      126
Start block:    253
Symmetric key bit length: 512
Plaintext bit length:     128
Symmetric key:            7e7e7e7e7e7e7e7e7e7e7e7e7e7e7e7e7e7e7e7e7e7e7e7e7e7e7e7e7e7e7e7e7e7e7e7e7e7e7e7e7e7e7e7e7e7e7e7e7e7e7e7e7e7e7e7e7e7e7e7e7e7e7e7e
Plaintext:                00000000000000000000000000000000
Ciphertext:               9574e17a4b4d6d42c15a7bf20cc50980583c95874d9d0c81cea56abb4a769574
Reciphers for ciphertext: 0
Decipheredtext:           00000000000000000000000000000000
RESULT CIPHER-DECIPHER: -----OK-----


Test: 127
Hash algorithm: 10
Data unit:      127
Start block:    255
Symmetric key bit length: 512
Plaintext bit length:     128
Symmetric key:            7f7f7f7f7f7f7f7f7f7f7f7f7f7f7f7f7f7f7f7f7f7f7f7f7f7f7f7f7f7f7f7f7f7f7f7f7f7f7f7f7f7f7f7f7f7f7f7f7f7f7f7f7f7f7f7f7f7f7f7f7f7f7f7f
Plaintext:                00000000000000000000000000000000
Ciphertext:               ffa81c0439ee2b707342e9ead8cc252e39290f7142953ff3e8749fd6e8d07f34422e8ab4eb252b58914bd61d0b1f8b08016c2fdb1042694b
Reciphers for ciphertext: 0
Decipheredtext:           00000000000000000000000000000000
RESULT CIPHER-DECIPHER: -----OK-----


 DATA SHA1 (hexadecimal): 4c53f0c875798aba5dcd06d40cf8154f43a1bc64

