
DiceLock 9.0.0.1

 TEST COMPONENTS:
 ----------------
 DiceLock:           DiceLockIndexed class
 Base Stream Cipher: ARC4_Discarding class
 Key Modifier:       IncreaseBase0IndexModifier_6_0_0_1 class
   Index bit length: 128
 Random tests:       RandomTestSuite class
                     FrequencyTest class
                     BlockFrequencyTest class
                     CumulativeSumForwardTest class
                     LongestRunOfOnesTest class
                     RunsTest class
 Random alpha:       0.001

 VECTOR TEST: Test vector 5 - Symmetric key all byte value 0xXX and plaintext all byte value 0xYY


##### INDIVIDUAL TESTS #####

Number tests: 128


Test: 0
Symmetric key bit length: 128
Plaintext bit length:     128
Symmetric key:            00000000000000000000000000000000
Plaintext:                ffffffffffffffffffffffffffffffff
Ciphertext:               1e6e1e6d0bba59898a42594cce7e4ce4e191e192f445a67675bda6b33181b31b
Reciphers for ciphertext: 0
Decipheredtext:           ffffffffffffffffffffffffffffffff
RESULT CIPHER-DECIPHER: -----OK-----


Test: 1
Symmetric key bit length: 128
Plaintext bit length:     128
Symmetric key:            01010101010101010101010101010101
Plaintext:                fefefefefefefefefefefefefefefefe
Ciphertext:               5d20ab7c29f6438c470f3e63b1618491a3de5582d708bd72b9f1c09d4f9f7a6f
Reciphers for ciphertext: 0
Decipheredtext:           fefefefefefefefefefefefefefefefe
RESULT CIPHER-DECIPHER: -----OK-----


Test: 2
Symmetric key bit length: 128
Plaintext bit length:     128
Symmetric key:            02020202020202020202020202020202
Plaintext:                fdfdfdfdfdfdfdfdfdfdfdfdfdfdfdfd
Ciphertext:               410eb14e3d697ae3ce43e8ead5d9e9e0bcf34cb3c094871e33be15172824141d
Reciphers for ciphertext: 0
Decipheredtext:           fdfdfdfdfdfdfdfdfdfdfdfdfdfdfdfd
RESULT CIPHER-DECIPHER: -----OK-----


Test: 3
Symmetric key bit length: 128
Plaintext bit length:     128
Symmetric key:            03030303030303030303030303030303
Plaintext:                fcfcfcfcfcfcfcfcfcfcfcfcfcfcfcfc
Ciphertext:               5b0928179d2e4bf7d3fe0bd768b02c18a7f5d4eb61d2b70b2f02f72b944cd0e4
Reciphers for ciphertext: 0
Decipheredtext:           fcfcfcfcfcfcfcfcfcfcfcfcfcfcfcfc
RESULT CIPHER-DECIPHER: -----OK-----


Test: 4
Symmetric key bit length: 128
Plaintext bit length:     128
Symmetric key:            04040404040404040404040404040404
Plaintext:                fbfbfbfbfbfbfbfbfbfbfbfbfbfbfbfb
Ciphertext:               b1439156a954b85942bf32261df76a0d4ab86aad52af43a2b944c9dde60c91f6
Reciphers for ciphertext: 0
Decipheredtext:           fbfbfbfbfbfbfbfbfbfbfbfbfbfbfbfb
RESULT CIPHER-DECIPHER: -----OK-----


Test: 5
Symmetric key bit length: 128
Plaintext bit length:     128
Symmetric key:            05050505050505050505050505050505
Plaintext:                fafafafafafafafafafafafafafafafa
Ciphertext:               9bac0e8e563153d8df81fd89d02dad0d6156f474accba922257b07732ad757f7
Reciphers for ciphertext: 0
Decipheredtext:           fafafafafafafafafafafafafafafafa
RESULT CIPHER-DECIPHER: -----OK-----


Test: 6
Symmetric key bit length: 128
Plaintext bit length:     128
Symmetric key:            06060606060606060606060606060606
Plaintext:                f9f9f9f9f9f9f9f9f9f9f9f9f9f9f9f9
Ciphertext:               08947fd0edde2492341025f5624d5484f16d86291427dd6bcde9dc0c9bb4ad7d
Reciphers for ciphertext: 0
Decipheredtext:           f9f9f9f9f9f9f9f9f9f9f9f9f9f9f9f9
RESULT CIPHER-DECIPHER: -----OK-----


Test: 7
Symmetric key bit length: 128
Plaintext bit length:     128
Symmetric key:            07070707070707070707070707070707
Plaintext:                f8f8f8f8f8f8f8f8f8f8f8f8f8f8f8f8
Ciphertext:               f8c0cb655188aff36157fc552aab6ec80038339da970570b99af04add2539630
Reciphers for ciphertext: 0
Decipheredtext:           f8f8f8f8f8f8f8f8f8f8f8f8f8f8f8f8
RESULT CIPHER-DECIPHER: -----OK-----


Test: 8
Symmetric key bit length: 128
Plaintext bit length:     128
Symmetric key:            08080808080808080808080808080808
Plaintext:                f7f7f7f7f7f7f7f7f7f7f7f7f7f7f7f7
Ciphertext:               4913d82d43ce8a99e88b2f23aa17a638bee42fdab4397d6e1f7cd8d45de051cf
Reciphers for ciphertext: 0
Decipheredtext:           f7f7f7f7f7f7f7f7f7f7f7f7f7f7f7f7
RESULT CIPHER-DECIPHER: -----OK-----


Test: 9
Symmetric key bit length: 128
Plaintext bit length:     128
Symmetric key:            09090909090909090909090909090909
Plaintext:                f6f6f6f6f6f6f6f6f6f6f6f6f6f6f6f6
Ciphertext:               2521b63823d782f246a1635b89870994d3d740ced5217404b05795ad7f71ff62
Reciphers for ciphertext: 0
Decipheredtext:           f6f6f6f6f6f6f6f6f6f6f6f6f6f6f6f6
RESULT CIPHER-DECIPHER: -----OK-----


Test: 10
Symmetric key bit length: 128
Plaintext bit length:     128
Symmetric key:            0a0a0a0a0a0a0a0a0a0a0a0a0a0a0a0a
Plaintext:                f5f5f5f5f5f5f5f5f5f5f5f5f5f5f5f5
Ciphertext:               8302df69099da2e4b8127bb962a59d7976f72a9cfc6857114de78e4c9750688c
Reciphers for ciphertext: 0
Decipheredtext:           f5f5f5f5f5f5f5f5f5f5f5f5f5f5f5f5
RESULT CIPHER-DECIPHER: -----OK-----


Test: 11
Symmetric key bit length: 128
Plaintext bit length:     128
Symmetric key:            0b0b0b0b0b0b0b0b0b0b0b0b0b0b0b0b
Plaintext:                f4f4f4f4f4f4f4f4f4f4f4f4f4f4f4f4
Ciphertext:               8f9ff9ca1661c14c9b79d75772f02c857b6b0d3ee29535b86f8d23a38604d871
Reciphers for ciphertext: 0
Decipheredtext:           f4f4f4f4f4f4f4f4f4f4f4f4f4f4f4f4
RESULT CIPHER-DECIPHER: -----OK-----


Test: 12
Symmetric key bit length: 128
Plaintext bit length:     128
Symmetric key:            0c0c0c0c0c0c0c0c0c0c0c0c0c0c0c0c
Plaintext:                f3f3f3f3f3f3f3f3f3f3f3f3f3f3f3f3
Ciphertext:               84f457c489d2a3e0e0bb1a89e480c8107707a4377a2150131348e97a17733be3
Reciphers for ciphertext: 0
Decipheredtext:           f3f3f3f3f3f3f3f3f3f3f3f3f3f3f3f3
RESULT CIPHER-DECIPHER: -----OK-----


Test: 13
Symmetric key bit length: 128
Plaintext bit length:     128
Symmetric key:            0d0d0d0d0d0d0d0d0d0d0d0d0d0d0d0d
Plaintext:                f2f2f2f2f2f2f2f2f2f2f2f2f2f2f2f2
Ciphertext:               dbfa8c0dbdd81a82e4a37f5688eeb4f629087eff4f2ae87016518da47a1c4604
Reciphers for ciphertext: 0
Decipheredtext:           f2f2f2f2f2f2f2f2f2f2f2f2f2f2f2f2
RESULT CIPHER-DECIPHER: -----OK-----


Test: 14
Symmetric key bit length: 128
Plaintext bit length:     128
Symmetric key:            0e0e0e0e0e0e0e0e0e0e0e0e0e0e0e0e
Plaintext:                f1f1f1f1f1f1f1f1f1f1f1f1f1f1f1f1
Ciphertext:               8b3c49535fe5f400ce94d0efbae795477acdb8a2ae1405f13f65211e4b1664b6
Reciphers for ciphertext: 0
Decipheredtext:           f1f1f1f1f1f1f1f1f1f1f1f1f1f1f1f1
RESULT CIPHER-DECIPHER: -----OK-----


Test: 15
Symmetric key bit length: 128
Plaintext bit length:     128
Symmetric key:            0f0f0f0f0f0f0f0f0f0f0f0f0f0f0f0f
Plaintext:                f0f0f0f0f0f0f0f0f0f0f0f0f0f0f0f0
Ciphertext:               8c7dd01350ce25f148d6af62e56a84777c8d20e3a03ed501b8265f92159a7487
Reciphers for ciphertext: 0
Decipheredtext:           f0f0f0f0f0f0f0f0f0f0f0f0f0f0f0f0
RESULT CIPHER-DECIPHER: -----OK-----


Test: 16
Symmetric key bit length: 128
Plaintext bit length:     128
Symmetric key:            10101010101010101010101010101010
Plaintext:                efefefefefefefefefefefefefefefef
Ciphertext:               14e2fef5fdbcaab0ef04dd7a324ff6ebfb0d111a1253455f00eb3295dda01904
Reciphers for ciphertext: 0
Decipheredtext:           efefefefefefefefefefefefefefefef
RESULT CIPHER-DECIPHER: -----OK-----


Test: 17
Symmetric key bit length: 128
Plaintext bit length:     128
Symmetric key:            11111111111111111111111111111111
Plaintext:                eeeeeeeeeeeeeeeeeeeeeeeeeeeeeeee
Ciphertext:               2bdaa7e80d231e0dfc6fd307de7c7e2ac5344906e3cdf0e312813de9309290c4
Reciphers for ciphertext: 0
Decipheredtext:           eeeeeeeeeeeeeeeeeeeeeeeeeeeeeeee
RESULT CIPHER-DECIPHER: -----OK-----


Test: 18
Symmetric key bit length: 128
Plaintext bit length:     128
Symmetric key:            12121212121212121212121212121212
Plaintext:                edededededededededededededededed
Ciphertext:               3771f8290016ae7d1f93a557b657a30fda9c15c4edfb4390f27e48ba5bba4ee2
Reciphers for ciphertext: 0
Decipheredtext:           edededededededededededededededed
RESULT CIPHER-DECIPHER: -----OK-----


Test: 19
Symmetric key bit length: 128
Plaintext bit length:     128
Symmetric key:            13131313131313131313131313131313
Plaintext:                ecececececececececececececececec
Ciphertext:               4b08a4d9c6d6e00946b3800c34896dd1a7e448352a3a0ce5aa5f6ce0d865813d
Reciphers for ciphertext: 0
Decipheredtext:           ecececececececececececececececec
RESULT CIPHER-DECIPHER: -----OK-----


Test: 20
Symmetric key bit length: 128
Plaintext bit length:     128
Symmetric key:            14141414141414141414141414141414
Plaintext:                ebebebebebebebebebebebebebebebeb
Ciphertext:               c47d232f5ca078aa9545319a7d68692b2f96c8c4b74b93417eaeda71968382c0
Reciphers for ciphertext: 0
Decipheredtext:           ebebebebebebebebebebebebebebebeb
RESULT CIPHER-DECIPHER: -----OK-----


Test: 21
Symmetric key bit length: 128
Plaintext bit length:     128
Symmetric key:            15151515151515151515151515151515
Plaintext:                eaeaeaeaeaeaeaeaeaeaeaeaeaeaeaea
Ciphertext:               41aa1de46b66321b91e08210c80d3e66ab40f70e818cd8f17b0a68fa22e7d48c
Reciphers for ciphertext: 0
Decipheredtext:           eaeaeaeaeaeaeaeaeaeaeaeaeaeaeaea
RESULT CIPHER-DECIPHER: -----OK-----


Test: 22
Symmetric key bit length: 128
Plaintext bit length:     128
Symmetric key:            16161616161616161616161616161616
Plaintext:                e9e9e9e9e9e9e9e9e9e9e9e9e9e9e9e9
Ciphertext:               d2fbe1846fb2f90281fdc3f5d9f1c9c03b12086d865b10eb68142a1c30182029
Reciphers for ciphertext: 0
Decipheredtext:           e9e9e9e9e9e9e9e9e9e9e9e9e9e9e9e9
RESULT CIPHER-DECIPHER: -----OK-----


Test: 23
Symmetric key bit length: 128
Plaintext bit length:     128
Symmetric key:            17171717171717171717171717171717
Plaintext:                e8e8e8e8e8e8e8e8e8e8e8e8e8e8e8e8
Ciphertext:               4a9a14977f797f914e2d782556d163d1a272fc7f97919779a6c590cdbe398b39
Reciphers for ciphertext: 0
Decipheredtext:           e8e8e8e8e8e8e8e8e8e8e8e8e8e8e8e8
RESULT CIPHER-DECIPHER: -----OK-----


Test: 24
Symmetric key bit length: 128
Plaintext bit length:     128
Symmetric key:            18181818181818181818181818181818
Plaintext:                e7e7e7e7e7e7e7e7e7e7e7e7e7e7e7e7
Ciphertext:               0a4fd711e24d8ecf28ead1b87512a47ceda830f605aa6928cf0d365f92f5439b
Reciphers for ciphertext: 0
Decipheredtext:           e7e7e7e7e7e7e7e7e7e7e7e7e7e7e7e7
RESULT CIPHER-DECIPHER: -----OK-----


Test: 25
Symmetric key bit length: 128
Plaintext bit length:     128
Symmetric key:            19191919191919191919191919191919
Plaintext:                e6e6e6e6e6e6e6e6e6e6e6e6e6e6e6e6
Ciphertext:               170f10b0e6d038d2ed234600edc0012bf1e9f6560036de340bc5a0e60b26e7cd
Reciphers for ciphertext: 0
Decipheredtext:           e6e6e6e6e6e6e6e6e6e6e6e6e6e6e6e6
RESULT CIPHER-DECIPHER: -----OK-----


Test: 26
Symmetric key bit length: 128
Plaintext bit length:     128
Symmetric key:            1a1a1a1a1a1a1a1a1a1a1a1a1a1a1a1a
Plaintext:                e5e5e5e5e5e5e5e5e5e5e5e5e5e5e5e5
Ciphertext:               6c1866f4fe3996f79e1000cb40eadaf989fd83111bdc73127bf5e52ea50f3f1c
Reciphers for ciphertext: 0
Decipheredtext:           e5e5e5e5e5e5e5e5e5e5e5e5e5e5e5e5
RESULT CIPHER-DECIPHER: -----OK-----


Test: 27
Symmetric key bit length: 128
Plaintext bit length:     128
Symmetric key:            1b1b1b1b1b1b1b1b1b1b1b1b1b1b1b1b
Plaintext:                e4e4e4e4e4e4e4e4e4e4e4e4e4e4e4e4
Ciphertext:               ef0ff65e0f6ae18e6c0cad145a714cbd0beb12baeb8e056a88e849f0be95a859
Reciphers for ciphertext: 0
Decipheredtext:           e4e4e4e4e4e4e4e4e4e4e4e4e4e4e4e4
RESULT CIPHER-DECIPHER: -----OK-----


Test: 28
Symmetric key bit length: 128
Plaintext bit length:     128
Symmetric key:            1c1c1c1c1c1c1c1c1c1c1c1c1c1c1c1c
Plaintext:                e3e3e3e3e3e3e3e3e3e3e3e3e3e3e3e3
Ciphertext:               4bb6ebd110f5164476b2fdfaff22973fa8550832f316f5a795511e191cc174dc
Reciphers for ciphertext: 0
Decipheredtext:           e3e3e3e3e3e3e3e3e3e3e3e3e3e3e3e3
RESULT CIPHER-DECIPHER: -----OK-----


Test: 29
Symmetric key bit length: 128
Plaintext bit length:     128
Symmetric key:            1d1d1d1d1d1d1d1d1d1d1d1d1d1d1d1d
Plaintext:                e2e2e2e2e2e2e2e2e2e2e2e2e2e2e2e2
Ciphertext:               ee40ba0864591b88976cf906a0afbcd10ca258ea86bbf96a758e1be4424d5e33
Reciphers for ciphertext: 0
Decipheredtext:           e2e2e2e2e2e2e2e2e2e2e2e2e2e2e2e2
RESULT CIPHER-DECIPHER: -----OK-----


Test: 30
Symmetric key bit length: 128
Plaintext bit length:     128
Symmetric key:            1e1e1e1e1e1e1e1e1e1e1e1e1e1e1e1e
Plaintext:                e1e1e1e1e1e1e1e1e1e1e1e1e1e1e1e1
Ciphertext:               1c0f2090e6936d4971ae10b1246a5626fdeec17107728ca8904ff150c58bb7c7
Reciphers for ciphertext: 0
Decipheredtext:           e1e1e1e1e1e1e1e1e1e1e1e1e1e1e1e1
RESULT CIPHER-DECIPHER: -----OK-----


Test: 31
Symmetric key bit length: 128
Plaintext bit length:     128
Symmetric key:            1f1f1f1f1f1f1f1f1f1f1f1f1f1f1f1f
Plaintext:                e0e0e0e0e0e0e0e0e0e0e0e0e0e0e0e0
Ciphertext:               235e207ca8e1ce85a445cb55003c4686c3bec09c48012e6544a52bb5e0dca666
Reciphers for ciphertext: 0
Decipheredtext:           e0e0e0e0e0e0e0e0e0e0e0e0e0e0e0e0
RESULT CIPHER-DECIPHER: -----OK-----


Test: 32
Symmetric key bit length: 128
Plaintext bit length:     128
Symmetric key:            20202020202020202020202020202020
Plaintext:                dfdfdfdfdfdfdfdfdfdfdfdfdfdfdfdf
Ciphertext:               fa7fc6568d59109efcaf86f842dd75f325a019895286cf41237059279d02aa2c
Reciphers for ciphertext: 0
Decipheredtext:           dfdfdfdfdfdfdfdfdfdfdfdfdfdfdfdf
RESULT CIPHER-DECIPHER: -----OK-----


Test: 33
Symmetric key bit length: 128
Plaintext bit length:     128
Symmetric key:            21212121212121212121212121212121
Plaintext:                dededededededededededededededede
Ciphertext:               8946c4aaa5ef9e417d44468aa1e101a657981a747b31409fa39a98547f3fdf78
Reciphers for ciphertext: 0
Decipheredtext:           dededededededededededededededede
RESULT CIPHER-DECIPHER: -----OK-----


Test: 34
Symmetric key bit length: 128
Plaintext bit length:     128
Symmetric key:            22222222222222222222222222222222
Plaintext:                dddddddddddddddddddddddddddddddd
Ciphertext:               a2061a964251a8f7749d10b610a5d3f17fdbc74b9f8c752aa940cd6bcd780e2c
Reciphers for ciphertext: 0
Decipheredtext:           dddddddddddddddddddddddddddddddd
RESULT CIPHER-DECIPHER: -----OK-----


Test: 35
Symmetric key bit length: 128
Plaintext bit length:     128
Symmetric key:            23232323232323232323232323232323
Plaintext:                dcdcdcdcdcdcdcdcdcdcdcdcdcdcdcdc
Ciphertext:               77e1605dee2997002c25201c0ec3364dab3dbc8132f54bdcf0f9fcc0d21fea91
Reciphers for ciphertext: 0
Decipheredtext:           dcdcdcdcdcdcdcdcdcdcdcdcdcdcdcdc
RESULT CIPHER-DECIPHER: -----OK-----


Test: 36
Symmetric key bit length: 128
Plaintext bit length:     128
Symmetric key:            24242424242424242424242424242424
Plaintext:                dbdbdbdbdbdbdbdbdbdbdbdbdbdbdbdb
Ciphertext:               f69be0a1c0ab754093dae9fb8a16e95f2d403b7a1b70ae9b4801322051cd3284
Reciphers for ciphertext: 0
Decipheredtext:           dbdbdbdbdbdbdbdbdbdbdbdbdbdbdbdb
RESULT CIPHER-DECIPHER: -----OK-----


Test: 37
Symmetric key bit length: 128
Plaintext bit length:     128
Symmetric key:            25252525252525252525252525252525
Plaintext:                dadadadadadadadadadadadadadadada
Ciphertext:               867b2af6495decb3cedc5d66c14b26695ca1f02c93873669140687bc1b91fcb3
Reciphers for ciphertext: 0
Decipheredtext:           dadadadadadadadadadadadadadadada
RESULT CIPHER-DECIPHER: -----OK-----


Test: 38
Symmetric key bit length: 128
Plaintext bit length:     128
Symmetric key:            26262626262626262626262626262626
Plaintext:                d9d9d9d9d9d9d9d9d9d9d9d9d9d9d9d9
Ciphertext:               bf17b2da9b94ee4088e2c5b91e3a21c166ce6b03424d3799513b1c60c7e3f818
Reciphers for ciphertext: 0
Decipheredtext:           d9d9d9d9d9d9d9d9d9d9d9d9d9d9d9d9
RESULT CIPHER-DECIPHER: -----OK-----


Test: 39
Symmetric key bit length: 128
Plaintext bit length:     128
Symmetric key:            27272727272727272727272727272727
Plaintext:                d8d8d8d8d8d8d8d8d8d8d8d8d8d8d8d8
Ciphertext:               f0fdbe73c93b642520946176413c3a95282566ab11e3bcfdf84cb9ae99e4e24d
Reciphers for ciphertext: 0
Decipheredtext:           d8d8d8d8d8d8d8d8d8d8d8d8d8d8d8d8
RESULT CIPHER-DECIPHER: -----OK-----


Test: 40
Symmetric key bit length: 128
Plaintext bit length:     128
Symmetric key:            28282828282828282828282828282828
Plaintext:                d7d7d7d7d7d7d7d7d7d7d7d7d7d7d7d7
Ciphertext:               a53c4c608ba1d5f0b12e5268c40f583172eb9bb75c76022766f985bf13d88fe6
Reciphers for ciphertext: 0
Decipheredtext:           d7d7d7d7d7d7d7d7d7d7d7d7d7d7d7d7
RESULT CIPHER-DECIPHER: -----OK-----


Test: 41
Symmetric key bit length: 128
Plaintext bit length:     128
Symmetric key:            29292929292929292929292929292929
Plaintext:                d6d6d6d6d6d6d6d6d6d6d6d6d6d6d6d6
Ciphertext:               e684a513beff9e6fe1b0749f6893243b305273c5682948b93766a249be45f2ed
Reciphers for ciphertext: 0
Decipheredtext:           d6d6d6d6d6d6d6d6d6d6d6d6d6d6d6d6
RESULT CIPHER-DECIPHER: -----OK-----


Test: 42
Symmetric key bit length: 128
Plaintext bit length:     128
Symmetric key:            2a2a2a2a2a2a2a2a2a2a2a2a2a2a2a2a
Plaintext:                d5d5d5d5d5d5d5d5d5d5d5d5d5d5d5d5
Ciphertext:               78be15da14c9c770ba9da3a06b39c415ad6bc00fc11c12a56f487675beec11c0
Reciphers for ciphertext: 0
Decipheredtext:           d5d5d5d5d5d5d5d5d5d5d5d5d5d5d5d5
RESULT CIPHER-DECIPHER: -----OK-----


Test: 43
Symmetric key bit length: 128
Plaintext bit length:     128
Symmetric key:            2b2b2b2b2b2b2b2b2b2b2b2b2b2b2b2b
Plaintext:                d4d4d4d4d4d4d4d4d4d4d4d4d4d4d4d4
Ciphertext:               a288355c8f4c74a11af24482661a9d46765ce1885b98a075ce269056b2ce4992
Reciphers for ciphertext: 0
Decipheredtext:           d4d4d4d4d4d4d4d4d4d4d4d4d4d4d4d4
RESULT CIPHER-DECIPHER: -----OK-----


Test: 44
Symmetric key bit length: 128
Plaintext bit length:     128
Symmetric key:            2c2c2c2c2c2c2c2c2c2c2c2c2c2c2c2c
Plaintext:                d3d3d3d3d3d3d3d3d3d3d3d3d3d3d3d3
Ciphertext:               94c6a251cac846bf8f177bfa227d1c3e47157182191b956c5cc4a829f1aecfed
Reciphers for ciphertext: 0
Decipheredtext:           d3d3d3d3d3d3d3d3d3d3d3d3d3d3d3d3
RESULT CIPHER-DECIPHER: -----OK-----


Test: 45
Symmetric key bit length: 128
Plaintext bit length:     128
Symmetric key:            2d2d2d2d2d2d2d2d2d2d2d2d2d2d2d2d
Plaintext:                d2d2d2d2d2d2d2d2d2d2d2d2d2d2d2d2
Ciphertext:               1998be7c88d5798b2d816f9253549541cb4a6cae5a07ab59ff53bd4081864793
Reciphers for ciphertext: 0
Decipheredtext:           d2d2d2d2d2d2d2d2d2d2d2d2d2d2d2d2
RESULT CIPHER-DECIPHER: -----OK-----


Test: 46
Symmetric key bit length: 128
Plaintext bit length:     128
Symmetric key:            2e2e2e2e2e2e2e2e2e2e2e2e2e2e2e2e
Plaintext:                d1d1d1d1d1d1d1d1d1d1d1d1d1d1d1d1
Ciphertext:               666b84500fd58e4e52500edb3cbdb08db7ba5581de045f9f8381df0aed6c615c
Reciphers for ciphertext: 0
Decipheredtext:           d1d1d1d1d1d1d1d1d1d1d1d1d1d1d1d1
RESULT CIPHER-DECIPHER: -----OK-----


Test: 47
Symmetric key bit length: 128
Plaintext bit length:     128
Symmetric key:            2f2f2f2f2f2f2f2f2f2f2f2f2f2f2f2f
Plaintext:                d0d0d0d0d0d0d0d0d0d0d0d0d0d0d0d0
Ciphertext:               03c62608a63207221c9ca7f815127a4ed316f6d876e2d7f2cc4c7728c5c2aa9e
Reciphers for ciphertext: 0
Decipheredtext:           d0d0d0d0d0d0d0d0d0d0d0d0d0d0d0d0
RESULT CIPHER-DECIPHER: -----OK-----


Test: 48
Symmetric key bit length: 128
Plaintext bit length:     128
Symmetric key:            30303030303030303030303030303030
Plaintext:                cfcfcfcfcfcfcfcfcfcfcfcfcfcfcfcf
Ciphertext:               725330321c8414887392c7be62234d32bd9cfffdd34bdb47bc5d0871adec82fd
Reciphers for ciphertext: 0
Decipheredtext:           cfcfcfcfcfcfcfcfcfcfcfcfcfcfcfcf
RESULT CIPHER-DECIPHER: -----OK-----


Test: 49
Symmetric key bit length: 128
Plaintext bit length:     128
Symmetric key:            31313131313131313131313131313131
Plaintext:                cececececececececececececececece
Ciphertext:               2900108a41d71a73f2bd7d878fae6cdce7cede448f19d4bd3c73b3494160a212
Reciphers for ciphertext: 0
Decipheredtext:           cececececececececececececececece
RESULT CIPHER-DECIPHER: -----OK-----


Test: 50
Symmetric key bit length: 128
Plaintext bit length:     128
Symmetric key:            32323232323232323232323232323232
Plaintext:                cdcdcdcdcdcdcdcdcdcdcdcdcdcdcdcd
Ciphertext:               92b178e42443c299fa835ba37fd984ae5f7cb529e98e0f54374e966eb2144963
Reciphers for ciphertext: 0
Decipheredtext:           cdcdcdcdcdcdcdcdcdcdcdcdcdcdcdcd
RESULT CIPHER-DECIPHER: -----OK-----


Test: 51
Symmetric key bit length: 128
Plaintext bit length:     128
Symmetric key:            33333333333333333333333333333333
Plaintext:                cccccccccccccccccccccccccccccccc
Ciphertext:               cd33f7647f3b03393de316aa8163866701ff3ba8b3f7cff5f12fda664daf4aab
Reciphers for ciphertext: 0
Decipheredtext:           cccccccccccccccccccccccccccccccc
RESULT CIPHER-DECIPHER: -----OK-----


Test: 52
Symmetric key bit length: 128
Plaintext bit length:     128
Symmetric key:            34343434343434343434343434343434
Plaintext:                cbcbcbcbcbcbcbcbcbcbcbcbcbcbcbcb
Ciphertext:               a76637214087f1c5e1fb563d6c5b414a6cadfcea8b4c3a0e2a309df6a7908a81
Reciphers for ciphertext: 0
Decipheredtext:           cbcbcbcbcbcbcbcbcbcbcbcbcbcbcbcb
RESULT CIPHER-DECIPHER: -----OK-----


Test: 53
Symmetric key bit length: 128
Plaintext bit length:     128
Symmetric key:            35353535353535353535353535353535
Plaintext:                cacacacacacacacacacacacacacacaca
Ciphertext:               d6965898d8d03dd5eed89ba74c4b4cb41c5c9252121af71f2412516d8681867e
Reciphers for ciphertext: 0
Decipheredtext:           cacacacacacacacacacacacacacacaca
RESULT CIPHER-DECIPHER: -----OK-----


Test: 54
Symmetric key bit length: 128
Plaintext bit length:     128
Symmetric key:            36363636363636363636363636363636
Plaintext:                c9c9c9c9c9c9c9c9c9c9c9c9c9c9c9c9
Ciphertext:               250b200981ca56a0d83f9e22fa154e61ecc2e9c048039f6911f657eb33dc87a8
Reciphers for ciphertext: 0
Decipheredtext:           c9c9c9c9c9c9c9c9c9c9c9c9c9c9c9c9
RESULT CIPHER-DECIPHER: -----OK-----


Test: 55
Symmetric key bit length: 128
Plaintext bit length:     128
Symmetric key:            37373737373737373737373737373737
Plaintext:                c8c8c8c8c8c8c8c8c8c8c8c8c8c8c8c8
Ciphertext:               f38d15bf63341d899d87d33203ca13ba3b45dd77abfcd541554f1bfacb02db72
Reciphers for ciphertext: 0
Decipheredtext:           c8c8c8c8c8c8c8c8c8c8c8c8c8c8c8c8
RESULT CIPHER-DECIPHER: -----OK-----


Test: 56
Symmetric key bit length: 128
Plaintext bit length:     128
Symmetric key:            38383838383838383838383838383838
Plaintext:                c7c7c7c7c7c7c7c7c7c7c7c7c7c7c7c7
Ciphertext:               7c4635e150f928ac3362804e020f8117bb81f226973eef6bf4a54789c5c846d0
Reciphers for ciphertext: 0
Decipheredtext:           c7c7c7c7c7c7c7c7c7c7c7c7c7c7c7c7
RESULT CIPHER-DECIPHER: -----OK-----


Test: 57
Symmetric key bit length: 128
Plaintext bit length:     128
Symmetric key:            39393939393939393939393939393939
Plaintext:                c6c6c6c6c6c6c6c6c6c6c6c6c6c6c6c6
Ciphertext:               806890eb84c584543c3c7bc7e826c88a46ae562d42034292fafabd012ee00e4c
Reciphers for ciphertext: 0
Decipheredtext:           c6c6c6c6c6c6c6c6c6c6c6c6c6c6c6c6
RESULT CIPHER-DECIPHER: -----OK-----


Test: 58
Symmetric key bit length: 128
Plaintext bit length:     128
Symmetric key:            3a3a3a3a3a3a3a3a3a3a3a3a3a3a3a3a
Plaintext:                c5c5c5c5c5c5c5c5c5c5c5c5c5c5c5c5
Ciphertext:               6e120323a07176214e9cf100ffb5a42fabd7c6e665b4b3e48b5934c53a7061ea
Reciphers for ciphertext: 0
Decipheredtext:           c5c5c5c5c5c5c5c5c5c5c5c5c5c5c5c5
RESULT CIPHER-DECIPHER: -----OK-----


Test: 59
Symmetric key bit length: 128
Plaintext bit length:     128
Symmetric key:            3b3b3b3b3b3b3b3b3b3b3b3b3b3b3b3b
Plaintext:                c4c4c4c4c4c4c4c4c4c4c4c4c4c4c4c4
Ciphertext:               3c74a0fb766ad7f11398601d0aee27f0f8b0643fb2ae1335d75ca4d9ce2ae334
Reciphers for ciphertext: 0
Decipheredtext:           c4c4c4c4c4c4c4c4c4c4c4c4c4c4c4c4
RESULT CIPHER-DECIPHER: -----OK-----


Test: 60
Symmetric key bit length: 128
Plaintext bit length:     128
Symmetric key:            3c3c3c3c3c3c3c3c3c3c3c3c3c3c3c3c
Plaintext:                c3c3c3c3c3c3c3c3c3c3c3c3c3c3c3c3
Ciphertext:               0ca91e5418fdfb37d0cb23107e02437fcf6add97db3e38f41308e0d3bdc180bc
Reciphers for ciphertext: 0
Decipheredtext:           c3c3c3c3c3c3c3c3c3c3c3c3c3c3c3c3
RESULT CIPHER-DECIPHER: -----OK-----


Test: 61
Symmetric key bit length: 128
Plaintext bit length:     128
Symmetric key:            3d3d3d3d3d3d3d3d3d3d3d3d3d3d3d3d
Plaintext:                c2c2c2c2c2c2c2c2c2c2c2c2c2c2c2c2
Ciphertext:               2a160f0678b8402394be307a0efe053de8d4cdc4ba7a82e1567cf2b8cc3cc7ff
Reciphers for ciphertext: 0
Decipheredtext:           c2c2c2c2c2c2c2c2c2c2c2c2c2c2c2c2
RESULT CIPHER-DECIPHER: -----OK-----


Test: 62
Symmetric key bit length: 128
Plaintext bit length:     128
Symmetric key:            3e3e3e3e3e3e3e3e3e3e3e3e3e3e3e3e
Plaintext:                c1c1c1c1c1c1c1c1c1c1c1c1c1c1c1c1
Ciphertext:               34bedcd93172af6a20f5070e1fd71e13f57f1d18f0b36eabe134c6cfde16dfd2
Reciphers for ciphertext: 0
Decipheredtext:           c1c1c1c1c1c1c1c1c1c1c1c1c1c1c1c1
RESULT CIPHER-DECIPHER: -----OK-----


Test: 63
Symmetric key bit length: 128
Plaintext bit length:     128
Symmetric key:            3f3f3f3f3f3f3f3f3f3f3f3f3f3f3f3f
Plaintext:                c0c0c0c0c0c0c0c0c0c0c0c0c0c0c0c0
Ciphertext:               e536b8634fad8bc7dd813e3c18edea9625f678a38f6d4b071d41fefcd82d2a56
Reciphers for ciphertext: 0
Decipheredtext:           c0c0c0c0c0c0c0c0c0c0c0c0c0c0c0c0
RESULT CIPHER-DECIPHER: -----OK-----


Test: 64
Symmetric key bit length: 128
Plaintext bit length:     128
Symmetric key:            40404040404040404040404040404040
Plaintext:                bfbfbfbfbfbfbfbfbfbfbfbfbfbfbfbf
Ciphertext:               e2cd776230a85ad0c3883801c93dc8ac5d72c8dd8f17e56f7c3787be76827713
Reciphers for ciphertext: 0
Decipheredtext:           bfbfbfbfbfbfbfbfbfbfbfbfbfbfbfbf
RESULT CIPHER-DECIPHER: -----OK-----


Test: 65
Symmetric key bit length: 128
Plaintext bit length:     128
Symmetric key:            41414141414141414141414141414141
Plaintext:                bebebebebebebebebebebebebebebebe
Ciphertext:               5c7f82a65f71aaa99c93782920419497e2c13c18e1cf1417222dc6979eff2a29
Reciphers for ciphertext: 0
Decipheredtext:           bebebebebebebebebebebebebebebebe
RESULT CIPHER-DECIPHER: -----OK-----


Test: 66
Symmetric key bit length: 128
Plaintext bit length:     128
Symmetric key:            42424242424242424242424242424242
Plaintext:                bdbdbdbdbdbdbdbdbdbdbdbdbdbdbdbd
Ciphertext:               54470873d34b4e8e2a5d14fcb59f37e5e9fab5ce6ef6f33397e0a94108228a58
Reciphers for ciphertext: 0
Decipheredtext:           bdbdbdbdbdbdbdbdbdbdbdbdbdbdbdbd
RESULT CIPHER-DECIPHER: -----OK-----


Test: 67
Symmetric key bit length: 128
Plaintext bit length:     128
Symmetric key:            43434343434343434343434343434343
Plaintext:                bcbcbcbcbcbcbcbcbcbcbcbcbcbcbcbc
Ciphertext:               12f627a1090df7d8ce2475a452302f7eae4a9b1db5b14b647298c918ee8c93c2
Reciphers for ciphertext: 0
Decipheredtext:           bcbcbcbcbcbcbcbcbcbcbcbcbcbcbcbc
RESULT CIPHER-DECIPHER: -----OK-----


Test: 68
Symmetric key bit length: 128
Plaintext bit length:     128
Symmetric key:            44444444444444444444444444444444
Plaintext:                bbbbbbbbbbbbbbbbbbbbbbbbbbbbbbbb
Ciphertext:               64203eff50f778fd029f860116149922df9b8544eb4cc346b9243dbaadaf2299
Reciphers for ciphertext: 0
Decipheredtext:           bbbbbbbbbbbbbbbbbbbbbbbbbbbbbbbb
RESULT CIPHER-DECIPHER: -----OK-----


Test: 69
Symmetric key bit length: 128
Plaintext bit length:     128
Symmetric key:            45454545454545454545454545454545
Plaintext:                babababababababababababababababa
Ciphertext:               0064e88e07d7b2394d08bcd43ed2df78bade5234bd6d0883f7b2066e846865c2
Reciphers for ciphertext: 0
Decipheredtext:           babababababababababababababababa
RESULT CIPHER-DECIPHER: -----OK-----


Test: 70
Symmetric key bit length: 128
Plaintext bit length:     128
Symmetric key:            46464646464646464646464646464646
Plaintext:                b9b9b9b9b9b9b9b9b9b9b9b9b9b9b9b9
Ciphertext:               a522b486eeeeefec1fe8feb6e3218d031c9b0d3f57575655a651470f5a9834ba
Reciphers for ciphertext: 0
Decipheredtext:           b9b9b9b9b9b9b9b9b9b9b9b9b9b9b9b9
RESULT CIPHER-DECIPHER: -----OK-----


Test: 71
Symmetric key bit length: 128
Plaintext bit length:     128
Symmetric key:            47474747474747474747474747474747
Plaintext:                b8b8b8b8b8b8b8b8b8b8b8b8b8b8b8b8
Ciphertext:               209864f69dad0c1b8f16e07b3caddaa99820dc4e2515b4a337ae58c384156211
Reciphers for ciphertext: 0
Decipheredtext:           b8b8b8b8b8b8b8b8b8b8b8b8b8b8b8b8
RESULT CIPHER-DECIPHER: -----OK-----


Test: 72
Symmetric key bit length: 128
Plaintext bit length:     128
Symmetric key:            48484848484848484848484848484848
Plaintext:                b7b7b7b7b7b7b7b7b7b7b7b7b7b7b7b7
Ciphertext:               0fe9cfe1a0a488f69ccad9c7d07cb46fb85e785617133f412b7d6e7067cb03d8
Reciphers for ciphertext: 0
Decipheredtext:           b7b7b7b7b7b7b7b7b7b7b7b7b7b7b7b7
RESULT CIPHER-DECIPHER: -----OK-----


Test: 73
Symmetric key bit length: 128
Plaintext bit length:     128
Symmetric key:            49494949494949494949494949494949
Plaintext:                b6b6b6b6b6b6b6b6b6b6b6b6b6b6b6b6
Ciphertext:               c0dc66003257188a28e4028140e9537f766ad0b684e1ae3c9e52b437f65fe5c9
Reciphers for ciphertext: 0
Decipheredtext:           b6b6b6b6b6b6b6b6b6b6b6b6b6b6b6b6
RESULT CIPHER-DECIPHER: -----OK-----


Test: 74
Symmetric key bit length: 128
Plaintext bit length:     128
Symmetric key:            4a4a4a4a4a4a4a4a4a4a4a4a4a4a4a4a
Plaintext:                b5b5b5b5b5b5b5b5b5b5b5b5b5b5b5b5
Ciphertext:               ec1127ba753e5ceb450ac79fea369f1259a4920fc08be95ef0bf722a5f832aa7
Reciphers for ciphertext: 0
Decipheredtext:           b5b5b5b5b5b5b5b5b5b5b5b5b5b5b5b5
RESULT CIPHER-DECIPHER: -----OK-----


Test: 75
Symmetric key bit length: 128
Plaintext bit length:     128
Symmetric key:            4b4b4b4b4b4b4b4b4b4b4b4b4b4b4b4b
Plaintext:                b4b4b4b4b4b4b4b4b4b4b4b4b4b4b4b4
Ciphertext:               1d919998bcd2e83f393f7f6f8a507b74a9252d2c08665c8b8d8bcbdb3ee4cfc0
Reciphers for ciphertext: 0
Decipheredtext:           b4b4b4b4b4b4b4b4b4b4b4b4b4b4b4b4
RESULT CIPHER-DECIPHER: -----OK-----


Test: 76
Symmetric key bit length: 128
Plaintext bit length:     128
Symmetric key:            4c4c4c4c4c4c4c4c4c4c4c4c4c4c4c4c
Plaintext:                b3b3b3b3b3b3b3b3b3b3b3b3b3b3b3b3
Ciphertext:               997dc07dc7c027ac69ddec8b5471a2892ace73ce7473941fda6e5f38e7c2113a
Reciphers for ciphertext: 0
Decipheredtext:           b3b3b3b3b3b3b3b3b3b3b3b3b3b3b3b3
RESULT CIPHER-DECIPHER: -----OK-----


Test: 77
Symmetric key bit length: 128
Plaintext bit length:     128
Symmetric key:            4d4d4d4d4d4d4d4d4d4d4d4d4d4d4d4d
Plaintext:                b2b2b2b2b2b2b2b2b2b2b2b2b2b2b2b2
Ciphertext:               f128361f7ee9208756d4006b6b884562439a84adcc5b9235e466b2d9d93af7d0
Reciphers for ciphertext: 0
Decipheredtext:           b2b2b2b2b2b2b2b2b2b2b2b2b2b2b2b2
RESULT CIPHER-DECIPHER: -----OK-----


Test: 78
Symmetric key bit length: 128
Plaintext bit length:     128
Symmetric key:            4e4e4e4e4e4e4e4e4e4e4e4e4e4e4e4e
Plaintext:                b1b1b1b1b1b1b1b1b1b1b1b1b1b1b1b1
Ciphertext:               ebc71e8b7547b46ce4193539f495f16e5a76af3ac4f605dd55a88488452440df
Reciphers for ciphertext: 0
Decipheredtext:           b1b1b1b1b1b1b1b1b1b1b1b1b1b1b1b1
RESULT CIPHER-DECIPHER: -----OK-----


Test: 79
Symmetric key bit length: 128
Plaintext bit length:     128
Symmetric key:            4f4f4f4f4f4f4f4f4f4f4f4f4f4f4f4f
Plaintext:                b0b0b0b0b0b0b0b0b0b0b0b0b0b0b0b0
Ciphertext:               9229355ce68d002a9ee7139ecbcd5cfe229985ec563db09a2e57a32e7b7dec4e
Reciphers for ciphertext: 0
Decipheredtext:           b0b0b0b0b0b0b0b0b0b0b0b0b0b0b0b0
RESULT CIPHER-DECIPHER: -----OK-----


Test: 80
Symmetric key bit length: 128
Plaintext bit length:     128
Symmetric key:            50505050505050505050505050505050
Plaintext:                afafafafafafafafafafafafafafafaf
Ciphertext:               4fade8d025f2fb3e358473877d5ca040e002477f8a5d54919a2bdc28d2f30fef
Reciphers for ciphertext: 0
Decipheredtext:           afafafafafafafafafafafafafafafaf
RESULT CIPHER-DECIPHER: -----OK-----


Test: 81
Symmetric key bit length: 128
Plaintext bit length:     128
Symmetric key:            51515151515151515151515151515151
Plaintext:                aeaeaeaeaeaeaeaeaeaeaeaeaeaeaeae
Ciphertext:               a94b1e863a2f8c9e16f26a27aaebb66207e5b02894812230b85cc489044518cc
Reciphers for ciphertext: 0
Decipheredtext:           aeaeaeaeaeaeaeaeaeaeaeaeaeaeaeae
RESULT CIPHER-DECIPHER: -----OK-----


Test: 82
Symmetric key bit length: 128
Plaintext bit length:     128
Symmetric key:            52525252525252525252525252525252
Plaintext:                adadadadadadadadadadadadadadadad
Ciphertext:               d9a3024d3002500d68c44428dbbf2584740eafe09daffda0c569e98576128829
Reciphers for ciphertext: 0
Decipheredtext:           adadadadadadadadadadadadadadadad
RESULT CIPHER-DECIPHER: -----OK-----


Test: 83
Symmetric key bit length: 128
Plaintext bit length:     128
Symmetric key:            53535353535353535353535353535353
Plaintext:                acacacacacacacacacacacacacacacac
Ciphertext:               e47078813431045b05e60eaa8fab8ca548dcd42d989da8f7a94aa20623072009
Reciphers for ciphertext: 0
Decipheredtext:           acacacacacacacacacacacacacacacac
RESULT CIPHER-DECIPHER: -----OK-----


Test: 84
Symmetric key bit length: 128
Plaintext bit length:     128
Symmetric key:            54545454545454545454545454545454
Plaintext:                abababababababababababababababab
Ciphertext:               1a318e321bf3242737db070211ad06a2b19a2599b0588f8c9c70aca9ba06ad09
Reciphers for ciphertext: 0
Decipheredtext:           abababababababababababababababab
RESULT CIPHER-DECIPHER: -----OK-----


Test: 85
Symmetric key bit length: 128
Plaintext bit length:     128
Symmetric key:            55555555555555555555555555555555
Plaintext:                aaaaaaaaaaaaaaaaaaaaaaaaaaaaaaaa
Ciphertext:               1badd411b90f3a3c3ef0cc1e5fc3e455b1077ebb13a59096945a66b4f5694eff
Reciphers for ciphertext: 0
Decipheredtext:           aaaaaaaaaaaaaaaaaaaaaaaaaaaaaaaa
RESULT CIPHER-DECIPHER: -----OK-----


Test: 86
Symmetric key bit length: 128
Plaintext bit length:     128
Symmetric key:            56565656565656565656565656565656
Plaintext:                a9a9a9a9a9a9a9a9a9a9a9a9a9a9a9a9
Ciphertext:               1a21ce9d67f3823e0b9a9e7cbdf7e6cfb3886734ce5a2b97a23337d5145e4f66
Reciphers for ciphertext: 0
Decipheredtext:           a9a9a9a9a9a9a9a9a9a9a9a9a9a9a9a9
RESULT CIPHER-DECIPHER: -----OK-----


Test: 87
Symmetric key bit length: 128
Plaintext bit length:     128
Symmetric key:            57575757575757575757575757575757
Plaintext:                a8a8a8a8a8a8a8a8a8a8a8a8a8a8a8a8
Ciphertext:               e96acafec8fd5130e11184b4342886de41c262566055f99849b92c1c9c802e76
Reciphers for ciphertext: 0
Decipheredtext:           a8a8a8a8a8a8a8a8a8a8a8a8a8a8a8a8
RESULT CIPHER-DECIPHER: -----OK-----


Test: 88
Symmetric key bit length: 128
Plaintext bit length:     128
Symmetric key:            58585858585858585858585858585858
Plaintext:                a7a7a7a7a7a7a7a7a7a7a7a7a7a7a7a7
Ciphertext:               ebb11c63bae88d7d02363bbb4d78dd0a4c16bbc41d4f2adaa5919c1ceadf7aad
Reciphers for ciphertext: 0
Decipheredtext:           a7a7a7a7a7a7a7a7a7a7a7a7a7a7a7a7
RESULT CIPHER-DECIPHER: -----OK-----


Test: 89
Symmetric key bit length: 128
Plaintext bit length:     128
Symmetric key:            59595959595959595959595959595959
Plaintext:                a6a6a6a6a6a6a6a6a6a6a6a6a6a6a6a6
Ciphertext:               420bc8a2cef62a036c9568f1c151f7f4e4ad6e0468508ca5ca33ce5767f75152
Reciphers for ciphertext: 0
Decipheredtext:           a6a6a6a6a6a6a6a6a6a6a6a6a6a6a6a6
RESULT CIPHER-DECIPHER: -----OK-----


Test: 90
Symmetric key bit length: 128
Plaintext bit length:     128
Symmetric key:            5a5a5a5a5a5a5a5a5a5a5a5a5a5a5a5a
Plaintext:                a5a5a5a5a5a5a5a5a5a5a5a5a5a5a5a5
Ciphertext:               ec1191f03ea620693718fd92899e91e649b434559b0385cc92bd58372c3b3443
Reciphers for ciphertext: 0
Decipheredtext:           a5a5a5a5a5a5a5a5a5a5a5a5a5a5a5a5
RESULT CIPHER-DECIPHER: -----OK-----


Test: 91
Symmetric key bit length: 128
Plaintext bit length:     128
Symmetric key:            5b5b5b5b5b5b5b5b5b5b5b5b5b5b5b5b
Plaintext:                a4a4a4a4a4a4a4a4a4a4a4a4a4a4a4a4
Ciphertext:               71b742bada612c93e8152b12860185e8d513e61e7ec588374cb18fb622a5214c
Reciphers for ciphertext: 0
Decipheredtext:           a4a4a4a4a4a4a4a4a4a4a4a4a4a4a4a4
RESULT CIPHER-DECIPHER: -----OK-----


Test: 92
Symmetric key bit length: 128
Plaintext bit length:     128
Symmetric key:            5c5c5c5c5c5c5c5c5c5c5c5c5c5c5c5c
Plaintext:                a3a3a3a3a3a3a3a3a3a3a3a3a3a3a3a3
Ciphertext:               0573d45bcbaa5bb698989f39bcc016a5a6d077f86809f8153b3b3c9a1f63b506
Reciphers for ciphertext: 0
Decipheredtext:           a3a3a3a3a3a3a3a3a3a3a3a3a3a3a3a3
RESULT CIPHER-DECIPHER: -----OK-----


Test: 93
Symmetric key bit length: 128
Plaintext bit length:     128
Symmetric key:            5d5d5d5d5d5d5d5d5d5d5d5d5d5d5d5d
Plaintext:                a2a2a2a2a2a2a2a2a2a2a2a2a2a2a2a2
Ciphertext:               fcc6971c14ffec0289f804a98e3ecbd45e6435beb65d4ea02b5aa60b2c9c6976
Reciphers for ciphertext: 0
Decipheredtext:           a2a2a2a2a2a2a2a2a2a2a2a2a2a2a2a2
RESULT CIPHER-DECIPHER: -----OK-----


Test: 94
Symmetric key bit length: 128
Plaintext bit length:     128
Symmetric key:            5e5e5e5e5e5e5e5e5e5e5e5e5e5e5e5e
Plaintext:                a1a1a1a1a1a1a1a1a1a1a1a1a1a1a1a1
Ciphertext:               7a6829697135d9f018a786c329c3b0fadbc988c8d0947851b90627628862115b
Reciphers for ciphertext: 0
Decipheredtext:           a1a1a1a1a1a1a1a1a1a1a1a1a1a1a1a1
RESULT CIPHER-DECIPHER: -----OK-----


Test: 95
Symmetric key bit length: 128
Plaintext bit length:     128
Symmetric key:            5f5f5f5f5f5f5f5f5f5f5f5f5f5f5f5f
Plaintext:                a0a0a0a0a0a0a0a0a0a0a0a0a0a0a0a0
Ciphertext:               a8691bd24a03a1d42856801be928778a08c9bb72eaa3017488f620bb4988d72a
Reciphers for ciphertext: 0
Decipheredtext:           a0a0a0a0a0a0a0a0a0a0a0a0a0a0a0a0
RESULT CIPHER-DECIPHER: -----OK-----


Test: 96
Symmetric key bit length: 128
Plaintext bit length:     128
Symmetric key:            60606060606060606060606060606060
Plaintext:                9f9f9f9f9f9f9f9f9f9f9f9f9f9f9f9f
Ciphertext:               e6255633965b771dcf14d89510d6629179bac9ac09c4e882508b470a8f49fd0e
Reciphers for ciphertext: 0
Decipheredtext:           9f9f9f9f9f9f9f9f9f9f9f9f9f9f9f9f
RESULT CIPHER-DECIPHER: -----OK-----


Test: 97
Symmetric key bit length: 128
Plaintext bit length:     128
Symmetric key:            61616161616161616161616161616161
Plaintext:                9e9e9e9e9e9e9e9e9e9e9e9e9e9e9e9e
Ciphertext:               85e876953bb23f77de0fb0c4f9cf180a1b76e80ba52ca1e940912e5a67518694
Reciphers for ciphertext: 0
Decipheredtext:           9e9e9e9e9e9e9e9e9e9e9e9e9e9e9e9e
RESULT CIPHER-DECIPHER: -----OK-----


Test: 98
Symmetric key bit length: 128
Plaintext bit length:     128
Symmetric key:            62626262626262626262626262626262
Plaintext:                9d9d9d9d9d9d9d9d9d9d9d9d9d9d9d9d
Ciphertext:               f7973141783cbd38f5ee72ef92795a196a0aacdce5a120a56873ef720fe4c784
Reciphers for ciphertext: 0
Decipheredtext:           9d9d9d9d9d9d9d9d9d9d9d9d9d9d9d9d
RESULT CIPHER-DECIPHER: -----OK-----


Test: 99
Symmetric key bit length: 128
Plaintext bit length:     128
Symmetric key:            63636363636363636363636363636363
Plaintext:                9c9c9c9c9c9c9c9c9c9c9c9c9c9c9c9c
Ciphertext:               1a726c2a429f191bbeb5d24d40eff70a86eef0b6de03858722294ed1dc736b96
Reciphers for ciphertext: 0
Decipheredtext:           9c9c9c9c9c9c9c9c9c9c9c9c9c9c9c9c
RESULT CIPHER-DECIPHER: -----OK-----


Test: 100
Symmetric key bit length: 128
Plaintext bit length:     128
Symmetric key:            64646464646464646464646464646464
Plaintext:                9b9b9b9b9b9b9b9b9b9b9b9b9b9b9b9b
Ciphertext:               645f301491ac72e5f513235584942dd5ffc4ab8f0a37e97e6e88b8ce1f0fb64e
Reciphers for ciphertext: 0
Decipheredtext:           9b9b9b9b9b9b9b9b9b9b9b9b9b9b9b9b
RESULT CIPHER-DECIPHER: -----OK-----


Test: 101
Symmetric key bit length: 128
Plaintext bit length:     128
Symmetric key:            65656565656565656565656565656565
Plaintext:                9a9a9a9a9a9a9a9a9a9a9a9a9a9a9a9a
Ciphertext:               c69074baa7341e106ab083ca9781a4515c0aee203dae848af02a19500d1b3ecb
Reciphers for ciphertext: 0
Decipheredtext:           9a9a9a9a9a9a9a9a9a9a9a9a9a9a9a9a
RESULT CIPHER-DECIPHER: -----OK-----


Test: 102
Symmetric key bit length: 128
Plaintext bit length:     128
Symmetric key:            66666666666666666666666666666666
Plaintext:                99999999999999999999999999999999
Ciphertext:               46baf31ee67c06df651bc62396fe67f9df236a877fe59f46fc825fba0f67fe60
Reciphers for ciphertext: 0
Decipheredtext:           99999999999999999999999999999999
RESULT CIPHER-DECIPHER: -----OK-----


Test: 103
Symmetric key bit length: 128
Plaintext bit length:     128
Symmetric key:            67676767676767676767676767676767
Plaintext:                98989898989898989898989898989898
Ciphertext:               133a53ee66cb1648ffdc5c7119082f488ba2cb76fe538ed06744c4e98190b7d0
Reciphers for ciphertext: 0
Decipheredtext:           98989898989898989898989898989898
RESULT CIPHER-DECIPHER: -----OK-----


Test: 104
Symmetric key bit length: 128
Plaintext bit length:     128
Symmetric key:            68686868686868686868686868686868
Plaintext:                97979797979797979797979797979797
Ciphertext:               2373e6120064391d497afbcda60e8d60b4e4718597f3ae8adeed6c5a31991af7
Reciphers for ciphertext: 0
Decipheredtext:           97979797979797979797979797979797
RESULT CIPHER-DECIPHER: -----OK-----


Test: 105
Symmetric key bit length: 128
Plaintext bit length:     128
Symmetric key:            69696969696969696969696969696969
Plaintext:                96969696969696969696969696969696
Ciphertext:               c47856d424e7aa195ede245d88a7dafe52eec042b2713c8fc848b2cb1e314c68
Reciphers for ciphertext: 0
Decipheredtext:           96969696969696969696969696969696
RESULT CIPHER-DECIPHER: -----OK-----


Test: 106
Symmetric key bit length: 128
Plaintext bit length:     128
Symmetric key:            6a6a6a6a6a6a6a6a6a6a6a6a6a6a6a6a
Plaintext:                95959595959595959595959595959595
Ciphertext:               c737b81775b6957765e570eb09962ee7496919cf786b26537a21f88419c40bfe
Reciphers for ciphertext: 1
Decipheredtext:           95959595959595959595959595959595
RESULT CIPHER-DECIPHER: -----OK-----


Test: 107
Symmetric key bit length: 128
Plaintext bit length:     128
Symmetric key:            6b6b6b6b6b6b6b6b6b6b6b6b6b6b6b6b
Plaintext:                94949494949494949494949494949494
Ciphertext:               b200a0aefb988c6273cd67e5a2b117f42694343a6f0c18f6e759f37136258360
Reciphers for ciphertext: 0
Decipheredtext:           94949494949494949494949494949494
RESULT CIPHER-DECIPHER: -----OK-----


Test: 108
Symmetric key bit length: 128
Plaintext bit length:     128
Symmetric key:            6c6c6c6c6c6c6c6c6c6c6c6c6c6c6c6c
Plaintext:                93939393939393939393939393939393
Ciphertext:               875da7bbfe78cef9fba383210653d46d14ce34286deb5d6a683010b295c047fe
Reciphers for ciphertext: 0
Decipheredtext:           93939393939393939393939393939393
RESULT CIPHER-DECIPHER: -----OK-----


Test: 109
Symmetric key bit length: 128
Plaintext bit length:     128
Symmetric key:            6d6d6d6d6d6d6d6d6d6d6d6d6d6d6d6d
Plaintext:                92929292929292929292929292929292
Ciphertext:               5baf624abbe7fa90dbde8b44780f0894c93df0d829756802494c19d6ea9d9a06
Reciphers for ciphertext: 0
Decipheredtext:           92929292929292929292929292929292
RESULT CIPHER-DECIPHER: -----OK-----


Test: 110
Symmetric key bit length: 128
Plaintext bit length:     128
Symmetric key:            6e6e6e6e6e6e6e6e6e6e6e6e6e6e6e6e
Plaintext:                91919191919191919191919191919191
Ciphertext:               5204ab5638fb4846b20793d375803d65c3953ac7a96ad9d723960242e411acf4
Reciphers for ciphertext: 0
Decipheredtext:           91919191919191919191919191919191
RESULT CIPHER-DECIPHER: -----OK-----


Test: 111
Symmetric key bit length: 128
Plaintext bit length:     128
Symmetric key:            6f6f6f6f6f6f6f6f6f6f6f6f6f6f6f6f
Plaintext:                90909090909090909090909090909090
Ciphertext:               123a25382406c08d7adf46df7b55818a82aab5a8b496501dea4fd64febc5111a
Reciphers for ciphertext: 0
Decipheredtext:           90909090909090909090909090909090
RESULT CIPHER-DECIPHER: -----OK-----


Test: 112
Symmetric key bit length: 128
Plaintext bit length:     128
Symmetric key:            70707070707070707070707070707070
Plaintext:                8f8f8f8f8f8f8f8f8f8f8f8f8f8f8f8f
Ciphertext:               d697532d822132b76682712a1777c2745918dca20daebd38e90dfea598f84dfb
Reciphers for ciphertext: 0
Decipheredtext:           8f8f8f8f8f8f8f8f8f8f8f8f8f8f8f8f
RESULT CIPHER-DECIPHER: -----OK-----


Test: 113
Symmetric key bit length: 128
Plaintext bit length:     128
Symmetric key:            71717171717171717171717171717171
Plaintext:                8e8e8e8e8e8e8e8e8e8e8e8e8e8e8e8e
Ciphertext:               5bdb7a4b66570543d788f9796e805ee8d555f4c5e8d98bcd590677f7e00ed066
Reciphers for ciphertext: 0
Decipheredtext:           8e8e8e8e8e8e8e8e8e8e8e8e8e8e8e8e
RESULT CIPHER-DECIPHER: -----OK-----


Test: 114
Symmetric key bit length: 128
Plaintext bit length:     128
Symmetric key:            72727272727272727272727272727272
Plaintext:                8d8d8d8d8d8d8d8d8d8d8d8d8d8d8d8d
Ciphertext:               1154bf7af86513be63ecfaae4f1ff7149cd932f775e89e33ee617723c2927a99
Reciphers for ciphertext: 0
Decipheredtext:           8d8d8d8d8d8d8d8d8d8d8d8d8d8d8d8d
RESULT CIPHER-DECIPHER: -----OK-----


Test: 115
Symmetric key bit length: 128
Plaintext bit length:     128
Symmetric key:            73737373737373737373737373737373
Plaintext:                8c8c8c8c8c8c8c8c8c8c8c8c8c8c8c8c
Ciphertext:               1ed33538eafe9cdc99b9622b46fe13b2925fb9b4667210501535eea7ca729f3e
Reciphers for ciphertext: 0
Decipheredtext:           8c8c8c8c8c8c8c8c8c8c8c8c8c8c8c8c
RESULT CIPHER-DECIPHER: -----OK-----


Test: 116
Symmetric key bit length: 128
Plaintext bit length:     128
Symmetric key:            74747474747474747474747474747474
Plaintext:                8b8b8b8b8b8b8b8b8b8b8b8b8b8b8b8b
Ciphertext:               dd3ba2525685fedb634507ad96109c2356b029d9dd0e7550e8ce8c261d9b17a8
Reciphers for ciphertext: 0
Decipheredtext:           8b8b8b8b8b8b8b8b8b8b8b8b8b8b8b8b
RESULT CIPHER-DECIPHER: -----OK-----


Test: 117
Symmetric key bit length: 128
Plaintext bit length:     128
Symmetric key:            75757575757575757575757575757575
Plaintext:                8a8a8a8a8a8a8a8a8a8a8a8a8a8a8a8a
Ciphertext:               16d596ca590d0adb3de66812584cfac09c5f1c40d3878051b76ce298d2c6704a
Reciphers for ciphertext: 0
Decipheredtext:           8a8a8a8a8a8a8a8a8a8a8a8a8a8a8a8a
RESULT CIPHER-DECIPHER: -----OK-----


Test: 118
Symmetric key bit length: 128
Plaintext bit length:     128
Symmetric key:            76767676767676767676767676767676
Plaintext:                89898989898989898989898989898989
Ciphertext:               b585123a793f87a40bef05b81a91fd783c0c9bb3f0b60e2d82668c31931874f1
Reciphers for ciphertext: 0
Decipheredtext:           89898989898989898989898989898989
RESULT CIPHER-DECIPHER: -----OK-----


Test: 119
Symmetric key bit length: 128
Plaintext bit length:     128
Symmetric key:            77777777777777777777777777777777
Plaintext:                88888888888888888888888888888888
Ciphertext:               f44b3a70b3bcd50eebf75d833cf63f597cc3b2f83b345d86637fd50bb47eb7d1
Reciphers for ciphertext: 0
Decipheredtext:           88888888888888888888888888888888
RESULT CIPHER-DECIPHER: -----OK-----


Test: 120
Symmetric key bit length: 128
Plaintext bit length:     128
Symmetric key:            78787878787878787878787878787878
Plaintext:                87878787878787878787878787878787
Ciphertext:               0a9f130ac5847c16d4d774d29c980faa8d18948d4203fb915350f3551b1f882d
Reciphers for ciphertext: 0
Decipheredtext:           87878787878787878787878787878787
RESULT CIPHER-DECIPHER: -----OK-----


Test: 121
Symmetric key bit length: 128
Plaintext bit length:     128
Symmetric key:            79797979797979797979797979797979
Plaintext:                86868686868686868686868686868686
Ciphertext:               97d0f438276f1e62c37357593097ecd0115672bea1e998e445f5d1dfb6116a56
Reciphers for ciphertext: 0
Decipheredtext:           86868686868686868686868686868686
RESULT CIPHER-DECIPHER: -----OK-----


Test: 122
Symmetric key bit length: 128
Plaintext bit length:     128
Symmetric key:            7a7a7a7a7a7a7a7a7a7a7a7a7a7a7a7a
Plaintext:                85858585858585858585858585858585
Ciphertext:               089444f344df796beadbc7f8d64e62e88d11c176c15afcee6f5e427d53cbe76d
Reciphers for ciphertext: 0
Decipheredtext:           85858585858585858585858585858585
RESULT CIPHER-DECIPHER: -----OK-----


Test: 123
Symmetric key bit length: 128
Plaintext bit length:     128
Symmetric key:            7b7b7b7b7b7b7b7b7b7b7b7b7b7b7b7b
Plaintext:                84848484848484848484848484848484
Ciphertext:               fa0928962576ec42312a725f9be1c6317e8dac12a1f268c6b5aef6db1f6542b5
Reciphers for ciphertext: 0
Decipheredtext:           84848484848484848484848484848484
RESULT CIPHER-DECIPHER: -----OK-----


Test: 124
Symmetric key bit length: 128
Plaintext bit length:     128
Symmetric key:            7c7c7c7c7c7c7c7c7c7c7c7c7c7c7c7c
Plaintext:                83838383838383838383838383838383
Ciphertext:               251c7d6539642f8950811cff55155084a69ffee6bae7ac0ad3029f7cd696d307
Reciphers for ciphertext: 0
Decipheredtext:           83838383838383838383838383838383
RESULT CIPHER-DECIPHER: -----OK-----


Test: 125
Symmetric key bit length: 128
Plaintext bit length:     128
Symmetric key:            7d7d7d7d7d7d7d7d7d7d7d7d7d7d7d7d
Plaintext:                82828282828282828282828282828282
Ciphertext:               48a2bc505f41cccdb606b981f2a13a50ca203ed2ddc34e4f34843b037023b8d2
Reciphers for ciphertext: 0
Decipheredtext:           82828282828282828282828282828282
RESULT CIPHER-DECIPHER: -----OK-----


Test: 126
Symmetric key bit length: 128
Plaintext bit length:     128
Symmetric key:            7e7e7e7e7e7e7e7e7e7e7e7e7e7e7e7e
Plaintext:                81818181818181818181818181818181
Ciphertext:               f62ad4bb84cd5efcb85c9127b834ba1377ab553a054cdf7d39dd10a639b53b92
Reciphers for ciphertext: 0
Decipheredtext:           81818181818181818181818181818181
RESULT CIPHER-DECIPHER: -----OK-----


Test: 127
Symmetric key bit length: 128
Plaintext bit length:     128
Symmetric key:            7f7f7f7f7f7f7f7f7f7f7f7f7f7f7f7f
Plaintext:                80808080808080808080808080808080
Ciphertext:               39ac2f66d39befb8ee6dcee74c1b3d8db92cafe6531b6f386eed4e67cc9bbd0d
Reciphers for ciphertext: 0
Decipheredtext:           80808080808080808080808080808080
RESULT CIPHER-DECIPHER: -----OK-----


 DATA SHA1 (hexadecimal): 4e5d6ac31cb980b89ef418e075b0e53a59993baf

