
DiceLock 9.0.0.1

 TEST COMPONENTS:
 ----------------
 DiceLock:           DiceLockXTSIndexed class
 Operation Mode:     XTS_Mode class
 Block Cipher:       AES128 class
 Key Modifier:       IncreaseBase0IndexModifier_6_0_0_1 class
   Index bit length: 128
 Random tests:       RandomTestSuite class
                     FrequencyTest class
                     BlockFrequencyTest class
                     CumulativeSumForwardTest class
                     LongestRunOfOnesTest class
                     RunsTest class
 Random alpha:       0.001

 VECTOR TEST: Test vector 4 - Plaintext all byte value 0xXX


##### INDIVIDUAL TESTS #####

Number tests: 128


Test: 0
Data unit:   0
Start block: 1
Symmetric key bit length: 256
Plaintext bit length:     136
Symmetric key:            0000000000000000000000000000000000000000000000000000000000000000
Plaintext:                0000000000000000000000000000000000
Ciphertext:               917cf69ebd68b2ec9b9fe9a3eadda692e62b361e89c90e48001d65120f8ea4d491
Reciphers for ciphertext: 0
Decipheredtext:           0000000000000000000000000000000000
RESULT CIPHER-DECIPHER: -----OK-----


Test: 1
Data unit:   1
Start block: 3
Symmetric key bit length: 256
Plaintext bit length:     136
Symmetric key:            0000000000000000000000000000000000000000000000000000000000000000
Plaintext:                0101010101010101010101010101010101
Ciphertext:               c4cfc5a38b758430d51651187f65bbe64a162347ad32c57368b48c2f7ddf6cc745
Reciphers for ciphertext: 0
Decipheredtext:           0101010101010101010101010101010101
RESULT CIPHER-DECIPHER: -----OK-----


Test: 2
Data unit:   2
Start block: 5
Symmetric key bit length: 256
Plaintext bit length:     136
Symmetric key:            0000000000000000000000000000000000000000000000000000000000000000
Plaintext:                0202020202020202020202020202020202
Ciphertext:               f47d55da604c8b3b596f1020771f7a588780b71a237d76fe3c224ba9a3cb561947
Reciphers for ciphertext: 0
Decipheredtext:           0202020202020202020202020202020202
RESULT CIPHER-DECIPHER: -----OK-----


Test: 3
Data unit:   3
Start block: 7
Symmetric key bit length: 256
Plaintext bit length:     136
Symmetric key:            0000000000000000000000000000000000000000000000000000000000000000
Plaintext:                0303030303030303030303030303030303
Ciphertext:               4dba8cee9c5703b5a7542e2e1870ed2d09b4273be5efea9b242fda1aa689484175
Reciphers for ciphertext: 0
Decipheredtext:           0303030303030303030303030303030303
RESULT CIPHER-DECIPHER: -----OK-----


Test: 4
Data unit:   4
Start block: 9
Symmetric key bit length: 256
Plaintext bit length:     136
Symmetric key:            0000000000000000000000000000000000000000000000000000000000000000
Plaintext:                0404040404040404040404040404040404
Ciphertext:               1bdd07aff213c63ad8fac835610f94a9f2c347a9adfcdbf1f427c69da45e389442
Reciphers for ciphertext: 0
Decipheredtext:           0404040404040404040404040404040404
RESULT CIPHER-DECIPHER: -----OK-----


Test: 5
Data unit:   5
Start block: 11
Symmetric key bit length: 256
Plaintext bit length:     136
Symmetric key:            0000000000000000000000000000000000000000000000000000000000000000
Plaintext:                0505050505050505050505050505050505
Ciphertext:               68a03ba768de19f8efff134c1eb09d3bec28eec974ca33f0952c8ddfef7aa9cabf
Reciphers for ciphertext: 0
Decipheredtext:           0505050505050505050505050505050505
RESULT CIPHER-DECIPHER: -----OK-----


Test: 6
Data unit:   6
Start block: 13
Symmetric key bit length: 256
Plaintext bit length:     136
Symmetric key:            0000000000000000000000000000000000000000000000000000000000000000
Plaintext:                0606060606060606060606060606060606
Ciphertext:               31b95ea934ca3bd1c9cf04bb587ba03e3cc226108617343ea2656c332d2cf558f6
Reciphers for ciphertext: 0
Decipheredtext:           0606060606060606060606060606060606
RESULT CIPHER-DECIPHER: -----OK-----


Test: 7
Data unit:   7
Start block: 15
Symmetric key bit length: 256
Plaintext bit length:     136
Symmetric key:            0000000000000000000000000000000000000000000000000000000000000000
Plaintext:                0707070707070707070707070707070707
Ciphertext:               a7ae38d13a4e796a503296cdde02028624742b8ebfc0849a9a5ea2b52efa0d537d
Reciphers for ciphertext: 0
Decipheredtext:           0707070707070707070707070707070707
RESULT CIPHER-DECIPHER: -----OK-----


Test: 8
Data unit:   8
Start block: 17
Symmetric key bit length: 256
Plaintext bit length:     136
Symmetric key:            0000000000000000000000000000000000000000000000000000000000000000
Plaintext:                0808080808080808080808080808080808
Ciphertext:               1f1d6cb013fc2550d5a2edacedf9ab4e209e4f609e00416d4e7eb5aa56c65524bb
Reciphers for ciphertext: 0
Decipheredtext:           0808080808080808080808080808080808
RESULT CIPHER-DECIPHER: -----OK-----


Test: 9
Data unit:   9
Start block: 19
Symmetric key bit length: 256
Plaintext bit length:     136
Symmetric key:            0000000000000000000000000000000000000000000000000000000000000000
Plaintext:                0909090909090909090909090909090909
Ciphertext:               47c7ae1777f07140b75d7f6c210d064aab41d77176114b01b85dab0b78acc2f92c
Reciphers for ciphertext: 0
Decipheredtext:           0909090909090909090909090909090909
RESULT CIPHER-DECIPHER: -----OK-----


Test: 10
Data unit:   10
Start block: 21
Symmetric key bit length: 256
Plaintext bit length:     136
Symmetric key:            0000000000000000000000000000000000000000000000000000000000000000
Plaintext:                0a0a0a0a0a0a0a0a0a0a0a0a0a0a0a0a0a
Ciphertext:               087976f7e8c8a9e04ec004797be6ab58dbfa689a0d345d8c50415f1b1f0f63fc1c
Reciphers for ciphertext: 0
Decipheredtext:           0a0a0a0a0a0a0a0a0a0a0a0a0a0a0a0a0a
RESULT CIPHER-DECIPHER: -----OK-----


Test: 11
Data unit:   11
Start block: 23
Symmetric key bit length: 256
Plaintext bit length:     136
Symmetric key:            0000000000000000000000000000000000000000000000000000000000000000
Plaintext:                0b0b0b0b0b0b0b0b0b0b0b0b0b0b0b0b0b
Ciphertext:               49f54d4d1e152d0f029c3623e8f7647c217926c40ff928fe2ede9fb11953d1b832
Reciphers for ciphertext: 0
Decipheredtext:           0b0b0b0b0b0b0b0b0b0b0b0b0b0b0b0b0b
RESULT CIPHER-DECIPHER: -----OK-----


Test: 12
Data unit:   12
Start block: 25
Symmetric key bit length: 256
Plaintext bit length:     136
Symmetric key:            0000000000000000000000000000000000000000000000000000000000000000
Plaintext:                0c0c0c0c0c0c0c0c0c0c0c0c0c0c0c0c0c
Ciphertext:               0494c75c08d97d52009fd3cfa8fa44f0317d8b975f29dde08c1e8e83efce38b67b
Reciphers for ciphertext: 0
Decipheredtext:           0c0c0c0c0c0c0c0c0c0c0c0c0c0c0c0c0c
RESULT CIPHER-DECIPHER: -----OK-----


Test: 13
Data unit:   13
Start block: 27
Symmetric key bit length: 256
Plaintext bit length:     136
Symmetric key:            0000000000000000000000000000000000000000000000000000000000000000
Plaintext:                0d0d0d0d0d0d0d0d0d0d0d0d0d0d0d0d0d
Ciphertext:               a8339850974a6fecc4506217116ec88db7477074e40a61b3762855bba0de7f076e
Reciphers for ciphertext: 0
Decipheredtext:           0d0d0d0d0d0d0d0d0d0d0d0d0d0d0d0d0d
RESULT CIPHER-DECIPHER: -----OK-----


Test: 14
Data unit:   14
Start block: 29
Symmetric key bit length: 256
Plaintext bit length:     136
Symmetric key:            0000000000000000000000000000000000000000000000000000000000000000
Plaintext:                0e0e0e0e0e0e0e0e0e0e0e0e0e0e0e0e0e
Ciphertext:               6efa81b957b842e3ba93e9dd0b26df819be5aab735b590688940526d996bb65085
Reciphers for ciphertext: 0
Decipheredtext:           0e0e0e0e0e0e0e0e0e0e0e0e0e0e0e0e0e
RESULT CIPHER-DECIPHER: -----OK-----


Test: 15
Data unit:   15
Start block: 31
Symmetric key bit length: 256
Plaintext bit length:     136
Symmetric key:            0000000000000000000000000000000000000000000000000000000000000000
Plaintext:                0f0f0f0f0f0f0f0f0f0f0f0f0f0f0f0f0f
Ciphertext:               d4f8bee42ff0f32cc1c6636c4cc31d46e6f3dc0006b48021ad1ad99162c95cb366
Reciphers for ciphertext: 0
Decipheredtext:           0f0f0f0f0f0f0f0f0f0f0f0f0f0f0f0f0f
RESULT CIPHER-DECIPHER: -----OK-----


Test: 16
Data unit:   16
Start block: 33
Symmetric key bit length: 256
Plaintext bit length:     136
Symmetric key:            0000000000000000000000000000000000000000000000000000000000000000
Plaintext:                1010101010101010101010101010101010
Ciphertext:               ef12e90685e6a5ebb70233cbdbcd7397bc0ecc2d62768929450dc92ebd176048bd
Reciphers for ciphertext: 0
Decipheredtext:           1010101010101010101010101010101010
RESULT CIPHER-DECIPHER: -----OK-----


Test: 17
Data unit:   17
Start block: 35
Symmetric key bit length: 256
Plaintext bit length:     136
Symmetric key:            0000000000000000000000000000000000000000000000000000000000000000
Plaintext:                1111111111111111111111111111111111
Ciphertext:               467f3f694c011c383e9d03a2baedbdecc6e0607897b0cd56b79e18e28bd6d07e25
Reciphers for ciphertext: 0
Decipheredtext:           1111111111111111111111111111111111
RESULT CIPHER-DECIPHER: -----OK-----


Test: 18
Data unit:   18
Start block: 37
Symmetric key bit length: 256
Plaintext bit length:     136
Symmetric key:            0000000000000000000000000000000000000000000000000000000000000000
Plaintext:                1212121212121212121212121212121212
Ciphertext:               273047ff0617fdc4589356de30a69298e22c3608ff6cd17bd7a5dae841f747205f
Reciphers for ciphertext: 0
Decipheredtext:           1212121212121212121212121212121212
RESULT CIPHER-DECIPHER: -----OK-----


Test: 19
Data unit:   19
Start block: 39
Symmetric key bit length: 256
Plaintext bit length:     136
Symmetric key:            0000000000000000000000000000000000000000000000000000000000000000
Plaintext:                1313131313131313131313131313131313
Ciphertext:               ce5c7164ba4c80b9f3c5308a91a9f081c6ac2c5aa546fda081616de3c77e0fd874
Reciphers for ciphertext: 0
Decipheredtext:           1313131313131313131313131313131313
RESULT CIPHER-DECIPHER: -----OK-----


Test: 20
Data unit:   20
Start block: 41
Symmetric key bit length: 256
Plaintext bit length:     136
Symmetric key:            0000000000000000000000000000000000000000000000000000000000000000
Plaintext:                1414141414141414141414141414141414
Ciphertext:               de9e0adcec330273f63a94668cc8aa81081d751fa37492c4c32cb6923211422862
Reciphers for ciphertext: 0
Decipheredtext:           1414141414141414141414141414141414
RESULT CIPHER-DECIPHER: -----OK-----


Test: 21
Data unit:   21
Start block: 43
Symmetric key bit length: 256
Plaintext bit length:     136
Symmetric key:            0000000000000000000000000000000000000000000000000000000000000000
Plaintext:                1515151515151515151515151515151515
Ciphertext:               50a7a85671351a6be633e65c289ba3ea36e51e863f23968bdf918f80a36dfd2f1d
Reciphers for ciphertext: 0
Decipheredtext:           1515151515151515151515151515151515
RESULT CIPHER-DECIPHER: -----OK-----


Test: 22
Data unit:   22
Start block: 45
Symmetric key bit length: 256
Plaintext bit length:     136
Symmetric key:            0000000000000000000000000000000000000000000000000000000000000000
Plaintext:                1616161616161616161616161616161616
Ciphertext:               f039c56226b531c6385d54da3924511fc1a6a43b94f196a17f2b1ba831df5b02d1
Reciphers for ciphertext: 0
Decipheredtext:           1616161616161616161616161616161616
RESULT CIPHER-DECIPHER: -----OK-----


Test: 23
Data unit:   23
Start block: 47
Symmetric key bit length: 256
Plaintext bit length:     136
Symmetric key:            0000000000000000000000000000000000000000000000000000000000000000
Plaintext:                1717171717171717171717171717171717
Ciphertext:               bc23f46d79d75dfc5a1e2c6cac3fc072642bea5a62613f2ab876a1f35b1fd8534f
Reciphers for ciphertext: 0
Decipheredtext:           1717171717171717171717171717171717
RESULT CIPHER-DECIPHER: -----OK-----


Test: 24
Data unit:   24
Start block: 49
Symmetric key bit length: 256
Plaintext bit length:     136
Symmetric key:            0000000000000000000000000000000000000000000000000000000000000000
Plaintext:                1818181818181818181818181818181818
Ciphertext:               cdd9ed21e943786f7ffe961b0cd9065af67bbdb43d000c358dd40320c91a791322
Reciphers for ciphertext: 0
Decipheredtext:           1818181818181818181818181818181818
RESULT CIPHER-DECIPHER: -----OK-----


Test: 25
Data unit:   25
Start block: 51
Symmetric key bit length: 256
Plaintext bit length:     136
Symmetric key:            0000000000000000000000000000000000000000000000000000000000000000
Plaintext:                1919191919191919191919191919191919
Ciphertext:               307cf0da881a5ee6d46c548d22921fd6b01eeef5e0ac49fd96696d7ac9f4cafed0
Reciphers for ciphertext: 0
Decipheredtext:           1919191919191919191919191919191919
RESULT CIPHER-DECIPHER: -----OK-----


Test: 26
Data unit:   26
Start block: 53
Symmetric key bit length: 256
Plaintext bit length:     136
Symmetric key:            0000000000000000000000000000000000000000000000000000000000000000
Plaintext:                1a1a1a1a1a1a1a1a1a1a1a1a1a1a1a1a1a
Ciphertext:               71c592279e085ec4c1ab222aaa0b541505ab04cd4c315464cb2835e59503d28667
Reciphers for ciphertext: 0
Decipheredtext:           1a1a1a1a1a1a1a1a1a1a1a1a1a1a1a1a1a
RESULT CIPHER-DECIPHER: -----OK-----


Test: 27
Data unit:   27
Start block: 55
Symmetric key bit length: 256
Plaintext bit length:     136
Symmetric key:            0000000000000000000000000000000000000000000000000000000000000000
Plaintext:                1b1b1b1b1b1b1b1b1b1b1b1b1b1b1b1b1b
Ciphertext:               e3049fa92a9f29b7df4955ea2da1d31ef2f8910b67539800a9dd61839db1f24e67
Reciphers for ciphertext: 0
Decipheredtext:           1b1b1b1b1b1b1b1b1b1b1b1b1b1b1b1b1b
RESULT CIPHER-DECIPHER: -----OK-----


Test: 28
Data unit:   28
Start block: 57
Symmetric key bit length: 256
Plaintext bit length:     136
Symmetric key:            0000000000000000000000000000000000000000000000000000000000000000
Plaintext:                1c1c1c1c1c1c1c1c1c1c1c1c1c1c1c1c1c
Ciphertext:               b61167647c857ce9e4ea2d2163a0cb3ce4914694e676c785dcf0a1b138f386233e
Reciphers for ciphertext: 0
Decipheredtext:           1c1c1c1c1c1c1c1c1c1c1c1c1c1c1c1c1c
RESULT CIPHER-DECIPHER: -----OK-----


Test: 29
Data unit:   29
Start block: 59
Symmetric key bit length: 256
Plaintext bit length:     136
Symmetric key:            0000000000000000000000000000000000000000000000000000000000000000
Plaintext:                1d1d1d1d1d1d1d1d1d1d1d1d1d1d1d1d1d
Ciphertext:               da987ad7dde299a0a95b59723ff49a663e2bf6b484ae4ef7871d399c2e0a3fb5f3
Reciphers for ciphertext: 0
Decipheredtext:           1d1d1d1d1d1d1d1d1d1d1d1d1d1d1d1d1d
RESULT CIPHER-DECIPHER: -----OK-----


Test: 30
Data unit:   30
Start block: 61
Symmetric key bit length: 256
Plaintext bit length:     136
Symmetric key:            0000000000000000000000000000000000000000000000000000000000000000
Plaintext:                1e1e1e1e1e1e1e1e1e1e1e1e1e1e1e1e1e
Ciphertext:               2a7ea49e9d5f3057b0acbb02886ae710e91de808da58f7097dbbb5a69320fd6e89
Reciphers for ciphertext: 0
Decipheredtext:           1e1e1e1e1e1e1e1e1e1e1e1e1e1e1e1e1e
RESULT CIPHER-DECIPHER: -----OK-----


Test: 31
Data unit:   31
Start block: 63
Symmetric key bit length: 256
Plaintext bit length:     136
Symmetric key:            0000000000000000000000000000000000000000000000000000000000000000
Plaintext:                1f1f1f1f1f1f1f1f1f1f1f1f1f1f1f1f1f
Ciphertext:               c385276148beb1127983c5ff12adfb8127d9fd098ae6217f75799d6414c2d7c84f
Reciphers for ciphertext: 0
Decipheredtext:           1f1f1f1f1f1f1f1f1f1f1f1f1f1f1f1f1f
RESULT CIPHER-DECIPHER: -----OK-----


Test: 32
Data unit:   32
Start block: 65
Symmetric key bit length: 256
Plaintext bit length:     136
Symmetric key:            0000000000000000000000000000000000000000000000000000000000000000
Plaintext:                2020202020202020202020202020202020
Ciphertext:               91e913483d17932afe2679b477ac108082820ca46eb90be906d927a2fa633493c7
Reciphers for ciphertext: 0
Decipheredtext:           2020202020202020202020202020202020
RESULT CIPHER-DECIPHER: -----OK-----


Test: 33
Data unit:   33
Start block: 67
Symmetric key bit length: 256
Plaintext bit length:     136
Symmetric key:            0000000000000000000000000000000000000000000000000000000000000000
Plaintext:                2121212121212121212121212121212121
Ciphertext:               44d123d40171bf5f15497c4ccff63a96c59da2e87b386dfe46d6bdfd47b0f9402d
Reciphers for ciphertext: 0
Decipheredtext:           2121212121212121212121212121212121
RESULT CIPHER-DECIPHER: -----OK-----


Test: 34
Data unit:   34
Start block: 69
Symmetric key bit length: 256
Plaintext bit length:     136
Symmetric key:            0000000000000000000000000000000000000000000000000000000000000000
Plaintext:                2222222222222222222222222222222222
Ciphertext:               620f28e629465923a38cd92abe4097aac639577b2af4ee9497cd67acdf90210e66
Reciphers for ciphertext: 0
Decipheredtext:           2222222222222222222222222222222222
RESULT CIPHER-DECIPHER: -----OK-----


Test: 35
Data unit:   35
Start block: 71
Symmetric key bit length: 256
Plaintext bit length:     136
Symmetric key:            0000000000000000000000000000000000000000000000000000000000000000
Plaintext:                2323232323232323232323232323232323
Ciphertext:               e56c15f4abef4a03339d42e4f2cbf542e0f5701f3c1b726893518f7450c233646e
Reciphers for ciphertext: 0
Decipheredtext:           2323232323232323232323232323232323
RESULT CIPHER-DECIPHER: -----OK-----


Test: 36
Data unit:   36
Start block: 73
Symmetric key bit length: 256
Plaintext bit length:     136
Symmetric key:            0000000000000000000000000000000000000000000000000000000000000000
Plaintext:                2424242424242424242424242424242424
Ciphertext:               190f973427fc07ca00aa253b947378a0ea0309c6d268ec8102452bd4e1b43254f3
Reciphers for ciphertext: 0
Decipheredtext:           2424242424242424242424242424242424
RESULT CIPHER-DECIPHER: -----OK-----


Test: 37
Data unit:   37
Start block: 75
Symmetric key bit length: 256
Plaintext bit length:     136
Symmetric key:            0000000000000000000000000000000000000000000000000000000000000000
Plaintext:                2525252525252525252525252525252525
Ciphertext:               9d8d43a16dff1c2ffa7bb4618c18452d29455b76e555df0280e978e55b8bdb9a81
Reciphers for ciphertext: 0
Decipheredtext:           2525252525252525252525252525252525
RESULT CIPHER-DECIPHER: -----OK-----


Test: 38
Data unit:   38
Start block: 77
Symmetric key bit length: 256
Plaintext bit length:     136
Symmetric key:            0000000000000000000000000000000000000000000000000000000000000000
Plaintext:                2626262626262626262626262626262626
Ciphertext:               5736a833e6a01d097d172d274e54585ad63ecc72cb42201bf94ff9870ebdf82c3d
Reciphers for ciphertext: 0
Decipheredtext:           2626262626262626262626262626262626
RESULT CIPHER-DECIPHER: -----OK-----


Test: 39
Data unit:   39
Start block: 79
Symmetric key bit length: 256
Plaintext bit length:     136
Symmetric key:            0000000000000000000000000000000000000000000000000000000000000000
Plaintext:                2727272727272727272727272727272727
Ciphertext:               f6b93a68708452347f431d03deafc5c200fb0db1ed658a1814ab4d02c0ea32841f
Reciphers for ciphertext: 0
Decipheredtext:           2727272727272727272727272727272727
RESULT CIPHER-DECIPHER: -----OK-----


Test: 40
Data unit:   40
Start block: 81
Symmetric key bit length: 256
Plaintext bit length:     136
Symmetric key:            0000000000000000000000000000000000000000000000000000000000000000
Plaintext:                2828282828282828282828282828282828
Ciphertext:               758b6bb4f6abc10f03239d2911a481ed0f1c81c376052eca8ac9e8198ce43d0d24
Reciphers for ciphertext: 0
Decipheredtext:           2828282828282828282828282828282828
RESULT CIPHER-DECIPHER: -----OK-----


Test: 41
Data unit:   41
Start block: 83
Symmetric key bit length: 256
Plaintext bit length:     136
Symmetric key:            0000000000000000000000000000000000000000000000000000000000000000
Plaintext:                2929292929292929292929292929292929
Ciphertext:               94b2114fb299feb4b171b22810842479615149f0a2e9750449d175412a145d876b
Reciphers for ciphertext: 0
Decipheredtext:           2929292929292929292929292929292929
RESULT CIPHER-DECIPHER: -----OK-----


Test: 42
Data unit:   42
Start block: 85
Symmetric key bit length: 256
Plaintext bit length:     136
Symmetric key:            0000000000000000000000000000000000000000000000000000000000000000
Plaintext:                2a2a2a2a2a2a2a2a2a2a2a2a2a2a2a2a2a
Ciphertext:               99f1be2a848a5832d6335f1b68dd6a14b7b7fdfdeef173b014af920ebf21ff8c3e
Reciphers for ciphertext: 0
Decipheredtext:           2a2a2a2a2a2a2a2a2a2a2a2a2a2a2a2a2a
RESULT CIPHER-DECIPHER: -----OK-----


Test: 43
Data unit:   43
Start block: 87
Symmetric key bit length: 256
Plaintext bit length:     136
Symmetric key:            0000000000000000000000000000000000000000000000000000000000000000
Plaintext:                2b2b2b2b2b2b2b2b2b2b2b2b2b2b2b2b2b
Ciphertext:               23378fb0766e1f5eb37396911f5bf329f112a458ed5b9340ed371fc8453b903aa8
Reciphers for ciphertext: 0
Decipheredtext:           2b2b2b2b2b2b2b2b2b2b2b2b2b2b2b2b2b
RESULT CIPHER-DECIPHER: -----OK-----


Test: 44
Data unit:   44
Start block: 89
Symmetric key bit length: 256
Plaintext bit length:     136
Symmetric key:            0000000000000000000000000000000000000000000000000000000000000000
Plaintext:                2c2c2c2c2c2c2c2c2c2c2c2c2c2c2c2c2c
Ciphertext:               3de7c35acb8b42e6d91191183e44da088b988b2f6f60f47728ded25bce7f4fd95d
Reciphers for ciphertext: 0
Decipheredtext:           2c2c2c2c2c2c2c2c2c2c2c2c2c2c2c2c2c
RESULT CIPHER-DECIPHER: -----OK-----


Test: 45
Data unit:   45
Start block: 91
Symmetric key bit length: 256
Plaintext bit length:     136
Symmetric key:            0000000000000000000000000000000000000000000000000000000000000000
Plaintext:                2d2d2d2d2d2d2d2d2d2d2d2d2d2d2d2d2d
Ciphertext:               1e06536c6702af978b4c16d78f8f8795052a06faf7ce0013e2b8bb812677625f19
Reciphers for ciphertext: 0
Decipheredtext:           2d2d2d2d2d2d2d2d2d2d2d2d2d2d2d2d2d
RESULT CIPHER-DECIPHER: -----OK-----


Test: 46
Data unit:   46
Start block: 93
Symmetric key bit length: 256
Plaintext bit length:     136
Symmetric key:            0000000000000000000000000000000000000000000000000000000000000000
Plaintext:                2e2e2e2e2e2e2e2e2e2e2e2e2e2e2e2e2e
Ciphertext:               331e0096843b22179b9f037abad71df79642596a334780be760302309240fcea7d
Reciphers for ciphertext: 0
Decipheredtext:           2e2e2e2e2e2e2e2e2e2e2e2e2e2e2e2e2e
RESULT CIPHER-DECIPHER: -----OK-----


Test: 47
Data unit:   47
Start block: 95
Symmetric key bit length: 256
Plaintext bit length:     136
Symmetric key:            0000000000000000000000000000000000000000000000000000000000000000
Plaintext:                2f2f2f2f2f2f2f2f2f2f2f2f2f2f2f2f2f
Ciphertext:               3dc4ddc43f47a84fed3f7b75b9afd9f7a34b7486c9b30342d1fecad71302632767
Reciphers for ciphertext: 0
Decipheredtext:           2f2f2f2f2f2f2f2f2f2f2f2f2f2f2f2f2f
RESULT CIPHER-DECIPHER: -----OK-----


Test: 48
Data unit:   48
Start block: 97
Symmetric key bit length: 256
Plaintext bit length:     136
Symmetric key:            0000000000000000000000000000000000000000000000000000000000000000
Plaintext:                3030303030303030303030303030303030
Ciphertext:               1c87686dee5c42f944b00ea550f2bcbc493e3a04052cd6708efaf24805b72efd44
Reciphers for ciphertext: 0
Decipheredtext:           3030303030303030303030303030303030
RESULT CIPHER-DECIPHER: -----OK-----


Test: 49
Data unit:   49
Start block: 99
Symmetric key bit length: 256
Plaintext bit length:     136
Symmetric key:            0000000000000000000000000000000000000000000000000000000000000000
Plaintext:                3131313131313131313131313131313131
Ciphertext:               ffeb930854dfc86e81dc34b06c15f37f0141555f6688ff539f4daddafe7e0c332e
Reciphers for ciphertext: 0
Decipheredtext:           3131313131313131313131313131313131
RESULT CIPHER-DECIPHER: -----OK-----


Test: 50
Data unit:   50
Start block: 101
Symmetric key bit length: 256
Plaintext bit length:     136
Symmetric key:            0000000000000000000000000000000000000000000000000000000000000000
Plaintext:                3232323232323232323232323232323232
Ciphertext:               54df595d38488151ab75cad8613e895559d3ff0b696be5337bb437b45cc59a7498
Reciphers for ciphertext: 0
Decipheredtext:           3232323232323232323232323232323232
RESULT CIPHER-DECIPHER: -----OK-----


Test: 51
Data unit:   51
Start block: 103
Symmetric key bit length: 256
Plaintext bit length:     136
Symmetric key:            0000000000000000000000000000000000000000000000000000000000000000
Plaintext:                3333333333333333333333333333333333
Ciphertext:               db1841e1cf5c3ee6c6b79a089432f101d27b1db012bad09f7b03d1e0226310adb6
Reciphers for ciphertext: 0
Decipheredtext:           3333333333333333333333333333333333
RESULT CIPHER-DECIPHER: -----OK-----


Test: 52
Data unit:   52
Start block: 105
Symmetric key bit length: 256
Plaintext bit length:     136
Symmetric key:            0000000000000000000000000000000000000000000000000000000000000000
Plaintext:                3434343434343434343434343434343434
Ciphertext:               fd79eb4682295c8ee787a4e7e7dcc6777725f527d4b3bbda7e08a9187229291a95
Reciphers for ciphertext: 0
Decipheredtext:           3434343434343434343434343434343434
RESULT CIPHER-DECIPHER: -----OK-----


Test: 53
Data unit:   53
Start block: 107
Symmetric key bit length: 256
Plaintext bit length:     136
Symmetric key:            0000000000000000000000000000000000000000000000000000000000000000
Plaintext:                3535353535353535353535353535353535
Ciphertext:               28a5b340fe64c42e3ca49db2ca63712a1cc80dabdfc6d49f5c2441b59b6efce528
Reciphers for ciphertext: 0
Decipheredtext:           3535353535353535353535353535353535
RESULT CIPHER-DECIPHER: -----OK-----


Test: 54
Data unit:   54
Start block: 109
Symmetric key bit length: 256
Plaintext bit length:     136
Symmetric key:            0000000000000000000000000000000000000000000000000000000000000000
Plaintext:                3636363636363636363636363636363636
Ciphertext:               daf85a4eef722469f3364f3e1c5be7a14de99b736a88883a4c6d57d79845119c53
Reciphers for ciphertext: 0
Decipheredtext:           3636363636363636363636363636363636
RESULT CIPHER-DECIPHER: -----OK-----


Test: 55
Data unit:   55
Start block: 111
Symmetric key bit length: 256
Plaintext bit length:     136
Symmetric key:            0000000000000000000000000000000000000000000000000000000000000000
Plaintext:                3737373737373737373737373737373737
Ciphertext:               f9641cb6a72170299818136935f4c5c4f0c039f1e70906a8f911169025774b658e
Reciphers for ciphertext: 0
Decipheredtext:           3737373737373737373737373737373737
RESULT CIPHER-DECIPHER: -----OK-----


Test: 56
Data unit:   56
Start block: 113
Symmetric key bit length: 256
Plaintext bit length:     136
Symmetric key:            0000000000000000000000000000000000000000000000000000000000000000
Plaintext:                3838383838383838383838383838383838
Ciphertext:               54ac485507a045cbf4e3433d9762902696a740548d1f471626212297e180e5a5c2
Reciphers for ciphertext: 0
Decipheredtext:           3838383838383838383838383838383838
RESULT CIPHER-DECIPHER: -----OK-----


Test: 57
Data unit:   57
Start block: 115
Symmetric key bit length: 256
Plaintext bit length:     136
Symmetric key:            0000000000000000000000000000000000000000000000000000000000000000
Plaintext:                3939393939393939393939393939393939
Ciphertext:               b495d7ae020c5b13a85c8322383f4e72f1adb354dfa1e3e9ecb0e1c9012cb8a10a
Reciphers for ciphertext: 0
Decipheredtext:           3939393939393939393939393939393939
RESULT CIPHER-DECIPHER: -----OK-----


Test: 58
Data unit:   58
Start block: 117
Symmetric key bit length: 256
Plaintext bit length:     136
Symmetric key:            0000000000000000000000000000000000000000000000000000000000000000
Plaintext:                3a3a3a3a3a3a3a3a3a3a3a3a3a3a3a3a3a
Ciphertext:               d61028d02a145976fa59df4980218bb91a47aa6ab4f14ddc0eb024cbe35541b52c
Reciphers for ciphertext: 0
Decipheredtext:           3a3a3a3a3a3a3a3a3a3a3a3a3a3a3a3a3a
RESULT CIPHER-DECIPHER: -----OK-----


Test: 59
Data unit:   59
Start block: 119
Symmetric key bit length: 256
Plaintext bit length:     136
Symmetric key:            0000000000000000000000000000000000000000000000000000000000000000
Plaintext:                3b3b3b3b3b3b3b3b3b3b3b3b3b3b3b3b3b
Ciphertext:               09931e660cb3add1554d336a5606b13fa2c1f8f644cd0e8ed3d5df3cecc1caea53
Reciphers for ciphertext: 0
Decipheredtext:           3b3b3b3b3b3b3b3b3b3b3b3b3b3b3b3b3b
RESULT CIPHER-DECIPHER: -----OK-----


Test: 60
Data unit:   60
Start block: 121
Symmetric key bit length: 256
Plaintext bit length:     136
Symmetric key:            0000000000000000000000000000000000000000000000000000000000000000
Plaintext:                3c3c3c3c3c3c3c3c3c3c3c3c3c3c3c3c3c
Ciphertext:               d355bd8935e8788307cfab08098a6479d9b9ff9e7a1cdaaa552bcc4046a762e4fa
Reciphers for ciphertext: 0
Decipheredtext:           3c3c3c3c3c3c3c3c3c3c3c3c3c3c3c3c3c
RESULT CIPHER-DECIPHER: -----OK-----


Test: 61
Data unit:   61
Start block: 123
Symmetric key bit length: 256
Plaintext bit length:     136
Symmetric key:            0000000000000000000000000000000000000000000000000000000000000000
Plaintext:                3d3d3d3d3d3d3d3d3d3d3d3d3d3d3d3d3d
Ciphertext:               aef79d4b9cdd91cdf9c5d347c5778ec289c14915f6b279e1d9eb2234b7f5aa0edc
Reciphers for ciphertext: 0
Decipheredtext:           3d3d3d3d3d3d3d3d3d3d3d3d3d3d3d3d3d
RESULT CIPHER-DECIPHER: -----OK-----


Test: 62
Data unit:   62
Start block: 125
Symmetric key bit length: 256
Plaintext bit length:     136
Symmetric key:            0000000000000000000000000000000000000000000000000000000000000000
Plaintext:                3e3e3e3e3e3e3e3e3e3e3e3e3e3e3e3e3e
Ciphertext:               e784aa0dbd3ddf1669e7299e8dcee8b171983516b12f15f5b3a9b840bad9f770cb
Reciphers for ciphertext: 0
Decipheredtext:           3e3e3e3e3e3e3e3e3e3e3e3e3e3e3e3e3e
RESULT CIPHER-DECIPHER: -----OK-----


Test: 63
Data unit:   63
Start block: 127
Symmetric key bit length: 256
Plaintext bit length:     136
Symmetric key:            0000000000000000000000000000000000000000000000000000000000000000
Plaintext:                3f3f3f3f3f3f3f3f3f3f3f3f3f3f3f3f3f
Ciphertext:               3ba088a8b454d76b1a3e5c47b6921867cf09e39172740d4c4929e34e2ad13461fe
Reciphers for ciphertext: 0
Decipheredtext:           3f3f3f3f3f3f3f3f3f3f3f3f3f3f3f3f3f
RESULT CIPHER-DECIPHER: -----OK-----


Test: 64
Data unit:   64
Start block: 129
Symmetric key bit length: 256
Plaintext bit length:     136
Symmetric key:            0000000000000000000000000000000000000000000000000000000000000000
Plaintext:                4040404040404040404040404040404040
Ciphertext:               1b94662d7eb1e2b1b4bd035f1a82e0f2e79236f882df6681e530d84f35b166a2e1
Reciphers for ciphertext: 0
Decipheredtext:           4040404040404040404040404040404040
RESULT CIPHER-DECIPHER: -----OK-----


Test: 65
Data unit:   65
Start block: 131
Symmetric key bit length: 256
Plaintext bit length:     136
Symmetric key:            0000000000000000000000000000000000000000000000000000000000000000
Plaintext:                4141414141414141414141414141414141
Ciphertext:               8ef08aea1df98603aa6e64b0f8d85b9429150bb1db40af5d17936d076652c97a8c
Reciphers for ciphertext: 0
Decipheredtext:           4141414141414141414141414141414141
RESULT CIPHER-DECIPHER: -----OK-----


Test: 66
Data unit:   66
Start block: 133
Symmetric key bit length: 256
Plaintext bit length:     136
Symmetric key:            0000000000000000000000000000000000000000000000000000000000000000
Plaintext:                4242424242424242424242424242424242
Ciphertext:               e2cbb98185ac740f562740651462d046cfbf6706c292df6cf257a426c2beeb89d0
Reciphers for ciphertext: 0
Decipheredtext:           4242424242424242424242424242424242
RESULT CIPHER-DECIPHER: -----OK-----


Test: 67
Data unit:   67
Start block: 135
Symmetric key bit length: 256
Plaintext bit length:     136
Symmetric key:            0000000000000000000000000000000000000000000000000000000000000000
Plaintext:                4343434343434343434343434343434343
Ciphertext:               3c9fb98a61f1907c9013213693ef11530aeb82cb3aa13c58be571cadcfea4146b1
Reciphers for ciphertext: 0
Decipheredtext:           4343434343434343434343434343434343
RESULT CIPHER-DECIPHER: -----OK-----


Test: 68
Data unit:   68
Start block: 137
Symmetric key bit length: 256
Plaintext bit length:     136
Symmetric key:            0000000000000000000000000000000000000000000000000000000000000000
Plaintext:                4444444444444444444444444444444444
Ciphertext:               3cc722a5e82a087e34fec44d7be261015fcc6236f8c48e83068613c098a9bb369b
Reciphers for ciphertext: 0
Decipheredtext:           4444444444444444444444444444444444
RESULT CIPHER-DECIPHER: -----OK-----


Test: 69
Data unit:   69
Start block: 139
Symmetric key bit length: 256
Plaintext bit length:     136
Symmetric key:            0000000000000000000000000000000000000000000000000000000000000000
Plaintext:                4545454545454545454545454545454545
Ciphertext:               bdb8c55a570d06af1bdb94d96e5234ccf74faba1291385f2ee6b0d896660cc7519
Reciphers for ciphertext: 0
Decipheredtext:           4545454545454545454545454545454545
RESULT CIPHER-DECIPHER: -----OK-----


Test: 70
Data unit:   70
Start block: 141
Symmetric key bit length: 256
Plaintext bit length:     136
Symmetric key:            0000000000000000000000000000000000000000000000000000000000000000
Plaintext:                4646464646464646464646464646464646
Ciphertext:               09e6f6649f4e6771633d37e2b6125a2fa752be6bc0a8140eb624c3d3ecd048179b
Reciphers for ciphertext: 0
Decipheredtext:           4646464646464646464646464646464646
RESULT CIPHER-DECIPHER: -----OK-----


Test: 71
Data unit:   71
Start block: 143
Symmetric key bit length: 256
Plaintext bit length:     136
Symmetric key:            0000000000000000000000000000000000000000000000000000000000000000
Plaintext:                4747474747474747474747474747474747
Ciphertext:               06c875d3703b16feae98fba00261f1592b853e438004654b70d9f34707261f95a7
Reciphers for ciphertext: 0
Decipheredtext:           4747474747474747474747474747474747
RESULT CIPHER-DECIPHER: -----OK-----


Test: 72
Data unit:   72
Start block: 145
Symmetric key bit length: 256
Plaintext bit length:     136
Symmetric key:            0000000000000000000000000000000000000000000000000000000000000000
Plaintext:                4848484848484848484848484848484848
Ciphertext:               b5e0ae0fa1435ddc443bd70e66dfffd0ff0ddeaa7e5a4fce9500bc0aa9a59c35ed
Reciphers for ciphertext: 0
Decipheredtext:           4848484848484848484848484848484848
RESULT CIPHER-DECIPHER: -----OK-----


Test: 73
Data unit:   73
Start block: 147
Symmetric key bit length: 256
Plaintext bit length:     136
Symmetric key:            0000000000000000000000000000000000000000000000000000000000000000
Plaintext:                4949494949494949494949494949494949
Ciphertext:               ee5b1e1fc8ccca46d658daf6f585283ddc01998404501caa34fd2e8d9f2d0aecbd
Reciphers for ciphertext: 0
Decipheredtext:           4949494949494949494949494949494949
RESULT CIPHER-DECIPHER: -----OK-----


Test: 74
Data unit:   74
Start block: 149
Symmetric key bit length: 256
Plaintext bit length:     136
Symmetric key:            0000000000000000000000000000000000000000000000000000000000000000
Plaintext:                4a4a4a4a4a4a4a4a4a4a4a4a4a4a4a4a4a
Ciphertext:               f397bb36a25c021849e6a1944eb4ad7dd829ee32aa3d091fe2b1c02913fdcc2481
Reciphers for ciphertext: 0
Decipheredtext:           4a4a4a4a4a4a4a4a4a4a4a4a4a4a4a4a4a
RESULT CIPHER-DECIPHER: -----OK-----


Test: 75
Data unit:   75
Start block: 151
Symmetric key bit length: 256
Plaintext bit length:     136
Symmetric key:            0000000000000000000000000000000000000000000000000000000000000000
Plaintext:                4b4b4b4b4b4b4b4b4b4b4b4b4b4b4b4b4b
Ciphertext:               0ecb5f7b9f48624de8d99cb2372d1a75fe65064c54d394d9b37289abe74a93cb25
Reciphers for ciphertext: 0
Decipheredtext:           4b4b4b4b4b4b4b4b4b4b4b4b4b4b4b4b4b
RESULT CIPHER-DECIPHER: -----OK-----


Test: 76
Data unit:   76
Start block: 153
Symmetric key bit length: 256
Plaintext bit length:     136
Symmetric key:            0000000000000000000000000000000000000000000000000000000000000000
Plaintext:                4c4c4c4c4c4c4c4c4c4c4c4c4c4c4c4c4c
Ciphertext:               a1397fcff491e74589892b4efd51537a22ed1e4c79c484248d3341fc46bee7cfc3
Reciphers for ciphertext: 0
Decipheredtext:           4c4c4c4c4c4c4c4c4c4c4c4c4c4c4c4c4c
RESULT CIPHER-DECIPHER: -----OK-----


Test: 77
Data unit:   77
Start block: 155
Symmetric key bit length: 256
Plaintext bit length:     136
Symmetric key:            0000000000000000000000000000000000000000000000000000000000000000
Plaintext:                4d4d4d4d4d4d4d4d4d4d4d4d4d4d4d4d4d
Ciphertext:               f638ae66d4638d291a2bc3d9dcf672f3d528b1b118903a97797e889b82cfccdc9a
Reciphers for ciphertext: 0
Decipheredtext:           4d4d4d4d4d4d4d4d4d4d4d4d4d4d4d4d4d
RESULT CIPHER-DECIPHER: -----OK-----


Test: 78
Data unit:   78
Start block: 157
Symmetric key bit length: 256
Plaintext bit length:     136
Symmetric key:            0000000000000000000000000000000000000000000000000000000000000000
Plaintext:                4e4e4e4e4e4e4e4e4e4e4e4e4e4e4e4e4e
Ciphertext:               bb74b95fb55a7f43d813556e4616b0742673341db74941f6b3b224ae3ec2b31c8f
Reciphers for ciphertext: 0
Decipheredtext:           4e4e4e4e4e4e4e4e4e4e4e4e4e4e4e4e4e
RESULT CIPHER-DECIPHER: -----OK-----


Test: 79
Data unit:   79
Start block: 159
Symmetric key bit length: 256
Plaintext bit length:     136
Symmetric key:            0000000000000000000000000000000000000000000000000000000000000000
Plaintext:                4f4f4f4f4f4f4f4f4f4f4f4f4f4f4f4f4f
Ciphertext:               bbb2b62e802dfdd9ac62a69da911148d1faf08eaa9cbbbbc82db1efc39f263853e
Reciphers for ciphertext: 0
Decipheredtext:           4f4f4f4f4f4f4f4f4f4f4f4f4f4f4f4f4f
RESULT CIPHER-DECIPHER: -----OK-----


Test: 80
Data unit:   80
Start block: 161
Symmetric key bit length: 256
Plaintext bit length:     136
Symmetric key:            0000000000000000000000000000000000000000000000000000000000000000
Plaintext:                5050505050505050505050505050505050
Ciphertext:               27496a973440847fe06eb39ccd6fece462d5f73f495d043daf0775e59fb1d0337e
Reciphers for ciphertext: 0
Decipheredtext:           5050505050505050505050505050505050
RESULT CIPHER-DECIPHER: -----OK-----


Test: 81
Data unit:   81
Start block: 163
Symmetric key bit length: 256
Plaintext bit length:     136
Symmetric key:            0000000000000000000000000000000000000000000000000000000000000000
Plaintext:                5151515151515151515151515151515151
Ciphertext:               525842e5dc4db6332932d505410862e4b6b358037610a75af7dc99385749c9fdd0
Reciphers for ciphertext: 0
Decipheredtext:           5151515151515151515151515151515151
RESULT CIPHER-DECIPHER: -----OK-----


Test: 82
Data unit:   82
Start block: 165
Symmetric key bit length: 256
Plaintext bit length:     136
Symmetric key:            0000000000000000000000000000000000000000000000000000000000000000
Plaintext:                5252525252525252525252525252525252
Ciphertext:               e85abcf751c658959318da7085c9a8f75110445fa6cfe5876c4d9e95f2a54eada9
Reciphers for ciphertext: 0
Decipheredtext:           5252525252525252525252525252525252
RESULT CIPHER-DECIPHER: -----OK-----


Test: 83
Data unit:   83
Start block: 167
Symmetric key bit length: 256
Plaintext bit length:     136
Symmetric key:            0000000000000000000000000000000000000000000000000000000000000000
Plaintext:                5353535353535353535353535353535353
Ciphertext:               c4565a1f842318694652886336fa456992460e0f241ee76136e7ab665c8674893e
Reciphers for ciphertext: 0
Decipheredtext:           5353535353535353535353535353535353
RESULT CIPHER-DECIPHER: -----OK-----


Test: 84
Data unit:   84
Start block: 169
Symmetric key bit length: 256
Plaintext bit length:     136
Symmetric key:            0000000000000000000000000000000000000000000000000000000000000000
Plaintext:                5454545454545454545454545454545454
Ciphertext:               d59489fc05860813d5a63dbb973908c0d7d965046c127dc3ecc0d4af942e4d812d
Reciphers for ciphertext: 0
Decipheredtext:           5454545454545454545454545454545454
RESULT CIPHER-DECIPHER: -----OK-----


Test: 85
Data unit:   85
Start block: 171
Symmetric key bit length: 256
Plaintext bit length:     136
Symmetric key:            0000000000000000000000000000000000000000000000000000000000000000
Plaintext:                5555555555555555555555555555555555
Ciphertext:               b1eec4c304d035c98946a56c6ca41e78fcbb9e21f89b4b1b3215b05d14f1e492fe
Reciphers for ciphertext: 0
Decipheredtext:           5555555555555555555555555555555555
RESULT CIPHER-DECIPHER: -----OK-----


Test: 86
Data unit:   86
Start block: 173
Symmetric key bit length: 256
Plaintext bit length:     136
Symmetric key:            0000000000000000000000000000000000000000000000000000000000000000
Plaintext:                5656565656565656565656565656565656
Ciphertext:               6d4947ff86dd7eb59b4d8abd8ebc87a09c3a1cf795065fc0caa373c88360522bb3
Reciphers for ciphertext: 0
Decipheredtext:           5656565656565656565656565656565656
RESULT CIPHER-DECIPHER: -----OK-----


Test: 87
Data unit:   87
Start block: 175
Symmetric key bit length: 256
Plaintext bit length:     136
Symmetric key:            0000000000000000000000000000000000000000000000000000000000000000
Plaintext:                5757575757575757575757575757575757
Ciphertext:               00c2c1c23064ea61ed89332b88347b92cafa108b7030a75e4f013653b53731f076
Reciphers for ciphertext: 0
Decipheredtext:           5757575757575757575757575757575757
RESULT CIPHER-DECIPHER: -----OK-----


Test: 88
Data unit:   88
Start block: 177
Symmetric key bit length: 256
Plaintext bit length:     136
Symmetric key:            0000000000000000000000000000000000000000000000000000000000000000
Plaintext:                5858585858585858585858585858585858
Ciphertext:               bbbb12d9268e90a77dd5bb9ca77be5beb43de1843df51df381152201551656fc15
Reciphers for ciphertext: 0
Decipheredtext:           5858585858585858585858585858585858
RESULT CIPHER-DECIPHER: -----OK-----


Test: 89
Data unit:   89
Start block: 179
Symmetric key bit length: 256
Plaintext bit length:     136
Symmetric key:            0000000000000000000000000000000000000000000000000000000000000000
Plaintext:                5959595959595959595959595959595959
Ciphertext:               f1aad22e3332031e39b8727779496b2e5890883b3cef6aac47bc87d6e912e37368
Reciphers for ciphertext: 0
Decipheredtext:           5959595959595959595959595959595959
RESULT CIPHER-DECIPHER: -----OK-----


Test: 90
Data unit:   90
Start block: 181
Symmetric key bit length: 256
Plaintext bit length:     136
Symmetric key:            0000000000000000000000000000000000000000000000000000000000000000
Plaintext:                5a5a5a5a5a5a5a5a5a5a5a5a5a5a5a5a5a
Ciphertext:               e7735bace838801fce4cf9e6023ebf3a74b99f4cbacc6d8de70bc1a529bbc73039
Reciphers for ciphertext: 0
Decipheredtext:           5a5a5a5a5a5a5a5a5a5a5a5a5a5a5a5a5a
RESULT CIPHER-DECIPHER: -----OK-----


Test: 91
Data unit:   91
Start block: 183
Symmetric key bit length: 256
Plaintext bit length:     136
Symmetric key:            0000000000000000000000000000000000000000000000000000000000000000
Plaintext:                5b5b5b5b5b5b5b5b5b5b5b5b5b5b5b5b5b
Ciphertext:               66a80f47b6f1dd34aa98e03fe39a81d2e2472d872a39467fda895364dce13ea9df
Reciphers for ciphertext: 0
Decipheredtext:           5b5b5b5b5b5b5b5b5b5b5b5b5b5b5b5b5b
RESULT CIPHER-DECIPHER: -----OK-----


Test: 92
Data unit:   92
Start block: 185
Symmetric key bit length: 256
Plaintext bit length:     136
Symmetric key:            0000000000000000000000000000000000000000000000000000000000000000
Plaintext:                5c5c5c5c5c5c5c5c5c5c5c5c5c5c5c5c5c
Ciphertext:               c1c2dc2f0ae7aa78b7955e910bab3e113866b148091b48d36b485224cbd6110e67
Reciphers for ciphertext: 0
Decipheredtext:           5c5c5c5c5c5c5c5c5c5c5c5c5c5c5c5c5c
RESULT CIPHER-DECIPHER: -----OK-----


Test: 93
Data unit:   93
Start block: 187
Symmetric key bit length: 256
Plaintext bit length:     136
Symmetric key:            0000000000000000000000000000000000000000000000000000000000000000
Plaintext:                5d5d5d5d5d5d5d5d5d5d5d5d5d5d5d5d5d
Ciphertext:               cb6d2d1c2f5d4b7c3e4cbbd24058b02166903136e11af69207ff326a3c705e7513
Reciphers for ciphertext: 0
Decipheredtext:           5d5d5d5d5d5d5d5d5d5d5d5d5d5d5d5d5d
RESULT CIPHER-DECIPHER: -----OK-----


Test: 94
Data unit:   94
Start block: 189
Symmetric key bit length: 256
Plaintext bit length:     136
Symmetric key:            0000000000000000000000000000000000000000000000000000000000000000
Plaintext:                5e5e5e5e5e5e5e5e5e5e5e5e5e5e5e5e5e
Ciphertext:               8f23975c2bdd3ed28241174198a1c01f2726114cf812852ecd484d1128398d71f3
Reciphers for ciphertext: 0
Decipheredtext:           5e5e5e5e5e5e5e5e5e5e5e5e5e5e5e5e5e
RESULT CIPHER-DECIPHER: -----OK-----


Test: 95
Data unit:   95
Start block: 191
Symmetric key bit length: 256
Plaintext bit length:     136
Symmetric key:            0000000000000000000000000000000000000000000000000000000000000000
Plaintext:                5f5f5f5f5f5f5f5f5f5f5f5f5f5f5f5f5f
Ciphertext:               a5fcbb1745c047fdda47a0659c24098898b94df2d215cadabf927fb62cfa22b240
Reciphers for ciphertext: 0
Decipheredtext:           5f5f5f5f5f5f5f5f5f5f5f5f5f5f5f5f5f
RESULT CIPHER-DECIPHER: -----OK-----


Test: 96
Data unit:   96
Start block: 193
Symmetric key bit length: 256
Plaintext bit length:     136
Symmetric key:            0000000000000000000000000000000000000000000000000000000000000000
Plaintext:                6060606060606060606060606060606060
Ciphertext:               d466ff881ac67b3ee28696afc936329c84de6f89ed080cc9ccf5fbec85239848b2
Reciphers for ciphertext: 0
Decipheredtext:           6060606060606060606060606060606060
RESULT CIPHER-DECIPHER: -----OK-----


Test: 97
Data unit:   97
Start block: 195
Symmetric key bit length: 256
Plaintext bit length:     136
Symmetric key:            0000000000000000000000000000000000000000000000000000000000000000
Plaintext:                6161616161616161616161616161616161
Ciphertext:               e31375d5adbd664ee83c4e009369f8a74659641b687d2598648a89e1373701bd27
Reciphers for ciphertext: 0
Decipheredtext:           6161616161616161616161616161616161
RESULT CIPHER-DECIPHER: -----OK-----


Test: 98
Data unit:   98
Start block: 197
Symmetric key bit length: 256
Plaintext bit length:     136
Symmetric key:            0000000000000000000000000000000000000000000000000000000000000000
Plaintext:                6262626262626262626262626262626262
Ciphertext:               da183809a62bc82a6289190e045b309188153f49505bd089bb1a38fbe7cd3dd02a
Reciphers for ciphertext: 0
Decipheredtext:           6262626262626262626262626262626262
RESULT CIPHER-DECIPHER: -----OK-----


Test: 99
Data unit:   99
Start block: 199
Symmetric key bit length: 256
Plaintext bit length:     136
Symmetric key:            0000000000000000000000000000000000000000000000000000000000000000
Plaintext:                6363636363636363636363636363636363
Ciphertext:               c9f185e48d3fd992351d6dcb6b6e9870dedb8b38d9cdabf8400f41c56a695c5336
Reciphers for ciphertext: 0
Decipheredtext:           6363636363636363636363636363636363
RESULT CIPHER-DECIPHER: -----OK-----


Test: 100
Data unit:   100
Start block: 201
Symmetric key bit length: 256
Plaintext bit length:     136
Symmetric key:            0000000000000000000000000000000000000000000000000000000000000000
Plaintext:                6464646464646464646464646464646464
Ciphertext:               b21be357f37dc2c2c5e18118fe42bd71cefc2a919dc1621e21678db6423b55a397
Reciphers for ciphertext: 0
Decipheredtext:           6464646464646464646464646464646464
RESULT CIPHER-DECIPHER: -----OK-----


Test: 101
Data unit:   101
Start block: 203
Symmetric key bit length: 256
Plaintext bit length:     136
Symmetric key:            0000000000000000000000000000000000000000000000000000000000000000
Plaintext:                6565656565656565656565656565656565
Ciphertext:               5249528e90f09f19312a4acb6c3b017188c1b0bfcef7c7681b5dc9676d974ad573
Reciphers for ciphertext: 0
Decipheredtext:           6565656565656565656565656565656565
RESULT CIPHER-DECIPHER: -----OK-----


Test: 102
Data unit:   102
Start block: 205
Symmetric key bit length: 256
Plaintext bit length:     136
Symmetric key:            0000000000000000000000000000000000000000000000000000000000000000
Plaintext:                6666666666666666666666666666666666
Ciphertext:               9ede631d2fd67ded5202f05f616dbe68deea1bacb493f0a7212bcb4256bbfeaab8
Reciphers for ciphertext: 0
Decipheredtext:           6666666666666666666666666666666666
RESULT CIPHER-DECIPHER: -----OK-----


Test: 103
Data unit:   103
Start block: 207
Symmetric key bit length: 256
Plaintext bit length:     136
Symmetric key:            0000000000000000000000000000000000000000000000000000000000000000
Plaintext:                6767676767676767676767676767676767
Ciphertext:               a54e5f95110b019d1d70e73fa09118a307544ccfad3706543b3a0fd8d03e99a240
Reciphers for ciphertext: 0
Decipheredtext:           6767676767676767676767676767676767
RESULT CIPHER-DECIPHER: -----OK-----


Test: 104
Data unit:   104
Start block: 209
Symmetric key bit length: 256
Plaintext bit length:     136
Symmetric key:            0000000000000000000000000000000000000000000000000000000000000000
Plaintext:                6868686868686868686868686868686868
Ciphertext:               3be28ddf21393e7aebeb292588f9fa0f8fcd026fc8f72c53cfea3ab0c5329c9124
Reciphers for ciphertext: 0
Decipheredtext:           6868686868686868686868686868686868
RESULT CIPHER-DECIPHER: -----OK-----


Test: 105
Data unit:   105
Start block: 211
Symmetric key bit length: 256
Plaintext bit length:     136
Symmetric key:            0000000000000000000000000000000000000000000000000000000000000000
Plaintext:                6969696969696969696969696969696969
Ciphertext:               36bffdd92b7f311c5ed29458e7ecac6361e017c313380e15f4aebbe0cf2a0c195d
Reciphers for ciphertext: 0
Decipheredtext:           6969696969696969696969696969696969
RESULT CIPHER-DECIPHER: -----OK-----


Test: 106
Data unit:   106
Start block: 213
Symmetric key bit length: 256
Plaintext bit length:     136
Symmetric key:            0000000000000000000000000000000000000000000000000000000000000000
Plaintext:                6a6a6a6a6a6a6a6a6a6a6a6a6a6a6a6a6a
Ciphertext:               53a016d5eebff91dc3287d5408ad59727f786964dc8aa2430b6ac0c2a88ce3b356
Reciphers for ciphertext: 0
Decipheredtext:           6a6a6a6a6a6a6a6a6a6a6a6a6a6a6a6a6a
RESULT CIPHER-DECIPHER: -----OK-----


Test: 107
Data unit:   107
Start block: 215
Symmetric key bit length: 256
Plaintext bit length:     136
Symmetric key:            0000000000000000000000000000000000000000000000000000000000000000
Plaintext:                6b6b6b6b6b6b6b6b6b6b6b6b6b6b6b6b6b
Ciphertext:               d7692fd04dcc7705a49d2f500df502058d64f5cc03da5e2b0d4dba8c55d097e623
Reciphers for ciphertext: 0
Decipheredtext:           6b6b6b6b6b6b6b6b6b6b6b6b6b6b6b6b6b
RESULT CIPHER-DECIPHER: -----OK-----


Test: 108
Data unit:   108
Start block: 217
Symmetric key bit length: 256
Plaintext bit length:     136
Symmetric key:            0000000000000000000000000000000000000000000000000000000000000000
Plaintext:                6c6c6c6c6c6c6c6c6c6c6c6c6c6c6c6c6c
Ciphertext:               356942cd0125a5f94343a81682c33d9fbdb2c6a3b63263116e668aca2963f038b2
Reciphers for ciphertext: 0
Decipheredtext:           6c6c6c6c6c6c6c6c6c6c6c6c6c6c6c6c6c
RESULT CIPHER-DECIPHER: -----OK-----


Test: 109
Data unit:   109
Start block: 219
Symmetric key bit length: 256
Plaintext bit length:     136
Symmetric key:            0000000000000000000000000000000000000000000000000000000000000000
Plaintext:                6d6d6d6d6d6d6d6d6d6d6d6d6d6d6d6d6d
Ciphertext:               31d9fe456660bf7e2ed75b880bcb491e8e8803efd3077b44147f5b0d0056c893c1
Reciphers for ciphertext: 0
Decipheredtext:           6d6d6d6d6d6d6d6d6d6d6d6d6d6d6d6d6d
RESULT CIPHER-DECIPHER: -----OK-----


Test: 110
Data unit:   110
Start block: 221
Symmetric key bit length: 256
Plaintext bit length:     136
Symmetric key:            0000000000000000000000000000000000000000000000000000000000000000
Plaintext:                6e6e6e6e6e6e6e6e6e6e6e6e6e6e6e6e6e
Ciphertext:               76d7d9e4997d1728e5969689e45b245ca22dfc3421ce98bdcee983ab4b39468308
Reciphers for ciphertext: 0
Decipheredtext:           6e6e6e6e6e6e6e6e6e6e6e6e6e6e6e6e6e
RESULT CIPHER-DECIPHER: -----OK-----


Test: 111
Data unit:   111
Start block: 223
Symmetric key bit length: 256
Plaintext bit length:     136
Symmetric key:            0000000000000000000000000000000000000000000000000000000000000000
Plaintext:                6f6f6f6f6f6f6f6f6f6f6f6f6f6f6f6f6f
Ciphertext:               19284c72abebd1f53688f4b74231f1cd673f1b916e29dd89a7a017618f03eadb2d
Reciphers for ciphertext: 0
Decipheredtext:           6f6f6f6f6f6f6f6f6f6f6f6f6f6f6f6f6f
RESULT CIPHER-DECIPHER: -----OK-----


Test: 112
Data unit:   112
Start block: 225
Symmetric key bit length: 256
Plaintext bit length:     136
Symmetric key:            0000000000000000000000000000000000000000000000000000000000000000
Plaintext:                7070707070707070707070707070707070
Ciphertext:               fcd1d89a4acba3396ad1eede800cebf364a9dee99721b547ed42ae553c1c7ab47a
Reciphers for ciphertext: 0
Decipheredtext:           7070707070707070707070707070707070
RESULT CIPHER-DECIPHER: -----OK-----


Test: 113
Data unit:   113
Start block: 227
Symmetric key bit length: 256
Plaintext bit length:     136
Symmetric key:            0000000000000000000000000000000000000000000000000000000000000000
Plaintext:                7171717171717171717171717171717171
Ciphertext:               0ac0ec86a47444acc5bd91e1df026c3cf6079cd4611fe2dcf05de499af1406183f
Reciphers for ciphertext: 0
Decipheredtext:           7171717171717171717171717171717171
RESULT CIPHER-DECIPHER: -----OK-----


Test: 114
Data unit:   114
Start block: 229
Symmetric key bit length: 256
Plaintext bit length:     136
Symmetric key:            0000000000000000000000000000000000000000000000000000000000000000
Plaintext:                7272727272727272727272727272727272
Ciphertext:               fdc32e463983e08a109edfa1c05d072ed34052b925706ebf9fe9f0c04e5677fb59
Reciphers for ciphertext: 0
Decipheredtext:           7272727272727272727272727272727272
RESULT CIPHER-DECIPHER: -----OK-----


Test: 115
Data unit:   115
Start block: 231
Symmetric key bit length: 256
Plaintext bit length:     136
Symmetric key:            0000000000000000000000000000000000000000000000000000000000000000
Plaintext:                7373737373737373737373737373737373
Ciphertext:               5cfdbc31e0cb80699bb0f13ca0235e6aec2aa54b52196c1abc9d794eee8fdf0fc2
Reciphers for ciphertext: 0
Decipheredtext:           7373737373737373737373737373737373
RESULT CIPHER-DECIPHER: -----OK-----


Test: 116
Data unit:   116
Start block: 233
Symmetric key bit length: 256
Plaintext bit length:     136
Symmetric key:            0000000000000000000000000000000000000000000000000000000000000000
Plaintext:                7474747474747474747474747474747474
Ciphertext:               5a169bf54f698b127ad0cb711318cbb38327a6885c32f2e23136058e0214c37a92
Reciphers for ciphertext: 0
Decipheredtext:           7474747474747474747474747474747474
RESULT CIPHER-DECIPHER: -----OK-----


Test: 117
Data unit:   117
Start block: 235
Symmetric key bit length: 256
Plaintext bit length:     136
Symmetric key:            0000000000000000000000000000000000000000000000000000000000000000
Plaintext:                7575757575757575757575757575757575
Ciphertext:               88132282d7a4f98d9371d2dc87cefa5ef108a5ddf66e1aa37436d3c76a6f81ad45
Reciphers for ciphertext: 0
Decipheredtext:           7575757575757575757575757575757575
RESULT CIPHER-DECIPHER: -----OK-----


Test: 118
Data unit:   118
Start block: 237
Symmetric key bit length: 256
Plaintext bit length:     136
Symmetric key:            0000000000000000000000000000000000000000000000000000000000000000
Plaintext:                7676767676767676767676767676767676
Ciphertext:               1e5ff836a0b987635846a5a075999b451890073d5f11e51304c572e13c2dcde397
Reciphers for ciphertext: 0
Decipheredtext:           7676767676767676767676767676767676
RESULT CIPHER-DECIPHER: -----OK-----


Test: 119
Data unit:   119
Start block: 239
Symmetric key bit length: 256
Plaintext bit length:     136
Symmetric key:            0000000000000000000000000000000000000000000000000000000000000000
Plaintext:                7777777777777777777777777777777777
Ciphertext:               840d82938e990a81baf660adff6c72e09d6c98c484f238c193140c5ae041bd2dbb
Reciphers for ciphertext: 0
Decipheredtext:           7777777777777777777777777777777777
RESULT CIPHER-DECIPHER: -----OK-----


Test: 120
Data unit:   120
Start block: 241
Symmetric key bit length: 256
Plaintext bit length:     136
Symmetric key:            0000000000000000000000000000000000000000000000000000000000000000
Plaintext:                7878787878787878787878787878787878
Ciphertext:               97c0cf51040143732db46c57cbd5a31fd98aac04241219d7d4e05fda08c6b8fc65
Reciphers for ciphertext: 0
Decipheredtext:           7878787878787878787878787878787878
RESULT CIPHER-DECIPHER: -----OK-----


Test: 121
Data unit:   121
Start block: 243
Symmetric key bit length: 256
Plaintext bit length:     136
Symmetric key:            0000000000000000000000000000000000000000000000000000000000000000
Plaintext:                7979797979797979797979797979797979
Ciphertext:               11a9a4bb046be5487b3d68e05158a629bf681b7f0594155b771b0b8f1f2f78e1e3
Reciphers for ciphertext: 0
Decipheredtext:           7979797979797979797979797979797979
RESULT CIPHER-DECIPHER: -----OK-----


Test: 122
Data unit:   122
Start block: 245
Symmetric key bit length: 256
Plaintext bit length:     136
Symmetric key:            0000000000000000000000000000000000000000000000000000000000000000
Plaintext:                7a7a7a7a7a7a7a7a7a7a7a7a7a7a7a7a7a
Ciphertext:               beb15d409f96de07cfe32e4423b613c6713da17ff417d7053e3b6171c6aaa37dc7
Reciphers for ciphertext: 0
Decipheredtext:           7a7a7a7a7a7a7a7a7a7a7a7a7a7a7a7a7a
RESULT CIPHER-DECIPHER: -----OK-----


Test: 123
Data unit:   123
Start block: 247
Symmetric key bit length: 256
Plaintext bit length:     136
Symmetric key:            0000000000000000000000000000000000000000000000000000000000000000
Plaintext:                7b7b7b7b7b7b7b7b7b7b7b7b7b7b7b7b7b
Ciphertext:               41ec118f0f48c2ced2307688af5f9f1c1e62afa23db8a3c69bbf8e36fa7a755847
Reciphers for ciphertext: 0
Decipheredtext:           7b7b7b7b7b7b7b7b7b7b7b7b7b7b7b7b7b
RESULT CIPHER-DECIPHER: -----OK-----


Test: 124
Data unit:   124
Start block: 249
Symmetric key bit length: 256
Plaintext bit length:     136
Symmetric key:            0000000000000000000000000000000000000000000000000000000000000000
Plaintext:                7c7c7c7c7c7c7c7c7c7c7c7c7c7c7c7c7c
Ciphertext:               dd14e67a517f3e8dd2e81890cbc8867ee6b6c921a5793b2d09e879e70fb86674e6
Reciphers for ciphertext: 0
Decipheredtext:           7c7c7c7c7c7c7c7c7c7c7c7c7c7c7c7c7c
RESULT CIPHER-DECIPHER: -----OK-----


Test: 125
Data unit:   125
Start block: 251
Symmetric key bit length: 256
Plaintext bit length:     136
Symmetric key:            0000000000000000000000000000000000000000000000000000000000000000
Plaintext:                7d7d7d7d7d7d7d7d7d7d7d7d7d7d7d7d7d
Ciphertext:               4a1dd08b7af3a463812a367f238b6a5f849d118e048e4dd4913d0b95a17cae9dcc
Reciphers for ciphertext: 0
Decipheredtext:           7d7d7d7d7d7d7d7d7d7d7d7d7d7d7d7d7d
RESULT CIPHER-DECIPHER: -----OK-----


Test: 126
Data unit:   126
Start block: 253
Symmetric key bit length: 256
Plaintext bit length:     136
Symmetric key:            0000000000000000000000000000000000000000000000000000000000000000
Plaintext:                7e7e7e7e7e7e7e7e7e7e7e7e7e7e7e7e7e
Ciphertext:               d6ac3a23dd48ff5dd9e91d5873373bc8f032cb94c6bcbca17b882f704ad72d39cc
Reciphers for ciphertext: 0
Decipheredtext:           7e7e7e7e7e7e7e7e7e7e7e7e7e7e7e7e7e
RESULT CIPHER-DECIPHER: -----OK-----


Test: 127
Data unit:   127
Start block: 255
Symmetric key bit length: 256
Plaintext bit length:     136
Symmetric key:            0000000000000000000000000000000000000000000000000000000000000000
Plaintext:                7f7f7f7f7f7f7f7f7f7f7f7f7f7f7f7f7f
Ciphertext:               03ef3429d362604583582d1f8742a04e058875765318e7a8a16104652a735c9620
Reciphers for ciphertext: 0
Decipheredtext:           7f7f7f7f7f7f7f7f7f7f7f7f7f7f7f7f7f
RESULT CIPHER-DECIPHER: -----OK-----


 DATA SHA1 (hexadecimal): 1256ac14e394202ef6b7a38ef1e7b96ffa544a43

