
DiceLock 9.0.0.1

 TEST COMPONENTS:
 ----------------
 DiceLock:           DiceLockXTSIndexed class
 Operation Mode:     XTS_Mode class
 Block Cipher:       Camellia192 class
 Key Modifier:       IncreaseBase0IndexModifier_6_0_0_1 class
   Index bit length: 128
 Random tests:       RandomTestSuite class
                     FrequencyTest class
                     BlockFrequencyTest class
                     CumulativeSumForwardTest class
                     LongestRunOfOnesTest class
                     RunsTest class
 Random alpha:       0.001

 VECTOR TEST: Test vector 4 - Plaintext all byte value 0xXX


##### INDIVIDUAL TESTS #####

Number tests: 128


Test: 0
Data unit:   0
Start block: 1
Symmetric key bit length: 384
Plaintext bit length:     136
Symmetric key:            000000000000000000000000000000000000000000000000000000000000000000000000000000000000000000000000
Plaintext:                0000000000000000000000000000000000
Ciphertext:               62b5b23b94cbbdf6579661879deace2e2590621e953d0e2f0575cfeb0a52895c62
Reciphers for ciphertext: 0
Decipheredtext:           0000000000000000000000000000000000
RESULT CIPHER-DECIPHER: -----OK-----


Test: 1
Data unit:   1
Start block: 3
Symmetric key bit length: 384
Plaintext bit length:     136
Symmetric key:            000000000000000000000000000000000000000000000000000000000000000000000000000000000000000000000000
Plaintext:                0101010101010101010101010101010101
Ciphertext:               0b4248b7a21010d3d96af414b4bdff2dad69dbb1a36f9f83599943be8a0833c01e
Reciphers for ciphertext: 0
Decipheredtext:           0101010101010101010101010101010101
RESULT CIPHER-DECIPHER: -----OK-----


Test: 2
Data unit:   2
Start block: 5
Symmetric key bit length: 384
Plaintext bit length:     136
Symmetric key:            000000000000000000000000000000000000000000000000000000000000000000000000000000000000000000000000
Plaintext:                0202020202020202020202020202020202
Ciphertext:               2ebb61f748a786613b7a2265b24750a490fb2b93c0fbc23039e01a1b9263ea4b9c
Reciphers for ciphertext: 0
Decipheredtext:           0202020202020202020202020202020202
RESULT CIPHER-DECIPHER: -----OK-----


Test: 3
Data unit:   3
Start block: 7
Symmetric key bit length: 384
Plaintext bit length:     136
Symmetric key:            000000000000000000000000000000000000000000000000000000000000000000000000000000000000000000000000
Plaintext:                0303030303030303030303030303030303
Ciphertext:               ac1ae5939e8680abaf32f339e110b7c0da1e2ffcb6f284544b4f4d74bd44879151
Reciphers for ciphertext: 0
Decipheredtext:           0303030303030303030303030303030303
RESULT CIPHER-DECIPHER: -----OK-----


Test: 4
Data unit:   4
Start block: 9
Symmetric key bit length: 384
Plaintext bit length:     136
Symmetric key:            000000000000000000000000000000000000000000000000000000000000000000000000000000000000000000000000
Plaintext:                0404040404040404040404040404040404
Ciphertext:               605e4f4fbf02febfad589964cbefcbb47566bcc1dc7c2bb30dbff2701556965c65
Reciphers for ciphertext: 0
Decipheredtext:           0404040404040404040404040404040404
RESULT CIPHER-DECIPHER: -----OK-----


Test: 5
Data unit:   5
Start block: 11
Symmetric key bit length: 384
Plaintext bit length:     136
Symmetric key:            000000000000000000000000000000000000000000000000000000000000000000000000000000000000000000000000
Plaintext:                0505050505050505050505050505050505
Ciphertext:               c0a66ebbd63c532679da6e176fcba6c8bc518eb6bc7187d13604d0c45633ee2005
Reciphers for ciphertext: 0
Decipheredtext:           0505050505050505050505050505050505
RESULT CIPHER-DECIPHER: -----OK-----


Test: 6
Data unit:   6
Start block: 13
Symmetric key bit length: 384
Plaintext bit length:     136
Symmetric key:            000000000000000000000000000000000000000000000000000000000000000000000000000000000000000000000000
Plaintext:                0606060606060606060606060606060606
Ciphertext:               6220796cea6d2f2859418a7d37842d86c02a7eede4f77922c74876fb52794a822d
Reciphers for ciphertext: 0
Decipheredtext:           0606060606060606060606060606060606
RESULT CIPHER-DECIPHER: -----OK-----


Test: 7
Data unit:   7
Start block: 15
Symmetric key bit length: 384
Plaintext bit length:     136
Symmetric key:            000000000000000000000000000000000000000000000000000000000000000000000000000000000000000000000000
Plaintext:                0707070707070707070707070707070707
Ciphertext:               e8a8b71bd5964b6fc1482f7ff6b14f92d5fb5ca0c55bc4c0c41607aed673a6e779
Reciphers for ciphertext: 0
Decipheredtext:           0707070707070707070707070707070707
RESULT CIPHER-DECIPHER: -----OK-----


Test: 8
Data unit:   8
Start block: 17
Symmetric key bit length: 384
Plaintext bit length:     136
Symmetric key:            000000000000000000000000000000000000000000000000000000000000000000000000000000000000000000000000
Plaintext:                0808080808080808080808080808080808
Ciphertext:               da4e3c41a34bfabe30702109bf91858ca6bbd21335ef4d89179983df0d19593c8b
Reciphers for ciphertext: 0
Decipheredtext:           0808080808080808080808080808080808
RESULT CIPHER-DECIPHER: -----OK-----


Test: 9
Data unit:   9
Start block: 19
Symmetric key bit length: 384
Plaintext bit length:     136
Symmetric key:            000000000000000000000000000000000000000000000000000000000000000000000000000000000000000000000000
Plaintext:                0909090909090909090909090909090909
Ciphertext:               136869e019be9e37befce144057d1e67c2ae7ae8a403e726f334b8fe638a66150c
Reciphers for ciphertext: 0
Decipheredtext:           0909090909090909090909090909090909
RESULT CIPHER-DECIPHER: -----OK-----


Test: 10
Data unit:   10
Start block: 21
Symmetric key bit length: 384
Plaintext bit length:     136
Symmetric key:            000000000000000000000000000000000000000000000000000000000000000000000000000000000000000000000000
Plaintext:                0a0a0a0a0a0a0a0a0a0a0a0a0a0a0a0a0a
Ciphertext:               a1d6a963a05d51359aca3c098c982cc90ae347ecfbb181c171d46fcae5f3cf2e48
Reciphers for ciphertext: 1
Decipheredtext:           0a0a0a0a0a0a0a0a0a0a0a0a0a0a0a0a0a
RESULT CIPHER-DECIPHER: -----OK-----


Test: 11
Data unit:   11
Start block: 23
Symmetric key bit length: 384
Plaintext bit length:     136
Symmetric key:            000000000000000000000000000000000000000000000000000000000000000000000000000000000000000000000000
Plaintext:                0b0b0b0b0b0b0b0b0b0b0b0b0b0b0b0b0b
Ciphertext:               78f0d4fd7011f816735b93a0ebee0b1cdb2cf532ec0639942c8ca7900b11c05610
Reciphers for ciphertext: 0
Decipheredtext:           0b0b0b0b0b0b0b0b0b0b0b0b0b0b0b0b0b
RESULT CIPHER-DECIPHER: -----OK-----


Test: 12
Data unit:   12
Start block: 25
Symmetric key bit length: 384
Plaintext bit length:     136
Symmetric key:            000000000000000000000000000000000000000000000000000000000000000000000000000000000000000000000000
Plaintext:                0c0c0c0c0c0c0c0c0c0c0c0c0c0c0c0c0c
Ciphertext:               92bb1b57a958cb768b41c5e8c80a94b4a64f1f3133fab5e15c1a7f390a9b698e72
Reciphers for ciphertext: 0
Decipheredtext:           0c0c0c0c0c0c0c0c0c0c0c0c0c0c0c0c0c
RESULT CIPHER-DECIPHER: -----OK-----


Test: 13
Data unit:   13
Start block: 27
Symmetric key bit length: 384
Plaintext bit length:     136
Symmetric key:            000000000000000000000000000000000000000000000000000000000000000000000000000000000000000000000000
Plaintext:                0d0d0d0d0d0d0d0d0d0d0d0d0d0d0d0d0d
Ciphertext:               7c1d9bb6c52c5ef25f184b7d1e21c47fca4ff459ad4ed9bac90744c5709e0d82a3
Reciphers for ciphertext: 0
Decipheredtext:           0d0d0d0d0d0d0d0d0d0d0d0d0d0d0d0d0d
RESULT CIPHER-DECIPHER: -----OK-----


Test: 14
Data unit:   14
Start block: 29
Symmetric key bit length: 384
Plaintext bit length:     136
Symmetric key:            000000000000000000000000000000000000000000000000000000000000000000000000000000000000000000000000
Plaintext:                0e0e0e0e0e0e0e0e0e0e0e0e0e0e0e0e0e
Ciphertext:               738abd9b283710b3013f23395a41c39d1c27dfdbf98b1d036c30573c3df8359800
Reciphers for ciphertext: 0
Decipheredtext:           0e0e0e0e0e0e0e0e0e0e0e0e0e0e0e0e0e
RESULT CIPHER-DECIPHER: -----OK-----


Test: 15
Data unit:   15
Start block: 31
Symmetric key bit length: 384
Plaintext bit length:     136
Symmetric key:            000000000000000000000000000000000000000000000000000000000000000000000000000000000000000000000000
Plaintext:                0f0f0f0f0f0f0f0f0f0f0f0f0f0f0f0f0f
Ciphertext:               a079b4e162c1cf0ba712772111ceb2a06391a77e7343f5d6f46ea582e4aab1ec6c
Reciphers for ciphertext: 0
Decipheredtext:           0f0f0f0f0f0f0f0f0f0f0f0f0f0f0f0f0f
RESULT CIPHER-DECIPHER: -----OK-----


Test: 16
Data unit:   16
Start block: 33
Symmetric key bit length: 384
Plaintext bit length:     136
Symmetric key:            000000000000000000000000000000000000000000000000000000000000000000000000000000000000000000000000
Plaintext:                1010101010101010101010101010101010
Ciphertext:               c3cf39fb18586c7c96fceebed29338781278df4b19c958d7a1e2161d998bf4e225
Reciphers for ciphertext: 0
Decipheredtext:           1010101010101010101010101010101010
RESULT CIPHER-DECIPHER: -----OK-----


Test: 17
Data unit:   17
Start block: 35
Symmetric key bit length: 384
Plaintext bit length:     136
Symmetric key:            000000000000000000000000000000000000000000000000000000000000000000000000000000000000000000000000
Plaintext:                1111111111111111111111111111111111
Ciphertext:               6a87bddee5c0bad7d71134e316b689fd058b3fb24176cc2a2286725236c4d8cc45
Reciphers for ciphertext: 0
Decipheredtext:           1111111111111111111111111111111111
RESULT CIPHER-DECIPHER: -----OK-----


Test: 18
Data unit:   18
Start block: 37
Symmetric key bit length: 384
Plaintext bit length:     136
Symmetric key:            000000000000000000000000000000000000000000000000000000000000000000000000000000000000000000000000
Plaintext:                1212121212121212121212121212121212
Ciphertext:               b4b23dd7b7e4069d597b25593f5215eb27255fcac4223d70b1467e4c1d89133a63
Reciphers for ciphertext: 0
Decipheredtext:           1212121212121212121212121212121212
RESULT CIPHER-DECIPHER: -----OK-----


Test: 19
Data unit:   19
Start block: 39
Symmetric key bit length: 384
Plaintext bit length:     136
Symmetric key:            000000000000000000000000000000000000000000000000000000000000000000000000000000000000000000000000
Plaintext:                1313131313131313131313131313131313
Ciphertext:               4825f461d3bf92a306de752292ca58cc3b2e7e543058b7f99295b23b07d62de1af
Reciphers for ciphertext: 1
Decipheredtext:           1313131313131313131313131313131313
RESULT CIPHER-DECIPHER: -----OK-----


Test: 20
Data unit:   20
Start block: 41
Symmetric key bit length: 384
Plaintext bit length:     136
Symmetric key:            000000000000000000000000000000000000000000000000000000000000000000000000000000000000000000000000
Plaintext:                1414141414141414141414141414141414
Ciphertext:               57c1dd5711870ff164bea6dadf31d8fdfb87c014a8d30e3a5848506f0bcacdeaa8
Reciphers for ciphertext: 0
Decipheredtext:           1414141414141414141414141414141414
RESULT CIPHER-DECIPHER: -----OK-----


Test: 21
Data unit:   21
Start block: 43
Symmetric key bit length: 384
Plaintext bit length:     136
Symmetric key:            000000000000000000000000000000000000000000000000000000000000000000000000000000000000000000000000
Plaintext:                1515151515151515151515151515151515
Ciphertext:               d90bc934251eeaf2844dada3fe93ac910c106791a3c87ebbdc9ece1af4dcf12719
Reciphers for ciphertext: 0
Decipheredtext:           1515151515151515151515151515151515
RESULT CIPHER-DECIPHER: -----OK-----


Test: 22
Data unit:   22
Start block: 45
Symmetric key bit length: 384
Plaintext bit length:     136
Symmetric key:            000000000000000000000000000000000000000000000000000000000000000000000000000000000000000000000000
Plaintext:                1616161616161616161616161616161616
Ciphertext:               a1523e81d24ee99bc5ed7d77623c614769d82adc46dab4ec722c32002486235704
Reciphers for ciphertext: 0
Decipheredtext:           1616161616161616161616161616161616
RESULT CIPHER-DECIPHER: -----OK-----


Test: 23
Data unit:   23
Start block: 47
Symmetric key bit length: 384
Plaintext bit length:     136
Symmetric key:            000000000000000000000000000000000000000000000000000000000000000000000000000000000000000000000000
Plaintext:                1717171717171717171717171717171717
Ciphertext:               b30fbfbf275240def890bcfbeb8daa88e9827a5509873f43e873d1ce781f6330db
Reciphers for ciphertext: 0
Decipheredtext:           1717171717171717171717171717171717
RESULT CIPHER-DECIPHER: -----OK-----


Test: 24
Data unit:   24
Start block: 49
Symmetric key bit length: 384
Plaintext bit length:     136
Symmetric key:            000000000000000000000000000000000000000000000000000000000000000000000000000000000000000000000000
Plaintext:                1818181818181818181818181818181818
Ciphertext:               23ff82cf172dab5633f342f6bcc3314dc4ae8604708b0159293de996e095719d34
Reciphers for ciphertext: 0
Decipheredtext:           1818181818181818181818181818181818
RESULT CIPHER-DECIPHER: -----OK-----


Test: 25
Data unit:   25
Start block: 51
Symmetric key bit length: 384
Plaintext bit length:     136
Symmetric key:            000000000000000000000000000000000000000000000000000000000000000000000000000000000000000000000000
Plaintext:                1919191919191919191919191919191919
Ciphertext:               9720d66d46937b995533a4e2b0db102787db2ea01461cb2ccb6267c3498269b75a
Reciphers for ciphertext: 0
Decipheredtext:           1919191919191919191919191919191919
RESULT CIPHER-DECIPHER: -----OK-----


Test: 26
Data unit:   26
Start block: 53
Symmetric key bit length: 384
Plaintext bit length:     136
Symmetric key:            000000000000000000000000000000000000000000000000000000000000000000000000000000000000000000000000
Plaintext:                1a1a1a1a1a1a1a1a1a1a1a1a1a1a1a1a1a
Ciphertext:               837c944a3026e20c0b5c0b2db80d0c733e5bb245ee36832d455f0f387db3e157df
Reciphers for ciphertext: 0
Decipheredtext:           1a1a1a1a1a1a1a1a1a1a1a1a1a1a1a1a1a
RESULT CIPHER-DECIPHER: -----OK-----


Test: 27
Data unit:   27
Start block: 55
Symmetric key bit length: 384
Plaintext bit length:     136
Symmetric key:            000000000000000000000000000000000000000000000000000000000000000000000000000000000000000000000000
Plaintext:                1b1b1b1b1b1b1b1b1b1b1b1b1b1b1b1b1b
Ciphertext:               baf9cb90ba6afa0542046ea22ce1f4f3fe23c409a3c6028911ba08965ac3b7b13d
Reciphers for ciphertext: 0
Decipheredtext:           1b1b1b1b1b1b1b1b1b1b1b1b1b1b1b1b1b
RESULT CIPHER-DECIPHER: -----OK-----


Test: 28
Data unit:   28
Start block: 57
Symmetric key bit length: 384
Plaintext bit length:     136
Symmetric key:            000000000000000000000000000000000000000000000000000000000000000000000000000000000000000000000000
Plaintext:                1c1c1c1c1c1c1c1c1c1c1c1c1c1c1c1c1c
Ciphertext:               5299bb769383982ecbfa18cfea5d16aa8ea11824458fbf4bf097a9be0168d0b40f
Reciphers for ciphertext: 0
Decipheredtext:           1c1c1c1c1c1c1c1c1c1c1c1c1c1c1c1c1c
RESULT CIPHER-DECIPHER: -----OK-----


Test: 29
Data unit:   29
Start block: 59
Symmetric key bit length: 384
Plaintext bit length:     136
Symmetric key:            000000000000000000000000000000000000000000000000000000000000000000000000000000000000000000000000
Plaintext:                1d1d1d1d1d1d1d1d1d1d1d1d1d1d1d1d1d
Ciphertext:               29624e5eaaec94086213129e7597f66f496ddbfc4c914d9d0821e5328ce78d7952
Reciphers for ciphertext: 0
Decipheredtext:           1d1d1d1d1d1d1d1d1d1d1d1d1d1d1d1d1d
RESULT CIPHER-DECIPHER: -----OK-----


Test: 30
Data unit:   30
Start block: 61
Symmetric key bit length: 384
Plaintext bit length:     136
Symmetric key:            000000000000000000000000000000000000000000000000000000000000000000000000000000000000000000000000
Plaintext:                1e1e1e1e1e1e1e1e1e1e1e1e1e1e1e1e1e
Ciphertext:               aa839ddb33c67c8ee5d111de81fb55e066d47d6f561f8e91093187db09c2dbd6bf
Reciphers for ciphertext: 0
Decipheredtext:           1e1e1e1e1e1e1e1e1e1e1e1e1e1e1e1e1e
RESULT CIPHER-DECIPHER: -----OK-----


Test: 31
Data unit:   31
Start block: 63
Symmetric key bit length: 384
Plaintext bit length:     136
Symmetric key:            000000000000000000000000000000000000000000000000000000000000000000000000000000000000000000000000
Plaintext:                1f1f1f1f1f1f1f1f1f1f1f1f1f1f1f1f1f
Ciphertext:               d769358141fb212f293f924d7bf29cb7f0fa8328d661c0acd8a39b075ada6564cf
Reciphers for ciphertext: 0
Decipheredtext:           1f1f1f1f1f1f1f1f1f1f1f1f1f1f1f1f1f
RESULT CIPHER-DECIPHER: -----OK-----


Test: 32
Data unit:   32
Start block: 65
Symmetric key bit length: 384
Plaintext bit length:     136
Symmetric key:            000000000000000000000000000000000000000000000000000000000000000000000000000000000000000000000000
Plaintext:                2020202020202020202020202020202020
Ciphertext:               5fe0d1d7a1b9071bd2269f90577fb39301838cb4f4f80f3a2451b4380d9ad68c48
Reciphers for ciphertext: 0
Decipheredtext:           2020202020202020202020202020202020
RESULT CIPHER-DECIPHER: -----OK-----


Test: 33
Data unit:   33
Start block: 67
Symmetric key bit length: 384
Plaintext bit length:     136
Symmetric key:            000000000000000000000000000000000000000000000000000000000000000000000000000000000000000000000000
Plaintext:                2121212121212121212121212121212121
Ciphertext:               6f96a8fd0865eaabacee9860ab6dc6cd671cd0c1ffffa2bc0e678571eb1bcd1cf6
Reciphers for ciphertext: 0
Decipheredtext:           2121212121212121212121212121212121
RESULT CIPHER-DECIPHER: -----OK-----


Test: 34
Data unit:   34
Start block: 69
Symmetric key bit length: 384
Plaintext bit length:     136
Symmetric key:            000000000000000000000000000000000000000000000000000000000000000000000000000000000000000000000000
Plaintext:                2222222222222222222222222222222222
Ciphertext:               a18c3e4d06f0a2f850b677cf40a4252830c37e4a3d1824eafc75bc0f01b88935db
Reciphers for ciphertext: 0
Decipheredtext:           2222222222222222222222222222222222
RESULT CIPHER-DECIPHER: -----OK-----


Test: 35
Data unit:   35
Start block: 71
Symmetric key bit length: 384
Plaintext bit length:     136
Symmetric key:            000000000000000000000000000000000000000000000000000000000000000000000000000000000000000000000000
Plaintext:                2323232323232323232323232323232323
Ciphertext:               64fea5590780cf7161bd9d5f74347cd9973da4900e82baec304ac8e52fc6f539d5
Reciphers for ciphertext: 0
Decipheredtext:           2323232323232323232323232323232323
RESULT CIPHER-DECIPHER: -----OK-----


Test: 36
Data unit:   36
Start block: 73
Symmetric key bit length: 384
Plaintext bit length:     136
Symmetric key:            000000000000000000000000000000000000000000000000000000000000000000000000000000000000000000000000
Plaintext:                2424242424242424242424242424242424
Ciphertext:               0f16c1e944e20c9e0d55751a52ab4e232896f1771fb589a3660b8c6328045569e0
Reciphers for ciphertext: 0
Decipheredtext:           2424242424242424242424242424242424
RESULT CIPHER-DECIPHER: -----OK-----


Test: 37
Data unit:   37
Start block: 75
Symmetric key bit length: 384
Plaintext bit length:     136
Symmetric key:            000000000000000000000000000000000000000000000000000000000000000000000000000000000000000000000000
Plaintext:                2525252525252525252525252525252525
Ciphertext:               d68bdb0ce96c928d941ee7c9bc1048f8efc1d4b0747892fc9d57c73e9280db0173
Reciphers for ciphertext: 0
Decipheredtext:           2525252525252525252525252525252525
RESULT CIPHER-DECIPHER: -----OK-----


Test: 38
Data unit:   38
Start block: 77
Symmetric key bit length: 384
Plaintext bit length:     136
Symmetric key:            000000000000000000000000000000000000000000000000000000000000000000000000000000000000000000000000
Plaintext:                2626262626262626262626262626262626
Ciphertext:               63db31793dbde7461ab51de16419c1eca3093b0b5003132bc3428d2fe7d72aaf2a
Reciphers for ciphertext: 0
Decipheredtext:           2626262626262626262626262626262626
RESULT CIPHER-DECIPHER: -----OK-----


Test: 39
Data unit:   39
Start block: 79
Symmetric key bit length: 384
Plaintext bit length:     136
Symmetric key:            000000000000000000000000000000000000000000000000000000000000000000000000000000000000000000000000
Plaintext:                2727272727272727272727272727272727
Ciphertext:               a3460b9fc0d0e86a5b1a920a9c082085481fd8f1ac48ce6f61c31f27920333ea3d
Reciphers for ciphertext: 0
Decipheredtext:           2727272727272727272727272727272727
RESULT CIPHER-DECIPHER: -----OK-----


Test: 40
Data unit:   40
Start block: 81
Symmetric key bit length: 384
Plaintext bit length:     136
Symmetric key:            000000000000000000000000000000000000000000000000000000000000000000000000000000000000000000000000
Plaintext:                2828282828282828282828282828282828
Ciphertext:               71b0d346e4dff4f2ae6832d712f385edb2c853954a55d0ff70fe58d920940cfadf
Reciphers for ciphertext: 0
Decipheredtext:           2828282828282828282828282828282828
RESULT CIPHER-DECIPHER: -----OK-----


Test: 41
Data unit:   41
Start block: 83
Symmetric key bit length: 384
Plaintext bit length:     136
Symmetric key:            000000000000000000000000000000000000000000000000000000000000000000000000000000000000000000000000
Plaintext:                2929292929292929292929292929292929
Ciphertext:               14fae5bb4fa3b70295c9d67814afa6f1f8b301a70a64564dd3addeecf8ddca07de
Reciphers for ciphertext: 0
Decipheredtext:           2929292929292929292929292929292929
RESULT CIPHER-DECIPHER: -----OK-----


Test: 42
Data unit:   42
Start block: 85
Symmetric key bit length: 384
Plaintext bit length:     136
Symmetric key:            000000000000000000000000000000000000000000000000000000000000000000000000000000000000000000000000
Plaintext:                2a2a2a2a2a2a2a2a2a2a2a2a2a2a2a2a2a
Ciphertext:               dbbb1f58af856903700069c18188064de3e0fbefbb0b3fb4fcfc2dda61ec05f5d8
Reciphers for ciphertext: 0
Decipheredtext:           2a2a2a2a2a2a2a2a2a2a2a2a2a2a2a2a2a
RESULT CIPHER-DECIPHER: -----OK-----


Test: 43
Data unit:   43
Start block: 87
Symmetric key bit length: 384
Plaintext bit length:     136
Symmetric key:            000000000000000000000000000000000000000000000000000000000000000000000000000000000000000000000000
Plaintext:                2b2b2b2b2b2b2b2b2b2b2b2b2b2b2b2b2b
Ciphertext:               50ed2332914c437c3c74b12d63b716185a136c0e29f17b43e598447fbdeb742cc1
Reciphers for ciphertext: 0
Decipheredtext:           2b2b2b2b2b2b2b2b2b2b2b2b2b2b2b2b2b
RESULT CIPHER-DECIPHER: -----OK-----


Test: 44
Data unit:   44
Start block: 89
Symmetric key bit length: 384
Plaintext bit length:     136
Symmetric key:            000000000000000000000000000000000000000000000000000000000000000000000000000000000000000000000000
Plaintext:                2c2c2c2c2c2c2c2c2c2c2c2c2c2c2c2c2c
Ciphertext:               341fb5fe1a2f86ae3088291cf25fada34962e37f4b56c1118f50814f5b4453a977
Reciphers for ciphertext: 0
Decipheredtext:           2c2c2c2c2c2c2c2c2c2c2c2c2c2c2c2c2c
RESULT CIPHER-DECIPHER: -----OK-----


Test: 45
Data unit:   45
Start block: 91
Symmetric key bit length: 384
Plaintext bit length:     136
Symmetric key:            000000000000000000000000000000000000000000000000000000000000000000000000000000000000000000000000
Plaintext:                2d2d2d2d2d2d2d2d2d2d2d2d2d2d2d2d2d
Ciphertext:               bbd43fb5be06505c94b7f4154abb413466c1157a9aaf92fa2ce13d2c384288fb78
Reciphers for ciphertext: 0
Decipheredtext:           2d2d2d2d2d2d2d2d2d2d2d2d2d2d2d2d2d
RESULT CIPHER-DECIPHER: -----OK-----


Test: 46
Data unit:   46
Start block: 93
Symmetric key bit length: 384
Plaintext bit length:     136
Symmetric key:            000000000000000000000000000000000000000000000000000000000000000000000000000000000000000000000000
Plaintext:                2e2e2e2e2e2e2e2e2e2e2e2e2e2e2e2e2e
Ciphertext:               7810d215860849b9086ebbaa750e19958698f07a9fc3bca79a45d51054d471698a
Reciphers for ciphertext: 0
Decipheredtext:           2e2e2e2e2e2e2e2e2e2e2e2e2e2e2e2e2e
RESULT CIPHER-DECIPHER: -----OK-----


Test: 47
Data unit:   47
Start block: 95
Symmetric key bit length: 384
Plaintext bit length:     136
Symmetric key:            000000000000000000000000000000000000000000000000000000000000000000000000000000000000000000000000
Plaintext:                2f2f2f2f2f2f2f2f2f2f2f2f2f2f2f2f2f
Ciphertext:               a27c2a74c82a93afd49cf85c4847d77dc8c61be8f6d7c257f7c5349f74fbceec30
Reciphers for ciphertext: 0
Decipheredtext:           2f2f2f2f2f2f2f2f2f2f2f2f2f2f2f2f2f
RESULT CIPHER-DECIPHER: -----OK-----


Test: 48
Data unit:   48
Start block: 97
Symmetric key bit length: 384
Plaintext bit length:     136
Symmetric key:            000000000000000000000000000000000000000000000000000000000000000000000000000000000000000000000000
Plaintext:                3030303030303030303030303030303030
Ciphertext:               fa70e05bf1c521cd21f0f9578df21cc633f328f25e95f6b839f287a461a105234f
Reciphers for ciphertext: 0
Decipheredtext:           3030303030303030303030303030303030
RESULT CIPHER-DECIPHER: -----OK-----


Test: 49
Data unit:   49
Start block: 99
Symmetric key bit length: 384
Plaintext bit length:     136
Symmetric key:            000000000000000000000000000000000000000000000000000000000000000000000000000000000000000000000000
Plaintext:                3131313131313131313131313131313131
Ciphertext:               687ffedf3830a1d6bbb76e51d85a32700a6a82bd81d3884233f565e53dd641ca48
Reciphers for ciphertext: 0
Decipheredtext:           3131313131313131313131313131313131
RESULT CIPHER-DECIPHER: -----OK-----


Test: 50
Data unit:   50
Start block: 101
Symmetric key bit length: 384
Plaintext bit length:     136
Symmetric key:            000000000000000000000000000000000000000000000000000000000000000000000000000000000000000000000000
Plaintext:                3232323232323232323232323232323232
Ciphertext:               c43f723ceeaf030b22867784bcc5bcfa09ed49631c0ae334e5249d4698b895e55c
Reciphers for ciphertext: 0
Decipheredtext:           3232323232323232323232323232323232
RESULT CIPHER-DECIPHER: -----OK-----


Test: 51
Data unit:   51
Start block: 103
Symmetric key bit length: 384
Plaintext bit length:     136
Symmetric key:            000000000000000000000000000000000000000000000000000000000000000000000000000000000000000000000000
Plaintext:                3333333333333333333333333333333333
Ciphertext:               64c40edf8c3fd709902cf3dbfe132341ee6b1d87efb2b86fe7e2152948f59a3a78
Reciphers for ciphertext: 0
Decipheredtext:           3333333333333333333333333333333333
RESULT CIPHER-DECIPHER: -----OK-----


Test: 52
Data unit:   52
Start block: 105
Symmetric key bit length: 384
Plaintext bit length:     136
Symmetric key:            000000000000000000000000000000000000000000000000000000000000000000000000000000000000000000000000
Plaintext:                3434343434343434343434343434343434
Ciphertext:               4b72e55d3356b07132796844b1f637ef578e4927b897599d76668d34968a70fe45
Reciphers for ciphertext: 0
Decipheredtext:           3434343434343434343434343434343434
RESULT CIPHER-DECIPHER: -----OK-----


Test: 53
Data unit:   53
Start block: 107
Symmetric key bit length: 384
Plaintext bit length:     136
Symmetric key:            000000000000000000000000000000000000000000000000000000000000000000000000000000000000000000000000
Plaintext:                3535353535353535353535353535353535
Ciphertext:               26234e744e271fc7021a2d3d0503d72071a4c73ef5225b1176c95ec55af2b7ada2
Reciphers for ciphertext: 0
Decipheredtext:           3535353535353535353535353535353535
RESULT CIPHER-DECIPHER: -----OK-----


Test: 54
Data unit:   54
Start block: 109
Symmetric key bit length: 384
Plaintext bit length:     136
Symmetric key:            000000000000000000000000000000000000000000000000000000000000000000000000000000000000000000000000
Plaintext:                3636363636363636363636363636363636
Ciphertext:               6ecdee432050f9e4ebb14ff6cc420f97d5ad489ac4495077c45db8c9b2617cd15d
Reciphers for ciphertext: 0
Decipheredtext:           3636363636363636363636363636363636
RESULT CIPHER-DECIPHER: -----OK-----


Test: 55
Data unit:   55
Start block: 111
Symmetric key bit length: 384
Plaintext bit length:     136
Symmetric key:            000000000000000000000000000000000000000000000000000000000000000000000000000000000000000000000000
Plaintext:                3737373737373737373737373737373737
Ciphertext:               3870fefeefca8a39e032941d78fb6afd66a1b586845e970d6ea0112b661019dc2e
Reciphers for ciphertext: 0
Decipheredtext:           3737373737373737373737373737373737
RESULT CIPHER-DECIPHER: -----OK-----


Test: 56
Data unit:   56
Start block: 113
Symmetric key bit length: 384
Plaintext bit length:     136
Symmetric key:            000000000000000000000000000000000000000000000000000000000000000000000000000000000000000000000000
Plaintext:                3838383838383838383838383838383838
Ciphertext:               b05eec94d2ef03fed192be7f209b40ad070e4db9e95bfbf672b0cba00f317fbe93
Reciphers for ciphertext: 0
Decipheredtext:           3838383838383838383838383838383838
RESULT CIPHER-DECIPHER: -----OK-----


Test: 57
Data unit:   57
Start block: 115
Symmetric key bit length: 384
Plaintext bit length:     136
Symmetric key:            000000000000000000000000000000000000000000000000000000000000000000000000000000000000000000000000
Plaintext:                3939393939393939393939393939393939
Ciphertext:               e03ea1121b726e633ba1f10d41d5e5712346879c3017988563acc2536a9780494d
Reciphers for ciphertext: 0
Decipheredtext:           3939393939393939393939393939393939
RESULT CIPHER-DECIPHER: -----OK-----


Test: 58
Data unit:   58
Start block: 117
Symmetric key bit length: 384
Plaintext bit length:     136
Symmetric key:            000000000000000000000000000000000000000000000000000000000000000000000000000000000000000000000000
Plaintext:                3a3a3a3a3a3a3a3a3a3a3a3a3a3a3a3a3a
Ciphertext:               336cd125eafcb1351b63ddc05f8fee431e050fce1a5b5e4c876addb0a335051dd9
Reciphers for ciphertext: 0
Decipheredtext:           3a3a3a3a3a3a3a3a3a3a3a3a3a3a3a3a3a
RESULT CIPHER-DECIPHER: -----OK-----


Test: 59
Data unit:   59
Start block: 119
Symmetric key bit length: 384
Plaintext bit length:     136
Symmetric key:            000000000000000000000000000000000000000000000000000000000000000000000000000000000000000000000000
Plaintext:                3b3b3b3b3b3b3b3b3b3b3b3b3b3b3b3b3b
Ciphertext:               b567c7c204834c10f0a02112d6d8ed1af2751a9fdfefe85de240e4d4b5de9e8a5c
Reciphers for ciphertext: 0
Decipheredtext:           3b3b3b3b3b3b3b3b3b3b3b3b3b3b3b3b3b
RESULT CIPHER-DECIPHER: -----OK-----


Test: 60
Data unit:   60
Start block: 121
Symmetric key bit length: 384
Plaintext bit length:     136
Symmetric key:            000000000000000000000000000000000000000000000000000000000000000000000000000000000000000000000000
Plaintext:                3c3c3c3c3c3c3c3c3c3c3c3c3c3c3c3c3c
Ciphertext:               0f2c8f5ef917e956e99822e117163a1b638fa73caf258e59d19159523687b8a7f0
Reciphers for ciphertext: 0
Decipheredtext:           3c3c3c3c3c3c3c3c3c3c3c3c3c3c3c3c3c
RESULT CIPHER-DECIPHER: -----OK-----


Test: 61
Data unit:   61
Start block: 123
Symmetric key bit length: 384
Plaintext bit length:     136
Symmetric key:            000000000000000000000000000000000000000000000000000000000000000000000000000000000000000000000000
Plaintext:                3d3d3d3d3d3d3d3d3d3d3d3d3d3d3d3d3d
Ciphertext:               5515c08d47befed11d0d0b6292f0c9ab9486286db7d9b66986bf0ea06f23389ad8
Reciphers for ciphertext: 0
Decipheredtext:           3d3d3d3d3d3d3d3d3d3d3d3d3d3d3d3d3d
RESULT CIPHER-DECIPHER: -----OK-----


Test: 62
Data unit:   62
Start block: 125
Symmetric key bit length: 384
Plaintext bit length:     136
Symmetric key:            000000000000000000000000000000000000000000000000000000000000000000000000000000000000000000000000
Plaintext:                3e3e3e3e3e3e3e3e3e3e3e3e3e3e3e3e3e
Ciphertext:               d7348f30116e252abf6c8eb6455451f4d39d9c230541945246ca16c009ae18500e
Reciphers for ciphertext: 0
Decipheredtext:           3e3e3e3e3e3e3e3e3e3e3e3e3e3e3e3e3e
RESULT CIPHER-DECIPHER: -----OK-----


Test: 63
Data unit:   63
Start block: 127
Symmetric key bit length: 384
Plaintext bit length:     136
Symmetric key:            000000000000000000000000000000000000000000000000000000000000000000000000000000000000000000000000
Plaintext:                3f3f3f3f3f3f3f3f3f3f3f3f3f3f3f3f3f
Ciphertext:               51c5e7daa3ad19bbf5babcec6a5fefb76c3cef340eaf86123eafe7277bcd2450d1
Reciphers for ciphertext: 0
Decipheredtext:           3f3f3f3f3f3f3f3f3f3f3f3f3f3f3f3f3f
RESULT CIPHER-DECIPHER: -----OK-----


Test: 64
Data unit:   64
Start block: 129
Symmetric key bit length: 384
Plaintext bit length:     136
Symmetric key:            000000000000000000000000000000000000000000000000000000000000000000000000000000000000000000000000
Plaintext:                4040404040404040404040404040404040
Ciphertext:               5e1c92cc25d74f0e7d63cb6139c8a4ee9cf76b479310d641264fdd28165fc943f9
Reciphers for ciphertext: 0
Decipheredtext:           4040404040404040404040404040404040
RESULT CIPHER-DECIPHER: -----OK-----


Test: 65
Data unit:   65
Start block: 131
Symmetric key bit length: 384
Plaintext bit length:     136
Symmetric key:            000000000000000000000000000000000000000000000000000000000000000000000000000000000000000000000000
Plaintext:                4141414141414141414141414141414141
Ciphertext:               473ca46217db54b07d6a42523add0696596054f8e504f7bc4afab2a79e8513a6c2
Reciphers for ciphertext: 0
Decipheredtext:           4141414141414141414141414141414141
RESULT CIPHER-DECIPHER: -----OK-----


Test: 66
Data unit:   66
Start block: 133
Symmetric key bit length: 384
Plaintext bit length:     136
Symmetric key:            000000000000000000000000000000000000000000000000000000000000000000000000000000000000000000000000
Plaintext:                4242424242424242424242424242424242
Ciphertext:               d884da4f2b66ff128f5cd23c351436abc8c0a33fefa8af35069153ab0100f66889
Reciphers for ciphertext: 0
Decipheredtext:           4242424242424242424242424242424242
RESULT CIPHER-DECIPHER: -----OK-----


Test: 67
Data unit:   67
Start block: 135
Symmetric key bit length: 384
Plaintext bit length:     136
Symmetric key:            000000000000000000000000000000000000000000000000000000000000000000000000000000000000000000000000
Plaintext:                4343434343434343434343434343434343
Ciphertext:               5ecec3a0f6f0422625e275e61d40838556dcb53ae8e43798e90d2421203815717b
Reciphers for ciphertext: 0
Decipheredtext:           4343434343434343434343434343434343
RESULT CIPHER-DECIPHER: -----OK-----


Test: 68
Data unit:   68
Start block: 137
Symmetric key bit length: 384
Plaintext bit length:     136
Symmetric key:            000000000000000000000000000000000000000000000000000000000000000000000000000000000000000000000000
Plaintext:                4444444444444444444444444444444444
Ciphertext:               e34632c001ff6172655eee32cf3a34db6661f10263aabcc12611fa5a9c854ce34c
Reciphers for ciphertext: 0
Decipheredtext:           4444444444444444444444444444444444
RESULT CIPHER-DECIPHER: -----OK-----


Test: 69
Data unit:   69
Start block: 139
Symmetric key bit length: 384
Plaintext bit length:     136
Symmetric key:            000000000000000000000000000000000000000000000000000000000000000000000000000000000000000000000000
Plaintext:                4545454545454545454545454545454545
Ciphertext:               6e2542a9a85b00cca812ffc7be2bd9e78da6829f224693f02d48c90a42a8d0c6d2
Reciphers for ciphertext: 0
Decipheredtext:           4545454545454545454545454545454545
RESULT CIPHER-DECIPHER: -----OK-----


Test: 70
Data unit:   70
Start block: 141
Symmetric key bit length: 384
Plaintext bit length:     136
Symmetric key:            000000000000000000000000000000000000000000000000000000000000000000000000000000000000000000000000
Plaintext:                4646464646464646464646464646464646
Ciphertext:               147a53c2f5620f4f5b05c6893715d1ad842e03308860451622eee367994d76518a
Reciphers for ciphertext: 0
Decipheredtext:           4646464646464646464646464646464646
RESULT CIPHER-DECIPHER: -----OK-----


Test: 71
Data unit:   71
Start block: 143
Symmetric key bit length: 384
Plaintext bit length:     136
Symmetric key:            000000000000000000000000000000000000000000000000000000000000000000000000000000000000000000000000
Plaintext:                4747474747474747474747474747474747
Ciphertext:               fbefe84df692068b1ee38997b6a1fd6dcb611b3ba2bbc2fc63fa659cc2b2558f70
Reciphers for ciphertext: 0
Decipheredtext:           4747474747474747474747474747474747
RESULT CIPHER-DECIPHER: -----OK-----


Test: 72
Data unit:   72
Start block: 145
Symmetric key bit length: 384
Plaintext bit length:     136
Symmetric key:            000000000000000000000000000000000000000000000000000000000000000000000000000000000000000000000000
Plaintext:                4848484848484848484848484848484848
Ciphertext:               a8b134f402f9d80f44ecf2bfad2d0a3180787bae018f68d90471bae0e51ecdb321
Reciphers for ciphertext: 0
Decipheredtext:           4848484848484848484848484848484848
RESULT CIPHER-DECIPHER: -----OK-----


Test: 73
Data unit:   73
Start block: 147
Symmetric key bit length: 384
Plaintext bit length:     136
Symmetric key:            000000000000000000000000000000000000000000000000000000000000000000000000000000000000000000000000
Plaintext:                4949494949494949494949494949494949
Ciphertext:               537adaf62f8d6e1cb86a861348ec2baefcd1bd99aa71fcee7817e3463eeaba468a
Reciphers for ciphertext: 0
Decipheredtext:           4949494949494949494949494949494949
RESULT CIPHER-DECIPHER: -----OK-----


Test: 74
Data unit:   74
Start block: 149
Symmetric key bit length: 384
Plaintext bit length:     136
Symmetric key:            000000000000000000000000000000000000000000000000000000000000000000000000000000000000000000000000
Plaintext:                4a4a4a4a4a4a4a4a4a4a4a4a4a4a4a4a4a
Ciphertext:               1da60ed4ebb1f06c956de5573b172deaa44bb9913333757b794b0dd6895e38aeb8
Reciphers for ciphertext: 0
Decipheredtext:           4a4a4a4a4a4a4a4a4a4a4a4a4a4a4a4a4a
RESULT CIPHER-DECIPHER: -----OK-----


Test: 75
Data unit:   75
Start block: 151
Symmetric key bit length: 384
Plaintext bit length:     136
Symmetric key:            000000000000000000000000000000000000000000000000000000000000000000000000000000000000000000000000
Plaintext:                4b4b4b4b4b4b4b4b4b4b4b4b4b4b4b4b4b
Ciphertext:               fd71776c1b2b0ba6012575cd3a362b2007733462b5df93f0297313e16520705294
Reciphers for ciphertext: 0
Decipheredtext:           4b4b4b4b4b4b4b4b4b4b4b4b4b4b4b4b4b
RESULT CIPHER-DECIPHER: -----OK-----


Test: 76
Data unit:   76
Start block: 153
Symmetric key bit length: 384
Plaintext bit length:     136
Symmetric key:            000000000000000000000000000000000000000000000000000000000000000000000000000000000000000000000000
Plaintext:                4c4c4c4c4c4c4c4c4c4c4c4c4c4c4c4c4c
Ciphertext:               6c6b421c32de5d60e12a4235e1506fd002fc3ddc4d0668bb003d927d3665e22cf6
Reciphers for ciphertext: 0
Decipheredtext:           4c4c4c4c4c4c4c4c4c4c4c4c4c4c4c4c4c
RESULT CIPHER-DECIPHER: -----OK-----


Test: 77
Data unit:   77
Start block: 155
Symmetric key bit length: 384
Plaintext bit length:     136
Symmetric key:            000000000000000000000000000000000000000000000000000000000000000000000000000000000000000000000000
Plaintext:                4d4d4d4d4d4d4d4d4d4d4d4d4d4d4d4d4d
Ciphertext:               b55da08bafa6aeac32ef14efc22d4124f42af45dbb16a7c132cc98d3531457d13d
Reciphers for ciphertext: 0
Decipheredtext:           4d4d4d4d4d4d4d4d4d4d4d4d4d4d4d4d4d
RESULT CIPHER-DECIPHER: -----OK-----


Test: 78
Data unit:   78
Start block: 157
Symmetric key bit length: 384
Plaintext bit length:     136
Symmetric key:            000000000000000000000000000000000000000000000000000000000000000000000000000000000000000000000000
Plaintext:                4e4e4e4e4e4e4e4e4e4e4e4e4e4e4e4e4e
Ciphertext:               7e0e33356ebcc9572b4bf71f125e44490ca7f3930166c228e7c46b17034bfb2128
Reciphers for ciphertext: 0
Decipheredtext:           4e4e4e4e4e4e4e4e4e4e4e4e4e4e4e4e4e
RESULT CIPHER-DECIPHER: -----OK-----


Test: 79
Data unit:   79
Start block: 159
Symmetric key bit length: 384
Plaintext bit length:     136
Symmetric key:            000000000000000000000000000000000000000000000000000000000000000000000000000000000000000000000000
Plaintext:                4f4f4f4f4f4f4f4f4f4f4f4f4f4f4f4f4f
Ciphertext:               158b243a52741f989b44307664563cce35f7dc1e5a586d0cfa893e68552bc93587
Reciphers for ciphertext: 0
Decipheredtext:           4f4f4f4f4f4f4f4f4f4f4f4f4f4f4f4f4f
RESULT CIPHER-DECIPHER: -----OK-----


Test: 80
Data unit:   80
Start block: 161
Symmetric key bit length: 384
Plaintext bit length:     136
Symmetric key:            000000000000000000000000000000000000000000000000000000000000000000000000000000000000000000000000
Plaintext:                5050505050505050505050505050505050
Ciphertext:               7becf32fe8fa4632e9efdf30c8642951a785c4c7a66684485ee1d4d66d9294287c
Reciphers for ciphertext: 0
Decipheredtext:           5050505050505050505050505050505050
RESULT CIPHER-DECIPHER: -----OK-----


Test: 81
Data unit:   81
Start block: 163
Symmetric key bit length: 384
Plaintext bit length:     136
Symmetric key:            000000000000000000000000000000000000000000000000000000000000000000000000000000000000000000000000
Plaintext:                5151515151515151515151515151515151
Ciphertext:               2ff0ca433cbf724c686aed4d1947eb6d869ad69547c48adc106eb2ba15e33751be
Reciphers for ciphertext: 0
Decipheredtext:           5151515151515151515151515151515151
RESULT CIPHER-DECIPHER: -----OK-----


Test: 82
Data unit:   82
Start block: 165
Symmetric key bit length: 384
Plaintext bit length:     136
Symmetric key:            000000000000000000000000000000000000000000000000000000000000000000000000000000000000000000000000
Plaintext:                5252525252525252525252525252525252
Ciphertext:               b7b052bd3aeabac56cadaf6a52f6989bff9d83d1ad017aabb9a6e0cd8698337bf9
Reciphers for ciphertext: 0
Decipheredtext:           5252525252525252525252525252525252
RESULT CIPHER-DECIPHER: -----OK-----


Test: 83
Data unit:   83
Start block: 167
Symmetric key bit length: 384
Plaintext bit length:     136
Symmetric key:            000000000000000000000000000000000000000000000000000000000000000000000000000000000000000000000000
Plaintext:                5353535353535353535353535353535353
Ciphertext:               eb7c0e0f64c2af75b314ddead663d21828367d814e6ce2ff72744cb498c99fe0e6
Reciphers for ciphertext: 0
Decipheredtext:           5353535353535353535353535353535353
RESULT CIPHER-DECIPHER: -----OK-----


Test: 84
Data unit:   84
Start block: 169
Symmetric key bit length: 384
Plaintext bit length:     136
Symmetric key:            000000000000000000000000000000000000000000000000000000000000000000000000000000000000000000000000
Plaintext:                5454545454545454545454545454545454
Ciphertext:               ef27c0dcbb3554c164970ad63132e589f86adf18a616e31f9a18a8ff7cd5caf387
Reciphers for ciphertext: 0
Decipheredtext:           5454545454545454545454545454545454
RESULT CIPHER-DECIPHER: -----OK-----


Test: 85
Data unit:   85
Start block: 171
Symmetric key bit length: 384
Plaintext bit length:     136
Symmetric key:            000000000000000000000000000000000000000000000000000000000000000000000000000000000000000000000000
Plaintext:                5555555555555555555555555555555555
Ciphertext:               66ab06575ee3fc2c54d5e1ab0ff378b636cfdf4ed90808563a7ee756f3faf5e341
Reciphers for ciphertext: 0
Decipheredtext:           5555555555555555555555555555555555
RESULT CIPHER-DECIPHER: -----OK-----


Test: 86
Data unit:   86
Start block: 173
Symmetric key bit length: 384
Plaintext bit length:     136
Symmetric key:            000000000000000000000000000000000000000000000000000000000000000000000000000000000000000000000000
Plaintext:                5656565656565656565656565656565656
Ciphertext:               774f0b0e7f4c425bbc57ce57133e06d6ea6d97c6833977ce3fee664595163d0099
Reciphers for ciphertext: 0
Decipheredtext:           5656565656565656565656565656565656
RESULT CIPHER-DECIPHER: -----OK-----


Test: 87
Data unit:   87
Start block: 175
Symmetric key bit length: 384
Plaintext bit length:     136
Symmetric key:            000000000000000000000000000000000000000000000000000000000000000000000000000000000000000000000000
Plaintext:                5757575757575757575757575757575757
Ciphertext:               27e34593831ede1195afade6ef4452ada431433ada0670f55c38df59e7c0dc259c
Reciphers for ciphertext: 0
Decipheredtext:           5757575757575757575757575757575757
RESULT CIPHER-DECIPHER: -----OK-----


Test: 88
Data unit:   88
Start block: 177
Symmetric key bit length: 384
Plaintext bit length:     136
Symmetric key:            000000000000000000000000000000000000000000000000000000000000000000000000000000000000000000000000
Plaintext:                5858585858585858585858585858585858
Ciphertext:               51788923d47323935eec540815c0e5dd26457d8ea3fcd6f8430af8434abe4b9b2e
Reciphers for ciphertext: 0
Decipheredtext:           5858585858585858585858585858585858
RESULT CIPHER-DECIPHER: -----OK-----


Test: 89
Data unit:   89
Start block: 179
Symmetric key bit length: 384
Plaintext bit length:     136
Symmetric key:            000000000000000000000000000000000000000000000000000000000000000000000000000000000000000000000000
Plaintext:                5959595959595959595959595959595959
Ciphertext:               716293a6f3cdd0a31c2bef97fbb18c799ddf10dd4e6bd45ffa3d437e2c6bbe2838
Reciphers for ciphertext: 0
Decipheredtext:           5959595959595959595959595959595959
RESULT CIPHER-DECIPHER: -----OK-----


Test: 90
Data unit:   90
Start block: 181
Symmetric key bit length: 384
Plaintext bit length:     136
Symmetric key:            000000000000000000000000000000000000000000000000000000000000000000000000000000000000000000000000
Plaintext:                5a5a5a5a5a5a5a5a5a5a5a5a5a5a5a5a5a
Ciphertext:               9ffba9801ea287ada0bd46ab8b773244ab125b3d2f4f95e3a86c96bbb78bcbd81e
Reciphers for ciphertext: 0
Decipheredtext:           5a5a5a5a5a5a5a5a5a5a5a5a5a5a5a5a5a
RESULT CIPHER-DECIPHER: -----OK-----


Test: 91
Data unit:   91
Start block: 183
Symmetric key bit length: 384
Plaintext bit length:     136
Symmetric key:            000000000000000000000000000000000000000000000000000000000000000000000000000000000000000000000000
Plaintext:                5b5b5b5b5b5b5b5b5b5b5b5b5b5b5b5b5b
Ciphertext:               d89a1c9abbf4f37453bc630090a3c5b443287242d8897e94e9b258a8f2062963ff
Reciphers for ciphertext: 0
Decipheredtext:           5b5b5b5b5b5b5b5b5b5b5b5b5b5b5b5b5b
RESULT CIPHER-DECIPHER: -----OK-----


Test: 92
Data unit:   92
Start block: 185
Symmetric key bit length: 384
Plaintext bit length:     136
Symmetric key:            000000000000000000000000000000000000000000000000000000000000000000000000000000000000000000000000
Plaintext:                5c5c5c5c5c5c5c5c5c5c5c5c5c5c5c5c5c
Ciphertext:               7586b2cb7e4e0857f153d8aeeb6da59a662c0e37584bf4d9ff416443ad42320f61
Reciphers for ciphertext: 0
Decipheredtext:           5c5c5c5c5c5c5c5c5c5c5c5c5c5c5c5c5c
RESULT CIPHER-DECIPHER: -----OK-----


Test: 93
Data unit:   93
Start block: 187
Symmetric key bit length: 384
Plaintext bit length:     136
Symmetric key:            000000000000000000000000000000000000000000000000000000000000000000000000000000000000000000000000
Plaintext:                5d5d5d5d5d5d5d5d5d5d5d5d5d5d5d5d5d
Ciphertext:               2807e74be0cd9647a136aa8dec0730f2795b1126d4b347f471690a3a5ce809de96
Reciphers for ciphertext: 0
Decipheredtext:           5d5d5d5d5d5d5d5d5d5d5d5d5d5d5d5d5d
RESULT CIPHER-DECIPHER: -----OK-----


Test: 94
Data unit:   94
Start block: 189
Symmetric key bit length: 384
Plaintext bit length:     136
Symmetric key:            000000000000000000000000000000000000000000000000000000000000000000000000000000000000000000000000
Plaintext:                5e5e5e5e5e5e5e5e5e5e5e5e5e5e5e5e5e
Ciphertext:               392615fae0f30815427a1f6f3cb5e9760b78116a08a7e1d8a73186f8ff37da84fe
Reciphers for ciphertext: 0
Decipheredtext:           5e5e5e5e5e5e5e5e5e5e5e5e5e5e5e5e5e
RESULT CIPHER-DECIPHER: -----OK-----


Test: 95
Data unit:   95
Start block: 191
Symmetric key bit length: 384
Plaintext bit length:     136
Symmetric key:            000000000000000000000000000000000000000000000000000000000000000000000000000000000000000000000000
Plaintext:                5f5f5f5f5f5f5f5f5f5f5f5f5f5f5f5f5f
Ciphertext:               bf773b186eb17a682638b261804038ea685bbc1a19e5b220e064c62ebe679b7f4a
Reciphers for ciphertext: 0
Decipheredtext:           5f5f5f5f5f5f5f5f5f5f5f5f5f5f5f5f5f
RESULT CIPHER-DECIPHER: -----OK-----


Test: 96
Data unit:   96
Start block: 193
Symmetric key bit length: 384
Plaintext bit length:     136
Symmetric key:            000000000000000000000000000000000000000000000000000000000000000000000000000000000000000000000000
Plaintext:                6060606060606060606060606060606060
Ciphertext:               2d15106baa98b342106d21736abd74856b78f361c896dbb6161946495499a019eb
Reciphers for ciphertext: 0
Decipheredtext:           6060606060606060606060606060606060
RESULT CIPHER-DECIPHER: -----OK-----


Test: 97
Data unit:   97
Start block: 195
Symmetric key bit length: 384
Plaintext bit length:     136
Symmetric key:            000000000000000000000000000000000000000000000000000000000000000000000000000000000000000000000000
Plaintext:                6161616161616161616161616161616161
Ciphertext:               d5b60168d64a3160737693b4859322133a73966aff138ecd9a444f6ae3c53cf584
Reciphers for ciphertext: 0
Decipheredtext:           6161616161616161616161616161616161
RESULT CIPHER-DECIPHER: -----OK-----


Test: 98
Data unit:   98
Start block: 197
Symmetric key bit length: 384
Plaintext bit length:     136
Symmetric key:            000000000000000000000000000000000000000000000000000000000000000000000000000000000000000000000000
Plaintext:                6262626262626262626262626262626262
Ciphertext:               c2d4831dedac96c51152cdfb9761a6dc3fc347699bb5bcbb7bbd159e8e98369ac6
Reciphers for ciphertext: 0
Decipheredtext:           6262626262626262626262626262626262
RESULT CIPHER-DECIPHER: -----OK-----


Test: 99
Data unit:   99
Start block: 199
Symmetric key bit length: 384
Plaintext bit length:     136
Symmetric key:            000000000000000000000000000000000000000000000000000000000000000000000000000000000000000000000000
Plaintext:                6363636363636363636363636363636363
Ciphertext:               1bd47d419e28fcff2af09fe9f37d2c2c658010c754b4337c7ff524f1408df0415e
Reciphers for ciphertext: 0
Decipheredtext:           6363636363636363636363636363636363
RESULT CIPHER-DECIPHER: -----OK-----


Test: 100
Data unit:   100
Start block: 201
Symmetric key bit length: 384
Plaintext bit length:     136
Symmetric key:            000000000000000000000000000000000000000000000000000000000000000000000000000000000000000000000000
Plaintext:                6464646464646464646464646464646464
Ciphertext:               4260dec0cccf7c7aaf0043e87c5f950f930bc1342bb04f68aaffadf51fa28722ea
Reciphers for ciphertext: 0
Decipheredtext:           6464646464646464646464646464646464
RESULT CIPHER-DECIPHER: -----OK-----


Test: 101
Data unit:   101
Start block: 203
Symmetric key bit length: 384
Plaintext bit length:     136
Symmetric key:            000000000000000000000000000000000000000000000000000000000000000000000000000000000000000000000000
Plaintext:                6565656565656565656565656565656565
Ciphertext:               7c3cc5aa4827a7e35f7630658fa853553ee98a3ec47c3201a2bc61ae9df04d862f
Reciphers for ciphertext: 0
Decipheredtext:           6565656565656565656565656565656565
RESULT CIPHER-DECIPHER: -----OK-----


Test: 102
Data unit:   102
Start block: 205
Symmetric key bit length: 384
Plaintext bit length:     136
Symmetric key:            000000000000000000000000000000000000000000000000000000000000000000000000000000000000000000000000
Plaintext:                6666666666666666666666666666666666
Ciphertext:               3f835a3d1af32643d70e3296d7cec585ebc667a0b46a42d6678a1c722951bf1910
Reciphers for ciphertext: 0
Decipheredtext:           6666666666666666666666666666666666
RESULT CIPHER-DECIPHER: -----OK-----


Test: 103
Data unit:   103
Start block: 207
Symmetric key bit length: 384
Plaintext bit length:     136
Symmetric key:            000000000000000000000000000000000000000000000000000000000000000000000000000000000000000000000000
Plaintext:                6767676767676767676767676767676767
Ciphertext:               b6fc26ea6656659b9724348c38b797b97b935941e7d032200e97844461b53b0086
Reciphers for ciphertext: 0
Decipheredtext:           6767676767676767676767676767676767
RESULT CIPHER-DECIPHER: -----OK-----


Test: 104
Data unit:   104
Start block: 209
Symmetric key bit length: 384
Plaintext bit length:     136
Symmetric key:            000000000000000000000000000000000000000000000000000000000000000000000000000000000000000000000000
Plaintext:                6868686868686868686868686868686868
Ciphertext:               32eae346fa3fca4055524d825b1f99966908f3dc56c8e0a501a6402110c3efc81d
Reciphers for ciphertext: 0
Decipheredtext:           6868686868686868686868686868686868
RESULT CIPHER-DECIPHER: -----OK-----


Test: 105
Data unit:   105
Start block: 211
Symmetric key bit length: 384
Plaintext bit length:     136
Symmetric key:            000000000000000000000000000000000000000000000000000000000000000000000000000000000000000000000000
Plaintext:                6969696969696969696969696969696969
Ciphertext:               6c4ba4bf142d7bf652df8eb16ffe5db0cac217ddca7199ee0caccd9a13c6ab5cc9
Reciphers for ciphertext: 0
Decipheredtext:           6969696969696969696969696969696969
RESULT CIPHER-DECIPHER: -----OK-----


Test: 106
Data unit:   106
Start block: 213
Symmetric key bit length: 384
Plaintext bit length:     136
Symmetric key:            000000000000000000000000000000000000000000000000000000000000000000000000000000000000000000000000
Plaintext:                6a6a6a6a6a6a6a6a6a6a6a6a6a6a6a6a6a
Ciphertext:               db6975d18f8abb7a2731415f24b41e70b70b4e1b297cde49738858490491f87655
Reciphers for ciphertext: 0
Decipheredtext:           6a6a6a6a6a6a6a6a6a6a6a6a6a6a6a6a6a
RESULT CIPHER-DECIPHER: -----OK-----


Test: 107
Data unit:   107
Start block: 215
Symmetric key bit length: 384
Plaintext bit length:     136
Symmetric key:            000000000000000000000000000000000000000000000000000000000000000000000000000000000000000000000000
Plaintext:                6b6b6b6b6b6b6b6b6b6b6b6b6b6b6b6b6b
Ciphertext:               238be96c685d397fd93a77e725027f726c5a20f1904496e15ed0a0aa8b2b79db6b
Reciphers for ciphertext: 0
Decipheredtext:           6b6b6b6b6b6b6b6b6b6b6b6b6b6b6b6b6b
RESULT CIPHER-DECIPHER: -----OK-----


Test: 108
Data unit:   108
Start block: 217
Symmetric key bit length: 384
Plaintext bit length:     136
Symmetric key:            000000000000000000000000000000000000000000000000000000000000000000000000000000000000000000000000
Plaintext:                6c6c6c6c6c6c6c6c6c6c6c6c6c6c6c6c6c
Ciphertext:               368b18632b1e0f86f84e93f339ba5684b9b7b3db2b36ac5cb5519ab0e056330273
Reciphers for ciphertext: 0
Decipheredtext:           6c6c6c6c6c6c6c6c6c6c6c6c6c6c6c6c6c
RESULT CIPHER-DECIPHER: -----OK-----


Test: 109
Data unit:   109
Start block: 219
Symmetric key bit length: 384
Plaintext bit length:     136
Symmetric key:            000000000000000000000000000000000000000000000000000000000000000000000000000000000000000000000000
Plaintext:                6d6d6d6d6d6d6d6d6d6d6d6d6d6d6d6d6d
Ciphertext:               b4c0b03b3d0ea45fbaef0f681127b3b575ff9b57db0d23ea330dea1199a886703c
Reciphers for ciphertext: 0
Decipheredtext:           6d6d6d6d6d6d6d6d6d6d6d6d6d6d6d6d6d
RESULT CIPHER-DECIPHER: -----OK-----


Test: 110
Data unit:   110
Start block: 221
Symmetric key bit length: 384
Plaintext bit length:     136
Symmetric key:            000000000000000000000000000000000000000000000000000000000000000000000000000000000000000000000000
Plaintext:                6e6e6e6e6e6e6e6e6e6e6e6e6e6e6e6e6e
Ciphertext:               1b30e770b7333c19796837f7a50f2365a733834977edb274c50bd19978f224d07a
Reciphers for ciphertext: 0
Decipheredtext:           6e6e6e6e6e6e6e6e6e6e6e6e6e6e6e6e6e
RESULT CIPHER-DECIPHER: -----OK-----


Test: 111
Data unit:   111
Start block: 223
Symmetric key bit length: 384
Plaintext bit length:     136
Symmetric key:            000000000000000000000000000000000000000000000000000000000000000000000000000000000000000000000000
Plaintext:                6f6f6f6f6f6f6f6f6f6f6f6f6f6f6f6f6f
Ciphertext:               40c884d5c1c703eed11256a3d16efcf218f76a65af5301fdf59a1ac766b6cb08a4
Reciphers for ciphertext: 0
Decipheredtext:           6f6f6f6f6f6f6f6f6f6f6f6f6f6f6f6f6f
RESULT CIPHER-DECIPHER: -----OK-----


Test: 112
Data unit:   112
Start block: 225
Symmetric key bit length: 384
Plaintext bit length:     136
Symmetric key:            000000000000000000000000000000000000000000000000000000000000000000000000000000000000000000000000
Plaintext:                7070707070707070707070707070707070
Ciphertext:               c208a4003b0131261c9bf3891ec8bbefd56412240e5938dc68da75f9ceba77eb2b
Reciphers for ciphertext: 0
Decipheredtext:           7070707070707070707070707070707070
RESULT CIPHER-DECIPHER: -----OK-----


Test: 113
Data unit:   113
Start block: 227
Symmetric key bit length: 384
Plaintext bit length:     136
Symmetric key:            000000000000000000000000000000000000000000000000000000000000000000000000000000000000000000000000
Plaintext:                7171717171717171717171717171717171
Ciphertext:               1c34d7343663b5abbea15f4d8787c1cb7bf4fc6461d87f62bd20632c4a38bbd29a
Reciphers for ciphertext: 0
Decipheredtext:           7171717171717171717171717171717171
RESULT CIPHER-DECIPHER: -----OK-----


Test: 114
Data unit:   114
Start block: 229
Symmetric key bit length: 384
Plaintext bit length:     136
Symmetric key:            000000000000000000000000000000000000000000000000000000000000000000000000000000000000000000000000
Plaintext:                7272727272727272727272727272727272
Ciphertext:               302365bd1a1a128b9eead57d2d5565ee81f47cb8296f62fb8fde48670242119ffa
Reciphers for ciphertext: 0
Decipheredtext:           7272727272727272727272727272727272
RESULT CIPHER-DECIPHER: -----OK-----


Test: 115
Data unit:   115
Start block: 231
Symmetric key bit length: 384
Plaintext bit length:     136
Symmetric key:            000000000000000000000000000000000000000000000000000000000000000000000000000000000000000000000000
Plaintext:                7373737373737373737373737373737373
Ciphertext:               8b8cf430f8c3edeb2ff832d97e3321194e79587d6bd72be12318760acc99297932
Reciphers for ciphertext: 0
Decipheredtext:           7373737373737373737373737373737373
RESULT CIPHER-DECIPHER: -----OK-----


Test: 116
Data unit:   116
Start block: 233
Symmetric key bit length: 384
Plaintext bit length:     136
Symmetric key:            000000000000000000000000000000000000000000000000000000000000000000000000000000000000000000000000
Plaintext:                7474747474747474747474747474747474
Ciphertext:               d92a947119b946320038570ae1c50d7a8cc881f1f26a80e2203b12ef8f5cb633a5
Reciphers for ciphertext: 0
Decipheredtext:           7474747474747474747474747474747474
RESULT CIPHER-DECIPHER: -----OK-----


Test: 117
Data unit:   117
Start block: 235
Symmetric key bit length: 384
Plaintext bit length:     136
Symmetric key:            000000000000000000000000000000000000000000000000000000000000000000000000000000000000000000000000
Plaintext:                7575757575757575757575757575757575
Ciphertext:               3f025a74e0271ef4925453aae60b69bfdd4b4cbfb2cb604dee3a7c86a04119a5fd
Reciphers for ciphertext: 0
Decipheredtext:           7575757575757575757575757575757575
RESULT CIPHER-DECIPHER: -----OK-----


Test: 118
Data unit:   118
Start block: 237
Symmetric key bit length: 384
Plaintext bit length:     136
Symmetric key:            000000000000000000000000000000000000000000000000000000000000000000000000000000000000000000000000
Plaintext:                7676767676767676767676767676767676
Ciphertext:               0db644a96ac2cc30c306f09196537f28b91928164f6c2e6e2723373e2decd12cbb
Reciphers for ciphertext: 0
Decipheredtext:           7676767676767676767676767676767676
RESULT CIPHER-DECIPHER: -----OK-----


Test: 119
Data unit:   119
Start block: 239
Symmetric key bit length: 384
Plaintext bit length:     136
Symmetric key:            000000000000000000000000000000000000000000000000000000000000000000000000000000000000000000000000
Plaintext:                7777777777777777777777777777777777
Ciphertext:               bc2feb1af4c8e5451a3b31a45942ef89f93003684c599f804bc9d1555cf7c98955
Reciphers for ciphertext: 0
Decipheredtext:           7777777777777777777777777777777777
RESULT CIPHER-DECIPHER: -----OK-----


Test: 120
Data unit:   120
Start block: 241
Symmetric key bit length: 384
Plaintext bit length:     136
Symmetric key:            000000000000000000000000000000000000000000000000000000000000000000000000000000000000000000000000
Plaintext:                7878787878787878787878787878787878
Ciphertext:               de3cab7af94b1f0b983860a1f7de640c429768d480a85544efc257a69b0e42fec8
Reciphers for ciphertext: 0
Decipheredtext:           7878787878787878787878787878787878
RESULT CIPHER-DECIPHER: -----OK-----


Test: 121
Data unit:   121
Start block: 243
Symmetric key bit length: 384
Plaintext bit length:     136
Symmetric key:            000000000000000000000000000000000000000000000000000000000000000000000000000000000000000000000000
Plaintext:                7979797979797979797979797979797979
Ciphertext:               e27559e6de070dc10fc8e0d93ea397cb799bcf0d6975db1a6abd3cfab356d5ca10
Reciphers for ciphertext: 0
Decipheredtext:           7979797979797979797979797979797979
RESULT CIPHER-DECIPHER: -----OK-----


Test: 122
Data unit:   122
Start block: 245
Symmetric key bit length: 384
Plaintext bit length:     136
Symmetric key:            000000000000000000000000000000000000000000000000000000000000000000000000000000000000000000000000
Plaintext:                7a7a7a7a7a7a7a7a7a7a7a7a7a7a7a7a7a
Ciphertext:               a664ebf09936dfb892937a32a73f95283eb1479af6bf0badde916bd4c3403e506c
Reciphers for ciphertext: 0
Decipheredtext:           7a7a7a7a7a7a7a7a7a7a7a7a7a7a7a7a7a
RESULT CIPHER-DECIPHER: -----OK-----


Test: 123
Data unit:   123
Start block: 247
Symmetric key bit length: 384
Plaintext bit length:     136
Symmetric key:            000000000000000000000000000000000000000000000000000000000000000000000000000000000000000000000000
Plaintext:                7b7b7b7b7b7b7b7b7b7b7b7b7b7b7b7b7b
Ciphertext:               6e72315f2b829eb1490191c7c374db9ba6080b2b405b41d26889cdecd103616327
Reciphers for ciphertext: 0
Decipheredtext:           7b7b7b7b7b7b7b7b7b7b7b7b7b7b7b7b7b
RESULT CIPHER-DECIPHER: -----OK-----


Test: 124
Data unit:   124
Start block: 249
Symmetric key bit length: 384
Plaintext bit length:     136
Symmetric key:            000000000000000000000000000000000000000000000000000000000000000000000000000000000000000000000000
Plaintext:                7c7c7c7c7c7c7c7c7c7c7c7c7c7c7c7c7c
Ciphertext:               204cabe53af6f3a80cc4f4b00f1bd58f2b114c982a13bc3204b9317ae453853e67
Reciphers for ciphertext: 0
Decipheredtext:           7c7c7c7c7c7c7c7c7c7c7c7c7c7c7c7c7c
RESULT CIPHER-DECIPHER: -----OK-----


Test: 125
Data unit:   125
Start block: 251
Symmetric key bit length: 384
Plaintext bit length:     136
Symmetric key:            000000000000000000000000000000000000000000000000000000000000000000000000000000000000000000000000
Plaintext:                7d7d7d7d7d7d7d7d7d7d7d7d7d7d7d7d7d
Ciphertext:               8eff85863572f0a02021d2056a34b94b048c97f89fec04e417eb0af567faff8fe0
Reciphers for ciphertext: 0
Decipheredtext:           7d7d7d7d7d7d7d7d7d7d7d7d7d7d7d7d7d
RESULT CIPHER-DECIPHER: -----OK-----


Test: 126
Data unit:   126
Start block: 253
Symmetric key bit length: 384
Plaintext bit length:     136
Symmetric key:            000000000000000000000000000000000000000000000000000000000000000000000000000000000000000000000000
Plaintext:                7e7e7e7e7e7e7e7e7e7e7e7e7e7e7e7e7e
Ciphertext:               10f2160611382ab14e2b9d6d8cc32006011b2128c7fd4a2e0f02df028a7876e43d
Reciphers for ciphertext: 0
Decipheredtext:           7e7e7e7e7e7e7e7e7e7e7e7e7e7e7e7e7e
RESULT CIPHER-DECIPHER: -----OK-----


Test: 127
Data unit:   127
Start block: 255
Symmetric key bit length: 384
Plaintext bit length:     136
Symmetric key:            000000000000000000000000000000000000000000000000000000000000000000000000000000000000000000000000
Plaintext:                7f7f7f7f7f7f7f7f7f7f7f7f7f7f7f7f7f
Ciphertext:               e03668ea0399af780cf58a932195998e3a31e9fa013c0becbd2851db7d2f4e6468
Reciphers for ciphertext: 0
Decipheredtext:           7f7f7f7f7f7f7f7f7f7f7f7f7f7f7f7f7f
RESULT CIPHER-DECIPHER: -----OK-----


 DATA SHA1 (hexadecimal): 9eb2784cf0aab470d3e69a327aae5e2a1e38894d

