
DiceLock 9.0.0.1

 TEST COMPONENTS:
 ----------------
 DiceLock:           DiceLockXTSIndexed class
 Operation Mode:     XTS_Mode class
 Block Cipher:       Serpent192 class
 Key Modifier:       DecreaseBase0IndexModifier_6_0_0_1 class
   Index bit length: 128
 Random tests:       RandomTestSuite class
                     FrequencyTest class
                     BlockFrequencyTest class
                     CumulativeSumForwardTest class
                     LongestRunOfOnesTest class
                     RunsTest class
 Random alpha:       0.001

 VECTOR TEST: Test vector 0 - Changing symmetric key, shifting 1 bit set


##### INDIVIDUAL TESTS #####

Number tests: 128


Test: 0
Data unit:   0
Start block: 0
Symmetric key bit length: 384
Plaintext bit length:     136
Symmetric key:            000000000000000000000000000000000000000000000000000000000000000080000000000000000000000000000000
Plaintext:                0000000000000000000000000000000000
Ciphertext:               48b5496f2cda3f2f3609dd1baf65d403c6cdf5e83280f71be25104e73ed1d57248
Reciphers for ciphertext: 0
Decipheredtext:           0000000000000000000000000000000000
RESULT CIPHER-DECIPHER: -----OK-----


Test: 1
Data unit:   0
Start block: 0
Symmetric key bit length: 384
Plaintext bit length:     136
Symmetric key:            000000000000000000000000000000000000000000000000000000000000000040000000000000000000000000000000
Plaintext:                0000000000000000000000000000000000
Ciphertext:               bb2670af8850bbce5bb9002fca86614cb9d842743a10ded2bd3703050be9178fbb
Reciphers for ciphertext: 0
Decipheredtext:           0000000000000000000000000000000000
RESULT CIPHER-DECIPHER: -----OK-----


Test: 2
Data unit:   0
Start block: 0
Symmetric key bit length: 384
Plaintext bit length:     136
Symmetric key:            000000000000000000000000000000000000000000000000000000000000000020000000000000000000000000000000
Plaintext:                0000000000000000000000000000000000
Ciphertext:               ff73ffe58b2b2ada58db46b954d5c49417d6f840b30275a6b356b8f023ed84b0ff
Reciphers for ciphertext: 0
Decipheredtext:           0000000000000000000000000000000000
RESULT CIPHER-DECIPHER: -----OK-----


Test: 3
Data unit:   0
Start block: 0
Symmetric key bit length: 384
Plaintext bit length:     136
Symmetric key:            000000000000000000000000000000000000000000000000000000000000000010000000000000000000000000000000
Plaintext:                0000000000000000000000000000000000
Ciphertext:               8341e47e5acc6a11c689be2e4b3b27806f0bd91bab7cdf7fb1d8e1c0def276b383
Reciphers for ciphertext: 0
Decipheredtext:           0000000000000000000000000000000000
RESULT CIPHER-DECIPHER: -----OK-----


Test: 4
Data unit:   0
Start block: 0
Symmetric key bit length: 384
Plaintext bit length:     136
Symmetric key:            000000000000000000000000000000000000000000000000000000000000000008000000000000000000000000000000
Plaintext:                0000000000000000000000000000000000
Ciphertext:               f0fc55d470016dc9a706d243c01342de570edd73533a904849d62e69ed331671f0
Reciphers for ciphertext: 0
Decipheredtext:           0000000000000000000000000000000000
RESULT CIPHER-DECIPHER: -----OK-----


Test: 5
Data unit:   0
Start block: 0
Symmetric key bit length: 384
Plaintext bit length:     136
Symmetric key:            000000000000000000000000000000000000000000000000000000000000000004000000000000000000000000000000
Plaintext:                0000000000000000000000000000000000
Ciphertext:               a32a1beb1aaac9b6a214854d31c3d55f35c661dcd170460045b91d7e521a7b71a3
Reciphers for ciphertext: 0
Decipheredtext:           0000000000000000000000000000000000
RESULT CIPHER-DECIPHER: -----OK-----


Test: 6
Data unit:   0
Start block: 0
Symmetric key bit length: 384
Plaintext bit length:     136
Symmetric key:            000000000000000000000000000000000000000000000000000000000000000002000000000000000000000000000000
Plaintext:                0000000000000000000000000000000000
Ciphertext:               8b5f3c89a5c1652cad06d9d71db25c628033f3904ff91156068b9bb3fd91c18f8b
Reciphers for ciphertext: 0
Decipheredtext:           0000000000000000000000000000000000
RESULT CIPHER-DECIPHER: -----OK-----


Test: 7
Data unit:   0
Start block: 0
Symmetric key bit length: 384
Plaintext bit length:     136
Symmetric key:            000000000000000000000000000000000000000000000000000000000000000001000000000000000000000000000000
Plaintext:                0000000000000000000000000000000000
Ciphertext:               bd13a607857fdec547a4487e3701d5586df5dc36c767f15e282ce193a4a0ff84bd
Reciphers for ciphertext: 0
Decipheredtext:           0000000000000000000000000000000000
RESULT CIPHER-DECIPHER: -----OK-----


Test: 8
Data unit:   0
Start block: 0
Symmetric key bit length: 384
Plaintext bit length:     136
Symmetric key:            000000000000000000000000000000000000000000000000000000000000000000800000000000000000000000000000
Plaintext:                0000000000000000000000000000000000
Ciphertext:               41cc3cd9a4d836ce362bfc250b6c3caeb122952d09e0f8258ee68a42c3fd234a41
Reciphers for ciphertext: 0
Decipheredtext:           0000000000000000000000000000000000
RESULT CIPHER-DECIPHER: -----OK-----


Test: 9
Data unit:   0
Start block: 0
Symmetric key bit length: 384
Plaintext bit length:     136
Symmetric key:            000000000000000000000000000000000000000000000000000000000000000000400000000000000000000000000000
Plaintext:                0000000000000000000000000000000000
Ciphertext:               9f14e2e495ce210ce85372b43dde32ed1fee446a94f5a8afa70bfb8158e680649f
Reciphers for ciphertext: 0
Decipheredtext:           0000000000000000000000000000000000
RESULT CIPHER-DECIPHER: -----OK-----


Test: 10
Data unit:   0
Start block: 0
Symmetric key bit length: 384
Plaintext bit length:     136
Symmetric key:            000000000000000000000000000000000000000000000000000000000000000000200000000000000000000000000000
Plaintext:                0000000000000000000000000000000000
Ciphertext:               8fc9150ed5b682415e0ef469293ba162ac10a032a819c1d9882eddbf274896758f
Reciphers for ciphertext: 0
Decipheredtext:           0000000000000000000000000000000000
RESULT CIPHER-DECIPHER: -----OK-----


Test: 11
Data unit:   0
Start block: 0
Symmetric key bit length: 384
Plaintext bit length:     136
Symmetric key:            000000000000000000000000000000000000000000000000000000000000000000100000000000000000000000000000
Plaintext:                0000000000000000000000000000000000
Ciphertext:               9b301ec03764238747cab5039d66a2494d6b8b258bf1fa2b4e7b6a20b1f852f09b
Reciphers for ciphertext: 0
Decipheredtext:           0000000000000000000000000000000000
RESULT CIPHER-DECIPHER: -----OK-----


Test: 12
Data unit:   0
Start block: 0
Symmetric key bit length: 384
Plaintext bit length:     136
Symmetric key:            000000000000000000000000000000000000000000000000000000000000000000080000000000000000000000000000
Plaintext:                0000000000000000000000000000000000
Ciphertext:               a37b2fd1f54b6c36da2267b363294d8139a217e635680d52c51a3f7c6ba4db0fa3
Reciphers for ciphertext: 0
Decipheredtext:           0000000000000000000000000000000000
RESULT CIPHER-DECIPHER: -----OK-----


Test: 13
Data unit:   0
Start block: 0
Symmetric key bit length: 384
Plaintext bit length:     136
Symmetric key:            000000000000000000000000000000000000000000000000000000000000000000040000000000000000000000000000
Plaintext:                0000000000000000000000000000000000
Ciphertext:               af42be26b68a11a712fb847752a54ded00eee4835fb1e3204c1a413274130980af
Reciphers for ciphertext: 0
Decipheredtext:           0000000000000000000000000000000000
RESULT CIPHER-DECIPHER: -----OK-----


Test: 14
Data unit:   0
Start block: 0
Symmetric key bit length: 384
Plaintext bit length:     136
Symmetric key:            000000000000000000000000000000000000000000000000000000000000000000020000000000000000000000000000
Plaintext:                0000000000000000000000000000000000
Ciphertext:               a995c46d745b718946d00da80a84d17b5475aae36b7099535a1900fee319784ba9
Reciphers for ciphertext: 0
Decipheredtext:           0000000000000000000000000000000000
RESULT CIPHER-DECIPHER: -----OK-----


Test: 15
Data unit:   0
Start block: 0
Symmetric key bit length: 384
Plaintext bit length:     136
Symmetric key:            000000000000000000000000000000000000000000000000000000000000000000010000000000000000000000000000
Plaintext:                0000000000000000000000000000000000
Ciphertext:               f1018a9a6cb419fc5a55abc59e5e550dbfc3e1cf1970a909d074e03f8e41101cf1
Reciphers for ciphertext: 0
Decipheredtext:           0000000000000000000000000000000000
RESULT CIPHER-DECIPHER: -----OK-----


Test: 16
Data unit:   0
Start block: 0
Symmetric key bit length: 384
Plaintext bit length:     136
Symmetric key:            000000000000000000000000000000000000000000000000000000000000000000008000000000000000000000000000
Plaintext:                0000000000000000000000000000000000
Ciphertext:               f9147d506caf28dadf1d563ef811021247e823add96c604f2888936a77b93b52f9
Reciphers for ciphertext: 0
Decipheredtext:           0000000000000000000000000000000000
RESULT CIPHER-DECIPHER: -----OK-----


Test: 17
Data unit:   0
Start block: 0
Symmetric key bit length: 384
Plaintext bit length:     136
Symmetric key:            000000000000000000000000000000000000000000000000000000000000000000004000000000000000000000000000
Plaintext:                0000000000000000000000000000000000
Ciphertext:               baab63e648a75528c1c95c0e596d57dd0d0294693db3ff08f0a8cafc3a7f5773ba
Reciphers for ciphertext: 0
Decipheredtext:           0000000000000000000000000000000000
RESULT CIPHER-DECIPHER: -----OK-----


Test: 18
Data unit:   0
Start block: 0
Symmetric key bit length: 384
Plaintext bit length:     136
Symmetric key:            000000000000000000000000000000000000000000000000000000000000000000002000000000000000000000000000
Plaintext:                0000000000000000000000000000000000
Ciphertext:               f7064082aad6b5dc74296e3b233047b54fe8a5b98de12db8e6b837fea3ae5fddf7
Reciphers for ciphertext: 0
Decipheredtext:           0000000000000000000000000000000000
RESULT CIPHER-DECIPHER: -----OK-----


Test: 19
Data unit:   0
Start block: 0
Symmetric key bit length: 384
Plaintext bit length:     136
Symmetric key:            000000000000000000000000000000000000000000000000000000000000000000001000000000000000000000000000
Plaintext:                0000000000000000000000000000000000
Ciphertext:               77aee79105cdd5154883087b48391dbe51b47fda34f11c522212595eba370a1e77
Reciphers for ciphertext: 0
Decipheredtext:           0000000000000000000000000000000000
RESULT CIPHER-DECIPHER: -----OK-----


Test: 20
Data unit:   0
Start block: 0
Symmetric key bit length: 384
Plaintext bit length:     136
Symmetric key:            000000000000000000000000000000000000000000000000000000000000000000000800000000000000000000000000
Plaintext:                0000000000000000000000000000000000
Ciphertext:               43d4c16d845b95a3893d5618335755e78cbd7f273024c823d66b4e241bf2617a43
Reciphers for ciphertext: 0
Decipheredtext:           0000000000000000000000000000000000
RESULT CIPHER-DECIPHER: -----OK-----


Test: 21
Data unit:   0
Start block: 0
Symmetric key bit length: 384
Plaintext bit length:     136
Symmetric key:            000000000000000000000000000000000000000000000000000000000000000000000400000000000000000000000000
Plaintext:                0000000000000000000000000000000000
Ciphertext:               abae35cde19641b826332d94b40a588f17dbafe7ae584d807d76586da12b7038ab
Reciphers for ciphertext: 0
Decipheredtext:           0000000000000000000000000000000000
RESULT CIPHER-DECIPHER: -----OK-----


Test: 22
Data unit:   0
Start block: 0
Symmetric key bit length: 384
Plaintext bit length:     136
Symmetric key:            000000000000000000000000000000000000000000000000000000000000000000000200000000000000000000000000
Plaintext:                0000000000000000000000000000000000
Ciphertext:               9bca584aa87582b8ea282ac81433c33f6ab6052f305d68929460b62b95ea28d19b
Reciphers for ciphertext: 0
Decipheredtext:           0000000000000000000000000000000000
RESULT CIPHER-DECIPHER: -----OK-----


Test: 23
Data unit:   0
Start block: 0
Symmetric key bit length: 384
Plaintext bit length:     136
Symmetric key:            000000000000000000000000000000000000000000000000000000000000000000000100000000000000000000000000
Plaintext:                0000000000000000000000000000000000
Ciphertext:               d425876595826e0b8435c7fb2099b77f7050bdc08578e4488a4cbe2e15960523d4
Reciphers for ciphertext: 0
Decipheredtext:           0000000000000000000000000000000000
RESULT CIPHER-DECIPHER: -----OK-----


Test: 24
Data unit:   0
Start block: 0
Symmetric key bit length: 384
Plaintext bit length:     136
Symmetric key:            000000000000000000000000000000000000000000000000000000000000000000000080000000000000000000000000
Plaintext:                0000000000000000000000000000000000
Ciphertext:               4c4df6a33ed0b6fbccbc632dce9b2ee40302afe74b8b9e77ce668a8960e80a154c
Reciphers for ciphertext: 0
Decipheredtext:           0000000000000000000000000000000000
RESULT CIPHER-DECIPHER: -----OK-----


Test: 25
Data unit:   0
Start block: 0
Symmetric key bit length: 384
Plaintext bit length:     136
Symmetric key:            000000000000000000000000000000000000000000000000000000000000000000000040000000000000000000000000
Plaintext:                0000000000000000000000000000000000
Ciphertext:               b0180219a5ec74e0dd359b97c6947d53a2a5b411b930e451af54ec1e7aaadf56b0
Reciphers for ciphertext: 0
Decipheredtext:           0000000000000000000000000000000000
RESULT CIPHER-DECIPHER: -----OK-----


Test: 26
Data unit:   0
Start block: 0
Symmetric key bit length: 384
Plaintext bit length:     136
Symmetric key:            000000000000000000000000000000000000000000000000000000000000000000000020000000000000000000000000
Plaintext:                0000000000000000000000000000000000
Ciphertext:               d40bc25a9e94bf3ba5e9a2903eb1176bbbfcf5964c9492ef457396656b09b7ded4
Reciphers for ciphertext: 0
Decipheredtext:           0000000000000000000000000000000000
RESULT CIPHER-DECIPHER: -----OK-----


Test: 27
Data unit:   0
Start block: 0
Symmetric key bit length: 384
Plaintext bit length:     136
Symmetric key:            000000000000000000000000000000000000000000000000000000000000000000000010000000000000000000000000
Plaintext:                0000000000000000000000000000000000
Ciphertext:               735f4f59db74f579d707f0257f74e273d4d4050d0da8f8247dfd2968ee14c48273
Reciphers for ciphertext: 0
Decipheredtext:           0000000000000000000000000000000000
RESULT CIPHER-DECIPHER: -----OK-----


Test: 28
Data unit:   0
Start block: 0
Symmetric key bit length: 384
Plaintext bit length:     136
Symmetric key:            000000000000000000000000000000000000000000000000000000000000000000000008000000000000000000000000
Plaintext:                0000000000000000000000000000000000
Ciphertext:               133cd1ba516fccbf2baffc726da5e930341d2db9339939a5cedc7d5af8b720f713
Reciphers for ciphertext: 0
Decipheredtext:           0000000000000000000000000000000000
RESULT CIPHER-DECIPHER: -----OK-----


Test: 29
Data unit:   0
Start block: 0
Symmetric key bit length: 384
Plaintext bit length:     136
Symmetric key:            000000000000000000000000000000000000000000000000000000000000000000000004000000000000000000000000
Plaintext:                0000000000000000000000000000000000
Ciphertext:               49f6d736d6caa317f0b940995dd6de47a6708f8986a2f68c4a9e44164de0938849
Reciphers for ciphertext: 0
Decipheredtext:           0000000000000000000000000000000000
RESULT CIPHER-DECIPHER: -----OK-----


Test: 30
Data unit:   0
Start block: 0
Symmetric key bit length: 384
Plaintext bit length:     136
Symmetric key:            000000000000000000000000000000000000000000000000000000000000000000000002000000000000000000000000
Plaintext:                0000000000000000000000000000000000
Ciphertext:               d02c41d53826c4ba05bb3030a49a196a6f95fe0f22eba746a87e50734e3e0443d0
Reciphers for ciphertext: 0
Decipheredtext:           0000000000000000000000000000000000
RESULT CIPHER-DECIPHER: -----OK-----


Test: 31
Data unit:   0
Start block: 0
Symmetric key bit length: 384
Plaintext bit length:     136
Symmetric key:            000000000000000000000000000000000000000000000000000000000000000000000001000000000000000000000000
Plaintext:                0000000000000000000000000000000000
Ciphertext:               9fa17c90c1c665a40c89ec02cebedf7c1f5d3bb9dcfca1d9bf01f605059817159f
Reciphers for ciphertext: 0
Decipheredtext:           0000000000000000000000000000000000
RESULT CIPHER-DECIPHER: -----OK-----


Test: 32
Data unit:   0
Start block: 0
Symmetric key bit length: 384
Plaintext bit length:     136
Symmetric key:            000000000000000000000000000000000000000000000000000000000000000000000000800000000000000000000000
Plaintext:                0000000000000000000000000000000000
Ciphertext:               6f1b3c80c4f17c4f11fb33faed4dceccfe01b02b0947d2aeaf2688261f3331a46f
Reciphers for ciphertext: 0
Decipheredtext:           0000000000000000000000000000000000
RESULT CIPHER-DECIPHER: -----OK-----


Test: 33
Data unit:   0
Start block: 0
Symmetric key bit length: 384
Plaintext bit length:     136
Symmetric key:            000000000000000000000000000000000000000000000000000000000000000000000000400000000000000000000000
Plaintext:                0000000000000000000000000000000000
Ciphertext:               0afd788e4a15e3de58ef565ef60ccb7dbde5831bf2ebed87ed9aba6c1838d6ef0a
Reciphers for ciphertext: 0
Decipheredtext:           0000000000000000000000000000000000
RESULT CIPHER-DECIPHER: -----OK-----


Test: 34
Data unit:   0
Start block: 0
Symmetric key bit length: 384
Plaintext bit length:     136
Symmetric key:            000000000000000000000000000000000000000000000000000000000000000000000000200000000000000000000000
Plaintext:                0000000000000000000000000000000000
Ciphertext:               811524d03cdb0b618619f970b5bef9978f3ebac9b7aca54c97d800ba7fab6dca81
Reciphers for ciphertext: 0
Decipheredtext:           0000000000000000000000000000000000
RESULT CIPHER-DECIPHER: -----OK-----


Test: 35
Data unit:   0
Start block: 0
Symmetric key bit length: 384
Plaintext bit length:     136
Symmetric key:            000000000000000000000000000000000000000000000000000000000000000000000000100000000000000000000000
Plaintext:                0000000000000000000000000000000000
Ciphertext:               9e3b7db3473e4e106388f5c9571224d6dd5f7a2c4b61268ab8c13c10625d27359e
Reciphers for ciphertext: 0
Decipheredtext:           0000000000000000000000000000000000
RESULT CIPHER-DECIPHER: -----OK-----


Test: 36
Data unit:   0
Start block: 0
Symmetric key bit length: 384
Plaintext bit length:     136
Symmetric key:            000000000000000000000000000000000000000000000000000000000000000000000000080000000000000000000000
Plaintext:                0000000000000000000000000000000000
Ciphertext:               557542c5de0b4f00a82af9d7c78e26c5a1d04ef4223c82f36cd7a8b3e5c5ea4955
Reciphers for ciphertext: 0
Decipheredtext:           0000000000000000000000000000000000
RESULT CIPHER-DECIPHER: -----OK-----


Test: 37
Data unit:   0
Start block: 0
Symmetric key bit length: 384
Plaintext bit length:     136
Symmetric key:            000000000000000000000000000000000000000000000000000000000000000000000000040000000000000000000000
Plaintext:                0000000000000000000000000000000000
Ciphertext:               fe15ba9e8d53831b6d72479ebb724fdf7a243c731ff17604a22e23ae024c60ecfe
Reciphers for ciphertext: 0
Decipheredtext:           0000000000000000000000000000000000
RESULT CIPHER-DECIPHER: -----OK-----


Test: 38
Data unit:   0
Start block: 0
Symmetric key bit length: 384
Plaintext bit length:     136
Symmetric key:            000000000000000000000000000000000000000000000000000000000000000000000000020000000000000000000000
Plaintext:                0000000000000000000000000000000000
Ciphertext:               d6aa2309e6b4402344b76f51dfc57420e7be8b2157eeb899eba59e9833594583d6
Reciphers for ciphertext: 0
Decipheredtext:           0000000000000000000000000000000000
RESULT CIPHER-DECIPHER: -----OK-----


Test: 39
Data unit:   0
Start block: 0
Symmetric key bit length: 384
Plaintext bit length:     136
Symmetric key:            000000000000000000000000000000000000000000000000000000000000000000000000010000000000000000000000
Plaintext:                0000000000000000000000000000000000
Ciphertext:               e1bbd523433926b4e482d962da5262f00f5f9f2565bbf7756f6b84968b117a06e1
Reciphers for ciphertext: 0
Decipheredtext:           0000000000000000000000000000000000
RESULT CIPHER-DECIPHER: -----OK-----


Test: 40
Data unit:   0
Start block: 0
Symmetric key bit length: 384
Plaintext bit length:     136
Symmetric key:            000000000000000000000000000000000000000000000000000000000000000000000000008000000000000000000000
Plaintext:                0000000000000000000000000000000000
Ciphertext:               a9a10f2cb927c82a027868ffed04ce94ceee22c4d2499076b8f0e0d529a6646ba9
Reciphers for ciphertext: 0
Decipheredtext:           0000000000000000000000000000000000
RESULT CIPHER-DECIPHER: -----OK-----


Test: 41
Data unit:   0
Start block: 0
Symmetric key bit length: 384
Plaintext bit length:     136
Symmetric key:            000000000000000000000000000000000000000000000000000000000000000000000000004000000000000000000000
Plaintext:                0000000000000000000000000000000000
Ciphertext:               346f08589e3f67f37b728bcf2d4a613d57e32b7c156b489368ac8d8e1b36e78b34
Reciphers for ciphertext: 0
Decipheredtext:           0000000000000000000000000000000000
RESULT CIPHER-DECIPHER: -----OK-----


Test: 42
Data unit:   0
Start block: 0
Symmetric key bit length: 384
Plaintext bit length:     136
Symmetric key:            000000000000000000000000000000000000000000000000000000000000000000000000002000000000000000000000
Plaintext:                0000000000000000000000000000000000
Ciphertext:               67d37ae83b6f7e2fc358c2f31a02ef5e523f2ef476919894bac3e9d49fa468ff67
Reciphers for ciphertext: 0
Decipheredtext:           0000000000000000000000000000000000
RESULT CIPHER-DECIPHER: -----OK-----


Test: 43
Data unit:   0
Start block: 0
Symmetric key bit length: 384
Plaintext bit length:     136
Symmetric key:            000000000000000000000000000000000000000000000000000000000000000000000000001000000000000000000000
Plaintext:                0000000000000000000000000000000000
Ciphertext:               5d15760e5d6087e4e621897e128b4ba738d2ff928e82a65e034ccbbb914a65815d
Reciphers for ciphertext: 0
Decipheredtext:           0000000000000000000000000000000000
RESULT CIPHER-DECIPHER: -----OK-----


Test: 44
Data unit:   0
Start block: 0
Symmetric key bit length: 384
Plaintext bit length:     136
Symmetric key:            000000000000000000000000000000000000000000000000000000000000000000000000000800000000000000000000
Plaintext:                0000000000000000000000000000000000
Ciphertext:               fff5ed81a27a3db2d7cdf7d6a97f71cc4c40a32ac0369aa45fbabbbd7e44c995ff
Reciphers for ciphertext: 0
Decipheredtext:           0000000000000000000000000000000000
RESULT CIPHER-DECIPHER: -----OK-----


Test: 45
Data unit:   0
Start block: 0
Symmetric key bit length: 384
Plaintext bit length:     136
Symmetric key:            000000000000000000000000000000000000000000000000000000000000000000000000000400000000000000000000
Plaintext:                0000000000000000000000000000000000
Ciphertext:               8f4586aaf55108f8604cdd42107d82a2491e00692e1eaa5b759ede50f3f8b7e98f
Reciphers for ciphertext: 0
Decipheredtext:           0000000000000000000000000000000000
RESULT CIPHER-DECIPHER: -----OK-----


Test: 46
Data unit:   0
Start block: 0
Symmetric key bit length: 384
Plaintext bit length:     136
Symmetric key:            000000000000000000000000000000000000000000000000000000000000000000000000000200000000000000000000
Plaintext:                0000000000000000000000000000000000
Ciphertext:               bf0423cb7a66c210b96bf12bd42371bc3428116d676884eed18654d054ef63d7bf
Reciphers for ciphertext: 0
Decipheredtext:           0000000000000000000000000000000000
RESULT CIPHER-DECIPHER: -----OK-----


Test: 47
Data unit:   0
Start block: 0
Symmetric key bit length: 384
Plaintext bit length:     136
Symmetric key:            000000000000000000000000000000000000000000000000000000000000000000000000000100000000000000000000
Plaintext:                0000000000000000000000000000000000
Ciphertext:               3bb9aba1b2633bc7746f5d2330bd5248540f5858628f4fd208df2765adc28c723b
Reciphers for ciphertext: 0
Decipheredtext:           0000000000000000000000000000000000
RESULT CIPHER-DECIPHER: -----OK-----


Test: 48
Data unit:   0
Start block: 0
Symmetric key bit length: 384
Plaintext bit length:     136
Symmetric key:            000000000000000000000000000000000000000000000000000000000000000000000000000080000000000000000000
Plaintext:                0000000000000000000000000000000000
Ciphertext:               e62e00e7d4e7911e4c6fef13bc3fa721bd9ea7cd52a287f1bd76c59679278762e6
Reciphers for ciphertext: 0
Decipheredtext:           0000000000000000000000000000000000
RESULT CIPHER-DECIPHER: -----OK-----


Test: 49
Data unit:   0
Start block: 0
Symmetric key bit length: 384
Plaintext bit length:     136
Symmetric key:            000000000000000000000000000000000000000000000000000000000000000000000000000040000000000000000000
Plaintext:                0000000000000000000000000000000000
Ciphertext:               50bc8e76a90ea7671ec8348c98f6fe18e19522c1bc0aaa31d5378a1dcdf09c3e50
Reciphers for ciphertext: 0
Decipheredtext:           0000000000000000000000000000000000
RESULT CIPHER-DECIPHER: -----OK-----


Test: 50
Data unit:   0
Start block: 0
Symmetric key bit length: 384
Plaintext bit length:     136
Symmetric key:            000000000000000000000000000000000000000000000000000000000000000000000000000020000000000000000000
Plaintext:                0000000000000000000000000000000000
Ciphertext:               da3e205ffffa8fe57ccfbb6252168f43db78de2e0a1e73ff99727efb0a1b13d2da
Reciphers for ciphertext: 0
Decipheredtext:           0000000000000000000000000000000000
RESULT CIPHER-DECIPHER: -----OK-----


Test: 51
Data unit:   0
Start block: 0
Symmetric key bit length: 384
Plaintext bit length:     136
Symmetric key:            000000000000000000000000000000000000000000000000000000000000000000000000000010000000000000000000
Plaintext:                0000000000000000000000000000000000
Ciphertext:               740147f674d40c58a5e2db99f534f257f13769d19aafab3ac56243c2c653453374
Reciphers for ciphertext: 0
Decipheredtext:           0000000000000000000000000000000000
RESULT CIPHER-DECIPHER: -----OK-----


Test: 52
Data unit:   0
Start block: 0
Symmetric key bit length: 384
Plaintext bit length:     136
Symmetric key:            000000000000000000000000000000000000000000000000000000000000000000000000000008000000000000000000
Plaintext:                0000000000000000000000000000000000
Ciphertext:               7836eec5eda6248b5d5ebe6e6f6661a6ae067f4445e0db5c07da861487806bfa78
Reciphers for ciphertext: 0
Decipheredtext:           0000000000000000000000000000000000
RESULT CIPHER-DECIPHER: -----OK-----


Test: 53
Data unit:   0
Start block: 0
Symmetric key bit length: 384
Plaintext bit length:     136
Symmetric key:            000000000000000000000000000000000000000000000000000000000000000000000000000004000000000000000000
Plaintext:                0000000000000000000000000000000000
Ciphertext:               9b33e95075a3f97004be8b0b865f1dddd38ca2e692d0c46592839527799836529b
Reciphers for ciphertext: 0
Decipheredtext:           0000000000000000000000000000000000
RESULT CIPHER-DECIPHER: -----OK-----


Test: 54
Data unit:   0
Start block: 0
Symmetric key bit length: 384
Plaintext bit length:     136
Symmetric key:            000000000000000000000000000000000000000000000000000000000000000000000000000002000000000000000000
Plaintext:                0000000000000000000000000000000000
Ciphertext:               a336bdbcc61cc07d9f208401728a256e74a1f584b680f4c82f45e9e415fd7af8a3
Reciphers for ciphertext: 0
Decipheredtext:           0000000000000000000000000000000000
RESULT CIPHER-DECIPHER: -----OK-----


Test: 55
Data unit:   0
Start block: 0
Symmetric key bit length: 384
Plaintext bit length:     136
Symmetric key:            000000000000000000000000000000000000000000000000000000000000000000000000000001000000000000000000
Plaintext:                0000000000000000000000000000000000
Ciphertext:               119ca2e05cd9dd2015d0904c2d0e67bcf840620e26e20b8377dc1d45b36e0d6a11
Reciphers for ciphertext: 0
Decipheredtext:           0000000000000000000000000000000000
RESULT CIPHER-DECIPHER: -----OK-----


Test: 56
Data unit:   0
Start block: 0
Symmetric key bit length: 384
Plaintext bit length:     136
Symmetric key:            000000000000000000000000000000000000000000000000000000000000000000000000000000800000000000000000
Plaintext:                0000000000000000000000000000000000
Ciphertext:               ea30d05f3cf17eee43da536aebb12f9a532f45246f548bfb0bfe1bcb2489ffb9ea
Reciphers for ciphertext: 0
Decipheredtext:           0000000000000000000000000000000000
RESULT CIPHER-DECIPHER: -----OK-----


Test: 57
Data unit:   0
Start block: 0
Symmetric key bit length: 384
Plaintext bit length:     136
Symmetric key:            000000000000000000000000000000000000000000000000000000000000000000000000000000400000000000000000
Plaintext:                0000000000000000000000000000000000
Ciphertext:               0b159e480a8dd25a33adc4556b027ed01d66e439265cf303d3128fd86739baac0b
Reciphers for ciphertext: 0
Decipheredtext:           0000000000000000000000000000000000
RESULT CIPHER-DECIPHER: -----OK-----


Test: 58
Data unit:   0
Start block: 0
Symmetric key bit length: 384
Plaintext bit length:     136
Symmetric key:            000000000000000000000000000000000000000000000000000000000000000000000000000000200000000000000000
Plaintext:                0000000000000000000000000000000000
Ciphertext:               4e56ca1c712752b15959d0e627a54f91ef6a7cf599afc856668856f79abe952d4e
Reciphers for ciphertext: 0
Decipheredtext:           0000000000000000000000000000000000
RESULT CIPHER-DECIPHER: -----OK-----


Test: 59
Data unit:   0
Start block: 0
Symmetric key bit length: 384
Plaintext bit length:     136
Symmetric key:            000000000000000000000000000000000000000000000000000000000000000000000000000000100000000000000000
Plaintext:                0000000000000000000000000000000000
Ciphertext:               cfef2cdc78518846dd39dbb64ad5fae474b747b55ed0eaaece92194257dac551cf
Reciphers for ciphertext: 0
Decipheredtext:           0000000000000000000000000000000000
RESULT CIPHER-DECIPHER: -----OK-----


Test: 60
Data unit:   0
Start block: 0
Symmetric key bit length: 384
Plaintext bit length:     136
Symmetric key:            000000000000000000000000000000000000000000000000000000000000000000000000000000080000000000000000
Plaintext:                0000000000000000000000000000000000
Ciphertext:               9d6ead2a687e32c05cdab41a485a647fd554bcc0ce75df1b4577420947e011409d
Reciphers for ciphertext: 0
Decipheredtext:           0000000000000000000000000000000000
RESULT CIPHER-DECIPHER: -----OK-----


Test: 61
Data unit:   0
Start block: 0
Symmetric key bit length: 384
Plaintext bit length:     136
Symmetric key:            000000000000000000000000000000000000000000000000000000000000000000000000000000040000000000000000
Plaintext:                0000000000000000000000000000000000
Ciphertext:               2a4660e65ea90a2d332f5f8db96f826530c118117def7d059553e88f6c84b0492a
Reciphers for ciphertext: 0
Decipheredtext:           0000000000000000000000000000000000
RESULT CIPHER-DECIPHER: -----OK-----


Test: 62
Data unit:   0
Start block: 0
Symmetric key bit length: 384
Plaintext bit length:     136
Symmetric key:            000000000000000000000000000000000000000000000000000000000000000000000000000000020000000000000000
Plaintext:                0000000000000000000000000000000000
Ciphertext:               f96366af91cf819b4ee7052ba63e0ef50db091d309fde9fcb51205f4ec588886f9
Reciphers for ciphertext: 0
Decipheredtext:           0000000000000000000000000000000000
RESULT CIPHER-DECIPHER: -----OK-----


Test: 63
Data unit:   0
Start block: 0
Symmetric key bit length: 384
Plaintext bit length:     136
Symmetric key:            000000000000000000000000000000000000000000000000000000000000000000000000000000010000000000000000
Plaintext:                0000000000000000000000000000000000
Ciphertext:               d08c4e141a43ff52e8c9cb2a88b7032fcf18890ade8c29dd2ed15b68ee3645c2d0
Reciphers for ciphertext: 0
Decipheredtext:           0000000000000000000000000000000000
RESULT CIPHER-DECIPHER: -----OK-----


Test: 64
Data unit:   0
Start block: 0
Symmetric key bit length: 384
Plaintext bit length:     136
Symmetric key:            000000000000000000000000000000000000000000000000000000000000000000000000000000008000000000000000
Plaintext:                0000000000000000000000000000000000
Ciphertext:               b994c4c96d788f217e47c568a3e2512849fa20d548de6e9dbb22eca2e861307ab9
Reciphers for ciphertext: 0
Decipheredtext:           0000000000000000000000000000000000
RESULT CIPHER-DECIPHER: -----OK-----


Test: 65
Data unit:   0
Start block: 0
Symmetric key bit length: 384
Plaintext bit length:     136
Symmetric key:            000000000000000000000000000000000000000000000000000000000000000000000000000000004000000000000000
Plaintext:                0000000000000000000000000000000000
Ciphertext:               d5421bc520112af0a1d447ff73a84a4662e70affe61abd74adf6595a0c55e5ffd5
Reciphers for ciphertext: 0
Decipheredtext:           0000000000000000000000000000000000
RESULT CIPHER-DECIPHER: -----OK-----


Test: 66
Data unit:   0
Start block: 0
Symmetric key bit length: 384
Plaintext bit length:     136
Symmetric key:            000000000000000000000000000000000000000000000000000000000000000000000000000000002000000000000000
Plaintext:                0000000000000000000000000000000000
Ciphertext:               6aaa3f4005c977b189ca44c945cb4eef3e3c73f746a3064627b17a3dbc48bb486a
Reciphers for ciphertext: 0
Decipheredtext:           0000000000000000000000000000000000
RESULT CIPHER-DECIPHER: -----OK-----


Test: 67
Data unit:   0
Start block: 0
Symmetric key bit length: 384
Plaintext bit length:     136
Symmetric key:            000000000000000000000000000000000000000000000000000000000000000000000000000000001000000000000000
Plaintext:                0000000000000000000000000000000000
Ciphertext:               5c4c65589663bc9ab2a3a356360d6819b313ccadd95c09fa20c1489805bf57215c
Reciphers for ciphertext: 0
Decipheredtext:           0000000000000000000000000000000000
RESULT CIPHER-DECIPHER: -----OK-----


Test: 68
Data unit:   0
Start block: 0
Symmetric key bit length: 384
Plaintext bit length:     136
Symmetric key:            000000000000000000000000000000000000000000000000000000000000000000000000000000000800000000000000
Plaintext:                0000000000000000000000000000000000
Ciphertext:               14acc0c86051bd6cc37d3ce863ca177ca36ebb0067ae3f3538f7c4963ba112f814
Reciphers for ciphertext: 0
Decipheredtext:           0000000000000000000000000000000000
RESULT CIPHER-DECIPHER: -----OK-----


Test: 69
Data unit:   0
Start block: 0
Symmetric key bit length: 384
Plaintext bit length:     136
Symmetric key:            000000000000000000000000000000000000000000000000000000000000000000000000000000000400000000000000
Plaintext:                0000000000000000000000000000000000
Ciphertext:               db55c3ea1c9abffc54aeec36dc80c5febaa41aa261b670c0c765ed9eb3df16abdb
Reciphers for ciphertext: 0
Decipheredtext:           0000000000000000000000000000000000
RESULT CIPHER-DECIPHER: -----OK-----


Test: 70
Data unit:   0
Start block: 0
Symmetric key bit length: 384
Plaintext bit length:     136
Symmetric key:            000000000000000000000000000000000000000000000000000000000000000000000000000000000200000000000000
Plaintext:                0000000000000000000000000000000000
Ciphertext:               fdf1e599b151774d67b2a7893de2ae2c5968c78a2b6112122ba7c86398dfadc8fd
Reciphers for ciphertext: 0
Decipheredtext:           0000000000000000000000000000000000
RESULT CIPHER-DECIPHER: -----OK-----


Test: 71
Data unit:   0
Start block: 0
Symmetric key bit length: 384
Plaintext bit length:     136
Symmetric key:            000000000000000000000000000000000000000000000000000000000000000000000000000000000100000000000000
Plaintext:                0000000000000000000000000000000000
Ciphertext:               9c488e3a8a3203fcd735c080e79a8749d0645d3c096daa6913ea39569d4d1ce59c
Reciphers for ciphertext: 0
Decipheredtext:           0000000000000000000000000000000000
RESULT CIPHER-DECIPHER: -----OK-----


Test: 72
Data unit:   0
Start block: 0
Symmetric key bit length: 384
Plaintext bit length:     136
Symmetric key:            000000000000000000000000000000000000000000000000000000000000000000000000000000000080000000000000
Plaintext:                0000000000000000000000000000000000
Ciphertext:               5a7579327344c1964c580aec3f1ba232a6b44ffdee9f8c05138714078893ef665a
Reciphers for ciphertext: 0
Decipheredtext:           0000000000000000000000000000000000
RESULT CIPHER-DECIPHER: -----OK-----


Test: 73
Data unit:   0
Start block: 0
Symmetric key bit length: 384
Plaintext bit length:     136
Symmetric key:            000000000000000000000000000000000000000000000000000000000000000000000000000000000040000000000000
Plaintext:                0000000000000000000000000000000000
Ciphertext:               e118f80357382185dc6de3fdb4b977a982f521401c1289dd649d9cb3f0fb45f4e1
Reciphers for ciphertext: 0
Decipheredtext:           0000000000000000000000000000000000
RESULT CIPHER-DECIPHER: -----OK-----


Test: 74
Data unit:   0
Start block: 0
Symmetric key bit length: 384
Plaintext bit length:     136
Symmetric key:            000000000000000000000000000000000000000000000000000000000000000000000000000000000020000000000000
Plaintext:                0000000000000000000000000000000000
Ciphertext:               bfd724b067972dde1260324c775bb5fb4920adc47f82b6a0541165ebff196e74bf
Reciphers for ciphertext: 0
Decipheredtext:           0000000000000000000000000000000000
RESULT CIPHER-DECIPHER: -----OK-----


Test: 75
Data unit:   0
Start block: 0
Symmetric key bit length: 384
Plaintext bit length:     136
Symmetric key:            000000000000000000000000000000000000000000000000000000000000000000000000000000000010000000000000
Plaintext:                0000000000000000000000000000000000
Ciphertext:               c38026fb31a98095397afa4489cf285f8ddcb569533cd23b41b43c5759efbeffc3
Reciphers for ciphertext: 0
Decipheredtext:           0000000000000000000000000000000000
RESULT CIPHER-DECIPHER: -----OK-----


Test: 76
Data unit:   0
Start block: 0
Symmetric key bit length: 384
Plaintext bit length:     136
Symmetric key:            000000000000000000000000000000000000000000000000000000000000000000000000000000000008000000000000
Plaintext:                0000000000000000000000000000000000
Ciphertext:               57739b9ab6618f86d334dfb2b5e68ff82500c0889a2822a12c4a5d259215d4bd57
Reciphers for ciphertext: 0
Decipheredtext:           0000000000000000000000000000000000
RESULT CIPHER-DECIPHER: -----OK-----


Test: 77
Data unit:   0
Start block: 0
Symmetric key bit length: 384
Plaintext bit length:     136
Symmetric key:            000000000000000000000000000000000000000000000000000000000000000000000000000000000004000000000000
Plaintext:                0000000000000000000000000000000000
Ciphertext:               a71ee0284e493e4453ebfdc6311f2e2408f7be5a8cdb271ba9724f493e096451a7
Reciphers for ciphertext: 0
Decipheredtext:           0000000000000000000000000000000000
RESULT CIPHER-DECIPHER: -----OK-----


Test: 78
Data unit:   0
Start block: 0
Symmetric key bit length: 384
Plaintext bit length:     136
Symmetric key:            000000000000000000000000000000000000000000000000000000000000000000000000000000000002000000000000
Plaintext:                0000000000000000000000000000000000
Ciphertext:               b665136f4cad9446e1332a696f507cbabace09a087189f356cefdcc44fa7e863b6
Reciphers for ciphertext: 0
Decipheredtext:           0000000000000000000000000000000000
RESULT CIPHER-DECIPHER: -----OK-----


Test: 79
Data unit:   0
Start block: 0
Symmetric key bit length: 384
Plaintext bit length:     136
Symmetric key:            000000000000000000000000000000000000000000000000000000000000000000000000000000000001000000000000
Plaintext:                0000000000000000000000000000000000
Ciphertext:               6b1b85ecf33ec8010292a2b0e68bbf9b0417640f81c1cce9c644c2bbff6c843d6b
Reciphers for ciphertext: 0
Decipheredtext:           0000000000000000000000000000000000
RESULT CIPHER-DECIPHER: -----OK-----


Test: 80
Data unit:   0
Start block: 0
Symmetric key bit length: 384
Plaintext bit length:     136
Symmetric key:            000000000000000000000000000000000000000000000000000000000000000000000000000000000000800000000000
Plaintext:                0000000000000000000000000000000000
Ciphertext:               eaaf16f2f6e5a13c6ee687cf154a6ca0fd01df369f89058a8296d8b17375e009ea
Reciphers for ciphertext: 0
Decipheredtext:           0000000000000000000000000000000000
RESULT CIPHER-DECIPHER: -----OK-----


Test: 81
Data unit:   0
Start block: 0
Symmetric key bit length: 384
Plaintext bit length:     136
Symmetric key:            000000000000000000000000000000000000000000000000000000000000000000000000000000000000400000000000
Plaintext:                0000000000000000000000000000000000
Ciphertext:               63f19725b271e738840ad66bb942eb3681a3dbbe2d0a64161c3246b880800d2d63
Reciphers for ciphertext: 0
Decipheredtext:           0000000000000000000000000000000000
RESULT CIPHER-DECIPHER: -----OK-----


Test: 82
Data unit:   0
Start block: 0
Symmetric key bit length: 384
Plaintext bit length:     136
Symmetric key:            000000000000000000000000000000000000000000000000000000000000000000000000000000000000200000000000
Plaintext:                0000000000000000000000000000000000
Ciphertext:               9c14a2a9fcb4f1f555429ee79a0027db4c625d4541b9d15e8ef597ade9de9eef9c
Reciphers for ciphertext: 0
Decipheredtext:           0000000000000000000000000000000000
RESULT CIPHER-DECIPHER: -----OK-----


Test: 83
Data unit:   0
Start block: 0
Symmetric key bit length: 384
Plaintext bit length:     136
Symmetric key:            000000000000000000000000000000000000000000000000000000000000000000000000000000000000100000000000
Plaintext:                0000000000000000000000000000000000
Ciphertext:               092728d1fb80b2956a4a8f0544374c5d728c7737982a4e69b40f8163e3c6380909
Reciphers for ciphertext: 0
Decipheredtext:           0000000000000000000000000000000000
RESULT CIPHER-DECIPHER: -----OK-----


Test: 84
Data unit:   0
Start block: 0
Symmetric key bit length: 384
Plaintext bit length:     136
Symmetric key:            000000000000000000000000000000000000000000000000000000000000000000000000000000000000080000000000
Plaintext:                0000000000000000000000000000000000
Ciphertext:               36073d41e7f073d234d5a07511def10397e9a02e2672e6c91f4b189e2eb6c35c36
Reciphers for ciphertext: 0
Decipheredtext:           0000000000000000000000000000000000
RESULT CIPHER-DECIPHER: -----OK-----


Test: 85
Data unit:   0
Start block: 0
Symmetric key bit length: 384
Plaintext bit length:     136
Symmetric key:            000000000000000000000000000000000000000000000000000000000000000000000000000000000000040000000000
Plaintext:                0000000000000000000000000000000000
Ciphertext:               7db39c31931bb2fc23635423413d398709494ec9598c0aa7e3f477ec7ba634e17d
Reciphers for ciphertext: 0
Decipheredtext:           0000000000000000000000000000000000
RESULT CIPHER-DECIPHER: -----OK-----


Test: 86
Data unit:   0
Start block: 0
Symmetric key bit length: 384
Plaintext bit length:     136
Symmetric key:            000000000000000000000000000000000000000000000000000000000000000000000000000000000000020000000000
Plaintext:                0000000000000000000000000000000000
Ciphertext:               540cdcf2b876be614c132328a3cbc17b5790cdffe972cfcea0f39fdf6aa0867254
Reciphers for ciphertext: 0
Decipheredtext:           0000000000000000000000000000000000
RESULT CIPHER-DECIPHER: -----OK-----


Test: 87
Data unit:   0
Start block: 0
Symmetric key bit length: 384
Plaintext bit length:     136
Symmetric key:            000000000000000000000000000000000000000000000000000000000000000000000000000000000000010000000000
Plaintext:                0000000000000000000000000000000000
Ciphertext:               a883b4014c66c453133bf400314fb51bc34dd48e6fb78debc289412299e6e0afa8
Reciphers for ciphertext: 0
Decipheredtext:           0000000000000000000000000000000000
RESULT CIPHER-DECIPHER: -----OK-----


Test: 88
Data unit:   0
Start block: 0
Symmetric key bit length: 384
Plaintext bit length:     136
Symmetric key:            000000000000000000000000000000000000000000000000000000000000000000000000000000000000008000000000
Plaintext:                0000000000000000000000000000000000
Ciphertext:               c195a9f8725c8cf2058d38c8a7eef0b009bf0eed192704d8a8d2e69a5e04e87dc1
Reciphers for ciphertext: 0
Decipheredtext:           0000000000000000000000000000000000
RESULT CIPHER-DECIPHER: -----OK-----


Test: 89
Data unit:   0
Start block: 0
Symmetric key bit length: 384
Plaintext bit length:     136
Symmetric key:            000000000000000000000000000000000000000000000000000000000000000000000000000000000000004000000000
Plaintext:                0000000000000000000000000000000000
Ciphertext:               7c54f823e61d49452bf8de26839d233e367100e0f88a1c9492e6bf49969d732f7c
Reciphers for ciphertext: 0
Decipheredtext:           0000000000000000000000000000000000
RESULT CIPHER-DECIPHER: -----OK-----


Test: 90
Data unit:   0
Start block: 0
Symmetric key bit length: 384
Plaintext bit length:     136
Symmetric key:            000000000000000000000000000000000000000000000000000000000000000000000000000000000000002000000000
Plaintext:                0000000000000000000000000000000000
Ciphertext:               2667e11505a0ea2dbd00f20cb6b3dc5297224de188587e26cc32dec8dd59cca926
Reciphers for ciphertext: 0
Decipheredtext:           0000000000000000000000000000000000
RESULT CIPHER-DECIPHER: -----OK-----


Test: 91
Data unit:   0
Start block: 0
Symmetric key bit length: 384
Plaintext bit length:     136
Symmetric key:            000000000000000000000000000000000000000000000000000000000000000000000000000000000000001000000000
Plaintext:                0000000000000000000000000000000000
Ciphertext:               860fbc7c5f4a18f11625917d4a08fb0aaba7bf100f5a734e3feb2e7e86cdab0186
Reciphers for ciphertext: 0
Decipheredtext:           0000000000000000000000000000000000
RESULT CIPHER-DECIPHER: -----OK-----


Test: 92
Data unit:   0
Start block: 0
Symmetric key bit length: 384
Plaintext bit length:     136
Symmetric key:            000000000000000000000000000000000000000000000000000000000000000000000000000000000000000800000000
Plaintext:                0000000000000000000000000000000000
Ciphertext:               da88b6fa51edc79314aa8ede7b9561ecc07f64db88889c27347a9180d90c89c1da
Reciphers for ciphertext: 0
Decipheredtext:           0000000000000000000000000000000000
RESULT CIPHER-DECIPHER: -----OK-----


Test: 93
Data unit:   0
Start block: 0
Symmetric key bit length: 384
Plaintext bit length:     136
Symmetric key:            000000000000000000000000000000000000000000000000000000000000000000000000000000000000000400000000
Plaintext:                0000000000000000000000000000000000
Ciphertext:               09a400761c33879815cd12e98574d8ef971f66df912d5ff34cc36332e4328b0309
Reciphers for ciphertext: 0
Decipheredtext:           0000000000000000000000000000000000
RESULT CIPHER-DECIPHER: -----OK-----


Test: 94
Data unit:   0
Start block: 0
Symmetric key bit length: 384
Plaintext bit length:     136
Symmetric key:            000000000000000000000000000000000000000000000000000000000000000000000000000000000000000200000000
Plaintext:                0000000000000000000000000000000000
Ciphertext:               4693be477f26a51dd63e3d2c9b9659a15cb3235136c68a858920d3c114360b9346
Reciphers for ciphertext: 0
Decipheredtext:           0000000000000000000000000000000000
RESULT CIPHER-DECIPHER: -----OK-----


Test: 95
Data unit:   0
Start block: 0
Symmetric key bit length: 384
Plaintext bit length:     136
Symmetric key:            000000000000000000000000000000000000000000000000000000000000000000000000000000000000000100000000
Plaintext:                0000000000000000000000000000000000
Ciphertext:               cafc8acd60482e68c191a10868ccc2bc5691835e03b666303dc6860bb6ba053cca
Reciphers for ciphertext: 0
Decipheredtext:           0000000000000000000000000000000000
RESULT CIPHER-DECIPHER: -----OK-----


Test: 96
Data unit:   0
Start block: 0
Symmetric key bit length: 384
Plaintext bit length:     136
Symmetric key:            000000000000000000000000000000000000000000000000000000000000000000000000000000000000000080000000
Plaintext:                0000000000000000000000000000000000
Ciphertext:               1f792f8b28b0de8e8f46a4f666ea5a87745d33d5cbbfcd08cc0374ade5dea17d1f
Reciphers for ciphertext: 0
Decipheredtext:           0000000000000000000000000000000000
RESULT CIPHER-DECIPHER: -----OK-----


Test: 97
Data unit:   0
Start block: 0
Symmetric key bit length: 384
Plaintext bit length:     136
Symmetric key:            000000000000000000000000000000000000000000000000000000000000000000000000000000000000000040000000
Plaintext:                0000000000000000000000000000000000
Ciphertext:               2cbdc2b439013b01aaadb9c527424602aa6a1b6c831e056dfdfd1b92b89f3fc22c
Reciphers for ciphertext: 0
Decipheredtext:           0000000000000000000000000000000000
RESULT CIPHER-DECIPHER: -----OK-----


Test: 98
Data unit:   0
Start block: 0
Symmetric key bit length: 384
Plaintext bit length:     136
Symmetric key:            000000000000000000000000000000000000000000000000000000000000000000000000000000000000000020000000
Plaintext:                0000000000000000000000000000000000
Ciphertext:               d2bd4b6c2f69d147751db2a733e6323d0e365226ab352623a8d38fd26505ea86d2
Reciphers for ciphertext: 0
Decipheredtext:           0000000000000000000000000000000000
RESULT CIPHER-DECIPHER: -----OK-----


Test: 99
Data unit:   0
Start block: 0
Symmetric key bit length: 384
Plaintext bit length:     136
Symmetric key:            000000000000000000000000000000000000000000000000000000000000000000000000000000000000000010000000
Plaintext:                0000000000000000000000000000000000
Ciphertext:               e05ab84795c1d4d91091bc59f54b9d5913e6de3e82f01d6a831dd0f191b429dee0
Reciphers for ciphertext: 0
Decipheredtext:           0000000000000000000000000000000000
RESULT CIPHER-DECIPHER: -----OK-----


Test: 100
Data unit:   0
Start block: 0
Symmetric key bit length: 384
Plaintext bit length:     136
Symmetric key:            000000000000000000000000000000000000000000000000000000000000000000000000000000000000000008000000
Plaintext:                0000000000000000000000000000000000
Ciphertext:               27a91ac3bf8b08cfd6d734d3bf5f8e587cf130b5ecf1ab20b0a24c6cc1ada09b27
Reciphers for ciphertext: 0
Decipheredtext:           0000000000000000000000000000000000
RESULT CIPHER-DECIPHER: -----OK-----


Test: 101
Data unit:   0
Start block: 0
Symmetric key bit length: 384
Plaintext bit length:     136
Symmetric key:            000000000000000000000000000000000000000000000000000000000000000000000000000000000000000004000000
Plaintext:                0000000000000000000000000000000000
Ciphertext:               0dabd422f42419b690d57957d164ab1f19d60c95675d3ebbbd18df9d4e21f4940d
Reciphers for ciphertext: 0
Decipheredtext:           0000000000000000000000000000000000
RESULT CIPHER-DECIPHER: -----OK-----


Test: 102
Data unit:   0
Start block: 0
Symmetric key bit length: 384
Plaintext bit length:     136
Symmetric key:            000000000000000000000000000000000000000000000000000000000000000000000000000000000000000002000000
Plaintext:                0000000000000000000000000000000000
Ciphertext:               a7afba36a3375aa0ae36d7f7d3a9221d9d13a1b2468c0f7f1dd00813fb66c59aa7
Reciphers for ciphertext: 0
Decipheredtext:           0000000000000000000000000000000000
RESULT CIPHER-DECIPHER: -----OK-----


Test: 103
Data unit:   0
Start block: 0
Symmetric key bit length: 384
Plaintext bit length:     136
Symmetric key:            000000000000000000000000000000000000000000000000000000000000000000000000000000000000000001000000
Plaintext:                0000000000000000000000000000000000
Ciphertext:               9105558844d36ec2bd15afc2c42bd8aff9686e697df34ac8ab81b8006b0855e991
Reciphers for ciphertext: 0
Decipheredtext:           0000000000000000000000000000000000
RESULT CIPHER-DECIPHER: -----OK-----


Test: 104
Data unit:   0
Start block: 0
Symmetric key bit length: 384
Plaintext bit length:     136
Symmetric key:            000000000000000000000000000000000000000000000000000000000000000000000000000000000000000000800000
Plaintext:                0000000000000000000000000000000000
Ciphertext:               c46a615791cdb123c727748428a2606d2e307fa707b6f20acfb52d55f53e2d31c4
Reciphers for ciphertext: 0
Decipheredtext:           0000000000000000000000000000000000
RESULT CIPHER-DECIPHER: -----OK-----


Test: 105
Data unit:   0
Start block: 0
Symmetric key bit length: 384
Plaintext bit length:     136
Symmetric key:            000000000000000000000000000000000000000000000000000000000000000000000000000000000000000000400000
Plaintext:                0000000000000000000000000000000000
Ciphertext:               04dff86621bc3863810c36b5be0b3a2738227eaea7f96471eb91ef16c94f692604
Reciphers for ciphertext: 0
Decipheredtext:           0000000000000000000000000000000000
RESULT CIPHER-DECIPHER: -----OK-----


Test: 106
Data unit:   0
Start block: 0
Symmetric key bit length: 384
Plaintext bit length:     136
Symmetric key:            000000000000000000000000000000000000000000000000000000000000000000000000000000000000000000200000
Plaintext:                0000000000000000000000000000000000
Ciphertext:               893ecb9783e76af706564372659124d144dce816cf1414c028149edca151d12689
Reciphers for ciphertext: 0
Decipheredtext:           0000000000000000000000000000000000
RESULT CIPHER-DECIPHER: -----OK-----


Test: 107
Data unit:   0
Start block: 0
Symmetric key bit length: 384
Plaintext bit length:     136
Symmetric key:            000000000000000000000000000000000000000000000000000000000000000000000000000000000000000000100000
Plaintext:                0000000000000000000000000000000000
Ciphertext:               4e302d0887478d12a8d1eefe77d66985ca0ef2d49667402aec7579b46da57c9c4e
Reciphers for ciphertext: 0
Decipheredtext:           0000000000000000000000000000000000
RESULT CIPHER-DECIPHER: -----OK-----


Test: 108
Data unit:   0
Start block: 0
Symmetric key bit length: 384
Plaintext bit length:     136
Symmetric key:            000000000000000000000000000000000000000000000000000000000000000000000000000000000000000000080000
Plaintext:                0000000000000000000000000000000000
Ciphertext:               55223275ca7d6a6f7bad241622011f096510582988f8e9cea86ed967fecbca2055
Reciphers for ciphertext: 0
Decipheredtext:           0000000000000000000000000000000000
RESULT CIPHER-DECIPHER: -----OK-----


Test: 109
Data unit:   0
Start block: 0
Symmetric key bit length: 384
Plaintext bit length:     136
Symmetric key:            000000000000000000000000000000000000000000000000000000000000000000000000000000000000000000040000
Plaintext:                0000000000000000000000000000000000
Ciphertext:               7871dca56cc2e76d2f79a973f275adef13c18329774d5b814c06f976e154d02678
Reciphers for ciphertext: 0
Decipheredtext:           0000000000000000000000000000000000
RESULT CIPHER-DECIPHER: -----OK-----


Test: 110
Data unit:   0
Start block: 0
Symmetric key bit length: 384
Plaintext bit length:     136
Symmetric key:            000000000000000000000000000000000000000000000000000000000000000000000000000000000000000000020000
Plaintext:                0000000000000000000000000000000000
Ciphertext:               2a71c914f649962eccf07294c3704fed4e0383ed0921f597fce7cc746e6dc40d2a
Reciphers for ciphertext: 0
Decipheredtext:           0000000000000000000000000000000000
RESULT CIPHER-DECIPHER: -----OK-----


Test: 111
Data unit:   0
Start block: 0
Symmetric key bit length: 384
Plaintext bit length:     136
Symmetric key:            000000000000000000000000000000000000000000000000000000000000000000000000000000000000000000010000
Plaintext:                0000000000000000000000000000000000
Ciphertext:               e27e9a56db45706a302a7df9fbac06e27bb97cdf69be964728eaebbd59253c90e2
Reciphers for ciphertext: 0
Decipheredtext:           0000000000000000000000000000000000
RESULT CIPHER-DECIPHER: -----OK-----


Test: 112
Data unit:   0
Start block: 0
Symmetric key bit length: 384
Plaintext bit length:     136
Symmetric key:            000000000000000000000000000000000000000000000000000000000000000000000000000000000000000000008000
Plaintext:                0000000000000000000000000000000000
Ciphertext:               c9a1a33db3b96f65aaa1d786c856482dbb319f07a527cf32cd9ab533f2a323bdc9
Reciphers for ciphertext: 0
Decipheredtext:           0000000000000000000000000000000000
RESULT CIPHER-DECIPHER: -----OK-----


Test: 113
Data unit:   0
Start block: 0
Symmetric key bit length: 384
Plaintext bit length:     136
Symmetric key:            000000000000000000000000000000000000000000000000000000000000000000000000000000000000000000004000
Plaintext:                0000000000000000000000000000000000
Ciphertext:               f0d06574b9ba1a6c33434bdb14a9935f0d38005ec79af6e803176a9a4599aa22f0
Reciphers for ciphertext: 0
Decipheredtext:           0000000000000000000000000000000000
RESULT CIPHER-DECIPHER: -----OK-----


Test: 114
Data unit:   0
Start block: 0
Symmetric key bit length: 384
Plaintext bit length:     136
Symmetric key:            000000000000000000000000000000000000000000000000000000000000000000000000000000000000000000002000
Plaintext:                0000000000000000000000000000000000
Ciphertext:               eb6b0d82589e8c0152d1e2bc2ef6c58eac77d1c2e9628b044a8b2ac7aeff04aeeb
Reciphers for ciphertext: 0
Decipheredtext:           0000000000000000000000000000000000
RESULT CIPHER-DECIPHER: -----OK-----


Test: 115
Data unit:   0
Start block: 0
Symmetric key bit length: 384
Plaintext bit length:     136
Symmetric key:            000000000000000000000000000000000000000000000000000000000000000000000000000000000000000000001000
Plaintext:                0000000000000000000000000000000000
Ciphertext:               cb28f1a0aa228c38f8ed5935617cfc2c4d267d15ec39bb2e8ac72c0dbea5cf43cb
Reciphers for ciphertext: 0
Decipheredtext:           0000000000000000000000000000000000
RESULT CIPHER-DECIPHER: -----OK-----


Test: 116
Data unit:   0
Start block: 0
Symmetric key bit length: 384
Plaintext bit length:     136
Symmetric key:            000000000000000000000000000000000000000000000000000000000000000000000000000000000000000000000800
Plaintext:                0000000000000000000000000000000000
Ciphertext:               d62cacb5e30bdfa3494a826593e33baa1899763d7686528a0372192a46a5c7efd6
Reciphers for ciphertext: 0
Decipheredtext:           0000000000000000000000000000000000
RESULT CIPHER-DECIPHER: -----OK-----


Test: 117
Data unit:   0
Start block: 0
Symmetric key bit length: 384
Plaintext bit length:     136
Symmetric key:            000000000000000000000000000000000000000000000000000000000000000000000000000000000000000000000400
Plaintext:                0000000000000000000000000000000000
Ciphertext:               922ee18696157b6a5e3ea1bb12d77855047b611e7f8372f7c9f422baaba7a75d92
Reciphers for ciphertext: 0
Decipheredtext:           0000000000000000000000000000000000
RESULT CIPHER-DECIPHER: -----OK-----


Test: 118
Data unit:   0
Start block: 0
Symmetric key bit length: 384
Plaintext bit length:     136
Symmetric key:            000000000000000000000000000000000000000000000000000000000000000000000000000000000000000000000200
Plaintext:                0000000000000000000000000000000000
Ciphertext:               0c31797e9ca9b495a33a60c156bd7ff885fa969f27f104f5c39db1b144739ec80c
Reciphers for ciphertext: 0
Decipheredtext:           0000000000000000000000000000000000
RESULT CIPHER-DECIPHER: -----OK-----


Test: 119
Data unit:   0
Start block: 0
Symmetric key bit length: 384
Plaintext bit length:     136
Symmetric key:            000000000000000000000000000000000000000000000000000000000000000000000000000000000000000000000100
Plaintext:                0000000000000000000000000000000000
Ciphertext:               e542bc345935a3931dc4f91aa01695768d2be7ae046957edfc6e6b1b9e652bb2e5
Reciphers for ciphertext: 0
Decipheredtext:           0000000000000000000000000000000000
RESULT CIPHER-DECIPHER: -----OK-----


Test: 120
Data unit:   0
Start block: 0
Symmetric key bit length: 384
Plaintext bit length:     136
Symmetric key:            000000000000000000000000000000000000000000000000000000000000000000000000000000000000000000000080
Plaintext:                0000000000000000000000000000000000
Ciphertext:               c6ad868eb9ad613f2d5280a863442d607893f0c6a41be5bef8fe22e745ba21ccc6
Reciphers for ciphertext: 0
Decipheredtext:           0000000000000000000000000000000000
RESULT CIPHER-DECIPHER: -----OK-----


Test: 121
Data unit:   0
Start block: 0
Symmetric key bit length: 384
Plaintext bit length:     136
Symmetric key:            000000000000000000000000000000000000000000000000000000000000000000000000000000000000000000000040
Plaintext:                0000000000000000000000000000000000
Ciphertext:               45bb5d31c3a68230258128db66b7fcf0790b9fc058de04b11ace8f633bb79f6345
Reciphers for ciphertext: 0
Decipheredtext:           0000000000000000000000000000000000
RESULT CIPHER-DECIPHER: -----OK-----


Test: 122
Data unit:   0
Start block: 0
Symmetric key bit length: 384
Plaintext bit length:     136
Symmetric key:            000000000000000000000000000000000000000000000000000000000000000000000000000000000000000000000020
Plaintext:                0000000000000000000000000000000000
Ciphertext:               413cefd084112d1ebdba6fe1f5d8446f7a66efb289906c3a4a900892d0740a0741
Reciphers for ciphertext: 0
Decipheredtext:           0000000000000000000000000000000000
RESULT CIPHER-DECIPHER: -----OK-----


Test: 123
Data unit:   0
Start block: 0
Symmetric key bit length: 384
Plaintext bit length:     136
Symmetric key:            000000000000000000000000000000000000000000000000000000000000000000000000000000000000000000000010
Plaintext:                0000000000000000000000000000000000
Ciphertext:               9506080fd6aa0048b457be231d5c84f40ad30224ba2f1b08461c2380535cbea095
Reciphers for ciphertext: 0
Decipheredtext:           0000000000000000000000000000000000
RESULT CIPHER-DECIPHER: -----OK-----


Test: 124
Data unit:   0
Start block: 0
Symmetric key bit length: 384
Plaintext bit length:     136
Symmetric key:            000000000000000000000000000000000000000000000000000000000000000000000000000000000000000000000008
Plaintext:                0000000000000000000000000000000000
Ciphertext:               c501391c94546d7b009af5c86bfe71eb6be2aa825c2313a08706cf24b6df4c7ac5
Reciphers for ciphertext: 0
Decipheredtext:           0000000000000000000000000000000000
RESULT CIPHER-DECIPHER: -----OK-----


Test: 125
Data unit:   0
Start block: 0
Symmetric key bit length: 384
Plaintext bit length:     136
Symmetric key:            000000000000000000000000000000000000000000000000000000000000000000000000000000000000000000000004
Plaintext:                0000000000000000000000000000000000
Ciphertext:               b8fc8b7be325ad5cca88b7873fd284709d329fbce621d3fab4e8d4572c9d463ab8
Reciphers for ciphertext: 0
Decipheredtext:           0000000000000000000000000000000000
RESULT CIPHER-DECIPHER: -----OK-----


Test: 126
Data unit:   0
Start block: 0
Symmetric key bit length: 384
Plaintext bit length:     136
Symmetric key:            000000000000000000000000000000000000000000000000000000000000000000000000000000000000000000000002
Plaintext:                0000000000000000000000000000000000
Ciphertext:               bea62be36e5208bcf996235608b2656b9bf27dd8ce7225757fe561a37d02ee45be
Reciphers for ciphertext: 0
Decipheredtext:           0000000000000000000000000000000000
RESULT CIPHER-DECIPHER: -----OK-----


Test: 127
Data unit:   0
Start block: 0
Symmetric key bit length: 384
Plaintext bit length:     136
Symmetric key:            000000000000000000000000000000000000000000000000000000000000000000000000000000000000000000000001
Plaintext:                0000000000000000000000000000000000
Ciphertext:               1c3ff25dd363f224bb9741b7ffe57cbe3522905f16337a49a07ad6faf875055a1c
Reciphers for ciphertext: 0
Decipheredtext:           0000000000000000000000000000000000
RESULT CIPHER-DECIPHER: -----OK-----


 DATA SHA1 (hexadecimal): ae274abb9743e947d15f5d36993a54f2650411f4

