
DiceLock 9.0.0.1

 TEST COMPONENTS:
 ----------------
 DiceLock:           DiceLockXTSIndexed class
 Operation Mode:     XTS_Mode class
 Block Cipher:       Serpent256 class
 Key Modifier:       IncreaseBase0IndexModifier_6_0_0_1 class
   Index bit length: 128
 Random tests:       RandomTestSuite class
                     FrequencyTest class
                     BlockFrequencyTest class
                     CumulativeSumForwardTest class
                     LongestRunOfOnesTest class
                     RunsTest class
 Random alpha:       0.001

 VECTOR TEST: Test vector 2 - Changing symmetric key and plaintext, shifting 1 bit set


##### INDIVIDUAL TESTS #####

Number tests: 128


Test: 0
Sector size in bytes: 512
Data unit:   0
Start block: 0
Symmetric key bit length: 512
Plaintext bit length:     128
Symmetric key:            00000000000000000000000000000000000000000000000000000000000000000000000000000000000000000000000080000000000000000000000000000000
Plaintext:                80000000000000000000000000000000
Ciphertext:               d7519d2df4fe3c4323407137b566b1a8cdc09ce4314b21cd6f81bec8f70dd380
Reciphers for ciphertext: 0
Decipheredtext:           80000000000000000000000000000000
RESULT CIPHER-DECIPHER: -----OK-----


Test: 1
Sector size in bytes: 512
Data unit:   0
Start block: 0
Symmetric key bit length: 512
Plaintext bit length:     128
Symmetric key:            00000000000000000000000000000000000000000000000000000000000000000000000000000000000000000000000040000000000000000000000000000000
Plaintext:                40000000000000000000000000000000
Ciphertext:               c8cf4f1cbcfc5645e6d833ef8eaa42679c9f2cb077e5972f24a905a82c1d43d1
Reciphers for ciphertext: 0
Decipheredtext:           40000000000000000000000000000000
RESULT CIPHER-DECIPHER: -----OK-----


Test: 2
Sector size in bytes: 512
Data unit:   0
Start block: 0
Symmetric key bit length: 512
Plaintext bit length:     128
Symmetric key:            00000000000000000000000000000000000000000000000000000000000000000000000000000000000000000000000020000000000000000000000000000000
Plaintext:                20000000000000000000000000000000
Ciphertext:               5b3ca06192c9ff6a33cc279b1ae884774cec72d16cf124ce26823e672a8d5415
Reciphers for ciphertext: 0
Decipheredtext:           20000000000000000000000000000000
RESULT CIPHER-DECIPHER: -----OK-----


Test: 3
Sector size in bytes: 512
Data unit:   0
Start block: 0
Symmetric key bit length: 512
Plaintext bit length:     128
Symmetric key:            00000000000000000000000000000000000000000000000000000000000000000000000000000000000000000000000010000000000000000000000000000000
Plaintext:                10000000000000000000000000000000
Ciphertext:               4b0e1cd4c043546032706ed94cdc4f976cfa0e78de4948a6f8c107b474560e2c
Reciphers for ciphertext: 0
Decipheredtext:           10000000000000000000000000000000
RESULT CIPHER-DECIPHER: -----OK-----


Test: 4
Sector size in bytes: 512
Data unit:   0
Start block: 0
Symmetric key bit length: 512
Plaintext bit length:     128
Symmetric key:            00000000000000000000000000000000000000000000000000000000000000000000000000000000000000000000000008000000000000000000000000000000
Plaintext:                08000000000000000000000000000000
Ciphertext:               d9c3251a7e84eca52d272f5afb59de2a9bec1cb20044b94ff1aba2098956d881
Reciphers for ciphertext: 0
Decipheredtext:           08000000000000000000000000000000
RESULT CIPHER-DECIPHER: -----OK-----


Test: 5
Sector size in bytes: 512
Data unit:   0
Start block: 0
Symmetric key bit length: 512
Plaintext bit length:     128
Symmetric key:            00000000000000000000000000000000000000000000000000000000000000000000000000000000000000000000000004000000000000000000000000000000
Plaintext:                04000000000000000000000000000000
Ciphertext:               618f6f311ec3c48e8fe751c293d8e14e720d87472ea610364306c5a84c6b7083
Reciphers for ciphertext: 0
Decipheredtext:           04000000000000000000000000000000
RESULT CIPHER-DECIPHER: -----OK-----


Test: 6
Sector size in bytes: 512
Data unit:   0
Start block: 0
Symmetric key bit length: 512
Plaintext bit length:     128
Symmetric key:            00000000000000000000000000000000000000000000000000000000000000000000000000000000000000000000000002000000000000000000000000000000
Plaintext:                02000000000000000000000000000000
Ciphertext:               507f816fd17167691ae93745cd98b14685f7fa483c0414bec87a02a98389829a
Reciphers for ciphertext: 0
Decipheredtext:           02000000000000000000000000000000
RESULT CIPHER-DECIPHER: -----OK-----


Test: 7
Sector size in bytes: 512
Data unit:   0
Start block: 0
Symmetric key bit length: 512
Plaintext bit length:     128
Symmetric key:            00000000000000000000000000000000000000000000000000000000000000000000000000000000000000000000000001000000000000000000000000000000
Plaintext:                01000000000000000000000000000000
Ciphertext:               2cab83c1982cdc392ef36d92b8f0d5ebb67a9ac4fdacaa1d4ba4957e34e8dd89
Reciphers for ciphertext: 0
Decipheredtext:           01000000000000000000000000000000
RESULT CIPHER-DECIPHER: -----OK-----


Test: 8
Sector size in bytes: 512
Data unit:   0
Start block: 0
Symmetric key bit length: 512
Plaintext bit length:     128
Symmetric key:            00000000000000000000000000000000000000000000000000000000000000000000000000000000000000000000000000800000000000000000000000000000
Plaintext:                00800000000000000000000000000000
Ciphertext:               23b45e8bb58d37674255055f4811b7f319395108736235116cd78d715ffda0b5
Reciphers for ciphertext: 0
Decipheredtext:           00800000000000000000000000000000
RESULT CIPHER-DECIPHER: -----OK-----


Test: 9
Sector size in bytes: 512
Data unit:   0
Start block: 0
Symmetric key bit length: 512
Plaintext bit length:     128
Symmetric key:            00000000000000000000000000000000000000000000000000000000000000000000000000000000000000000000000000400000000000000000000000000000
Plaintext:                00400000000000000000000000000000
Ciphertext:               afbb0267b75697cf8429240ba967805b362d59ce49b23a0fdfc663918f8f5d42
Reciphers for ciphertext: 0
Decipheredtext:           00400000000000000000000000000000
RESULT CIPHER-DECIPHER: -----OK-----


Test: 10
Sector size in bytes: 1024
Data unit:   0
Start block: 0
Symmetric key bit length: 512
Plaintext bit length:     128
Symmetric key:            00000000000000000000000000000000000000000000000000000000000000000000000000000000000000000000000000200000000000000000000000000000
Plaintext:                00200000000000000000000000000000
Ciphertext:               907f27a8011e67f974c725e44b19031c738b8d26a4f9a144951d259f3c311279
Reciphers for ciphertext: 0
Decipheredtext:           00200000000000000000000000000000
RESULT CIPHER-DECIPHER: -----OK-----


Test: 11
Sector size in bytes: 1024
Data unit:   0
Start block: 0
Symmetric key bit length: 512
Plaintext bit length:     128
Symmetric key:            00000000000000000000000000000000000000000000000000000000000000000000000000000000000000000000000000100000000000000000000000000000
Plaintext:                00100000000000000000000000000000
Ciphertext:               19ecab5044c3bb6f46bac6f40106e19ea8aa6a7dedcc0e7d5eac69ff852f2e7d
Reciphers for ciphertext: 0
Decipheredtext:           00100000000000000000000000000000
RESULT CIPHER-DECIPHER: -----OK-----


Test: 12
Sector size in bytes: 1024
Data unit:   0
Start block: 0
Symmetric key bit length: 512
Plaintext bit length:     128
Symmetric key:            00000000000000000000000000000000000000000000000000000000000000000000000000000000000000000000000000080000000000000000000000000000
Plaintext:                00080000000000000000000000000000
Ciphertext:               afa696245de8b9a240b495cf5b91ab7d16feee92677f6f046f28c1eea2a32a39
Reciphers for ciphertext: 0
Decipheredtext:           00080000000000000000000000000000
RESULT CIPHER-DECIPHER: -----OK-----


Test: 13
Sector size in bytes: 1024
Data unit:   0
Start block: 0
Symmetric key bit length: 512
Plaintext bit length:     128
Symmetric key:            00000000000000000000000000000000000000000000000000000000000000000000000000000000000000000000000000040000000000000000000000000000
Plaintext:                00040000000000000000000000000000
Ciphertext:               6f8350c877421cf9d6869badd6f4b82b82ab0572eff1aeb4fc23dcc41737ddb2
Reciphers for ciphertext: 0
Decipheredtext:           00040000000000000000000000000000
RESULT CIPHER-DECIPHER: -----OK-----


Test: 14
Sector size in bytes: 1024
Data unit:   0
Start block: 0
Symmetric key bit length: 512
Plaintext bit length:     128
Symmetric key:            00000000000000000000000000000000000000000000000000000000000000000000000000000000000000000000000000020000000000000000000000000000
Plaintext:                00020000000000000000000000000000
Ciphertext:               40c9ba95789f40166b2cc72861783195c3a893d8e93e48fa649829f852734633
Reciphers for ciphertext: 0
Decipheredtext:           00020000000000000000000000000000
RESULT CIPHER-DECIPHER: -----OK-----


Test: 15
Sector size in bytes: 1024
Data unit:   0
Start block: 0
Symmetric key bit length: 512
Plaintext bit length:     128
Symmetric key:            00000000000000000000000000000000000000000000000000000000000000000000000000000000000000000000000000010000000000000000000000000000
Plaintext:                00010000000000000000000000000000
Ciphertext:               7ad0cb744efb2eaf31761386f38a5f1b01d0cff7886132ae9809207ebc331089
Reciphers for ciphertext: 0
Decipheredtext:           00010000000000000000000000000000
RESULT CIPHER-DECIPHER: -----OK-----


Test: 16
Sector size in bytes: 1024
Data unit:   0
Start block: 0
Symmetric key bit length: 512
Plaintext bit length:     128
Symmetric key:            00000000000000000000000000000000000000000000000000000000000000000000000000000000000000000000000000008000000000000000000000000000
Plaintext:                00008000000000000000000000000000
Ciphertext:               2a071009b385fd630c8b09b33013181cea3d891bfd4a01dd0b9908bdb6fcca1c
Reciphers for ciphertext: 0
Decipheredtext:           00008000000000000000000000000000
RESULT CIPHER-DECIPHER: -----OK-----


Test: 17
Sector size in bytes: 1024
Data unit:   0
Start block: 0
Symmetric key bit length: 512
Plaintext bit length:     128
Symmetric key:            00000000000000000000000000000000000000000000000000000000000000000000000000000000000000000000000000004000000000000000000000000000
Plaintext:                00004000000000000000000000000000
Ciphertext:               9a365924a36a51de673f1560a922b4dd4cb86fb3dd210defb4bfa5f16b2b49f0
Reciphers for ciphertext: 0
Decipheredtext:           00004000000000000000000000000000
RESULT CIPHER-DECIPHER: -----OK-----


Test: 18
Sector size in bytes: 1024
Data unit:   0
Start block: 0
Symmetric key bit length: 512
Plaintext bit length:     128
Symmetric key:            00000000000000000000000000000000000000000000000000000000000000000000000000000000000000000000000000002000000000000000000000000000
Plaintext:                00002000000000000000000000000000
Ciphertext:               d604c7284760f855943cd3988f97543dc8ab0b2d160770e877cb44f40c3a6a2d
Reciphers for ciphertext: 0
Decipheredtext:           00002000000000000000000000000000
RESULT CIPHER-DECIPHER: -----OK-----


Test: 19
Sector size in bytes: 1024
Data unit:   0
Start block: 0
Symmetric key bit length: 512
Plaintext bit length:     128
Symmetric key:            00000000000000000000000000000000000000000000000000000000000000000000000000000000000000000000000000001000000000000000000000000000
Plaintext:                00001000000000000000000000000000
Ciphertext:               65640b2b3ad884188783da51f3d53eb7c1fac11dd5e52f5a1bf2635f8a2d9f8d
Reciphers for ciphertext: 0
Decipheredtext:           00001000000000000000000000000000
RESULT CIPHER-DECIPHER: -----OK-----


Test: 20
Sector size in bytes: 1536
Data unit:   0
Start block: 0
Symmetric key bit length: 512
Plaintext bit length:     128
Symmetric key:            00000000000000000000000000000000000000000000000000000000000000000000000000000000000000000000000000000800000000000000000000000000
Plaintext:                00000800000000000000000000000000
Ciphertext:               a2ab858320d71c8728f10bed129bd350062ca593bcb23451ee803c1d3ac859ac
Reciphers for ciphertext: 0
Decipheredtext:           00000800000000000000000000000000
RESULT CIPHER-DECIPHER: -----OK-----


Test: 21
Sector size in bytes: 1536
Data unit:   0
Start block: 0
Symmetric key bit length: 512
Plaintext bit length:     128
Symmetric key:            00000000000000000000000000000000000000000000000000000000000000000000000000000000000000000000000000000400000000000000000000000000
Plaintext:                00000400000000000000000000000000
Ciphertext:               8eb0a3a7a2255036fdc5afd89783f961210f4fe271269958e60e49c023b610a4
Reciphers for ciphertext: 0
Decipheredtext:           00000400000000000000000000000000
RESULT CIPHER-DECIPHER: -----OK-----


Test: 22
Sector size in bytes: 1536
Data unit:   0
Start block: 0
Symmetric key bit length: 512
Plaintext bit length:     128
Symmetric key:            00000000000000000000000000000000000000000000000000000000000000000000000000000000000000000000000000000200000000000000000000000000
Plaintext:                00000200000000000000000000000000
Ciphertext:               78dd108bafe14f4edac2b154db8f12f7ef6d28bdca3f5dc7287bcc1cab4cbbca
Reciphers for ciphertext: 0
Decipheredtext:           00000200000000000000000000000000
RESULT CIPHER-DECIPHER: -----OK-----


Test: 23
Sector size in bytes: 1536
Data unit:   0
Start block: 0
Symmetric key bit length: 512
Plaintext bit length:     128
Symmetric key:            00000000000000000000000000000000000000000000000000000000000000000000000000000000000000000000000000000100000000000000000000000000
Plaintext:                00000100000000000000000000000000
Ciphertext:               4bf721a3baf03dc3d1fe9ac07ff43a52f511f86fb7f88959e908c7528def65eb
Reciphers for ciphertext: 0
Decipheredtext:           00000100000000000000000000000000
RESULT CIPHER-DECIPHER: -----OK-----


Test: 24
Sector size in bytes: 1536
Data unit:   0
Start block: 0
Symmetric key bit length: 512
Plaintext bit length:     128
Symmetric key:            00000000000000000000000000000000000000000000000000000000000000000000000000000000000000000000000000000080000000000000000000000000
Plaintext:                00000080000000000000000000000000
Ciphertext:               b65c1680a3643fe962cd783ff27457c3306f4d4d698b9486f09d7dedf8ead6ff
Reciphers for ciphertext: 0
Decipheredtext:           00000080000000000000000000000000
RESULT CIPHER-DECIPHER: -----OK-----


Test: 25
Sector size in bytes: 1536
Data unit:   0
Start block: 0
Symmetric key bit length: 512
Plaintext bit length:     128
Symmetric key:            00000000000000000000000000000000000000000000000000000000000000000000000000000000000000000000000000000040000000000000000000000000
Plaintext:                00000040000000000000000000000000
Ciphertext:               929eed36a2bc27c1825c19f60b39c389dfe435069dbc4332edf1122554dced14
Reciphers for ciphertext: 0
Decipheredtext:           00000040000000000000000000000000
RESULT CIPHER-DECIPHER: -----OK-----


Test: 26
Sector size in bytes: 1536
Data unit:   0
Start block: 0
Symmetric key bit length: 512
Plaintext bit length:     128
Symmetric key:            00000000000000000000000000000000000000000000000000000000000000000000000000000000000000000000000000000020000000000000000000000000
Plaintext:                00000020000000000000000000000000
Ciphertext:               cc9c3f3fe22fba102c81701f0009023178a749aa07073e05892f6f80670dbd0b
Reciphers for ciphertext: 0
Decipheredtext:           00000020000000000000000000000000
RESULT CIPHER-DECIPHER: -----OK-----


Test: 27
Sector size in bytes: 1536
Data unit:   0
Start block: 0
Symmetric key bit length: 512
Plaintext bit length:     128
Symmetric key:            00000000000000000000000000000000000000000000000000000000000000000000000000000000000000000000000000000010000000000000000000000000
Plaintext:                00000010000000000000000000000000
Ciphertext:               97ed0efc47c7bb5512868e02ca48ff155bea8e7355bcd87c3104e3f3cd63a04a
Reciphers for ciphertext: 0
Decipheredtext:           00000010000000000000000000000000
RESULT CIPHER-DECIPHER: -----OK-----


Test: 28
Sector size in bytes: 1536
Data unit:   0
Start block: 0
Symmetric key bit length: 512
Plaintext bit length:     128
Symmetric key:            00000000000000000000000000000000000000000000000000000000000000000000000000000000000000000000000000000008000000000000000000000000
Plaintext:                00000008000000000000000000000000
Ciphertext:               68708e7a7904a933ee42f3060a321e66df8e0d16b1b38dbf5ae3635b97b7f72c
Reciphers for ciphertext: 0
Decipheredtext:           00000008000000000000000000000000
RESULT CIPHER-DECIPHER: -----OK-----


Test: 29
Sector size in bytes: 1536
Data unit:   0
Start block: 0
Symmetric key bit length: 512
Plaintext bit length:     128
Symmetric key:            00000000000000000000000000000000000000000000000000000000000000000000000000000000000000000000000000000004000000000000000000000000
Plaintext:                00000004000000000000000000000000
Ciphertext:               a6b0d4bfcb72678687ea5af3c5e04381fd63083e0d56bddf60f973fb229c2117
Reciphers for ciphertext: 0
Decipheredtext:           00000004000000000000000000000000
RESULT CIPHER-DECIPHER: -----OK-----


Test: 30
Sector size in bytes: 2048
Data unit:   0
Start block: 0
Symmetric key bit length: 512
Plaintext bit length:     128
Symmetric key:            00000000000000000000000000000000000000000000000000000000000000000000000000000000000000000000000000000002000000000000000000000000
Plaintext:                00000002000000000000000000000000
Ciphertext:               c1ef515700e966aeabcb020aa5c28395761b5f969281d9f10f4022515a2ce831
Reciphers for ciphertext: 0
Decipheredtext:           00000002000000000000000000000000
RESULT CIPHER-DECIPHER: -----OK-----


Test: 31
Sector size in bytes: 2048
Data unit:   0
Start block: 0
Symmetric key bit length: 512
Plaintext bit length:     128
Symmetric key:            00000000000000000000000000000000000000000000000000000000000000000000000000000000000000000000000000000001000000000000000000000000
Plaintext:                00000001000000000000000000000000
Ciphertext:               4ddc191b9d1592b3af667d6cd383f6b72067605fdd609e224d4892725304d3a6
Reciphers for ciphertext: 0
Decipheredtext:           00000001000000000000000000000000
RESULT CIPHER-DECIPHER: -----OK-----


Test: 32
Sector size in bytes: 2048
Data unit:   0
Start block: 0
Symmetric key bit length: 512
Plaintext bit length:     128
Symmetric key:            00000000000000000000000000000000000000000000000000000000000000000000000000000000000000000000000000000000800000000000000000000000
Plaintext:                00000000800000000000000000000000
Ciphertext:               4da2b65c7dc628ee0e518b7e8740f3cbc212bdbae8dd7ce989baeec4bb42c764
Reciphers for ciphertext: 0
Decipheredtext:           00000000800000000000000000000000
RESULT CIPHER-DECIPHER: -----OK-----


Test: 33
Sector size in bytes: 2048
Data unit:   0
Start block: 0
Symmetric key bit length: 512
Plaintext bit length:     128
Symmetric key:            00000000000000000000000000000000000000000000000000000000000000000000000000000000000000000000000000000000400000000000000000000000
Plaintext:                00000000400000000000000000000000
Ciphertext:               ef1f17e4d08a588a5890604d0d2b0eea69ab6444d6bd626143a98dae746aff07
Reciphers for ciphertext: 0
Decipheredtext:           00000000400000000000000000000000
RESULT CIPHER-DECIPHER: -----OK-----


Test: 34
Sector size in bytes: 2048
Data unit:   0
Start block: 0
Symmetric key bit length: 512
Plaintext bit length:     128
Symmetric key:            00000000000000000000000000000000000000000000000000000000000000000000000000000000000000000000000000000000200000000000000000000000
Plaintext:                00000000200000000000000000000000
Ciphertext:               d858348c2a65a19de84db8d044f79afc1866fc91cbe3273074040af2a82cfd65
Reciphers for ciphertext: 0
Decipheredtext:           00000000200000000000000000000000
RESULT CIPHER-DECIPHER: -----OK-----


Test: 35
Sector size in bytes: 2048
Data unit:   0
Start block: 0
Symmetric key bit length: 512
Plaintext bit length:     128
Symmetric key:            00000000000000000000000000000000000000000000000000000000000000000000000000000000000000000000000000000000100000000000000000000000
Plaintext:                00000000100000000000000000000000
Ciphertext:               4865cf03f37604b18da086be5255929342bb087e276a2324440ab5e2ec83cf43
Reciphers for ciphertext: 0
Decipheredtext:           00000000100000000000000000000000
RESULT CIPHER-DECIPHER: -----OK-----


Test: 36
Sector size in bytes: 2048
Data unit:   0
Start block: 0
Symmetric key bit length: 512
Plaintext bit length:     128
Symmetric key:            00000000000000000000000000000000000000000000000000000000000000000000000000000000000000000000000000000000080000000000000000000000
Plaintext:                00000000080000000000000000000000
Ciphertext:               eb0549dd3808127f460def3d6c7d56da1827b96f2547f5fd3679e791227783e7
Reciphers for ciphertext: 0
Decipheredtext:           00000000080000000000000000000000
RESULT CIPHER-DECIPHER: -----OK-----


Test: 37
Sector size in bytes: 2048
Data unit:   0
Start block: 0
Symmetric key bit length: 512
Plaintext bit length:     128
Symmetric key:            00000000000000000000000000000000000000000000000000000000000000000000000000000000000000000000000000000000040000000000000000000000
Plaintext:                00000000040000000000000000000000
Ciphertext:               f85c8ed91de0ae8219a8af35de77f909999e1e7b0249092264d61d9249b3e148
Reciphers for ciphertext: 0
Decipheredtext:           00000000040000000000000000000000
RESULT CIPHER-DECIPHER: -----OK-----


Test: 38
Sector size in bytes: 2048
Data unit:   0
Start block: 0
Symmetric key bit length: 512
Plaintext bit length:     128
Symmetric key:            00000000000000000000000000000000000000000000000000000000000000000000000000000000000000000000000000000000020000000000000000000000
Plaintext:                00000000020000000000000000000000
Ciphertext:               18cad6b4545d75a812af38041a61950fd7f2f67a822ab9b3382aae33f4ca9890
Reciphers for ciphertext: 0
Decipheredtext:           00000000020000000000000000000000
RESULT CIPHER-DECIPHER: -----OK-----


Test: 39
Sector size in bytes: 2048
Data unit:   0
Start block: 0
Symmetric key bit length: 512
Plaintext bit length:     128
Symmetric key:            00000000000000000000000000000000000000000000000000000000000000000000000000000000000000000000000000000000010000000000000000000000
Plaintext:                00000000010000000000000000000000
Ciphertext:               9b18e6a2c49f383b8de4501fc8b0fedaabdcd4026aff2dff2346676056bc64c6
Reciphers for ciphertext: 0
Decipheredtext:           00000000010000000000000000000000
RESULT CIPHER-DECIPHER: -----OK-----


Test: 40
Sector size in bytes: 2560
Data unit:   0
Start block: 0
Symmetric key bit length: 512
Plaintext bit length:     128
Symmetric key:            00000000000000000000000000000000000000000000000000000000000000000000000000000000000000000000000000000000008000000000000000000000
Plaintext:                00000000008000000000000000000000
Ciphertext:               a627409880d0e8a0a3cb95df39358d953793ceb113f818304348948e99c7b302
Reciphers for ciphertext: 0
Decipheredtext:           00000000008000000000000000000000
RESULT CIPHER-DECIPHER: -----OK-----


Test: 41
Sector size in bytes: 2560
Data unit:   0
Start block: 0
Symmetric key bit length: 512
Plaintext bit length:     128
Symmetric key:            00000000000000000000000000000000000000000000000000000000000000000000000000000000000000000000000000000000004000000000000000000000
Plaintext:                00000000004000000000000000000000
Ciphertext:               f490ded9d0d4dc9f38d78b47053b46c275f06d9414a49c07e3d0eb12c1d4e17c
Reciphers for ciphertext: 0
Decipheredtext:           00000000004000000000000000000000
RESULT CIPHER-DECIPHER: -----OK-----


Test: 42
Sector size in bytes: 2560
Data unit:   0
Start block: 0
Symmetric key bit length: 512
Plaintext bit length:     128
Symmetric key:            00000000000000000000000000000000000000000000000000000000000000000000000000000000000000000000000000000000002000000000000000000000
Plaintext:                00000000002000000000000000000000
Ciphertext:               b762b015a1c049e7bbdd080d9a3457f9dcdba097565b8557d2d2c48b32064390
Reciphers for ciphertext: 0
Decipheredtext:           00000000002000000000000000000000
RESULT CIPHER-DECIPHER: -----OK-----


Test: 43
Sector size in bytes: 2560
Data unit:   0
Start block: 0
Symmetric key bit length: 512
Plaintext bit length:     128
Symmetric key:            00000000000000000000000000000000000000000000000000000000000000000000000000000000000000000000000000000000001000000000000000000000
Plaintext:                00000000001000000000000000000000
Ciphertext:               f6617518f1795e6ad3d379a591108c53da6297fcee1b5963df9eace5992922ce
Reciphers for ciphertext: 0
Decipheredtext:           00000000001000000000000000000000
RESULT CIPHER-DECIPHER: -----OK-----


Test: 44
Sector size in bytes: 2560
Data unit:   0
Start block: 0
Symmetric key bit length: 512
Plaintext bit length:     128
Symmetric key:            00000000000000000000000000000000000000000000000000000000000000000000000000000000000000000000000000000000000800000000000000000000
Plaintext:                00000000000800000000000000000000
Ciphertext:               00a03e8c9ab3b3c98ad87883ae75ef3bde251e61fc014259c58daeff71687699
Reciphers for ciphertext: 0
Decipheredtext:           00000000000800000000000000000000
RESULT CIPHER-DECIPHER: -----OK-----


Test: 45
Sector size in bytes: 2560
Data unit:   0
Start block: 0
Symmetric key bit length: 512
Plaintext bit length:     128
Symmetric key:            00000000000000000000000000000000000000000000000000000000000000000000000000000000000000000000000000000000000400000000000000000000
Plaintext:                00000000000400000000000000000000
Ciphertext:               9af380aeb87ba4e99227382c2e704aef83655932899d6e539d414af7eb926036
Reciphers for ciphertext: 0
Decipheredtext:           00000000000400000000000000000000
RESULT CIPHER-DECIPHER: -----OK-----


Test: 46
Sector size in bytes: 2560
Data unit:   0
Start block: 0
Symmetric key bit length: 512
Plaintext bit length:     128
Symmetric key:            00000000000000000000000000000000000000000000000000000000000000000000000000000000000000000000000000000000000200000000000000000000
Plaintext:                00000000000200000000000000000000
Ciphertext:               a8c523f7e22514417086f0666f56f2fdf3b3b28c0773ae0744b4ad5eb8ff1444
Reciphers for ciphertext: 0
Decipheredtext:           00000000000200000000000000000000
RESULT CIPHER-DECIPHER: -----OK-----


Test: 47
Sector size in bytes: 2560
Data unit:   0
Start block: 0
Symmetric key bit length: 512
Plaintext bit length:     128
Symmetric key:            00000000000000000000000000000000000000000000000000000000000000000000000000000000000000000000000000000000000100000000000000000000
Plaintext:                00000000000100000000000000000000
Ciphertext:               d5b0fbd601a3c8d379fc8f4f58538773c89bb11ce42fbf2095bc45782ff69b86
Reciphers for ciphertext: 0
Decipheredtext:           00000000000100000000000000000000
RESULT CIPHER-DECIPHER: -----OK-----


Test: 48
Sector size in bytes: 2560
Data unit:   0
Start block: 0
Symmetric key bit length: 512
Plaintext bit length:     128
Symmetric key:            00000000000000000000000000000000000000000000000000000000000000000000000000000000000000000000000000000000000080000000000000000000
Plaintext:                00000000000080000000000000000000
Ciphertext:               7f5b458b33ccfbf0a14d660aa50d9a37a304880781dfc11f06a0c826883241a5
Reciphers for ciphertext: 0
Decipheredtext:           00000000000080000000000000000000
RESULT CIPHER-DECIPHER: -----OK-----


Test: 49
Sector size in bytes: 2560
Data unit:   0
Start block: 0
Symmetric key bit length: 512
Plaintext bit length:     128
Symmetric key:            00000000000000000000000000000000000000000000000000000000000000000000000000000000000000000000000000000000000040000000000000000000
Plaintext:                00000000000040000000000000000000
Ciphertext:               885a8bee2fdf5ddfdab034c7d2ac721abbb04253a953bb0a746ec384c96a9f8f
Reciphers for ciphertext: 0
Decipheredtext:           00000000000040000000000000000000
RESULT CIPHER-DECIPHER: -----OK-----


Test: 50
Sector size in bytes: 3072
Data unit:   0
Start block: 0
Symmetric key bit length: 512
Plaintext bit length:     128
Symmetric key:            00000000000000000000000000000000000000000000000000000000000000000000000000000000000000000000000000000000000020000000000000000000
Plaintext:                00000000000020000000000000000000
Ciphertext:               95225401aa1b7b6f7db02931eeb8f49d46179c59ccd0a00a4465df31f73a1e23
Reciphers for ciphertext: 0
Decipheredtext:           00000000000020000000000000000000
RESULT CIPHER-DECIPHER: -----OK-----


Test: 51
Sector size in bytes: 3072
Data unit:   0
Start block: 0
Symmetric key bit length: 512
Plaintext bit length:     128
Symmetric key:            00000000000000000000000000000000000000000000000000000000000000000000000000000000000000000000000000000000000010000000000000000000
Plaintext:                00000000000010000000000000000000
Ciphertext:               2a6b13aa5f4cfa0569c516dc1182cdefbad84aec3f28d5b40c62f30e94503504
Reciphers for ciphertext: 0
Decipheredtext:           00000000000010000000000000000000
RESULT CIPHER-DECIPHER: -----OK-----


Test: 52
Sector size in bytes: 3072
Data unit:   0
Start block: 0
Symmetric key bit length: 512
Plaintext bit length:     128
Symmetric key:            00000000000000000000000000000000000000000000000000000000000000000000000000000000000000000000000000000000000008000000000000000000
Plaintext:                00000000000008000000000000000000
Ciphertext:               8d1816aee8504d21d061b73f6e1dac75d1b904933db33de9a111abd0a57d1d09
Reciphers for ciphertext: 0
Decipheredtext:           00000000000008000000000000000000
RESULT CIPHER-DECIPHER: -----OK-----


Test: 53
Sector size in bytes: 3072
Data unit:   0
Start block: 0
Symmetric key bit length: 512
Plaintext bit length:     128
Symmetric key:            00000000000000000000000000000000000000000000000000000000000000000000000000000000000000000000000000000000000004000000000000000000
Plaintext:                00000000000004000000000000000000
Ciphertext:               30d77580e6581ecb0681aa5b2d0b6e37743adbf8b89bb1e69a3f450d1837abc2
Reciphers for ciphertext: 0
Decipheredtext:           00000000000004000000000000000000
RESULT CIPHER-DECIPHER: -----OK-----


Test: 54
Sector size in bytes: 3072
Data unit:   0
Start block: 0
Symmetric key bit length: 512
Plaintext bit length:     128
Symmetric key:            00000000000000000000000000000000000000000000000000000000000000000000000000000000000000000000000000000000000002000000000000000000
Plaintext:                00000000000002000000000000000000
Ciphertext:               0ae1a922d5335319871ff890ab631e1445540c5639a062e119d6a547f7ac23d3
Reciphers for ciphertext: 0
Decipheredtext:           00000000000002000000000000000000
RESULT CIPHER-DECIPHER: -----OK-----


Test: 55
Sector size in bytes: 3072
Data unit:   0
Start block: 0
Symmetric key bit length: 512
Plaintext bit length:     128
Symmetric key:            00000000000000000000000000000000000000000000000000000000000000000000000000000000000000000000000000000000000001000000000000000000
Plaintext:                00000000000001000000000000000000
Ciphertext:               e6483fce6b0dcf2e087f2695e5e3d50d9765e7976ab08c7e37825cf67e3a4511
Reciphers for ciphertext: 0
Decipheredtext:           00000000000001000000000000000000
RESULT CIPHER-DECIPHER: -----OK-----


Test: 56
Sector size in bytes: 3072
Data unit:   0
Start block: 0
Symmetric key bit length: 512
Plaintext bit length:     128
Symmetric key:            00000000000000000000000000000000000000000000000000000000000000000000000000000000000000000000000000000000000000800000000000000000
Plaintext:                00000000000000800000000000000000
Ciphertext:               4a6ef294ce3e3195d3ffc7a180e3b91b21039067edb6467b28c907477147184b
Reciphers for ciphertext: 0
Decipheredtext:           00000000000000800000000000000000
RESULT CIPHER-DECIPHER: -----OK-----


Test: 57
Sector size in bytes: 3072
Data unit:   0
Start block: 0
Symmetric key bit length: 512
Plaintext bit length:     128
Symmetric key:            00000000000000000000000000000000000000000000000000000000000000000000000000000000000000000000000000000000000000400000000000000000
Plaintext:                00000000000000400000000000000000
Ciphertext:               1351eaf608b1a68b580c72b798f87446386dd43ad532b5dc7f83a82c0d93e447
Reciphers for ciphertext: 0
Decipheredtext:           00000000000000400000000000000000
RESULT CIPHER-DECIPHER: -----OK-----


Test: 58
Sector size in bytes: 3072
Data unit:   0
Start block: 0
Symmetric key bit length: 512
Plaintext bit length:     128
Symmetric key:            00000000000000000000000000000000000000000000000000000000000000000000000000000000000000000000000000000000000000200000000000000000
Plaintext:                00000000000000200000000000000000
Ciphertext:               f4aa9114251d24d297e58994a01622731df4bd20eb688e702374eb2f31e95b47
Reciphers for ciphertext: 0
Decipheredtext:           00000000000000200000000000000000
RESULT CIPHER-DECIPHER: -----OK-----


Test: 59
Sector size in bytes: 3072
Data unit:   0
Start block: 0
Symmetric key bit length: 512
Plaintext bit length:     128
Symmetric key:            00000000000000000000000000000000000000000000000000000000000000000000000000000000000000000000000000000000000000100000000000000000
Plaintext:                00000000000000100000000000000000
Ciphertext:               bc37a51c133211a084cde88279df2d7484723fc3fe131df5f57b6a1edee8e075
Reciphers for ciphertext: 0
Decipheredtext:           00000000000000100000000000000000
RESULT CIPHER-DECIPHER: -----OK-----


Test: 60
Sector size in bytes: 3584
Data unit:   0
Start block: 0
Symmetric key bit length: 512
Plaintext bit length:     128
Symmetric key:            00000000000000000000000000000000000000000000000000000000000000000000000000000000000000000000000000000000000000080000000000000000
Plaintext:                00000000000000080000000000000000
Ciphertext:               073ec99e7e5a51b06e06ca4d0bf29b744a022e484683869af5dae6421cbde48e
Reciphers for ciphertext: 0
Decipheredtext:           00000000000000080000000000000000
RESULT CIPHER-DECIPHER: -----OK-----


Test: 61
Sector size in bytes: 3584
Data unit:   0
Start block: 0
Symmetric key bit length: 512
Plaintext bit length:     128
Symmetric key:            00000000000000000000000000000000000000000000000000000000000000000000000000000000000000000000000000000000000000040000000000000000
Plaintext:                00000000000000040000000000000000
Ciphertext:               a780f885a35648ed8a8b838984a91981b0a70c11bc0b7a2e2b6d294fe2ac5cc7
Reciphers for ciphertext: 0
Decipheredtext:           00000000000000040000000000000000
RESULT CIPHER-DECIPHER: -----OK-----


Test: 62
Sector size in bytes: 3584
Data unit:   0
Start block: 0
Symmetric key bit length: 512
Plaintext bit length:     128
Symmetric key:            00000000000000000000000000000000000000000000000000000000000000000000000000000000000000000000000000000000000000020000000000000000
Plaintext:                00000000000000020000000000000000
Ciphertext:               ba2aebf7867366fc41b63412bbba6d304bb708d24c4c7f7eb3d4c72b9d16fde2
Reciphers for ciphertext: 0
Decipheredtext:           00000000000000020000000000000000
RESULT CIPHER-DECIPHER: -----OK-----


Test: 63
Sector size in bytes: 3584
Data unit:   0
Start block: 0
Symmetric key bit length: 512
Plaintext bit length:     128
Symmetric key:            00000000000000000000000000000000000000000000000000000000000000000000000000000000000000000000000000000000000000010000000000000000
Plaintext:                00000000000000010000000000000000
Ciphertext:               15761604aeb77919fd2968668282e9acac49917835be8e7faeed06db11da2436
Reciphers for ciphertext: 1
Decipheredtext:           00000000000000010000000000000000
RESULT CIPHER-DECIPHER: -----OK-----


Test: 64
Sector size in bytes: 3584
Data unit:   0
Start block: 0
Symmetric key bit length: 512
Plaintext bit length:     128
Symmetric key:            00000000000000000000000000000000000000000000000000000000000000000000000000000000000000000000000000000000000000008000000000000000
Plaintext:                00000000000000008000000000000000
Ciphertext:               ee04a67f9d52f1a6c5185b9d5771052889168f5a9bb4af896215315c0c7f8a92
Reciphers for ciphertext: 0
Decipheredtext:           00000000000000008000000000000000
RESULT CIPHER-DECIPHER: -----OK-----


Test: 65
Sector size in bytes: 3584
Data unit:   0
Start block: 0
Symmetric key bit length: 512
Plaintext bit length:     128
Symmetric key:            00000000000000000000000000000000000000000000000000000000000000000000000000000000000000000000000000000000000000004000000000000000
Plaintext:                00000000000000004000000000000000
Ciphertext:               ef55c46e20bc1afdc835f7f8d40e6e4d0c765b7181358128eb5cc9110b6a00dd
Reciphers for ciphertext: 0
Decipheredtext:           00000000000000004000000000000000
RESULT CIPHER-DECIPHER: -----OK-----


Test: 66
Sector size in bytes: 3584
Data unit:   0
Start block: 0
Symmetric key bit length: 512
Plaintext bit length:     128
Symmetric key:            00000000000000000000000000000000000000000000000000000000000000000000000000000000000000000000000000000000000000002000000000000000
Plaintext:                00000000000000002000000000000000
Ciphertext:               60e7dbfdb452ea6b87041386aada5f448038cde74a888b042af526aedb5581af
Reciphers for ciphertext: 0
Decipheredtext:           00000000000000002000000000000000
RESULT CIPHER-DECIPHER: -----OK-----


Test: 67
Sector size in bytes: 3584
Data unit:   0
Start block: 0
Symmetric key bit length: 512
Plaintext bit length:     128
Symmetric key:            00000000000000000000000000000000000000000000000000000000000000000000000000000000000000000000000000000000000000001000000000000000
Plaintext:                00000000000000001000000000000000
Ciphertext:               f781f99524390e6db775a1cfaeff84a34401673c9c560c814450cd3f2a03655e
Reciphers for ciphertext: 0
Decipheredtext:           00000000000000001000000000000000
RESULT CIPHER-DECIPHER: -----OK-----


Test: 68
Sector size in bytes: 3584
Data unit:   0
Start block: 0
Symmetric key bit length: 512
Plaintext bit length:     128
Symmetric key:            00000000000000000000000000000000000000000000000000000000000000000000000000000000000000000000000000000000000000000800000000000000
Plaintext:                00000000000000000800000000000000
Ciphertext:               560fa64dd6447b1b4daab1f91c13abfc6317235ba5070c892acad66e316f6420
Reciphers for ciphertext: 0
Decipheredtext:           00000000000000000800000000000000
RESULT CIPHER-DECIPHER: -----OK-----


Test: 69
Sector size in bytes: 3584
Data unit:   0
Start block: 0
Symmetric key bit length: 512
Plaintext bit length:     128
Symmetric key:            00000000000000000000000000000000000000000000000000000000000000000000000000000000000000000000000000000000000000000400000000000000
Plaintext:                00000000000000000400000000000000
Ciphertext:               5091db824208d3a2486aae7a14e6dcc19d2da01a5f040ba31ecd7c835b0980e1
Reciphers for ciphertext: 0
Decipheredtext:           00000000000000000400000000000000
RESULT CIPHER-DECIPHER: -----OK-----


Test: 70
Sector size in bytes: 4096
Data unit:   0
Start block: 0
Symmetric key bit length: 512
Plaintext bit length:     128
Symmetric key:            00000000000000000000000000000000000000000000000000000000000000000000000000000000000000000000000000000000000000000200000000000000
Plaintext:                00000000000000000200000000000000
Ciphertext:               4d7d3fb2318ac207ba04317105d15597cee9bda129f516d02204a05640233a57
Reciphers for ciphertext: 0
Decipheredtext:           00000000000000000200000000000000
RESULT CIPHER-DECIPHER: -----OK-----


Test: 71
Sector size in bytes: 4096
Data unit:   0
Start block: 0
Symmetric key bit length: 512
Plaintext bit length:     128
Symmetric key:            00000000000000000000000000000000000000000000000000000000000000000000000000000000000000000000000000000000000000000100000000000000
Plaintext:                00000000000000000100000000000000
Ciphertext:               e0ca5c523ad4a7ec977b6e1cd07d4fbd86ecc31b6e3fe944c96c087256b895ed
Reciphers for ciphertext: 0
Decipheredtext:           00000000000000000100000000000000
RESULT CIPHER-DECIPHER: -----OK-----


Test: 72
Sector size in bytes: 4096
Data unit:   0
Start block: 0
Symmetric key bit length: 512
Plaintext bit length:     128
Symmetric key:            00000000000000000000000000000000000000000000000000000000000000000000000000000000000000000000000000000000000000000080000000000000
Plaintext:                00000000000000000080000000000000
Ciphertext:               5f7f4381b2c47633d14eab368dbf7c71df13d9b29b8684fb4e79d0eaafd81e49
Reciphers for ciphertext: 0
Decipheredtext:           00000000000000000080000000000000
RESULT CIPHER-DECIPHER: -----OK-----


Test: 73
Sector size in bytes: 4096
Data unit:   0
Start block: 0
Symmetric key bit length: 512
Plaintext bit length:     128
Symmetric key:            00000000000000000000000000000000000000000000000000000000000000000000000000000000000000000000000000000000000000000040000000000000
Plaintext:                00000000000000000040000000000000
Ciphertext:               c7c996671d135f40ded5f1ff1f26ea232f73afeea5ad49a79eb7a8077894dbe5
Reciphers for ciphertext: 0
Decipheredtext:           00000000000000000040000000000000
RESULT CIPHER-DECIPHER: -----OK-----


Test: 74
Sector size in bytes: 4096
Data unit:   0
Start block: 0
Symmetric key bit length: 512
Plaintext bit length:     128
Symmetric key:            00000000000000000000000000000000000000000000000000000000000000000000000000000000000000000000000000000000000000000020000000000000
Plaintext:                00000000000000000020000000000000
Ciphertext:               f2e0ffb940bb050d54283088ffcc84b9417b1e92a3e4bc2913ffd032451a77af
Reciphers for ciphertext: 0
Decipheredtext:           00000000000000000020000000000000
RESULT CIPHER-DECIPHER: -----OK-----


Test: 75
Sector size in bytes: 4096
Data unit:   0
Start block: 0
Symmetric key bit length: 512
Plaintext bit length:     128
Symmetric key:            00000000000000000000000000000000000000000000000000000000000000000000000000000000000000000000000000000000000000000010000000000000
Plaintext:                00000000000000000010000000000000
Ciphertext:               871aeb166121aa55e246869d5bc21153b9332ca9901ad00cf2e3b44958d0703f
Reciphers for ciphertext: 0
Decipheredtext:           00000000000000000010000000000000
RESULT CIPHER-DECIPHER: -----OK-----


Test: 76
Sector size in bytes: 4096
Data unit:   0
Start block: 0
Symmetric key bit length: 512
Plaintext bit length:     128
Symmetric key:            00000000000000000000000000000000000000000000000000000000000000000000000000000000000000000000000000000000000000000008000000000000
Plaintext:                00000000000000000008000000000000
Ciphertext:               4007219513725d4c5c7fd3cc7d79702b0d73bf23c569ded75feb76acc1c9bc81
Reciphers for ciphertext: 0
Decipheredtext:           00000000000000000008000000000000
RESULT CIPHER-DECIPHER: -----OK-----


Test: 77
Sector size in bytes: 4096
Data unit:   0
Start block: 0
Symmetric key bit length: 512
Plaintext bit length:     128
Symmetric key:            00000000000000000000000000000000000000000000000000000000000000000000000000000000000000000000000000000000000000000004000000000000
Plaintext:                00000000000000000004000000000000
Ciphertext:               58bfe5c3dafb317499119fec84f81933de9c336c95c0f6ef97d00831c0da45a9
Reciphers for ciphertext: 0
Decipheredtext:           00000000000000000004000000000000
RESULT CIPHER-DECIPHER: -----OK-----


Test: 78
Sector size in bytes: 4096
Data unit:   0
Start block: 0
Symmetric key bit length: 512
Plaintext bit length:     128
Symmetric key:            00000000000000000000000000000000000000000000000000000000000000000000000000000000000000000000000000000000000000000002000000000000
Plaintext:                00000000000000000002000000000000
Ciphertext:               b03fb2434fecc601c2c2e9fe4d9ff438e98be21167c24ab07346d03a188bb909
Reciphers for ciphertext: 0
Decipheredtext:           00000000000000000002000000000000
RESULT CIPHER-DECIPHER: -----OK-----


Test: 79
Sector size in bytes: 4096
Data unit:   0
Start block: 0
Symmetric key bit length: 512
Plaintext bit length:     128
Symmetric key:            00000000000000000000000000000000000000000000000000000000000000000000000000000000000000000000000000000000000000000001000000000000
Plaintext:                00000000000000000001000000000000
Ciphertext:               03e5b73a33432362a13e2bcc182a1e8ce70db09ead5556cb6bdc3b81e949419d
Reciphers for ciphertext: 0
Decipheredtext:           00000000000000000001000000000000
RESULT CIPHER-DECIPHER: -----OK-----


Test: 80
Sector size in bytes: 8192
Data unit:   0
Start block: 0
Symmetric key bit length: 512
Plaintext bit length:     128
Symmetric key:            00000000000000000000000000000000000000000000000000000000000000000000000000000000000000000000000000000000000000000000800000000000
Plaintext:                00000000000000000000800000000000
Ciphertext:               636a44094060658cb28908b92118e43a32be340b5c0ad9b1fe81b229c8c197d8
Reciphers for ciphertext: 0
Decipheredtext:           00000000000000000000800000000000
RESULT CIPHER-DECIPHER: -----OK-----


Test: 81
Sector size in bytes: 8192
Data unit:   0
Start block: 0
Symmetric key bit length: 512
Plaintext bit length:     128
Symmetric key:            00000000000000000000000000000000000000000000000000000000000000000000000000000000000000000000000000000000000000000000400000000000
Plaintext:                00000000000000000000400000000000
Ciphertext:               e2a722ae199e293a634eb0d75d1557f20e8075e9e295ed65636a74d895405fe0
Reciphers for ciphertext: 0
Decipheredtext:           00000000000000000000400000000000
RESULT CIPHER-DECIPHER: -----OK-----


Test: 82
Sector size in bytes: 8192
Data unit:   0
Start block: 0
Symmetric key bit length: 512
Plaintext bit length:     128
Symmetric key:            00000000000000000000000000000000000000000000000000000000000000000000000000000000000000000000000000000000000000000000200000000000
Plaintext:                00000000000000000000200000000000
Ciphertext:               d63173d711708c607c10b0c5327fa6b9f7079268d33d58064fff8f63133da4b4
Reciphers for ciphertext: 0
Decipheredtext:           00000000000000000000200000000000
RESULT CIPHER-DECIPHER: -----OK-----


Test: 83
Sector size in bytes: 8192
Data unit:   0
Start block: 0
Symmetric key bit length: 512
Plaintext bit length:     128
Symmetric key:            00000000000000000000000000000000000000000000000000000000000000000000000000000000000000000000000000000000000000000000100000000000
Plaintext:                00000000000000000000100000000000
Ciphertext:               bc3b3f64cd65c50bd7204657d6d3a71877424b1be7bfdb2d7715c12bab20f31e
Reciphers for ciphertext: 0
Decipheredtext:           00000000000000000000100000000000
RESULT CIPHER-DECIPHER: -----OK-----


Test: 84
Sector size in bytes: 8192
Data unit:   0
Start block: 0
Symmetric key bit length: 512
Plaintext bit length:     128
Symmetric key:            00000000000000000000000000000000000000000000000000000000000000000000000000000000000000000000000000000000000000000000080000000000
Plaintext:                00000000000000000000080000000000
Ciphertext:               56c61912ace55b1419d8ab4528d375a1e427c16622e464d12265323d54bc3992
Reciphers for ciphertext: 0
Decipheredtext:           00000000000000000000080000000000
RESULT CIPHER-DECIPHER: -----OK-----


Test: 85
Sector size in bytes: 8192
Data unit:   0
Start block: 0
Symmetric key bit length: 512
Plaintext bit length:     128
Symmetric key:            00000000000000000000000000000000000000000000000000000000000000000000000000000000000000000000000000000000000000000000040000000000
Plaintext:                00000000000000000000040000000000
Ciphertext:               a12fba07588b12095c7f02cc8fe0d1352cf56c20fb4e47d6c7460d15dd3e4cce
Reciphers for ciphertext: 0
Decipheredtext:           00000000000000000000040000000000
RESULT CIPHER-DECIPHER: -----OK-----


Test: 86
Sector size in bytes: 8192
Data unit:   0
Start block: 0
Symmetric key bit length: 512
Plaintext bit length:     128
Symmetric key:            00000000000000000000000000000000000000000000000000000000000000000000000000000000000000000000000000000000000000000000020000000000
Plaintext:                00000000000000000000020000000000
Ciphertext:               08c661450c679af2cfe45279e17f6931e4d4c7a872b93b335235915d465f222e
Reciphers for ciphertext: 0
Decipheredtext:           00000000000000000000020000000000
RESULT CIPHER-DECIPHER: -----OK-----


Test: 87
Sector size in bytes: 8192
Data unit:   0
Start block: 0
Symmetric key bit length: 512
Plaintext bit length:     128
Symmetric key:            00000000000000000000000000000000000000000000000000000000000000000000000000000000000000000000000000000000000000000000010000000000
Plaintext:                00000000000000000000010000000000
Ciphertext:               d2f5cf4d6f70ba9942d70c87b4c06192cb2572d501d9b7c64c8caa05a1e0eada
Reciphers for ciphertext: 0
Decipheredtext:           00000000000000000000010000000000
RESULT CIPHER-DECIPHER: -----OK-----


Test: 88
Sector size in bytes: 8192
Data unit:   0
Start block: 0
Symmetric key bit length: 512
Plaintext bit length:     128
Symmetric key:            00000000000000000000000000000000000000000000000000000000000000000000000000000000000000000000000000000000000000000000008000000000
Plaintext:                00000000000000000000008000000000
Ciphertext:               d84e4eb8095f0510fe88fc467a5d428619fcb649569f67078b285a8d813660c6
Reciphers for ciphertext: 0
Decipheredtext:           00000000000000000000008000000000
RESULT CIPHER-DECIPHER: -----OK-----


Test: 89
Sector size in bytes: 8192
Data unit:   0
Start block: 0
Symmetric key bit length: 512
Plaintext bit length:     128
Symmetric key:            00000000000000000000000000000000000000000000000000000000000000000000000000000000000000000000000000000000000000000000004000000000
Plaintext:                00000000000000000000004000000000
Ciphertext:               a0fb7232723a95ff679c896449f1a5c1ced6e8906e564ad0be3b33fa443528fd
Reciphers for ciphertext: 0
Decipheredtext:           00000000000000000000004000000000
RESULT CIPHER-DECIPHER: -----OK-----


Test: 90
Sector size in bytes: 12288
Data unit:   0
Start block: 0
Symmetric key bit length: 512
Plaintext bit length:     128
Symmetric key:            00000000000000000000000000000000000000000000000000000000000000000000000000000000000000000000000000000000000000000000002000000000
Plaintext:                00000000000000000000002000000000
Ciphertext:               0af290de0fa33b45b7fef0169431626017fbc9d76d1c349114f3401a62a84729
Reciphers for ciphertext: 0
Decipheredtext:           00000000000000000000002000000000
RESULT CIPHER-DECIPHER: -----OK-----


Test: 91
Sector size in bytes: 12288
Data unit:   0
Start block: 0
Symmetric key bit length: 512
Plaintext bit length:     128
Symmetric key:            00000000000000000000000000000000000000000000000000000000000000000000000000000000000000000000000000000000000000000000001000000000
Plaintext:                00000000000000000000001000000000
Ciphertext:               1cbb620331fd7a7468417d4c55d19bf8888bf680c728ee4eee3577920f405e94
Reciphers for ciphertext: 0
Decipheredtext:           00000000000000000000001000000000
RESULT CIPHER-DECIPHER: -----OK-----


Test: 92
Sector size in bytes: 12288
Data unit:   0
Start block: 0
Symmetric key bit length: 512
Plaintext bit length:     128
Symmetric key:            00000000000000000000000000000000000000000000000000000000000000000000000000000000000000000000000000000000000000000000000800000000
Plaintext:                00000000000000000000000800000000
Ciphertext:               dd6136116bf1ff78bf07a2521d7734798f184b7f78d44bb5c73894e203b212e7
Reciphers for ciphertext: 0
Decipheredtext:           00000000000000000000000800000000
RESULT CIPHER-DECIPHER: -----OK-----


Test: 93
Sector size in bytes: 12288
Data unit:   0
Start block: 0
Symmetric key bit length: 512
Plaintext bit length:     128
Symmetric key:            00000000000000000000000000000000000000000000000000000000000000000000000000000000000000000000000000000000000000000000000400000000
Plaintext:                00000000000000000000000400000000
Ciphertext:               196f09c84100948ae514fa76e204326770f8a351ace2ea4354670669cfa34e8e
Reciphers for ciphertext: 0
Decipheredtext:           00000000000000000000000400000000
RESULT CIPHER-DECIPHER: -----OK-----


Test: 94
Sector size in bytes: 12288
Data unit:   0
Start block: 0
Symmetric key bit length: 512
Plaintext bit length:     128
Symmetric key:            00000000000000000000000000000000000000000000000000000000000000000000000000000000000000000000000000000000000000000000000200000000
Plaintext:                00000000000000000000000200000000
Ciphertext:               8ac017a904d85b96d9a1f96e47583b4dbc05ec12ff98936bca0fc30d0a79d624
Reciphers for ciphertext: 0
Decipheredtext:           00000000000000000000000200000000
RESULT CIPHER-DECIPHER: -----OK-----


Test: 95
Sector size in bytes: 12288
Data unit:   0
Start block: 0
Symmetric key bit length: 512
Plaintext bit length:     128
Symmetric key:            00000000000000000000000000000000000000000000000000000000000000000000000000000000000000000000000000000000000000000000000100000000
Plaintext:                00000000000000000000000100000000
Ciphertext:               41f981bcd8ebfb89216e173b9e840e154c4147a6b9939513188e4f66ff9c9e34
Reciphers for ciphertext: 0
Decipheredtext:           00000000000000000000000100000000
RESULT CIPHER-DECIPHER: -----OK-----


Test: 96
Sector size in bytes: 12288
Data unit:   0
Start block: 0
Symmetric key bit length: 512
Plaintext bit length:     128
Symmetric key:            00000000000000000000000000000000000000000000000000000000000000000000000000000000000000000000000000000000000000000000000080000000
Plaintext:                00000000000000000000000080000000
Ciphertext:               b3d00a13829fd3371da47f7b92a728513848333e93d09f32affc235a5a4ca22d
Reciphers for ciphertext: 0
Decipheredtext:           00000000000000000000000080000000
RESULT CIPHER-DECIPHER: -----OK-----


Test: 97
Sector size in bytes: 12288
Data unit:   0
Start block: 0
Symmetric key bit length: 512
Plaintext bit length:     128
Symmetric key:            00000000000000000000000000000000000000000000000000000000000000000000000000000000000000000000000000000000000000000000000040000000
Plaintext:                00000000000000000000000040000000
Ciphertext:               d20918edb1382b2b65c0cb10200b4a94bd10240b120f5301b8c26391d8bc90b1
Reciphers for ciphertext: 0
Decipheredtext:           00000000000000000000000040000000
RESULT CIPHER-DECIPHER: -----OK-----


Test: 98
Sector size in bytes: 12288
Data unit:   0
Start block: 0
Symmetric key bit length: 512
Plaintext bit length:     128
Symmetric key:            00000000000000000000000000000000000000000000000000000000000000000000000000000000000000000000000000000000000000000000000020000000
Plaintext:                00000000000000000000000020000000
Ciphertext:               bab81938e4b47e6bcfb10bdd19e3b3fcb1258e023f928404aabfbb49074dceee
Reciphers for ciphertext: 0
Decipheredtext:           00000000000000000000000020000000
RESULT CIPHER-DECIPHER: -----OK-----


Test: 99
Sector size in bytes: 12288
Data unit:   0
Start block: 0
Symmetric key bit length: 512
Plaintext bit length:     128
Symmetric key:            00000000000000000000000000000000000000000000000000000000000000000000000000000000000000000000000000000000000000000000000010000000
Plaintext:                00000000000000000000000010000000
Ciphertext:               e04118c46264b56e78815f15e56976f3e2da08476d5e31da04418b11713bc263
Reciphers for ciphertext: 0
Decipheredtext:           00000000000000000000000010000000
RESULT CIPHER-DECIPHER: -----OK-----


Test: 100
Sector size in bytes: 16384
Data unit:   0
Start block: 0
Symmetric key bit length: 512
Plaintext bit length:     128
Symmetric key:            00000000000000000000000000000000000000000000000000000000000000000000000000000000000000000000000000000000000000000000000008000000
Plaintext:                00000000000000000000000008000000
Ciphertext:               a35ff07b41c2e880a6b45d939092a3270f2bfc1422d67381ae6b6097ffb04de4
Reciphers for ciphertext: 0
Decipheredtext:           00000000000000000000000008000000
RESULT CIPHER-DECIPHER: -----OK-----


Test: 101
Sector size in bytes: 16384
Data unit:   0
Start block: 0
Symmetric key bit length: 512
Plaintext bit length:     128
Symmetric key:            00000000000000000000000000000000000000000000000000000000000000000000000000000000000000000000000000000000000000000000000004000000
Plaintext:                00000000000000000000000004000000
Ciphertext:               bd9a8924072449794d54f42f59317330e93aa762ec9ab99b0b5a3511d2833b47
Reciphers for ciphertext: 0
Decipheredtext:           00000000000000000000000004000000
RESULT CIPHER-DECIPHER: -----OK-----


Test: 102
Sector size in bytes: 16384
Data unit:   0
Start block: 0
Symmetric key bit length: 512
Plaintext bit length:     128
Symmetric key:            00000000000000000000000000000000000000000000000000000000000000000000000000000000000000000000000000000000000000000000000002000000
Plaintext:                00000000000000000000000002000000
Ciphertext:               621013f05019f261cc4206444c702cb6bbf2f99b3ea833217d2f26a7e0179b48
Reciphers for ciphertext: 0
Decipheredtext:           00000000000000000000000002000000
RESULT CIPHER-DECIPHER: -----OK-----


Test: 103
Sector size in bytes: 16384
Data unit:   0
Start block: 0
Symmetric key bit length: 512
Plaintext bit length:     128
Symmetric key:            00000000000000000000000000000000000000000000000000000000000000000000000000000000000000000000000000000000000000000000000001000000
Plaintext:                00000000000000000000000001000000
Ciphertext:               a989a8b6fd97d1a9091083b7c41aeb861f7a13dba2575e93afa0fa04597e3fa0
Reciphers for ciphertext: 0
Decipheredtext:           00000000000000000000000001000000
RESULT CIPHER-DECIPHER: -----OK-----


Test: 104
Sector size in bytes: 16384
Data unit:   0
Start block: 0
Symmetric key bit length: 512
Plaintext bit length:     128
Symmetric key:            00000000000000000000000000000000000000000000000000000000000000000000000000000000000000000000000000000000000000000000000000800000
Plaintext:                00000000000000000000000000800000
Ciphertext:               fbe43ddc96bbf18dfa192c259c6833beb574c1fe286837fda4bcdf48639bd115
Reciphers for ciphertext: 0
Decipheredtext:           00000000000000000000000000800000
RESULT CIPHER-DECIPHER: -----OK-----


Test: 105
Sector size in bytes: 16384
Data unit:   0
Start block: 0
Symmetric key bit length: 512
Plaintext bit length:     128
Symmetric key:            00000000000000000000000000000000000000000000000000000000000000000000000000000000000000000000000000000000000000000000000000400000
Plaintext:                00000000000000000000000000400000
Ciphertext:               723634001262372d2e47d792b4de20222104a0380a79446295bfa1a4c6c4f354
Reciphers for ciphertext: 0
Decipheredtext:           00000000000000000000000000400000
RESULT CIPHER-DECIPHER: -----OK-----


Test: 106
Sector size in bytes: 16384
Data unit:   0
Start block: 0
Symmetric key bit length: 512
Plaintext bit length:     128
Symmetric key:            00000000000000000000000000000000000000000000000000000000000000000000000000000000000000000000000000000000000000000000000000200000
Plaintext:                00000000000000000000000000200000
Ciphertext:               f5c0cd50091863a0cc820f1678d919a3d9ab094639c4031217087ca476839baa
Reciphers for ciphertext: 0
Decipheredtext:           00000000000000000000000000200000
RESULT CIPHER-DECIPHER: -----OK-----


Test: 107
Sector size in bytes: 16384
Data unit:   0
Start block: 0
Symmetric key bit length: 512
Plaintext bit length:     128
Symmetric key:            00000000000000000000000000000000000000000000000000000000000000000000000000000000000000000000000000000000000000000000000000100000
Plaintext:                00000000000000000000000000100000
Ciphertext:               15d4b8c6a979b789e3f1da1a7588c4d2519eb0b73a0f766e876a8e478fbc0510
Reciphers for ciphertext: 0
Decipheredtext:           00000000000000000000000000100000
RESULT CIPHER-DECIPHER: -----OK-----


Test: 108
Sector size in bytes: 16384
Data unit:   0
Start block: 0
Symmetric key bit length: 512
Plaintext bit length:     128
Symmetric key:            00000000000000000000000000000000000000000000000000000000000000000000000000000000000000000000000000000000000000000000000000080000
Plaintext:                00000000000000000000000000080000
Ciphertext:               a19b08dd70e756241f089f4696440c8dedc6a4c502b5bb61d10d5db068198128
Reciphers for ciphertext: 0
Decipheredtext:           00000000000000000000000000080000
RESULT CIPHER-DECIPHER: -----OK-----


Test: 109
Sector size in bytes: 16384
Data unit:   0
Start block: 0
Symmetric key bit length: 512
Plaintext bit length:     128
Symmetric key:            00000000000000000000000000000000000000000000000000000000000000000000000000000000000000000000000000000000000000000000000000040000
Plaintext:                00000000000000000000000000040000
Ciphertext:               f44df11960620a8d183f63515958abcfa4da4fd780dc208cd1130856d1c7ffae
Reciphers for ciphertext: 0
Decipheredtext:           00000000000000000000000000040000
RESULT CIPHER-DECIPHER: -----OK-----


Test: 110
Sector size in bytes: 24576
Data unit:   0
Start block: 0
Symmetric key bit length: 512
Plaintext bit length:     128
Symmetric key:            00000000000000000000000000000000000000000000000000000000000000000000000000000000000000000000000000000000000000000000000000020000
Plaintext:                00000000000000000000000000020000
Ciphertext:               92953877299acd23cdcca4ea11318f1d693308ccf8a76cc61b4c56ce73e4b3d9
Reciphers for ciphertext: 0
Decipheredtext:           00000000000000000000000000020000
RESULT CIPHER-DECIPHER: -----OK-----


Test: 111
Sector size in bytes: 24576
Data unit:   0
Start block: 0
Symmetric key bit length: 512
Plaintext bit length:     128
Symmetric key:            00000000000000000000000000000000000000000000000000000000000000000000000000000000000000000000000000000000000000000000000000010000
Plaintext:                00000000000000000000000000010000
Ciphertext:               affc6c9f1b9bc72d0bd9c5e19fab090880a2701fba9105398145280b6a51f86c
Reciphers for ciphertext: 0
Decipheredtext:           00000000000000000000000000010000
RESULT CIPHER-DECIPHER: -----OK-----


Test: 112
Sector size in bytes: 24576
Data unit:   0
Start block: 0
Symmetric key bit length: 512
Plaintext bit length:     128
Symmetric key:            00000000000000000000000000000000000000000000000000000000000000000000000000000000000000000000000000000000000000000000000000008000
Plaintext:                00000000000000000000000000008000
Ciphertext:               92991f3f14813368655c534a9235f2531cc4d83e3cf870dadc60414829088dfb
Reciphers for ciphertext: 0
Decipheredtext:           00000000000000000000000000008000
RESULT CIPHER-DECIPHER: -----OK-----


Test: 113
Sector size in bytes: 24576
Data unit:   0
Start block: 0
Symmetric key bit length: 512
Plaintext bit length:     128
Symmetric key:            00000000000000000000000000000000000000000000000000000000000000000000000000000000000000000000000000000000000000000000000000004000
Plaintext:                00000000000000000000000000004000
Ciphertext:               694ebe9f3f9446ee56f3436fda840d408445b9222632ebdda6b2c089bb3ec27b
Reciphers for ciphertext: 0
Decipheredtext:           00000000000000000000000000004000
RESULT CIPHER-DECIPHER: -----OK-----


Test: 114
Sector size in bytes: 24576
Data unit:   0
Start block: 0
Symmetric key bit length: 512
Plaintext bit length:     128
Symmetric key:            00000000000000000000000000000000000000000000000000000000000000000000000000000000000000000000000000000000000000000000000000002000
Plaintext:                00000000000000000000000000002000
Ciphertext:               b5a422cb06930e01603f2f2cfa8d500d5d39cc870e8a7f99755544015b4fda89
Reciphers for ciphertext: 0
Decipheredtext:           00000000000000000000000000002000
RESULT CIPHER-DECIPHER: -----OK-----


Test: 115
Sector size in bytes: 24576
Data unit:   0
Start block: 0
Symmetric key bit length: 512
Plaintext bit length:     128
Symmetric key:            00000000000000000000000000000000000000000000000000000000000000000000000000000000000000000000000000000000000000000000000000001000
Plaintext:                00000000000000000000000000001000
Ciphertext:               7b3a2ccb2932e0a39185b7b3ebedc9d63f76c34cc521422797214a75e399a33b
Reciphers for ciphertext: 0
Decipheredtext:           00000000000000000000000000001000
RESULT CIPHER-DECIPHER: -----OK-----


Test: 116
Sector size in bytes: 24576
Data unit:   0
Start block: 0
Symmetric key bit length: 512
Plaintext bit length:     128
Symmetric key:            00000000000000000000000000000000000000000000000000000000000000000000000000000000000000000000000000000000000000000000000000000800
Plaintext:                00000000000000000000000000000800
Ciphertext:               6336da49ad57e754f86504ffc713c21bd2e29681924a3e15dc7002c06351ecc9
Reciphers for ciphertext: 0
Decipheredtext:           00000000000000000000000000000800
RESULT CIPHER-DECIPHER: -----OK-----


Test: 117
Sector size in bytes: 24576
Data unit:   0
Start block: 0
Symmetric key bit length: 512
Plaintext bit length:     128
Symmetric key:            00000000000000000000000000000000000000000000000000000000000000000000000000000000000000000000000000000000000000000000000000000400
Plaintext:                00000000000000000000000000000400
Ciphertext:               c0efc598ff54e5eff5d8a3643c4a6bb1df46ad6090f4136a254e1709538e0ee3
Reciphers for ciphertext: 0
Decipheredtext:           00000000000000000000000000000400
RESULT CIPHER-DECIPHER: -----OK-----


Test: 118
Sector size in bytes: 24576
Data unit:   0
Start block: 0
Symmetric key bit length: 512
Plaintext bit length:     128
Symmetric key:            00000000000000000000000000000000000000000000000000000000000000000000000000000000000000000000000000000000000000000000000000000200
Plaintext:                00000000000000000000000000000200
Ciphertext:               a2d00b5a94e5f4a33c707ae712c07ae6347016dbf73fe1dc31c123eea3344f71
Reciphers for ciphertext: 0
Decipheredtext:           00000000000000000000000000000200
RESULT CIPHER-DECIPHER: -----OK-----


Test: 119
Sector size in bytes: 24576
Data unit:   0
Start block: 0
Symmetric key bit length: 512
Plaintext bit length:     128
Symmetric key:            00000000000000000000000000000000000000000000000000000000000000000000000000000000000000000000000000000000000000000000000000000100
Plaintext:                00000000000000000000000000000100
Ciphertext:               cf997e3bac0a7c9b25af6d7304a13be5e35f9063fa9a81264d6c53622669028a
Reciphers for ciphertext: 0
Decipheredtext:           00000000000000000000000000000100
RESULT CIPHER-DECIPHER: -----OK-----


Test: 120
Sector size in bytes: 32768
Data unit:   0
Start block: 0
Symmetric key bit length: 512
Plaintext bit length:     128
Symmetric key:            00000000000000000000000000000000000000000000000000000000000000000000000000000000000000000000000000000000000000000000000000000080
Plaintext:                00000000000000000000000000000080
Ciphertext:               0f090800ab40a2e6664fb46473086134e4ec1a26d864a73d5076227eec94b927
Reciphers for ciphertext: 0
Decipheredtext:           00000000000000000000000000000080
RESULT CIPHER-DECIPHER: -----OK-----


Test: 121
Sector size in bytes: 32768
Data unit:   0
Start block: 0
Symmetric key bit length: 512
Plaintext bit length:     128
Symmetric key:            00000000000000000000000000000000000000000000000000000000000000000000000000000000000000000000000000000000000000000000000000000040
Plaintext:                00000000000000000000000000000040
Ciphertext:               84bd0fb01a4f75061b2d60c70fa7f09e87f7a0f8bead5258a22c63efe7c2af87
Reciphers for ciphertext: 0
Decipheredtext:           00000000000000000000000000000040
RESULT CIPHER-DECIPHER: -----OK-----


Test: 122
Sector size in bytes: 32768
Data unit:   0
Start block: 0
Symmetric key bit length: 512
Plaintext bit length:     128
Symmetric key:            00000000000000000000000000000000000000000000000000000000000000000000000000000000000000000000000000000000000000000000000000000020
Plaintext:                00000000000000000000000000000020
Ciphertext:               9f75ef064908c7e99d904d7b14f5ab6e88af8264ac5710137aa142ed57276b73
Reciphers for ciphertext: 0
Decipheredtext:           00000000000000000000000000000020
RESULT CIPHER-DECIPHER: -----OK-----


Test: 123
Sector size in bytes: 32768
Data unit:   0
Start block: 0
Symmetric key bit length: 512
Plaintext bit length:     128
Symmetric key:            00000000000000000000000000000000000000000000000000000000000000000000000000000000000000000000000000000000000000000000000000000010
Plaintext:                00000000000000000000000000000010
Ciphertext:               35d2d30a93a9f002ee52c9e6e2a22f96343554a18d620f117b6eb8de9bc8cf3d
Reciphers for ciphertext: 0
Decipheredtext:           00000000000000000000000000000010
RESULT CIPHER-DECIPHER: -----OK-----


Test: 124
Sector size in bytes: 32768
Data unit:   0
Start block: 0
Symmetric key bit length: 512
Plaintext bit length:     128
Symmetric key:            00000000000000000000000000000000000000000000000000000000000000000000000000000000000000000000000000000000000000000000000000000008
Plaintext:                00000000000000000000000000000008
Ciphertext:               e08f7a167c6f31502bf1d8afa0e42d4fe2787a653be34e4dba1761371bb2cf5b
Reciphers for ciphertext: 0
Decipheredtext:           00000000000000000000000000000008
RESULT CIPHER-DECIPHER: -----OK-----


Test: 125
Sector size in bytes: 32768
Data unit:   0
Start block: 0
Symmetric key bit length: 512
Plaintext bit length:     128
Symmetric key:            00000000000000000000000000000000000000000000000000000000000000000000000000000000000000000000000000000000000000000000000000000004
Plaintext:                00000000000000000000000000000004
Ciphertext:               9656643a878bdbc54663821bddc4487f573b6e7825039ff0870f4d9b8e98d121
Reciphers for ciphertext: 0
Decipheredtext:           00000000000000000000000000000004
RESULT CIPHER-DECIPHER: -----OK-----


Test: 126
Sector size in bytes: 32768
Data unit:   0
Start block: 0
Symmetric key bit length: 512
Plaintext bit length:     128
Symmetric key:            00000000000000000000000000000000000000000000000000000000000000000000000000000000000000000000000000000000000000000000000000000002
Plaintext:                00000000000000000000000000000002
Ciphertext:               e7abe8a54da6845c7769136b63a014aab843daef93c589bd42743a5a77eff27f
Reciphers for ciphertext: 0
Decipheredtext:           00000000000000000000000000000002
RESULT CIPHER-DECIPHER: -----OK-----


Test: 127
Sector size in bytes: 32768
Data unit:   0
Start block: 0
Symmetric key bit length: 512
Plaintext bit length:     128
Symmetric key:            00000000000000000000000000000000000000000000000000000000000000000000000000000000000000000000000000000000000000000000000000000001
Plaintext:                00000000000000000000000000000001
Ciphertext:               e1929ff8f380651b6f102ff6f049ae2b0b3c51961906ee5b0b97703a2f7dd4d9
Reciphers for ciphertext: 0
Decipheredtext:           00000000000000000000000000000001
RESULT CIPHER-DECIPHER: -----OK-----


 DATA SHA1 (hexadecimal): c2370c3bdac7bf84bdd667b4574364b2aa781aa1

