
DiceLock 9.0.0.1

 TEST COMPONENTS:
 ----------------
 DiceLock:           DiceLockXTSIndexed class
 Operation Mode:     XTS_Mode class
 Block Cipher:       Camellia192 class
 Key Modifier:       IncreaseBase0IndexModifier_6_0_0_1 class
   Index bit length: 128
 Random tests:       RandomTestSuite class
                     FrequencyTest class
                     BlockFrequencyTest class
                     CumulativeSumForwardTest class
                     LongestRunOfOnesTest class
                     RunsTest class
 Random alpha:       0.001

 VECTOR TEST: Test vector 1 - Changing plaintext, shifting 1 bit set


##### INDIVIDUAL TESTS #####

Number tests: 128


Test: 0
Sector size in bytes: 512
Data unit:   0
Start block: 0
Symmetric key bit length: 384
Plaintext bit length:     136
Symmetric key:            000000000000000000000000000000000000000000000000000000000000000000000000000000000000000000000000
Plaintext:                0080000000000000000000000000000000
Ciphertext:               62b5b23b94cbbdf6579661879deace2ec2173c68fb6c797f1a7738b3ab9548fc2a
Reciphers for ciphertext: 0
Decipheredtext:           0080000000000000000000000000000000
RESULT CIPHER-DECIPHER: -----OK-----


Test: 1
Sector size in bytes: 512
Data unit:   0
Start block: 0
Symmetric key bit length: 384
Plaintext bit length:     136
Symmetric key:            000000000000000000000000000000000000000000000000000000000000000000000000000000000000000000000000
Plaintext:                0040000000000000000000000000000000
Ciphertext:               62b5b23b94cbbdf6579661879deace2e8336e6488c377a6a39f13fea17670c4598
Reciphers for ciphertext: 0
Decipheredtext:           0040000000000000000000000000000000
RESULT CIPHER-DECIPHER: -----OK-----


Test: 2
Sector size in bytes: 512
Data unit:   0
Start block: 0
Symmetric key bit length: 384
Plaintext bit length:     136
Symmetric key:            000000000000000000000000000000000000000000000000000000000000000000000000000000000000000000000000
Plaintext:                0020000000000000000000000000000000
Ciphertext:               62b5b23b94cbbdf6579661879deace2ea24daf169585ca38525d88cee17d07b13e
Reciphers for ciphertext: 0
Decipheredtext:           0020000000000000000000000000000000
RESULT CIPHER-DECIPHER: -----OK-----


Test: 3
Sector size in bytes: 512
Data unit:   0
Start block: 0
Symmetric key bit length: 384
Plaintext bit length:     136
Symmetric key:            000000000000000000000000000000000000000000000000000000000000000000000000000000000000000000000000
Plaintext:                0010000000000000000000000000000000
Ciphertext:               62b5b23b94cbbdf6579661879deace2ec2345ba014b189e09a6d1a33210e79bec1
Reciphers for ciphertext: 0
Decipheredtext:           0010000000000000000000000000000000
RESULT CIPHER-DECIPHER: -----OK-----


Test: 4
Sector size in bytes: 512
Data unit:   0
Start block: 0
Symmetric key bit length: 384
Plaintext bit length:     136
Symmetric key:            000000000000000000000000000000000000000000000000000000000000000000000000000000000000000000000000
Plaintext:                0008000000000000000000000000000000
Ciphertext:               62b5b23b94cbbdf6579661879deace2e358e93ebfd26c05675cadfa2d95aec9355
Reciphers for ciphertext: 0
Decipheredtext:           0008000000000000000000000000000000
RESULT CIPHER-DECIPHER: -----OK-----


Test: 5
Sector size in bytes: 512
Data unit:   0
Start block: 0
Symmetric key bit length: 384
Plaintext bit length:     136
Symmetric key:            000000000000000000000000000000000000000000000000000000000000000000000000000000000000000000000000
Plaintext:                0004000000000000000000000000000000
Ciphertext:               62b5b23b94cbbdf6579661879deace2e44066ce42dbf3c576f8696152efc5856ba
Reciphers for ciphertext: 0
Decipheredtext:           0004000000000000000000000000000000
RESULT CIPHER-DECIPHER: -----OK-----


Test: 6
Sector size in bytes: 512
Data unit:   0
Start block: 0
Symmetric key bit length: 384
Plaintext bit length:     136
Symmetric key:            000000000000000000000000000000000000000000000000000000000000000000000000000000000000000000000000
Plaintext:                0002000000000000000000000000000000
Ciphertext:               62b5b23b94cbbdf6579661879deace2edd0a9c595091a7dd990edd082529185000
Reciphers for ciphertext: 0
Decipheredtext:           0002000000000000000000000000000000
RESULT CIPHER-DECIPHER: -----OK-----


Test: 7
Sector size in bytes: 512
Data unit:   0
Start block: 0
Symmetric key bit length: 384
Plaintext bit length:     136
Symmetric key:            000000000000000000000000000000000000000000000000000000000000000000000000000000000000000000000000
Plaintext:                0001000000000000000000000000000000
Ciphertext:               62b5b23b94cbbdf6579661879deace2e4b5976e0cee5a12d243765eeda4a77fbd0
Reciphers for ciphertext: 0
Decipheredtext:           0001000000000000000000000000000000
RESULT CIPHER-DECIPHER: -----OK-----


Test: 8
Sector size in bytes: 512
Data unit:   0
Start block: 0
Symmetric key bit length: 384
Plaintext bit length:     136
Symmetric key:            000000000000000000000000000000000000000000000000000000000000000000000000000000000000000000000000
Plaintext:                0000800000000000000000000000000000
Ciphertext:               62b5b23b94cbbdf6579661879deace2ef5c1c66ee030eac425e4b2edbee53a6e89
Reciphers for ciphertext: 0
Decipheredtext:           0000800000000000000000000000000000
RESULT CIPHER-DECIPHER: -----OK-----


Test: 9
Sector size in bytes: 512
Data unit:   0
Start block: 0
Symmetric key bit length: 384
Plaintext bit length:     136
Symmetric key:            000000000000000000000000000000000000000000000000000000000000000000000000000000000000000000000000
Plaintext:                0000400000000000000000000000000000
Ciphertext:               62b5b23b94cbbdf6579661879deace2e807b604b577b74215d4bc61bb87cbca175
Reciphers for ciphertext: 0
Decipheredtext:           0000400000000000000000000000000000
RESULT CIPHER-DECIPHER: -----OK-----


Test: 10
Sector size in bytes: 1024
Data unit:   0
Start block: 0
Symmetric key bit length: 384
Plaintext bit length:     136
Symmetric key:            000000000000000000000000000000000000000000000000000000000000000000000000000000000000000000000000
Plaintext:                0000200000000000000000000000000000
Ciphertext:               62b5b23b94cbbdf6579661879deace2efcbd8db6c327ed21f75c57d5403e6dad0e
Reciphers for ciphertext: 0
Decipheredtext:           0000200000000000000000000000000000
RESULT CIPHER-DECIPHER: -----OK-----


Test: 11
Sector size in bytes: 1024
Data unit:   0
Start block: 0
Symmetric key bit length: 384
Plaintext bit length:     136
Symmetric key:            000000000000000000000000000000000000000000000000000000000000000000000000000000000000000000000000
Plaintext:                0000100000000000000000000000000000
Ciphertext:               62b5b23b94cbbdf6579661879deace2ef8854823f9b14ee6510a2f751f183ec60a
Reciphers for ciphertext: 0
Decipheredtext:           0000100000000000000000000000000000
RESULT CIPHER-DECIPHER: -----OK-----


Test: 12
Sector size in bytes: 1024
Data unit:   0
Start block: 0
Symmetric key bit length: 384
Plaintext bit length:     136
Symmetric key:            000000000000000000000000000000000000000000000000000000000000000000000000000000000000000000000000
Plaintext:                0000080000000000000000000000000000
Ciphertext:               62b5b23b94cbbdf6579661879deace2eba72a0e452d31fcd80db404809a98532de
Reciphers for ciphertext: 0
Decipheredtext:           0000080000000000000000000000000000
RESULT CIPHER-DECIPHER: -----OK-----


Test: 13
Sector size in bytes: 1024
Data unit:   0
Start block: 0
Symmetric key bit length: 384
Plaintext bit length:     136
Symmetric key:            000000000000000000000000000000000000000000000000000000000000000000000000000000000000000000000000
Plaintext:                0000040000000000000000000000000000
Ciphertext:               62b5b23b94cbbdf6579661879deace2ef02aa376fcd054fe384c98c689d90bd6b6
Reciphers for ciphertext: 0
Decipheredtext:           0000040000000000000000000000000000
RESULT CIPHER-DECIPHER: -----OK-----


Test: 14
Sector size in bytes: 1024
Data unit:   0
Start block: 0
Symmetric key bit length: 384
Plaintext bit length:     136
Symmetric key:            000000000000000000000000000000000000000000000000000000000000000000000000000000000000000000000000
Plaintext:                0000020000000000000000000000000000
Ciphertext:               62b5b23b94cbbdf6579661879deace2ea3a6982f7ff9a63db41341c2eb4cfd6afd
Reciphers for ciphertext: 0
Decipheredtext:           0000020000000000000000000000000000
RESULT CIPHER-DECIPHER: -----OK-----


Test: 15
Sector size in bytes: 1024
Data unit:   0
Start block: 0
Symmetric key bit length: 384
Plaintext bit length:     136
Symmetric key:            000000000000000000000000000000000000000000000000000000000000000000000000000000000000000000000000
Plaintext:                0000010000000000000000000000000000
Ciphertext:               62b5b23b94cbbdf6579661879deace2ec825d794077392703284ff907f9dec7e83
Reciphers for ciphertext: 0
Decipheredtext:           0000010000000000000000000000000000
RESULT CIPHER-DECIPHER: -----OK-----


Test: 16
Sector size in bytes: 1024
Data unit:   0
Start block: 0
Symmetric key bit length: 384
Plaintext bit length:     136
Symmetric key:            000000000000000000000000000000000000000000000000000000000000000000000000000000000000000000000000
Plaintext:                0000008000000000000000000000000000
Ciphertext:               62b5b23b94cbbdf6579661879deace2e768d93d864175d2fb30b617d8990a219ee
Reciphers for ciphertext: 0
Decipheredtext:           0000008000000000000000000000000000
RESULT CIPHER-DECIPHER: -----OK-----


Test: 17
Sector size in bytes: 1024
Data unit:   0
Start block: 0
Symmetric key bit length: 384
Plaintext bit length:     136
Symmetric key:            000000000000000000000000000000000000000000000000000000000000000000000000000000000000000000000000
Plaintext:                0000004000000000000000000000000000
Ciphertext:               62b5b23b94cbbdf6579661879deace2ecbbf180745fcaa56c57359879d777dca71
Reciphers for ciphertext: 0
Decipheredtext:           0000004000000000000000000000000000
RESULT CIPHER-DECIPHER: -----OK-----


Test: 18
Sector size in bytes: 1024
Data unit:   0
Start block: 0
Symmetric key bit length: 384
Plaintext bit length:     136
Symmetric key:            000000000000000000000000000000000000000000000000000000000000000000000000000000000000000000000000
Plaintext:                0000002000000000000000000000000000
Ciphertext:               62b5b23b94cbbdf6579661879deace2e1090fa8e95858af3e54d0285b4a932bd0c
Reciphers for ciphertext: 0
Decipheredtext:           0000002000000000000000000000000000
RESULT CIPHER-DECIPHER: -----OK-----


Test: 19
Sector size in bytes: 1024
Data unit:   0
Start block: 0
Symmetric key bit length: 384
Plaintext bit length:     136
Symmetric key:            000000000000000000000000000000000000000000000000000000000000000000000000000000000000000000000000
Plaintext:                0000001000000000000000000000000000
Ciphertext:               62b5b23b94cbbdf6579661879deace2e33cd341d59913f44cb11ae07f7434fed96
Reciphers for ciphertext: 0
Decipheredtext:           0000001000000000000000000000000000
RESULT CIPHER-DECIPHER: -----OK-----


Test: 20
Sector size in bytes: 1536
Data unit:   0
Start block: 0
Symmetric key bit length: 384
Plaintext bit length:     136
Symmetric key:            000000000000000000000000000000000000000000000000000000000000000000000000000000000000000000000000
Plaintext:                0000000800000000000000000000000000
Ciphertext:               62b5b23b94cbbdf6579661879deace2e5eb7899818a81cc5428128bf781c58c300
Reciphers for ciphertext: 0
Decipheredtext:           0000000800000000000000000000000000
RESULT CIPHER-DECIPHER: -----OK-----


Test: 21
Sector size in bytes: 1536
Data unit:   0
Start block: 0
Symmetric key bit length: 384
Plaintext bit length:     136
Symmetric key:            000000000000000000000000000000000000000000000000000000000000000000000000000000000000000000000000
Plaintext:                0000000400000000000000000000000000
Ciphertext:               62b5b23b94cbbdf6579661879deace2eed90fd992e8901132c0036ca5a581ff4e5
Reciphers for ciphertext: 0
Decipheredtext:           0000000400000000000000000000000000
RESULT CIPHER-DECIPHER: -----OK-----


Test: 22
Sector size in bytes: 1536
Data unit:   0
Start block: 0
Symmetric key bit length: 384
Plaintext bit length:     136
Symmetric key:            000000000000000000000000000000000000000000000000000000000000000000000000000000000000000000000000
Plaintext:                0000000200000000000000000000000000
Ciphertext:               62b5b23b94cbbdf6579661879deace2e8fd0f9f9b9023b6be77ca58c053272b358
Reciphers for ciphertext: 0
Decipheredtext:           0000000200000000000000000000000000
RESULT CIPHER-DECIPHER: -----OK-----


Test: 23
Sector size in bytes: 1536
Data unit:   0
Start block: 0
Symmetric key bit length: 384
Plaintext bit length:     136
Symmetric key:            000000000000000000000000000000000000000000000000000000000000000000000000000000000000000000000000
Plaintext:                0000000100000000000000000000000000
Ciphertext:               62b5b23b94cbbdf6579661879deace2e3fee6fcb8ca1f44c6b4a319a6ce6de547d
Reciphers for ciphertext: 0
Decipheredtext:           0000000100000000000000000000000000
RESULT CIPHER-DECIPHER: -----OK-----


Test: 24
Sector size in bytes: 1536
Data unit:   0
Start block: 0
Symmetric key bit length: 384
Plaintext bit length:     136
Symmetric key:            000000000000000000000000000000000000000000000000000000000000000000000000000000000000000000000000
Plaintext:                0000000080000000000000000000000000
Ciphertext:               62b5b23b94cbbdf6579661879deace2e644528ae432dc3f49950beccad3ca6e094
Reciphers for ciphertext: 0
Decipheredtext:           0000000080000000000000000000000000
RESULT CIPHER-DECIPHER: -----OK-----


Test: 25
Sector size in bytes: 1536
Data unit:   0
Start block: 0
Symmetric key bit length: 384
Plaintext bit length:     136
Symmetric key:            000000000000000000000000000000000000000000000000000000000000000000000000000000000000000000000000
Plaintext:                0000000040000000000000000000000000
Ciphertext:               62b5b23b94cbbdf6579661879deace2ea4e9d4cc803d3248b6c769d5f948f013c0
Reciphers for ciphertext: 0
Decipheredtext:           0000000040000000000000000000000000
RESULT CIPHER-DECIPHER: -----OK-----


Test: 26
Sector size in bytes: 1536
Data unit:   0
Start block: 0
Symmetric key bit length: 384
Plaintext bit length:     136
Symmetric key:            000000000000000000000000000000000000000000000000000000000000000000000000000000000000000000000000
Plaintext:                0000000020000000000000000000000000
Ciphertext:               62b5b23b94cbbdf6579661879deace2e340c24479f78374d9f77f6c922b73538cd
Reciphers for ciphertext: 0
Decipheredtext:           0000000020000000000000000000000000
RESULT CIPHER-DECIPHER: -----OK-----


Test: 27
Sector size in bytes: 1536
Data unit:   0
Start block: 0
Symmetric key bit length: 384
Plaintext bit length:     136
Symmetric key:            000000000000000000000000000000000000000000000000000000000000000000000000000000000000000000000000
Plaintext:                0000000010000000000000000000000000
Ciphertext:               62b5b23b94cbbdf6579661879deace2e79b2bfddc0ac64972e3f50163f41961330
Reciphers for ciphertext: 0
Decipheredtext:           0000000010000000000000000000000000
RESULT CIPHER-DECIPHER: -----OK-----


Test: 28
Sector size in bytes: 1536
Data unit:   0
Start block: 0
Symmetric key bit length: 384
Plaintext bit length:     136
Symmetric key:            000000000000000000000000000000000000000000000000000000000000000000000000000000000000000000000000
Plaintext:                0000000008000000000000000000000000
Ciphertext:               62b5b23b94cbbdf6579661879deace2ed6861d0591530c1a786d8d3bec7e1810b4
Reciphers for ciphertext: 0
Decipheredtext:           0000000008000000000000000000000000
RESULT CIPHER-DECIPHER: -----OK-----


Test: 29
Sector size in bytes: 1536
Data unit:   0
Start block: 0
Symmetric key bit length: 384
Plaintext bit length:     136
Symmetric key:            000000000000000000000000000000000000000000000000000000000000000000000000000000000000000000000000
Plaintext:                0000000004000000000000000000000000
Ciphertext:               62b5b23b94cbbdf6579661879deace2e1ed5f6558140f9b8de8cf3bc33b9cbe1e8
Reciphers for ciphertext: 0
Decipheredtext:           0000000004000000000000000000000000
RESULT CIPHER-DECIPHER: -----OK-----


Test: 30
Sector size in bytes: 2048
Data unit:   0
Start block: 0
Symmetric key bit length: 384
Plaintext bit length:     136
Symmetric key:            000000000000000000000000000000000000000000000000000000000000000000000000000000000000000000000000
Plaintext:                0000000002000000000000000000000000
Ciphertext:               62b5b23b94cbbdf6579661879deace2eddf9511705b657f972e7f401a436cd02d7
Reciphers for ciphertext: 0
Decipheredtext:           0000000002000000000000000000000000
RESULT CIPHER-DECIPHER: -----OK-----


Test: 31
Sector size in bytes: 2048
Data unit:   0
Start block: 0
Symmetric key bit length: 384
Plaintext bit length:     136
Symmetric key:            000000000000000000000000000000000000000000000000000000000000000000000000000000000000000000000000
Plaintext:                0000000001000000000000000000000000
Ciphertext:               62b5b23b94cbbdf6579661879deace2e4f9ad67a7bd3e9121e843cc2266b62163a
Reciphers for ciphertext: 0
Decipheredtext:           0000000001000000000000000000000000
RESULT CIPHER-DECIPHER: -----OK-----


Test: 32
Sector size in bytes: 2048
Data unit:   0
Start block: 0
Symmetric key bit length: 384
Plaintext bit length:     136
Symmetric key:            000000000000000000000000000000000000000000000000000000000000000000000000000000000000000000000000
Plaintext:                0000000000800000000000000000000000
Ciphertext:               62b5b23b94cbbdf6579661879deace2e70ccdd697bcaf78daef2e9795e0a078603
Reciphers for ciphertext: 0
Decipheredtext:           0000000000800000000000000000000000
RESULT CIPHER-DECIPHER: -----OK-----


Test: 33
Sector size in bytes: 2048
Data unit:   0
Start block: 0
Symmetric key bit length: 384
Plaintext bit length:     136
Symmetric key:            000000000000000000000000000000000000000000000000000000000000000000000000000000000000000000000000
Plaintext:                0000000000400000000000000000000000
Ciphertext:               62b5b23b94cbbdf6579661879deace2eb4c217554928e36a580a7d20db04748007
Reciphers for ciphertext: 0
Decipheredtext:           0000000000400000000000000000000000
RESULT CIPHER-DECIPHER: -----OK-----


Test: 34
Sector size in bytes: 2048
Data unit:   0
Start block: 0
Symmetric key bit length: 384
Plaintext bit length:     136
Symmetric key:            000000000000000000000000000000000000000000000000000000000000000000000000000000000000000000000000
Plaintext:                0000000000200000000000000000000000
Ciphertext:               62b5b23b94cbbdf6579661879deace2e26d6038aba414cb55e35cfe856148d605e
Reciphers for ciphertext: 0
Decipheredtext:           0000000000200000000000000000000000
RESULT CIPHER-DECIPHER: -----OK-----


Test: 35
Sector size in bytes: 2048
Data unit:   0
Start block: 0
Symmetric key bit length: 384
Plaintext bit length:     136
Symmetric key:            000000000000000000000000000000000000000000000000000000000000000000000000000000000000000000000000
Plaintext:                0000000000100000000000000000000000
Ciphertext:               62b5b23b94cbbdf6579661879deace2ede0d569dff917343c8e7e4745c22141f87
Reciphers for ciphertext: 0
Decipheredtext:           0000000000100000000000000000000000
RESULT CIPHER-DECIPHER: -----OK-----


Test: 36
Sector size in bytes: 2048
Data unit:   0
Start block: 0
Symmetric key bit length: 384
Plaintext bit length:     136
Symmetric key:            000000000000000000000000000000000000000000000000000000000000000000000000000000000000000000000000
Plaintext:                0000000000080000000000000000000000
Ciphertext:               62b5b23b94cbbdf6579661879deace2e19d0326822dd5c05564be362c4113e91da
Reciphers for ciphertext: 0
Decipheredtext:           0000000000080000000000000000000000
RESULT CIPHER-DECIPHER: -----OK-----


Test: 37
Sector size in bytes: 2048
Data unit:   0
Start block: 0
Symmetric key bit length: 384
Plaintext bit length:     136
Symmetric key:            000000000000000000000000000000000000000000000000000000000000000000000000000000000000000000000000
Plaintext:                0000000000040000000000000000000000
Ciphertext:               62b5b23b94cbbdf6579661879deace2e9d549f26013a2e6a042319bc77669e9e4a
Reciphers for ciphertext: 0
Decipheredtext:           0000000000040000000000000000000000
RESULT CIPHER-DECIPHER: -----OK-----


Test: 38
Sector size in bytes: 2048
Data unit:   0
Start block: 0
Symmetric key bit length: 384
Plaintext bit length:     136
Symmetric key:            000000000000000000000000000000000000000000000000000000000000000000000000000000000000000000000000
Plaintext:                0000000000020000000000000000000000
Ciphertext:               62b5b23b94cbbdf6579661879deace2ea444f03b7565b6fb3450d25627f397c9b4
Reciphers for ciphertext: 0
Decipheredtext:           0000000000020000000000000000000000
RESULT CIPHER-DECIPHER: -----OK-----


Test: 39
Sector size in bytes: 2048
Data unit:   0
Start block: 0
Symmetric key bit length: 384
Plaintext bit length:     136
Symmetric key:            000000000000000000000000000000000000000000000000000000000000000000000000000000000000000000000000
Plaintext:                0000000000010000000000000000000000
Ciphertext:               62b5b23b94cbbdf6579661879deace2ed961ae522f9fd7847cc569830203932e1a
Reciphers for ciphertext: 0
Decipheredtext:           0000000000010000000000000000000000
RESULT CIPHER-DECIPHER: -----OK-----


Test: 40
Sector size in bytes: 2560
Data unit:   0
Start block: 0
Symmetric key bit length: 384
Plaintext bit length:     136
Symmetric key:            000000000000000000000000000000000000000000000000000000000000000000000000000000000000000000000000
Plaintext:                0000000000008000000000000000000000
Ciphertext:               62b5b23b94cbbdf6579661879deace2e2b9c4cf96923c251c851016622f8de6a4e
Reciphers for ciphertext: 0
Decipheredtext:           0000000000008000000000000000000000
RESULT CIPHER-DECIPHER: -----OK-----


Test: 41
Sector size in bytes: 2560
Data unit:   0
Start block: 0
Symmetric key bit length: 384
Plaintext bit length:     136
Symmetric key:            000000000000000000000000000000000000000000000000000000000000000000000000000000000000000000000000
Plaintext:                0000000000004000000000000000000000
Ciphertext:               62b5b23b94cbbdf6579661879deace2e965cd1917167d3ed746db1bc7fddec486c
Reciphers for ciphertext: 0
Decipheredtext:           0000000000004000000000000000000000
RESULT CIPHER-DECIPHER: -----OK-----


Test: 42
Sector size in bytes: 2560
Data unit:   0
Start block: 0
Symmetric key bit length: 384
Plaintext bit length:     136
Symmetric key:            000000000000000000000000000000000000000000000000000000000000000000000000000000000000000000000000
Plaintext:                0000000000002000000000000000000000
Ciphertext:               62b5b23b94cbbdf6579661879deace2ec4e99d3dc19a06d40713126e78a85b3191
Reciphers for ciphertext: 0
Decipheredtext:           0000000000002000000000000000000000
RESULT CIPHER-DECIPHER: -----OK-----


Test: 43
Sector size in bytes: 2560
Data unit:   0
Start block: 0
Symmetric key bit length: 384
Plaintext bit length:     136
Symmetric key:            000000000000000000000000000000000000000000000000000000000000000000000000000000000000000000000000
Plaintext:                0000000000001000000000000000000000
Ciphertext:               62b5b23b94cbbdf6579661879deace2e08987d48cfb4ee590c2756729c48891490
Reciphers for ciphertext: 0
Decipheredtext:           0000000000001000000000000000000000
RESULT CIPHER-DECIPHER: -----OK-----


Test: 44
Sector size in bytes: 2560
Data unit:   0
Start block: 0
Symmetric key bit length: 384
Plaintext bit length:     136
Symmetric key:            000000000000000000000000000000000000000000000000000000000000000000000000000000000000000000000000
Plaintext:                0000000000000800000000000000000000
Ciphertext:               62b5b23b94cbbdf6579661879deace2e6b6779c46e0e656b134f54617c59555bde
Reciphers for ciphertext: 0
Decipheredtext:           0000000000000800000000000000000000
RESULT CIPHER-DECIPHER: -----OK-----


Test: 45
Sector size in bytes: 2560
Data unit:   0
Start block: 0
Symmetric key bit length: 384
Plaintext bit length:     136
Symmetric key:            000000000000000000000000000000000000000000000000000000000000000000000000000000000000000000000000
Plaintext:                0000000000000400000000000000000000
Ciphertext:               62b5b23b94cbbdf6579661879deace2ea9feee4efd0c8e191370a00da42c30e07f
Reciphers for ciphertext: 0
Decipheredtext:           0000000000000400000000000000000000
RESULT CIPHER-DECIPHER: -----OK-----


Test: 46
Sector size in bytes: 2560
Data unit:   0
Start block: 0
Symmetric key bit length: 384
Plaintext bit length:     136
Symmetric key:            000000000000000000000000000000000000000000000000000000000000000000000000000000000000000000000000
Plaintext:                0000000000000200000000000000000000
Ciphertext:               62b5b23b94cbbdf6579661879deace2e72f23aefdc290b5c015d59dc6c60df0611
Reciphers for ciphertext: 0
Decipheredtext:           0000000000000200000000000000000000
RESULT CIPHER-DECIPHER: -----OK-----


Test: 47
Sector size in bytes: 2560
Data unit:   0
Start block: 0
Symmetric key bit length: 384
Plaintext bit length:     136
Symmetric key:            000000000000000000000000000000000000000000000000000000000000000000000000000000000000000000000000
Plaintext:                0000000000000100000000000000000000
Ciphertext:               62b5b23b94cbbdf6579661879deace2e3d0aafb0a15250a220b3a70810aea43f35
Reciphers for ciphertext: 0
Decipheredtext:           0000000000000100000000000000000000
RESULT CIPHER-DECIPHER: -----OK-----


Test: 48
Sector size in bytes: 2560
Data unit:   0
Start block: 0
Symmetric key bit length: 384
Plaintext bit length:     136
Symmetric key:            000000000000000000000000000000000000000000000000000000000000000000000000000000000000000000000000
Plaintext:                0000000000000080000000000000000000
Ciphertext:               62b5b23b94cbbdf6579661879deace2ef0fdf9194afb89cf5f3ce2bbc02a3813f4
Reciphers for ciphertext: 0
Decipheredtext:           0000000000000080000000000000000000
RESULT CIPHER-DECIPHER: -----OK-----


Test: 49
Sector size in bytes: 2560
Data unit:   0
Start block: 0
Symmetric key bit length: 384
Plaintext bit length:     136
Symmetric key:            000000000000000000000000000000000000000000000000000000000000000000000000000000000000000000000000
Plaintext:                0000000000000040000000000000000000
Ciphertext:               62b5b23b94cbbdf6579661879deace2e08af7f04854cbb0d4658d54e25494ec106
Reciphers for ciphertext: 0
Decipheredtext:           0000000000000040000000000000000000
RESULT CIPHER-DECIPHER: -----OK-----


Test: 50
Sector size in bytes: 3072
Data unit:   0
Start block: 0
Symmetric key bit length: 384
Plaintext bit length:     136
Symmetric key:            000000000000000000000000000000000000000000000000000000000000000000000000000000000000000000000000
Plaintext:                0000000000000020000000000000000000
Ciphertext:               62b5b23b94cbbdf6579661879deace2e09407d8409c186a852e2f437e75ec5426a
Reciphers for ciphertext: 0
Decipheredtext:           0000000000000020000000000000000000
RESULT CIPHER-DECIPHER: -----OK-----


Test: 51
Sector size in bytes: 3072
Data unit:   0
Start block: 0
Symmetric key bit length: 384
Plaintext bit length:     136
Symmetric key:            000000000000000000000000000000000000000000000000000000000000000000000000000000000000000000000000
Plaintext:                0000000000000010000000000000000000
Ciphertext:               62b5b23b94cbbdf6579661879deace2ead0c1c4e5231178bfc8ae93d976a271954
Reciphers for ciphertext: 0
Decipheredtext:           0000000000000010000000000000000000
RESULT CIPHER-DECIPHER: -----OK-----


Test: 52
Sector size in bytes: 3072
Data unit:   0
Start block: 0
Symmetric key bit length: 384
Plaintext bit length:     136
Symmetric key:            000000000000000000000000000000000000000000000000000000000000000000000000000000000000000000000000
Plaintext:                0000000000000008000000000000000000
Ciphertext:               62b5b23b94cbbdf6579661879deace2e507e2161916a69460d8a35f1c4d5161907
Reciphers for ciphertext: 0
Decipheredtext:           0000000000000008000000000000000000
RESULT CIPHER-DECIPHER: -----OK-----


Test: 53
Sector size in bytes: 3072
Data unit:   0
Start block: 0
Symmetric key bit length: 384
Plaintext bit length:     136
Symmetric key:            000000000000000000000000000000000000000000000000000000000000000000000000000000000000000000000000
Plaintext:                0000000000000004000000000000000000
Ciphertext:               62b5b23b94cbbdf6579661879deace2e8587cb1bdc3a056a45afeba0bbeeb2157c
Reciphers for ciphertext: 0
Decipheredtext:           0000000000000004000000000000000000
RESULT CIPHER-DECIPHER: -----OK-----


Test: 54
Sector size in bytes: 3072
Data unit:   0
Start block: 0
Symmetric key bit length: 384
Plaintext bit length:     136
Symmetric key:            000000000000000000000000000000000000000000000000000000000000000000000000000000000000000000000000
Plaintext:                0000000000000002000000000000000000
Ciphertext:               62b5b23b94cbbdf6579661879deace2e57335425d6ef14809f6b48a609434de18f
Reciphers for ciphertext: 0
Decipheredtext:           0000000000000002000000000000000000
RESULT CIPHER-DECIPHER: -----OK-----


Test: 55
Sector size in bytes: 3072
Data unit:   0
Start block: 0
Symmetric key bit length: 384
Plaintext bit length:     136
Symmetric key:            000000000000000000000000000000000000000000000000000000000000000000000000000000000000000000000000
Plaintext:                0000000000000001000000000000000000
Ciphertext:               62b5b23b94cbbdf6579661879deace2e74ff2544767c474202455b92641397ac9e
Reciphers for ciphertext: 0
Decipheredtext:           0000000000000001000000000000000000
RESULT CIPHER-DECIPHER: -----OK-----


Test: 56
Sector size in bytes: 3072
Data unit:   0
Start block: 0
Symmetric key bit length: 384
Plaintext bit length:     136
Symmetric key:            000000000000000000000000000000000000000000000000000000000000000000000000000000000000000000000000
Plaintext:                0000000000000000800000000000000000
Ciphertext:               62b5b23b94cbbdf6579661879deace2e1f1b26b2a86993af409cd9420b49bbeffe
Reciphers for ciphertext: 0
Decipheredtext:           0000000000000000800000000000000000
RESULT CIPHER-DECIPHER: -----OK-----


Test: 57
Sector size in bytes: 3072
Data unit:   0
Start block: 0
Symmetric key bit length: 384
Plaintext bit length:     136
Symmetric key:            000000000000000000000000000000000000000000000000000000000000000000000000000000000000000000000000
Plaintext:                0000000000000000400000000000000000
Ciphertext:               62b5b23b94cbbdf6579661879deace2eabc16446386b187b42f0d7e1d8957452ff
Reciphers for ciphertext: 0
Decipheredtext:           0000000000000000400000000000000000
RESULT CIPHER-DECIPHER: -----OK-----


Test: 58
Sector size in bytes: 3072
Data unit:   0
Start block: 0
Symmetric key bit length: 384
Plaintext bit length:     136
Symmetric key:            000000000000000000000000000000000000000000000000000000000000000000000000000000000000000000000000
Plaintext:                0000000000000000200000000000000000
Ciphertext:               62b5b23b94cbbdf6579661879deace2e91c78a2de754d435aaa2d1e2315c18acad
Reciphers for ciphertext: 0
Decipheredtext:           0000000000000000200000000000000000
RESULT CIPHER-DECIPHER: -----OK-----


Test: 59
Sector size in bytes: 3072
Data unit:   0
Start block: 0
Symmetric key bit length: 384
Plaintext bit length:     136
Symmetric key:            000000000000000000000000000000000000000000000000000000000000000000000000000000000000000000000000
Plaintext:                0000000000000000100000000000000000
Ciphertext:               62b5b23b94cbbdf6579661879deace2efc862fbf610ee8a2d60d9a63e3babea7d2
Reciphers for ciphertext: 0
Decipheredtext:           0000000000000000100000000000000000
RESULT CIPHER-DECIPHER: -----OK-----


Test: 60
Sector size in bytes: 3584
Data unit:   0
Start block: 0
Symmetric key bit length: 384
Plaintext bit length:     136
Symmetric key:            000000000000000000000000000000000000000000000000000000000000000000000000000000000000000000000000
Plaintext:                0000000000000000080000000000000000
Ciphertext:               62b5b23b94cbbdf6579661879deace2ebf7a2d08d6970ce9d5d0963e7d5316eb12
Reciphers for ciphertext: 0
Decipheredtext:           0000000000000000080000000000000000
RESULT CIPHER-DECIPHER: -----OK-----


Test: 61
Sector size in bytes: 3584
Data unit:   0
Start block: 0
Symmetric key bit length: 384
Plaintext bit length:     136
Symmetric key:            000000000000000000000000000000000000000000000000000000000000000000000000000000000000000000000000
Plaintext:                0000000000000000040000000000000000
Ciphertext:               62b5b23b94cbbdf6579661879deace2edc1447614b6c26a98c699dd3c256330644
Reciphers for ciphertext: 0
Decipheredtext:           0000000000000000040000000000000000
RESULT CIPHER-DECIPHER: -----OK-----


Test: 62
Sector size in bytes: 3584
Data unit:   0
Start block: 0
Symmetric key bit length: 384
Plaintext bit length:     136
Symmetric key:            000000000000000000000000000000000000000000000000000000000000000000000000000000000000000000000000
Plaintext:                0000000000000000020000000000000000
Ciphertext:               62b5b23b94cbbdf6579661879deace2e7bdb906155e9f8e3e6fc79a6d6e8922bbe
Reciphers for ciphertext: 0
Decipheredtext:           0000000000000000020000000000000000
RESULT CIPHER-DECIPHER: -----OK-----


Test: 63
Sector size in bytes: 3584
Data unit:   0
Start block: 0
Symmetric key bit length: 384
Plaintext bit length:     136
Symmetric key:            000000000000000000000000000000000000000000000000000000000000000000000000000000000000000000000000
Plaintext:                0000000000000000010000000000000000
Ciphertext:               62b5b23b94cbbdf6579661879deace2e9066491ea157cbc6d164a7d62cfb965cab
Reciphers for ciphertext: 0
Decipheredtext:           0000000000000000010000000000000000
RESULT CIPHER-DECIPHER: -----OK-----


Test: 64
Sector size in bytes: 3584
Data unit:   0
Start block: 0
Symmetric key bit length: 384
Plaintext bit length:     136
Symmetric key:            000000000000000000000000000000000000000000000000000000000000000000000000000000000000000000000000
Plaintext:                0000000000000000008000000000000000
Ciphertext:               62b5b23b94cbbdf6579661879deace2e013645e12fd92d69ed2649bc1397b1b3c1
Reciphers for ciphertext: 0
Decipheredtext:           0000000000000000008000000000000000
RESULT CIPHER-DECIPHER: -----OK-----


Test: 65
Sector size in bytes: 3584
Data unit:   0
Start block: 0
Symmetric key bit length: 384
Plaintext bit length:     136
Symmetric key:            000000000000000000000000000000000000000000000000000000000000000000000000000000000000000000000000
Plaintext:                0000000000000000004000000000000000
Ciphertext:               62b5b23b94cbbdf6579661879deace2eed07571ddbf9a0f6bb32dc3c9293034780
Reciphers for ciphertext: 0
Decipheredtext:           0000000000000000004000000000000000
RESULT CIPHER-DECIPHER: -----OK-----


Test: 66
Sector size in bytes: 3584
Data unit:   0
Start block: 0
Symmetric key bit length: 384
Plaintext bit length:     136
Symmetric key:            000000000000000000000000000000000000000000000000000000000000000000000000000000000000000000000000
Plaintext:                0000000000000000002000000000000000
Ciphertext:               62b5b23b94cbbdf6579661879deace2eacdc1e978088c3493a6606f12ce96e1675
Reciphers for ciphertext: 0
Decipheredtext:           0000000000000000002000000000000000
RESULT CIPHER-DECIPHER: -----OK-----


Test: 67
Sector size in bytes: 3584
Data unit:   0
Start block: 0
Symmetric key bit length: 384
Plaintext bit length:     136
Symmetric key:            000000000000000000000000000000000000000000000000000000000000000000000000000000000000000000000000
Plaintext:                0000000000000000001000000000000000
Ciphertext:               62b5b23b94cbbdf6579661879deace2efae24a855b10e65c009e91be8e7dcaec49
Reciphers for ciphertext: 0
Decipheredtext:           0000000000000000001000000000000000
RESULT CIPHER-DECIPHER: -----OK-----


Test: 68
Sector size in bytes: 3584
Data unit:   0
Start block: 0
Symmetric key bit length: 384
Plaintext bit length:     136
Symmetric key:            000000000000000000000000000000000000000000000000000000000000000000000000000000000000000000000000
Plaintext:                0000000000000000000800000000000000
Ciphertext:               62b5b23b94cbbdf6579661879deace2e7ff13f6a61b8bddb31f450e9eea038f92f
Reciphers for ciphertext: 0
Decipheredtext:           0000000000000000000800000000000000
RESULT CIPHER-DECIPHER: -----OK-----


Test: 69
Sector size in bytes: 3584
Data unit:   0
Start block: 0
Symmetric key bit length: 384
Plaintext bit length:     136
Symmetric key:            000000000000000000000000000000000000000000000000000000000000000000000000000000000000000000000000
Plaintext:                0000000000000000000400000000000000
Ciphertext:               62b5b23b94cbbdf6579661879deace2e137f6faf79c32a322c505e898b0bc2bb11
Reciphers for ciphertext: 0
Decipheredtext:           0000000000000000000400000000000000
RESULT CIPHER-DECIPHER: -----OK-----


Test: 70
Sector size in bytes: 4096
Data unit:   0
Start block: 0
Symmetric key bit length: 384
Plaintext bit length:     136
Symmetric key:            000000000000000000000000000000000000000000000000000000000000000000000000000000000000000000000000
Plaintext:                0000000000000000000200000000000000
Ciphertext:               62b5b23b94cbbdf6579661879deace2e3a58a08f2d80257c3f764ba2f400d5785d
Reciphers for ciphertext: 0
Decipheredtext:           0000000000000000000200000000000000
RESULT CIPHER-DECIPHER: -----OK-----


Test: 71
Sector size in bytes: 4096
Data unit:   0
Start block: 0
Symmetric key bit length: 384
Plaintext bit length:     136
Symmetric key:            000000000000000000000000000000000000000000000000000000000000000000000000000000000000000000000000
Plaintext:                0000000000000000000100000000000000
Ciphertext:               62b5b23b94cbbdf6579661879deace2e40276dfc3ccc4620afaeaf21cb9e5125c8
Reciphers for ciphertext: 0
Decipheredtext:           0000000000000000000100000000000000
RESULT CIPHER-DECIPHER: -----OK-----


Test: 72
Sector size in bytes: 4096
Data unit:   0
Start block: 0
Symmetric key bit length: 384
Plaintext bit length:     136
Symmetric key:            000000000000000000000000000000000000000000000000000000000000000000000000000000000000000000000000
Plaintext:                0000000000000000000080000000000000
Ciphertext:               62b5b23b94cbbdf6579661879deace2e2715d29dd88c18c18b36754576941d2bfe
Reciphers for ciphertext: 0
Decipheredtext:           0000000000000000000080000000000000
RESULT CIPHER-DECIPHER: -----OK-----


Test: 73
Sector size in bytes: 4096
Data unit:   0
Start block: 0
Symmetric key bit length: 384
Plaintext bit length:     136
Symmetric key:            000000000000000000000000000000000000000000000000000000000000000000000000000000000000000000000000
Plaintext:                0000000000000000000040000000000000
Ciphertext:               62b5b23b94cbbdf6579661879deace2e0ef2438b58b5a3fd2997418868d42ffbe1
Reciphers for ciphertext: 0
Decipheredtext:           0000000000000000000040000000000000
RESULT CIPHER-DECIPHER: -----OK-----


Test: 74
Sector size in bytes: 4096
Data unit:   0
Start block: 0
Symmetric key bit length: 384
Plaintext bit length:     136
Symmetric key:            000000000000000000000000000000000000000000000000000000000000000000000000000000000000000000000000
Plaintext:                0000000000000000000020000000000000
Ciphertext:               62b5b23b94cbbdf6579661879deace2e077e402c50d5cbd796ee5358a15360a50a
Reciphers for ciphertext: 0
Decipheredtext:           0000000000000000000020000000000000
RESULT CIPHER-DECIPHER: -----OK-----


Test: 75
Sector size in bytes: 4096
Data unit:   0
Start block: 0
Symmetric key bit length: 384
Plaintext bit length:     136
Symmetric key:            000000000000000000000000000000000000000000000000000000000000000000000000000000000000000000000000
Plaintext:                0000000000000000000010000000000000
Ciphertext:               62b5b23b94cbbdf6579661879deace2ed345e53252d6a7ced27da5afd5c4ffea1a
Reciphers for ciphertext: 0
Decipheredtext:           0000000000000000000010000000000000
RESULT CIPHER-DECIPHER: -----OK-----


Test: 76
Sector size in bytes: 4096
Data unit:   0
Start block: 0
Symmetric key bit length: 384
Plaintext bit length:     136
Symmetric key:            000000000000000000000000000000000000000000000000000000000000000000000000000000000000000000000000
Plaintext:                0000000000000000000008000000000000
Ciphertext:               62b5b23b94cbbdf6579661879deace2eecc0410f88fab439b6269ef73017523ab7
Reciphers for ciphertext: 0
Decipheredtext:           0000000000000000000008000000000000
RESULT CIPHER-DECIPHER: -----OK-----


Test: 77
Sector size in bytes: 4096
Data unit:   0
Start block: 0
Symmetric key bit length: 384
Plaintext bit length:     136
Symmetric key:            000000000000000000000000000000000000000000000000000000000000000000000000000000000000000000000000
Plaintext:                0000000000000000000004000000000000
Ciphertext:               62b5b23b94cbbdf6579661879deace2e70481e7b0a76c6fd768835c6fcedba94e4
Reciphers for ciphertext: 0
Decipheredtext:           0000000000000000000004000000000000
RESULT CIPHER-DECIPHER: -----OK-----


Test: 78
Sector size in bytes: 4096
Data unit:   0
Start block: 0
Symmetric key bit length: 384
Plaintext bit length:     136
Symmetric key:            000000000000000000000000000000000000000000000000000000000000000000000000000000000000000000000000
Plaintext:                0000000000000000000002000000000000
Ciphertext:               62b5b23b94cbbdf6579661879deace2e3b1f0842d38a897941cb3fe5c8ad063c6d
Reciphers for ciphertext: 0
Decipheredtext:           0000000000000000000002000000000000
RESULT CIPHER-DECIPHER: -----OK-----


Test: 79
Sector size in bytes: 4096
Data unit:   0
Start block: 0
Symmetric key bit length: 384
Plaintext bit length:     136
Symmetric key:            000000000000000000000000000000000000000000000000000000000000000000000000000000000000000000000000
Plaintext:                0000000000000000000001000000000000
Ciphertext:               62b5b23b94cbbdf6579661879deace2e506c4d5cfc6160746ecaeb69c365d1a1cb
Reciphers for ciphertext: 0
Decipheredtext:           0000000000000000000001000000000000
RESULT CIPHER-DECIPHER: -----OK-----


Test: 80
Sector size in bytes: 8192
Data unit:   0
Start block: 0
Symmetric key bit length: 384
Plaintext bit length:     136
Symmetric key:            000000000000000000000000000000000000000000000000000000000000000000000000000000000000000000000000
Plaintext:                0000000000000000000000800000000000
Ciphertext:               62b5b23b94cbbdf6579661879deace2e6518f8b3cdfe364f1313a3effd13a2134a
Reciphers for ciphertext: 0
Decipheredtext:           0000000000000000000000800000000000
RESULT CIPHER-DECIPHER: -----OK-----


Test: 81
Sector size in bytes: 8192
Data unit:   0
Start block: 0
Symmetric key bit length: 384
Plaintext bit length:     136
Symmetric key:            000000000000000000000000000000000000000000000000000000000000000000000000000000000000000000000000
Plaintext:                0000000000000000000000400000000000
Ciphertext:               62b5b23b94cbbdf6579661879deace2e5a33ef1385ce2d12fa63887016bf66d0c2
Reciphers for ciphertext: 0
Decipheredtext:           0000000000000000000000400000000000
RESULT CIPHER-DECIPHER: -----OK-----


Test: 82
Sector size in bytes: 8192
Data unit:   0
Start block: 0
Symmetric key bit length: 384
Plaintext bit length:     136
Symmetric key:            000000000000000000000000000000000000000000000000000000000000000000000000000000000000000000000000
Plaintext:                0000000000000000000000200000000000
Ciphertext:               62b5b23b94cbbdf6579661879deace2e5df49e7f9490591d147168cd8b482e2940
Reciphers for ciphertext: 0
Decipheredtext:           0000000000000000000000200000000000
RESULT CIPHER-DECIPHER: -----OK-----


Test: 83
Sector size in bytes: 8192
Data unit:   0
Start block: 0
Symmetric key bit length: 384
Plaintext bit length:     136
Symmetric key:            000000000000000000000000000000000000000000000000000000000000000000000000000000000000000000000000
Plaintext:                0000000000000000000000100000000000
Ciphertext:               62b5b23b94cbbdf6579661879deace2e29a438a5f48aca5bfa70dc4a34bc412483
Reciphers for ciphertext: 0
Decipheredtext:           0000000000000000000000100000000000
RESULT CIPHER-DECIPHER: -----OK-----


Test: 84
Sector size in bytes: 8192
Data unit:   0
Start block: 0
Symmetric key bit length: 384
Plaintext bit length:     136
Symmetric key:            000000000000000000000000000000000000000000000000000000000000000000000000000000000000000000000000
Plaintext:                0000000000000000000000080000000000
Ciphertext:               62b5b23b94cbbdf6579661879deace2e62a38e9859b16cc863f5e9b5a9ee14a282
Reciphers for ciphertext: 0
Decipheredtext:           0000000000000000000000080000000000
RESULT CIPHER-DECIPHER: -----OK-----


Test: 85
Sector size in bytes: 8192
Data unit:   0
Start block: 0
Symmetric key bit length: 384
Plaintext bit length:     136
Symmetric key:            000000000000000000000000000000000000000000000000000000000000000000000000000000000000000000000000
Plaintext:                0000000000000000000000040000000000
Ciphertext:               62b5b23b94cbbdf6579661879deace2e13a31e50d515a16cd0ade8d971b44e7264
Reciphers for ciphertext: 0
Decipheredtext:           0000000000000000000000040000000000
RESULT CIPHER-DECIPHER: -----OK-----


Test: 86
Sector size in bytes: 8192
Data unit:   0
Start block: 0
Symmetric key bit length: 384
Plaintext bit length:     136
Symmetric key:            000000000000000000000000000000000000000000000000000000000000000000000000000000000000000000000000
Plaintext:                0000000000000000000000020000000000
Ciphertext:               62b5b23b94cbbdf6579661879deace2e793328eb3c91372f9d935b99cf2c7523ed
Reciphers for ciphertext: 0
Decipheredtext:           0000000000000000000000020000000000
RESULT CIPHER-DECIPHER: -----OK-----


Test: 87
Sector size in bytes: 8192
Data unit:   0
Start block: 0
Symmetric key bit length: 384
Plaintext bit length:     136
Symmetric key:            000000000000000000000000000000000000000000000000000000000000000000000000000000000000000000000000
Plaintext:                0000000000000000000000010000000000
Ciphertext:               62b5b23b94cbbdf6579661879deace2ed0dc0d6f33f4bf7292ee7355f9ecdf8920
Reciphers for ciphertext: 0
Decipheredtext:           0000000000000000000000010000000000
RESULT CIPHER-DECIPHER: -----OK-----


Test: 88
Sector size in bytes: 8192
Data unit:   0
Start block: 0
Symmetric key bit length: 384
Plaintext bit length:     136
Symmetric key:            000000000000000000000000000000000000000000000000000000000000000000000000000000000000000000000000
Plaintext:                0000000000000000000000008000000000
Ciphertext:               62b5b23b94cbbdf6579661879deace2ed5920e79154781ba97f73368a23205c746
Reciphers for ciphertext: 0
Decipheredtext:           0000000000000000000000008000000000
RESULT CIPHER-DECIPHER: -----OK-----


Test: 89
Sector size in bytes: 8192
Data unit:   0
Start block: 0
Symmetric key bit length: 384
Plaintext bit length:     136
Symmetric key:            000000000000000000000000000000000000000000000000000000000000000000000000000000000000000000000000
Plaintext:                0000000000000000000000004000000000
Ciphertext:               62b5b23b94cbbdf6579661879deace2e38f959567ff93aef6af15ab40b8be2dfde
Reciphers for ciphertext: 0
Decipheredtext:           0000000000000000000000004000000000
RESULT CIPHER-DECIPHER: -----OK-----


Test: 90
Sector size in bytes: 12288
Data unit:   0
Start block: 0
Symmetric key bit length: 384
Plaintext bit length:     136
Symmetric key:            000000000000000000000000000000000000000000000000000000000000000000000000000000000000000000000000
Plaintext:                0000000000000000000000002000000000
Ciphertext:               62b5b23b94cbbdf6579661879deace2ec6a5307ef7c834e193764856ac028215d6
Reciphers for ciphertext: 0
Decipheredtext:           0000000000000000000000002000000000
RESULT CIPHER-DECIPHER: -----OK-----


Test: 91
Sector size in bytes: 12288
Data unit:   0
Start block: 0
Symmetric key bit length: 384
Plaintext bit length:     136
Symmetric key:            000000000000000000000000000000000000000000000000000000000000000000000000000000000000000000000000
Plaintext:                0000000000000000000000001000000000
Ciphertext:               62b5b23b94cbbdf6579661879deace2ea9ec1a0b4289b6934f1c0e04898446bdcf
Reciphers for ciphertext: 0
Decipheredtext:           0000000000000000000000001000000000
RESULT CIPHER-DECIPHER: -----OK-----


Test: 92
Sector size in bytes: 12288
Data unit:   0
Start block: 0
Symmetric key bit length: 384
Plaintext bit length:     136
Symmetric key:            000000000000000000000000000000000000000000000000000000000000000000000000000000000000000000000000
Plaintext:                0000000000000000000000000800000000
Ciphertext:               62b5b23b94cbbdf6579661879deace2e75916c265834a9bdc82a6935a9deebce21
Reciphers for ciphertext: 0
Decipheredtext:           0000000000000000000000000800000000
RESULT CIPHER-DECIPHER: -----OK-----


Test: 93
Sector size in bytes: 12288
Data unit:   0
Start block: 0
Symmetric key bit length: 384
Plaintext bit length:     136
Symmetric key:            000000000000000000000000000000000000000000000000000000000000000000000000000000000000000000000000
Plaintext:                0000000000000000000000000400000000
Ciphertext:               62b5b23b94cbbdf6579661879deace2eea60cf8cd586774361ad75a604223b3be8
Reciphers for ciphertext: 0
Decipheredtext:           0000000000000000000000000400000000
RESULT CIPHER-DECIPHER: -----OK-----


Test: 94
Sector size in bytes: 12288
Data unit:   0
Start block: 0
Symmetric key bit length: 384
Plaintext bit length:     136
Symmetric key:            000000000000000000000000000000000000000000000000000000000000000000000000000000000000000000000000
Plaintext:                0000000000000000000000000200000000
Ciphertext:               62b5b23b94cbbdf6579661879deace2e47ee942921b8ec3accbc019db0782acf3f
Reciphers for ciphertext: 0
Decipheredtext:           0000000000000000000000000200000000
RESULT CIPHER-DECIPHER: -----OK-----


Test: 95
Sector size in bytes: 12288
Data unit:   0
Start block: 0
Symmetric key bit length: 384
Plaintext bit length:     136
Symmetric key:            000000000000000000000000000000000000000000000000000000000000000000000000000000000000000000000000
Plaintext:                0000000000000000000000000100000000
Ciphertext:               62b5b23b94cbbdf6579661879deace2e15e038c1654bb3ccc125059520e18ae0af
Reciphers for ciphertext: 0
Decipheredtext:           0000000000000000000000000100000000
RESULT CIPHER-DECIPHER: -----OK-----


Test: 96
Sector size in bytes: 12288
Data unit:   0
Start block: 0
Symmetric key bit length: 384
Plaintext bit length:     136
Symmetric key:            000000000000000000000000000000000000000000000000000000000000000000000000000000000000000000000000
Plaintext:                0000000000000000000000000080000000
Ciphertext:               62b5b23b94cbbdf6579661879deace2e31cccaf15d31cc41d8e8a8794bcff5e114
Reciphers for ciphertext: 0
Decipheredtext:           0000000000000000000000000080000000
RESULT CIPHER-DECIPHER: -----OK-----


Test: 97
Sector size in bytes: 12288
Data unit:   0
Start block: 0
Symmetric key bit length: 384
Plaintext bit length:     136
Symmetric key:            000000000000000000000000000000000000000000000000000000000000000000000000000000000000000000000000
Plaintext:                0000000000000000000000000040000000
Ciphertext:               62b5b23b94cbbdf6579661879deace2e9c7ce74f73f92ede23e761e99766d939a6
Reciphers for ciphertext: 0
Decipheredtext:           0000000000000000000000000040000000
RESULT CIPHER-DECIPHER: -----OK-----


Test: 98
Sector size in bytes: 12288
Data unit:   0
Start block: 0
Symmetric key bit length: 384
Plaintext bit length:     136
Symmetric key:            000000000000000000000000000000000000000000000000000000000000000000000000000000000000000000000000
Plaintext:                0000000000000000000000000020000000
Ciphertext:               62b5b23b94cbbdf6579661879deace2e2f110f73b3d9bf985b608e3baeb9cae2eb
Reciphers for ciphertext: 0
Decipheredtext:           0000000000000000000000000020000000
RESULT CIPHER-DECIPHER: -----OK-----


Test: 99
Sector size in bytes: 12288
Data unit:   0
Start block: 0
Symmetric key bit length: 384
Plaintext bit length:     136
Symmetric key:            000000000000000000000000000000000000000000000000000000000000000000000000000000000000000000000000
Plaintext:                0000000000000000000000000010000000
Ciphertext:               62b5b23b94cbbdf6579661879deace2e4530e8545f617f49376e754d13aaa4c055
Reciphers for ciphertext: 0
Decipheredtext:           0000000000000000000000000010000000
RESULT CIPHER-DECIPHER: -----OK-----


Test: 100
Sector size in bytes: 16384
Data unit:   0
Start block: 0
Symmetric key bit length: 384
Plaintext bit length:     136
Symmetric key:            000000000000000000000000000000000000000000000000000000000000000000000000000000000000000000000000
Plaintext:                0000000000000000000000000008000000
Ciphertext:               62b5b23b94cbbdf6579661879deace2ed3f179fd6a4082d6d5845d3b0f4620bf68
Reciphers for ciphertext: 0
Decipheredtext:           0000000000000000000000000008000000
RESULT CIPHER-DECIPHER: -----OK-----


Test: 101
Sector size in bytes: 16384
Data unit:   0
Start block: 0
Symmetric key bit length: 384
Plaintext bit length:     136
Symmetric key:            000000000000000000000000000000000000000000000000000000000000000000000000000000000000000000000000
Plaintext:                0000000000000000000000000004000000
Ciphertext:               62b5b23b94cbbdf6579661879deace2e821cca571b3210f09aac0bcd1186dd0c9b
Reciphers for ciphertext: 0
Decipheredtext:           0000000000000000000000000004000000
RESULT CIPHER-DECIPHER: -----OK-----


Test: 102
Sector size in bytes: 16384
Data unit:   0
Start block: 0
Symmetric key bit length: 384
Plaintext bit length:     136
Symmetric key:            000000000000000000000000000000000000000000000000000000000000000000000000000000000000000000000000
Plaintext:                0000000000000000000000000002000000
Ciphertext:               62b5b23b94cbbdf6579661879deace2e24352a750c3f77447e668d40de060f536c
Reciphers for ciphertext: 0
Decipheredtext:           0000000000000000000000000002000000
RESULT CIPHER-DECIPHER: -----OK-----


Test: 103
Sector size in bytes: 16384
Data unit:   0
Start block: 0
Symmetric key bit length: 384
Plaintext bit length:     136
Symmetric key:            000000000000000000000000000000000000000000000000000000000000000000000000000000000000000000000000
Plaintext:                0000000000000000000000000001000000
Ciphertext:               62b5b23b94cbbdf6579661879deace2e31ba6f52baaab90f6678f46f358e4ae49c
Reciphers for ciphertext: 0
Decipheredtext:           0000000000000000000000000001000000
RESULT CIPHER-DECIPHER: -----OK-----


Test: 104
Sector size in bytes: 16384
Data unit:   0
Start block: 0
Symmetric key bit length: 384
Plaintext bit length:     136
Symmetric key:            000000000000000000000000000000000000000000000000000000000000000000000000000000000000000000000000
Plaintext:                0000000000000000000000000000800000
Ciphertext:               62b5b23b94cbbdf6579661879deace2e2de574c8a53b944803a063c2040cdbc6bf
Reciphers for ciphertext: 0
Decipheredtext:           0000000000000000000000000000800000
RESULT CIPHER-DECIPHER: -----OK-----


Test: 105
Sector size in bytes: 16384
Data unit:   0
Start block: 0
Symmetric key bit length: 384
Plaintext bit length:     136
Symmetric key:            000000000000000000000000000000000000000000000000000000000000000000000000000000000000000000000000
Plaintext:                0000000000000000000000000000400000
Ciphertext:               62b5b23b94cbbdf6579661879deace2efbdb6855e4f844adea232d43d2ce58aa48
Reciphers for ciphertext: 0
Decipheredtext:           0000000000000000000000000000400000
RESULT CIPHER-DECIPHER: -----OK-----


Test: 106
Sector size in bytes: 16384
Data unit:   0
Start block: 0
Symmetric key bit length: 384
Plaintext bit length:     136
Symmetric key:            000000000000000000000000000000000000000000000000000000000000000000000000000000000000000000000000
Plaintext:                0000000000000000000000000000200000
Ciphertext:               62b5b23b94cbbdf6579661879deace2e52f26a33745220287fbf71ab5001c225cd
Reciphers for ciphertext: 0
Decipheredtext:           0000000000000000000000000000200000
RESULT CIPHER-DECIPHER: -----OK-----


Test: 107
Sector size in bytes: 16384
Data unit:   0
Start block: 0
Symmetric key bit length: 384
Plaintext bit length:     136
Symmetric key:            000000000000000000000000000000000000000000000000000000000000000000000000000000000000000000000000
Plaintext:                0000000000000000000000000000100000
Ciphertext:               62b5b23b94cbbdf6579661879deace2e7d4d7001aadb7b459a45e49f204e16d91a
Reciphers for ciphertext: 0
Decipheredtext:           0000000000000000000000000000100000
RESULT CIPHER-DECIPHER: -----OK-----


Test: 108
Sector size in bytes: 16384
Data unit:   0
Start block: 0
Symmetric key bit length: 384
Plaintext bit length:     136
Symmetric key:            000000000000000000000000000000000000000000000000000000000000000000000000000000000000000000000000
Plaintext:                0000000000000000000000000000080000
Ciphertext:               62b5b23b94cbbdf6579661879deace2e42200154366d048ea14b589c7144dadd36
Reciphers for ciphertext: 0
Decipheredtext:           0000000000000000000000000000080000
RESULT CIPHER-DECIPHER: -----OK-----


Test: 109
Sector size in bytes: 16384
Data unit:   0
Start block: 0
Symmetric key bit length: 384
Plaintext bit length:     136
Symmetric key:            000000000000000000000000000000000000000000000000000000000000000000000000000000000000000000000000
Plaintext:                0000000000000000000000000000040000
Ciphertext:               62b5b23b94cbbdf6579661879deace2e1abc33bc9fe88852c0360f9913ad259b3f
Reciphers for ciphertext: 0
Decipheredtext:           0000000000000000000000000000040000
RESULT CIPHER-DECIPHER: -----OK-----


Test: 110
Sector size in bytes: 24576
Data unit:   0
Start block: 0
Symmetric key bit length: 384
Plaintext bit length:     136
Symmetric key:            000000000000000000000000000000000000000000000000000000000000000000000000000000000000000000000000
Plaintext:                0000000000000000000000000000020000
Ciphertext:               62b5b23b94cbbdf6579661879deace2e50c52fcc39b63b5cfd77885b364ca75448
Reciphers for ciphertext: 0
Decipheredtext:           0000000000000000000000000000020000
RESULT CIPHER-DECIPHER: -----OK-----


Test: 111
Sector size in bytes: 24576
Data unit:   0
Start block: 0
Symmetric key bit length: 384
Plaintext bit length:     136
Symmetric key:            000000000000000000000000000000000000000000000000000000000000000000000000000000000000000000000000
Plaintext:                0000000000000000000000000000010000
Ciphertext:               62b5b23b94cbbdf6579661879deace2e3fe25b4a3fea12d7f59a51d32cc5d95e10
Reciphers for ciphertext: 0
Decipheredtext:           0000000000000000000000000000010000
RESULT CIPHER-DECIPHER: -----OK-----


Test: 112
Sector size in bytes: 24576
Data unit:   0
Start block: 0
Symmetric key bit length: 384
Plaintext bit length:     136
Symmetric key:            000000000000000000000000000000000000000000000000000000000000000000000000000000000000000000000000
Plaintext:                0000000000000000000000000000008000
Ciphertext:               62b5b23b94cbbdf6579661879deace2e921b8b007e958612e9cd6c6312ef1d6145
Reciphers for ciphertext: 0
Decipheredtext:           0000000000000000000000000000008000
RESULT CIPHER-DECIPHER: -----OK-----


Test: 113
Sector size in bytes: 24576
Data unit:   0
Start block: 0
Symmetric key bit length: 384
Plaintext bit length:     136
Symmetric key:            000000000000000000000000000000000000000000000000000000000000000000000000000000000000000000000000
Plaintext:                0000000000000000000000000000004000
Ciphertext:               62b5b23b94cbbdf6579661879deace2e1163cd05abe34d2382c37c5f18ec82f9dd
Reciphers for ciphertext: 0
Decipheredtext:           0000000000000000000000000000004000
RESULT CIPHER-DECIPHER: -----OK-----


Test: 114
Sector size in bytes: 24576
Data unit:   0
Start block: 0
Symmetric key bit length: 384
Plaintext bit length:     136
Symmetric key:            000000000000000000000000000000000000000000000000000000000000000000000000000000000000000000000000
Plaintext:                0000000000000000000000000000002000
Ciphertext:               62b5b23b94cbbdf6579661879deace2e8580a769737777a6e37f829eefaf722982
Reciphers for ciphertext: 0
Decipheredtext:           0000000000000000000000000000002000
RESULT CIPHER-DECIPHER: -----OK-----


Test: 115
Sector size in bytes: 24576
Data unit:   0
Start block: 0
Symmetric key bit length: 384
Plaintext bit length:     136
Symmetric key:            000000000000000000000000000000000000000000000000000000000000000000000000000000000000000000000000
Plaintext:                0000000000000000000000000000001000
Ciphertext:               62b5b23b94cbbdf6579661879deace2e539ab85419d5f30430e82ba3c78a132dbd
Reciphers for ciphertext: 0
Decipheredtext:           0000000000000000000000000000001000
RESULT CIPHER-DECIPHER: -----OK-----


Test: 116
Sector size in bytes: 24576
Data unit:   0
Start block: 0
Symmetric key bit length: 384
Plaintext bit length:     136
Symmetric key:            000000000000000000000000000000000000000000000000000000000000000000000000000000000000000000000000
Plaintext:                0000000000000000000000000000000800
Ciphertext:               62b5b23b94cbbdf6579661879deace2ee5e2809c02119be6f0fc32ceb94e9868c4
Reciphers for ciphertext: 0
Decipheredtext:           0000000000000000000000000000000800
RESULT CIPHER-DECIPHER: -----OK-----


Test: 117
Sector size in bytes: 24576
Data unit:   0
Start block: 0
Symmetric key bit length: 384
Plaintext bit length:     136
Symmetric key:            000000000000000000000000000000000000000000000000000000000000000000000000000000000000000000000000
Plaintext:                0000000000000000000000000000000400
Ciphertext:               62b5b23b94cbbdf6579661879deace2ede07e21ec126102778ebad57c1b4604dea
Reciphers for ciphertext: 0
Decipheredtext:           0000000000000000000000000000000400
RESULT CIPHER-DECIPHER: -----OK-----


Test: 118
Sector size in bytes: 24576
Data unit:   0
Start block: 0
Symmetric key bit length: 384
Plaintext bit length:     136
Symmetric key:            000000000000000000000000000000000000000000000000000000000000000000000000000000000000000000000000
Plaintext:                0000000000000000000000000000000200
Ciphertext:               62b5b23b94cbbdf6579661879deace2ee4673ae027bd5bf994a12205e012130a34
Reciphers for ciphertext: 0
Decipheredtext:           0000000000000000000000000000000200
RESULT CIPHER-DECIPHER: -----OK-----


Test: 119
Sector size in bytes: 24576
Data unit:   0
Start block: 0
Symmetric key bit length: 384
Plaintext bit length:     136
Symmetric key:            000000000000000000000000000000000000000000000000000000000000000000000000000000000000000000000000
Plaintext:                0000000000000000000000000000000100
Ciphertext:               62b5b23b94cbbdf6579661879deace2ee5e1dafa5a5dd324fba9f36faaaebd4757
Reciphers for ciphertext: 0
Decipheredtext:           0000000000000000000000000000000100
RESULT CIPHER-DECIPHER: -----OK-----


Test: 120
Sector size in bytes: 32768
Data unit:   0
Start block: 0
Symmetric key bit length: 384
Plaintext bit length:     136
Symmetric key:            000000000000000000000000000000000000000000000000000000000000000000000000000000000000000000000000
Plaintext:                0000000000000000000000000000000080
Ciphertext:               62b5b23b94cbbdf6579661879deace2e5df3edc2e023adfd51b0973f868783e062
Reciphers for ciphertext: 0
Decipheredtext:           0000000000000000000000000000000080
RESULT CIPHER-DECIPHER: -----OK-----


Test: 121
Sector size in bytes: 32768
Data unit:   0
Start block: 0
Symmetric key bit length: 384
Plaintext bit length:     136
Symmetric key:            000000000000000000000000000000000000000000000000000000000000000000000000000000000000000000000000
Plaintext:                0000000000000000000000000000000040
Ciphertext:               62b5b23b94cbbdf6579661879deace2eb52036360f11f8b647c2ad899d4a111662
Reciphers for ciphertext: 0
Decipheredtext:           0000000000000000000000000000000040
RESULT CIPHER-DECIPHER: -----OK-----


Test: 122
Sector size in bytes: 32768
Data unit:   0
Start block: 0
Symmetric key bit length: 384
Plaintext bit length:     136
Symmetric key:            000000000000000000000000000000000000000000000000000000000000000000000000000000000000000000000000
Plaintext:                0000000000000000000000000000000020
Ciphertext:               2c205a162e428d1264727b579152ae932c5e749f2b4fb42238eb5a3822565c115e
Reciphers for ciphertext: 1
Decipheredtext:           0000000000000000000000000000000020
RESULT CIPHER-DECIPHER: -----OK-----


Test: 123
Sector size in bytes: 32768
Data unit:   0
Start block: 0
Symmetric key bit length: 384
Plaintext bit length:     136
Symmetric key:            000000000000000000000000000000000000000000000000000000000000000000000000000000000000000000000000
Plaintext:                0000000000000000000000000000000010
Ciphertext:               62b5b23b94cbbdf6579661879deace2e8e51453ceb9fb4b30beb9dd05e8cd62162
Reciphers for ciphertext: 0
Decipheredtext:           0000000000000000000000000000000010
RESULT CIPHER-DECIPHER: -----OK-----


Test: 124
Sector size in bytes: 32768
Data unit:   0
Start block: 0
Symmetric key bit length: 384
Plaintext bit length:     136
Symmetric key:            000000000000000000000000000000000000000000000000000000000000000000000000000000000000000000000000
Plaintext:                0000000000000000000000000000000008
Ciphertext:               62b5b23b94cbbdf6579661879deace2e0f6c678d64ec2e15d9bc4b45db7c0f8262
Reciphers for ciphertext: 0
Decipheredtext:           0000000000000000000000000000000008
RESULT CIPHER-DECIPHER: -----OK-----


Test: 125
Sector size in bytes: 32768
Data unit:   0
Start block: 0
Symmetric key bit length: 384
Plaintext bit length:     136
Symmetric key:            000000000000000000000000000000000000000000000000000000000000000000000000000000000000000000000000
Plaintext:                0000000000000000000000000000000004
Ciphertext:               62b5b23b94cbbdf6579661879deace2e3946864739a315b7e95e115813290afd62
Reciphers for ciphertext: 0
Decipheredtext:           0000000000000000000000000000000004
RESULT CIPHER-DECIPHER: -----OK-----


Test: 126
Sector size in bytes: 32768
Data unit:   0
Start block: 0
Symmetric key bit length: 384
Plaintext bit length:     136
Symmetric key:            000000000000000000000000000000000000000000000000000000000000000000000000000000000000000000000000
Plaintext:                0000000000000000000000000000000002
Ciphertext:               62b5b23b94cbbdf6579661879deace2e8c3b23ff129fab3b24e18a12d7c64faf62
Reciphers for ciphertext: 0
Decipheredtext:           0000000000000000000000000000000002
RESULT CIPHER-DECIPHER: -----OK-----


Test: 127
Sector size in bytes: 32768
Data unit:   0
Start block: 0
Symmetric key bit length: 384
Plaintext bit length:     136
Symmetric key:            000000000000000000000000000000000000000000000000000000000000000000000000000000000000000000000000
Plaintext:                0000000000000000000000000000000001
Ciphertext:               62b5b23b94cbbdf6579661879deace2e751e6236d446558d3e1467f1f34d89a462
Reciphers for ciphertext: 0
Decipheredtext:           0000000000000000000000000000000001
RESULT CIPHER-DECIPHER: -----OK-----


 DATA SHA1 (hexadecimal): 4680674a1b054a568f91531e97c24ca6c948e4d9

