
DiceLock 9.0.0.1

 TEST COMPONENTS:
 ----------------
 DiceLock:           DiceLockIVDigested class
 Base Stream Cipher: HC256 class
 Hash algorithms:     0 - Sha1 class
                      1 - Sha224 class
                      2 - Sha256 class
                      3 - Sha384 class
                      4 - Sha512 class
                      5 - Sha512_224 class
                      6 - Sha512_256 class
                      7 - Ripemd128 class
                      8 - Ripemd160 class
                      9 - Ripemd256 class
                     10 - Ripemd320 class
                     11 - MD2 class
                     12 - MD4 class
                     13 - MD5 class
 Key Modifier:       IncreaseKeyModifier_6_0_0_1 class
 Random tests:       RandomTestSuite class
                     FrequencyTest class
                     BlockFrequencyTest class
                     CumulativeSumForwardTest class
                     LongestRunOfOnesTest class
                     RunsTest class
 Random alpha:       0.001

 VECTOR TEST: Test vector 2 - Changing plaintext, shifting 1 bit set


##### INDIVIDUAL TESTS #####

Number tests: 128


Test: 0
Hash algorithm: 7
Symmetric key bit length: 256
IV bit length:            256
Plaintext bit length:     136
Symmetric key:            0000000000000000000000000000000000000000000000000000000000000000
IV:                       0000000000000000000000000000000000000000000000000000000000000000
Plaintext:                0080000000000000000000000000000000
Ciphertext:               5b878985d8f6f30d42c5c02fa6b679515300f941543cbc67b816eb73c4e78f5816
Reciphers for ciphertext: 0
Decipheredtext:           0080000000000000000000000000000000
RESULT CIPHER-DECIPHER: -----OK-----


Test: 1
Hash algorithm: 12
Symmetric key bit length: 256
IV bit length:            256
Plaintext bit length:     136
Symmetric key:            0000000000000000000000000000000000000000000000000000000000000000
IV:                       0000000000000000000000000000000000000000000000000000000000000000
Plaintext:                0040000000000000000000000000000000
Ciphertext:               5b478985d8f6f30d42c5c02fa6b6795153761fda084ea4bb251dcc1698cc936d1d
Reciphers for ciphertext: 0
Decipheredtext:           0040000000000000000000000000000000
RESULT CIPHER-DECIPHER: -----OK-----


Test: 2
Hash algorithm: 0
Symmetric key bit length: 256
IV bit length:            256
Plaintext bit length:     136
Symmetric key:            0000000000000000000000000000000000000000000000000000000000000000
IV:                       0000000000000000000000000000000000000000000000000000000000000000
Plaintext:                0020000000000000000000000000000000
Ciphertext:               5b278985d8f6f30d42c5c02fa6b67951532b67feeea7dbf506992d65716ae522b50bd12676
Reciphers for ciphertext: 0
Decipheredtext:           0020000000000000000000000000000000
RESULT CIPHER-DECIPHER: -----OK-----


Test: 3
Hash algorithm: 7
Symmetric key bit length: 256
IV bit length:            256
Plaintext bit length:     136
Symmetric key:            0000000000000000000000000000000000000000000000000000000000000000
IV:                       0000000000000000000000000000000000000000000000000000000000000000
Plaintext:                0010000000000000000000000000000000
Ciphertext:               5b178985d8f6f30d42c5c02fa6b67951537d7918264b0c18d83764c9b26a5d9346
Reciphers for ciphertext: 0
Decipheredtext:           0010000000000000000000000000000000
RESULT CIPHER-DECIPHER: -----OK-----


Test: 4
Hash algorithm: 8
Symmetric key bit length: 256
IV bit length:            256
Plaintext bit length:     136
Symmetric key:            0000000000000000000000000000000000000000000000000000000000000000
IV:                       0000000000000000000000000000000000000000000000000000000000000000
Plaintext:                0008000000000000000000000000000000
Ciphertext:               5b0f8985d8f6f30d42c5c02fa6b679515352322b6eb2dbfb21ecadbec8aedd2dc765b34984
Reciphers for ciphertext: 0
Decipheredtext:           0008000000000000000000000000000000
RESULT CIPHER-DECIPHER: -----OK-----


Test: 5
Hash algorithm: 8
Symmetric key bit length: 256
IV bit length:            256
Plaintext bit length:     136
Symmetric key:            0000000000000000000000000000000000000000000000000000000000000000
IV:                       0000000000000000000000000000000000000000000000000000000000000000
Plaintext:                0004000000000000000000000000000000
Ciphertext:               5b038985d8f6f30d42c5c02fa6b679515348ecd5d26502219449d1eaf389821db4bf6a41f5
Reciphers for ciphertext: 0
Decipheredtext:           0004000000000000000000000000000000
RESULT CIPHER-DECIPHER: -----OK-----


Test: 6
Hash algorithm: 0
Symmetric key bit length: 256
IV bit length:            256
Plaintext bit length:     136
Symmetric key:            0000000000000000000000000000000000000000000000000000000000000000
IV:                       0000000000000000000000000000000000000000000000000000000000000000
Plaintext:                0002000000000000000000000000000000
Ciphertext:               5b058985d8f6f30d42c5c02fa6b679515310de8f72037e549cb97970b7f5ba441c41a6ec26
Reciphers for ciphertext: 0
Decipheredtext:           0002000000000000000000000000000000
RESULT CIPHER-DECIPHER: -----OK-----


Test: 7
Hash algorithm: 9
Symmetric key bit length: 256
IV bit length:            256
Plaintext bit length:     136
Symmetric key:            0000000000000000000000000000000000000000000000000000000000000000
IV:                       0000000000000000000000000000000000000000000000000000000000000000
Plaintext:                0001000000000000000000000000000000
Ciphertext:               5b068985d8f6f30d42c5c02fa6b679515321a328d3a3af2bffaad7d421321114992d39fe2d8854773942b5f8e4a3f27f89
Reciphers for ciphertext: 0
Decipheredtext:           0001000000000000000000000000000000
RESULT CIPHER-DECIPHER: -----OK-----


Test: 8
Hash algorithm: 6
Symmetric key bit length: 256
IV bit length:            256
Plaintext bit length:     136
Symmetric key:            0000000000000000000000000000000000000000000000000000000000000000
IV:                       0000000000000000000000000000000000000000000000000000000000000000
Plaintext:                0000800000000000000000000000000000
Ciphertext:               5b070985d8f6f30d42c5c02fa6b6795153647403fb1ba646f0d69f772b1747ba1f3453ee2b1ea4ea6baf7c0a371cd335b2
Reciphers for ciphertext: 0
Decipheredtext:           0000800000000000000000000000000000
RESULT CIPHER-DECIPHER: -----OK-----


Test: 9
Hash algorithm: 0
Symmetric key bit length: 256
IV bit length:            256
Plaintext bit length:     136
Symmetric key:            0000000000000000000000000000000000000000000000000000000000000000
IV:                       0000000000000000000000000000000000000000000000000000000000000000
Plaintext:                0000400000000000000000000000000000
Ciphertext:               5b07c985d8f6f30d42c5c02fa6b67951539dd459e860c1f0b1d012c38d8cadd4a57ee337ff
Reciphers for ciphertext: 0
Decipheredtext:           0000400000000000000000000000000000
RESULT CIPHER-DECIPHER: -----OK-----


Test: 10
Hash algorithm: 0
Symmetric key bit length: 256
IV bit length:            256
Plaintext bit length:     136
Symmetric key:            0000000000000000000000000000000000000000000000000000000000000000
IV:                       0000000000000000000000000000000000000000000000000000000000000000
Plaintext:                0000200000000000000000000000000000
Ciphertext:               5b07a985d8f6f30d42c5c02fa6b6795153d4da43b19946be402e373fb9bc8c17071789a5f2
Reciphers for ciphertext: 0
Decipheredtext:           0000200000000000000000000000000000
RESULT CIPHER-DECIPHER: -----OK-----


Test: 11
Hash algorithm: 9
Symmetric key bit length: 256
IV bit length:            256
Plaintext bit length:     136
Symmetric key:            0000000000000000000000000000000000000000000000000000000000000000
IV:                       0000000000000000000000000000000000000000000000000000000000000000
Plaintext:                0000100000000000000000000000000000
Ciphertext:               5b079985d8f6f30d42c5c02fa6b67951536f12511621984a49c383183847193cfa0c631f445572b74745292d228b70ca5f
Reciphers for ciphertext: 0
Decipheredtext:           0000100000000000000000000000000000
RESULT CIPHER-DECIPHER: -----OK-----


Test: 12
Hash algorithm: 10
Symmetric key bit length: 256
IV bit length:            256
Plaintext bit length:     136
Symmetric key:            0000000000000000000000000000000000000000000000000000000000000000
IV:                       0000000000000000000000000000000000000000000000000000000000000000
Plaintext:                0000080000000000000000000000000000
Ciphertext:               5b078185d8f6f30d42c5c02fa6b679515363f7dc4cbe06d1584ed0dc168dec415544f38b3c8fd4051c5b1ab4412daffd9b629c1e1da62ffb0d
Reciphers for ciphertext: 0
Decipheredtext:           0000080000000000000000000000000000
RESULT CIPHER-DECIPHER: -----OK-----


Test: 13
Hash algorithm: 8
Symmetric key bit length: 256
IV bit length:            256
Plaintext bit length:     136
Symmetric key:            0000000000000000000000000000000000000000000000000000000000000000
IV:                       0000000000000000000000000000000000000000000000000000000000000000
Plaintext:                0000040000000000000000000000000000
Ciphertext:               5b078d85d8f6f30d42c5c02fa6b67951530cfd77d8677ac6a7b979470f5e2e08544bd271df
Reciphers for ciphertext: 0
Decipheredtext:           0000040000000000000000000000000000
RESULT CIPHER-DECIPHER: -----OK-----


Test: 14
Hash algorithm: 1
Symmetric key bit length: 256
IV bit length:            256
Plaintext bit length:     136
Symmetric key:            0000000000000000000000000000000000000000000000000000000000000000
IV:                       0000000000000000000000000000000000000000000000000000000000000000
Plaintext:                0000020000000000000000000000000000
Ciphertext:               5b078b85d8f6f30d42c5c02fa6b6795153ca78b287e3c15881595c3044eb47af2d1b25b5d327c89c16a3c26f89
Reciphers for ciphertext: 0
Decipheredtext:           0000020000000000000000000000000000
RESULT CIPHER-DECIPHER: -----OK-----


Test: 15
Hash algorithm: 13
Symmetric key bit length: 256
IV bit length:            256
Plaintext bit length:     136
Symmetric key:            0000000000000000000000000000000000000000000000000000000000000000
IV:                       0000000000000000000000000000000000000000000000000000000000000000
Plaintext:                0000010000000000000000000000000000
Ciphertext:               5b078885d8f6f30d42c5c02fa6b67951534e2691153a016553e9b7c6330be54f4a
Reciphers for ciphertext: 0
Decipheredtext:           0000010000000000000000000000000000
RESULT CIPHER-DECIPHER: -----OK-----


Test: 16
Hash algorithm: 8
Symmetric key bit length: 256
IV bit length:            256
Plaintext bit length:     136
Symmetric key:            0000000000000000000000000000000000000000000000000000000000000000
IV:                       0000000000000000000000000000000000000000000000000000000000000000
Plaintext:                0000008000000000000000000000000000
Ciphertext:               5b078905d8f6f30d42c5c02fa6b67951536cab5721122d9a47afd4ab071552c623899e975f
Reciphers for ciphertext: 0
Decipheredtext:           0000008000000000000000000000000000
RESULT CIPHER-DECIPHER: -----OK-----


Test: 17
Hash algorithm: 8
Symmetric key bit length: 256
IV bit length:            256
Plaintext bit length:     136
Symmetric key:            0000000000000000000000000000000000000000000000000000000000000000
IV:                       0000000000000000000000000000000000000000000000000000000000000000
Plaintext:                0000004000000000000000000000000000
Ciphertext:               5b0789c5d8f6f30d42c5c02fa6b679515308c826054e09853613249fb22855765314cc1fa7
Reciphers for ciphertext: 0
Decipheredtext:           0000004000000000000000000000000000
RESULT CIPHER-DECIPHER: -----OK-----


Test: 18
Hash algorithm: 3
Symmetric key bit length: 256
IV bit length:            256
Plaintext bit length:     136
Symmetric key:            0000000000000000000000000000000000000000000000000000000000000000
IV:                       0000000000000000000000000000000000000000000000000000000000000000
Plaintext:                0000002000000000000000000000000000
Ciphertext:               5b0789a5d8f6f30d42c5c02fa6b6795153fe7046bcf72a0efed6131bde00eebfd033fa313dacb06b5d847da3103200107f58a5b2a732a4181606134597e0732430
Reciphers for ciphertext: 0
Decipheredtext:           0000002000000000000000000000000000
RESULT CIPHER-DECIPHER: -----OK-----


Test: 19
Hash algorithm: 11
Symmetric key bit length: 256
IV bit length:            256
Plaintext bit length:     136
Symmetric key:            0000000000000000000000000000000000000000000000000000000000000000
IV:                       0000000000000000000000000000000000000000000000000000000000000000
Plaintext:                0000001000000000000000000000000000
Ciphertext:               5b078995d8f6f30d42c5c02fa6b67951535e43a4374839b39c0b4a56c8ec4b1314
Reciphers for ciphertext: 0
Decipheredtext:           0000001000000000000000000000000000
RESULT CIPHER-DECIPHER: -----OK-----


Test: 20
Hash algorithm: 10
Symmetric key bit length: 256
IV bit length:            256
Plaintext bit length:     136
Symmetric key:            0000000000000000000000000000000000000000000000000000000000000000
IV:                       0000000000000000000000000000000000000000000000000000000000000000
Plaintext:                0000000800000000000000000000000000
Ciphertext:               5b07898dd8f6f30d42c5c02fa6b67951532d8b8e79c1664867600f4f379387bd4e42c4511937c15311319a47508db25697d9073ea48c722799
Reciphers for ciphertext: 0
Decipheredtext:           0000000800000000000000000000000000
RESULT CIPHER-DECIPHER: -----OK-----


Test: 21
Hash algorithm: 11
Symmetric key bit length: 256
IV bit length:            256
Plaintext bit length:     136
Symmetric key:            0000000000000000000000000000000000000000000000000000000000000000
IV:                       0000000000000000000000000000000000000000000000000000000000000000
Plaintext:                0000000400000000000000000000000000
Ciphertext:               5b078981d8f6f30d42c5c02fa6b6795153ed8e4f8deeb27963f74d64de5bbf29f8
Reciphers for ciphertext: 0
Decipheredtext:           0000000400000000000000000000000000
RESULT CIPHER-DECIPHER: -----OK-----


Test: 22
Hash algorithm: 2
Symmetric key bit length: 256
IV bit length:            256
Plaintext bit length:     136
Symmetric key:            0000000000000000000000000000000000000000000000000000000000000000
IV:                       0000000000000000000000000000000000000000000000000000000000000000
Plaintext:                0000000200000000000000000000000000
Ciphertext:               5b078987d8f6f30d42c5c02fa6b679515399ff79091d897e987b51e39b40635b5578f11fd1ad69a0e09897c13b0d98c0cb
Reciphers for ciphertext: 0
Decipheredtext:           0000000200000000000000000000000000
RESULT CIPHER-DECIPHER: -----OK-----


Test: 23
Hash algorithm: 5
Symmetric key bit length: 256
IV bit length:            256
Plaintext bit length:     136
Symmetric key:            0000000000000000000000000000000000000000000000000000000000000000
IV:                       0000000000000000000000000000000000000000000000000000000000000000
Plaintext:                0000000100000000000000000000000000
Ciphertext:               5b078984d8f6f30d42c5c02fa6b67951530e7b1c5c8e1e0f601cbdf8d0193db670ed9b9e73ce9e8dd7e566d42e
Reciphers for ciphertext: 0
Decipheredtext:           0000000100000000000000000000000000
RESULT CIPHER-DECIPHER: -----OK-----


Test: 24
Hash algorithm: 0
Symmetric key bit length: 256
IV bit length:            256
Plaintext bit length:     136
Symmetric key:            0000000000000000000000000000000000000000000000000000000000000000
IV:                       0000000000000000000000000000000000000000000000000000000000000000
Plaintext:                0000000080000000000000000000000000
Ciphertext:               5b07898558f6f30d42c5c02fa6b67951534bd750ab69adb587855035e206a8954f89d38777
Reciphers for ciphertext: 0
Decipheredtext:           0000000080000000000000000000000000
RESULT CIPHER-DECIPHER: -----OK-----


Test: 25
Hash algorithm: 2
Symmetric key bit length: 256
IV bit length:            256
Plaintext bit length:     136
Symmetric key:            0000000000000000000000000000000000000000000000000000000000000000
IV:                       0000000000000000000000000000000000000000000000000000000000000000
Plaintext:                0000000040000000000000000000000000
Ciphertext:               5b07898598f6f30d42c5c02fa6b6795153d1d1bc83191ad434e89b5f6eda9e6405cef75eb8b13feebc467d61ff1c7df040
Reciphers for ciphertext: 0
Decipheredtext:           0000000040000000000000000000000000
RESULT CIPHER-DECIPHER: -----OK-----


Test: 26
Hash algorithm: 8
Symmetric key bit length: 256
IV bit length:            256
Plaintext bit length:     136
Symmetric key:            0000000000000000000000000000000000000000000000000000000000000000
IV:                       0000000000000000000000000000000000000000000000000000000000000000
Plaintext:                0000000020000000000000000000000000
Ciphertext:               5b078985f8f6f30d42c5c02fa6b6795153691d75b7b12bed76f23a68314e242aad1b11c181
Reciphers for ciphertext: 0
Decipheredtext:           0000000020000000000000000000000000
RESULT CIPHER-DECIPHER: -----OK-----


Test: 27
Hash algorithm: 9
Symmetric key bit length: 256
IV bit length:            256
Plaintext bit length:     136
Symmetric key:            0000000000000000000000000000000000000000000000000000000000000000
IV:                       0000000000000000000000000000000000000000000000000000000000000000
Plaintext:                0000000010000000000000000000000000
Ciphertext:               5b078985c8f6f30d42c5c02fa6b6795153b91b3ee31b76ec6be9a61669177b59a38cc06d97ae2cfeb981520189b597dcc4
Reciphers for ciphertext: 0
Decipheredtext:           0000000010000000000000000000000000
RESULT CIPHER-DECIPHER: -----OK-----


Test: 28
Hash algorithm: 13
Symmetric key bit length: 256
IV bit length:            256
Plaintext bit length:     136
Symmetric key:            0000000000000000000000000000000000000000000000000000000000000000
IV:                       0000000000000000000000000000000000000000000000000000000000000000
Plaintext:                0000000008000000000000000000000000
Ciphertext:               5b078985d0f6f30d42c5c02fa6b6795153d2580fc77b43aa957a63a6cadc569228
Reciphers for ciphertext: 0
Decipheredtext:           0000000008000000000000000000000000
RESULT CIPHER-DECIPHER: -----OK-----


Test: 29
Hash algorithm: 12
Symmetric key bit length: 256
IV bit length:            256
Plaintext bit length:     136
Symmetric key:            0000000000000000000000000000000000000000000000000000000000000000
IV:                       0000000000000000000000000000000000000000000000000000000000000000
Plaintext:                0000000004000000000000000000000000
Ciphertext:               5b078985dcf6f30d42c5c02fa6b67951532f47ef1b5d2d033eeffb4258b597c1ae
Reciphers for ciphertext: 0
Decipheredtext:           0000000004000000000000000000000000
RESULT CIPHER-DECIPHER: -----OK-----


Test: 30
Hash algorithm: 12
Symmetric key bit length: 256
IV bit length:            256
Plaintext bit length:     136
Symmetric key:            0000000000000000000000000000000000000000000000000000000000000000
IV:                       0000000000000000000000000000000000000000000000000000000000000000
Plaintext:                0000000002000000000000000000000000
Ciphertext:               5b078985daf6f30d42c5c02fa6b6795153d7f2baa77bef39e89754637261d0044d
Reciphers for ciphertext: 0
Decipheredtext:           0000000002000000000000000000000000
RESULT CIPHER-DECIPHER: -----OK-----


Test: 31
Hash algorithm: 0
Symmetric key bit length: 256
IV bit length:            256
Plaintext bit length:     136
Symmetric key:            0000000000000000000000000000000000000000000000000000000000000000
IV:                       0000000000000000000000000000000000000000000000000000000000000000
Plaintext:                0000000001000000000000000000000000
Ciphertext:               5b078985d9f6f30d42c5c02fa6b67951536456e277fd4f3d83bcfc7206cdebd74b5bc29bcf
Reciphers for ciphertext: 0
Decipheredtext:           0000000001000000000000000000000000
RESULT CIPHER-DECIPHER: -----OK-----


Test: 32
Hash algorithm: 1
Symmetric key bit length: 256
IV bit length:            256
Plaintext bit length:     136
Symmetric key:            0000000000000000000000000000000000000000000000000000000000000000
IV:                       0000000000000000000000000000000000000000000000000000000000000000
Plaintext:                0000000000800000000000000000000000
Ciphertext:               5b078985d876f30d42c5c02fa6b67951536d0ed2100ddc2f6cc9776192b00f13f7f4e868c533fbf1ea7a045fc5
Reciphers for ciphertext: 0
Decipheredtext:           0000000000800000000000000000000000
RESULT CIPHER-DECIPHER: -----OK-----


Test: 33
Hash algorithm: 5
Symmetric key bit length: 256
IV bit length:            256
Plaintext bit length:     136
Symmetric key:            0000000000000000000000000000000000000000000000000000000000000000
IV:                       0000000000000000000000000000000000000000000000000000000000000000
Plaintext:                0000000000400000000000000000000000
Ciphertext:               5b078985d8b6f30d42c5c02fa6b679515384c49d6027b530e46d90ae86a7a90e7079c85afe6fb87b16db377199
Reciphers for ciphertext: 0
Decipheredtext:           0000000000400000000000000000000000
RESULT CIPHER-DECIPHER: -----OK-----


Test: 34
Hash algorithm: 11
Symmetric key bit length: 256
IV bit length:            256
Plaintext bit length:     136
Symmetric key:            0000000000000000000000000000000000000000000000000000000000000000
IV:                       0000000000000000000000000000000000000000000000000000000000000000
Plaintext:                0000000000200000000000000000000000
Ciphertext:               5b078985d8d6f30d42c5c02fa6b679515366771259cd14ba79fa47beae8e0b2626
Reciphers for ciphertext: 0
Decipheredtext:           0000000000200000000000000000000000
RESULT CIPHER-DECIPHER: -----OK-----


Test: 35
Hash algorithm: 3
Symmetric key bit length: 256
IV bit length:            256
Plaintext bit length:     136
Symmetric key:            0000000000000000000000000000000000000000000000000000000000000000
IV:                       0000000000000000000000000000000000000000000000000000000000000000
Plaintext:                0000000000100000000000000000000000
Ciphertext:               5b078985d8e6f30d42c5c02fa6b679515352400a2d285ee529ff8d45f3f73e4ff2238c4eef8614d48a2b6a388df9bc20da28b90b0ff28c1fc33e7c38f4602b081d
Reciphers for ciphertext: 0
Decipheredtext:           0000000000100000000000000000000000
RESULT CIPHER-DECIPHER: -----OK-----


Test: 36
Hash algorithm: 12
Symmetric key bit length: 256
IV bit length:            256
Plaintext bit length:     136
Symmetric key:            0000000000000000000000000000000000000000000000000000000000000000
IV:                       0000000000000000000000000000000000000000000000000000000000000000
Plaintext:                0000000000080000000000000000000000
Ciphertext:               5b078985d8fef30d42c5c02fa6b679515313cbb57be4285521da1afbdb62db195e
Reciphers for ciphertext: 0
Decipheredtext:           0000000000080000000000000000000000
RESULT CIPHER-DECIPHER: -----OK-----


Test: 37
Hash algorithm: 0
Symmetric key bit length: 256
IV bit length:            256
Plaintext bit length:     136
Symmetric key:            0000000000000000000000000000000000000000000000000000000000000000
IV:                       0000000000000000000000000000000000000000000000000000000000000000
Plaintext:                0000000000040000000000000000000000
Ciphertext:               5b078985d8f2f30d42c5c02fa6b67951534e0e3d4fbc005e17b0e0dc79712bd91994ba559c
Reciphers for ciphertext: 0
Decipheredtext:           0000000000040000000000000000000000
RESULT CIPHER-DECIPHER: -----OK-----


Test: 38
Hash algorithm: 9
Symmetric key bit length: 256
IV bit length:            256
Plaintext bit length:     136
Symmetric key:            0000000000000000000000000000000000000000000000000000000000000000
IV:                       0000000000000000000000000000000000000000000000000000000000000000
Plaintext:                0000000000020000000000000000000000
Ciphertext:               5b078985d8f4f30d42c5c02fa6b679515341d439827cde7b11e2078aedf8d0250464a79e624d37d6a8a8389bcb86f66459
Reciphers for ciphertext: 0
Decipheredtext:           0000000000020000000000000000000000
RESULT CIPHER-DECIPHER: -----OK-----


Test: 39
Hash algorithm: 1
Symmetric key bit length: 256
IV bit length:            256
Plaintext bit length:     136
Symmetric key:            0000000000000000000000000000000000000000000000000000000000000000
IV:                       0000000000000000000000000000000000000000000000000000000000000000
Plaintext:                0000000000010000000000000000000000
Ciphertext:               5b078985d8f7f30d42c5c02fa6b679515349269c2ae723abdefe225835602c5a0422ea231791235bbea152eb88
Reciphers for ciphertext: 0
Decipheredtext:           0000000000010000000000000000000000
RESULT CIPHER-DECIPHER: -----OK-----


Test: 40
Hash algorithm: 2
Symmetric key bit length: 256
IV bit length:            256
Plaintext bit length:     136
Symmetric key:            0000000000000000000000000000000000000000000000000000000000000000
IV:                       0000000000000000000000000000000000000000000000000000000000000000
Plaintext:                0000000000008000000000000000000000
Ciphertext:               5b078985d8f6730d42c5c02fa6b67951538bd9adbd1282f644ec64f5ba43b16bf576a6ad8e2350342b48beadd1946c50ba
Reciphers for ciphertext: 0
Decipheredtext:           0000000000008000000000000000000000
RESULT CIPHER-DECIPHER: -----OK-----


Test: 41
Hash algorithm: 8
Symmetric key bit length: 256
IV bit length:            256
Plaintext bit length:     136
Symmetric key:            0000000000000000000000000000000000000000000000000000000000000000
IV:                       0000000000000000000000000000000000000000000000000000000000000000
Plaintext:                0000000000004000000000000000000000
Ciphertext:               5b078985d8f6b30d42c5c02fa6b679515351f6c31291c0a89c5afa9a56eadb97e61ddd0dae
Reciphers for ciphertext: 0
Decipheredtext:           0000000000004000000000000000000000
RESULT CIPHER-DECIPHER: -----OK-----


Test: 42
Hash algorithm: 13
Symmetric key bit length: 256
IV bit length:            256
Plaintext bit length:     136
Symmetric key:            0000000000000000000000000000000000000000000000000000000000000000
IV:                       0000000000000000000000000000000000000000000000000000000000000000
Plaintext:                0000000000002000000000000000000000
Ciphertext:               5b078985d8f6d30d42c5c02fa6b6795153b150c782c72caba7a0990e1f773cb13e
Reciphers for ciphertext: 0
Decipheredtext:           0000000000002000000000000000000000
RESULT CIPHER-DECIPHER: -----OK-----


Test: 43
Hash algorithm: 12
Symmetric key bit length: 256
IV bit length:            256
Plaintext bit length:     136
Symmetric key:            0000000000000000000000000000000000000000000000000000000000000000
IV:                       0000000000000000000000000000000000000000000000000000000000000000
Plaintext:                0000000000001000000000000000000000
Ciphertext:               5b078985d8f6e30d42c5c02fa6b67951531bc637c2ab0aec4596d1fcda7b251ba1
Reciphers for ciphertext: 0
Decipheredtext:           0000000000001000000000000000000000
RESULT CIPHER-DECIPHER: -----OK-----


Test: 44
Hash algorithm: 8
Symmetric key bit length: 256
IV bit length:            256
Plaintext bit length:     136
Symmetric key:            0000000000000000000000000000000000000000000000000000000000000000
IV:                       0000000000000000000000000000000000000000000000000000000000000000
Plaintext:                0000000000000800000000000000000000
Ciphertext:               5b078985d8f6fb0d42c5c02fa6b6795153d9c27e78854931275aeb66364c20d6c149799df7
Reciphers for ciphertext: 0
Decipheredtext:           0000000000000800000000000000000000
RESULT CIPHER-DECIPHER: -----OK-----


Test: 45
Hash algorithm: 13
Symmetric key bit length: 256
IV bit length:            256
Plaintext bit length:     136
Symmetric key:            0000000000000000000000000000000000000000000000000000000000000000
IV:                       0000000000000000000000000000000000000000000000000000000000000000
Plaintext:                0000000000000400000000000000000000
Ciphertext:               5b078985d8f6f70d42c5c02fa6b6795153e3067a1c3d8efeea6c9110431ea5b285
Reciphers for ciphertext: 0
Decipheredtext:           0000000000000400000000000000000000
RESULT CIPHER-DECIPHER: -----OK-----


Test: 46
Hash algorithm: 0
Symmetric key bit length: 256
IV bit length:            256
Plaintext bit length:     136
Symmetric key:            0000000000000000000000000000000000000000000000000000000000000000
IV:                       0000000000000000000000000000000000000000000000000000000000000000
Plaintext:                0000000000000200000000000000000000
Ciphertext:               5b078985d8f6f10d42c5c02fa6b67951539e99399c9e3c8964e4d03816ae0f8a0c5b26a3b3
Reciphers for ciphertext: 0
Decipheredtext:           0000000000000200000000000000000000
RESULT CIPHER-DECIPHER: -----OK-----


Test: 47
Hash algorithm: 11
Symmetric key bit length: 256
IV bit length:            256
Plaintext bit length:     136
Symmetric key:            0000000000000000000000000000000000000000000000000000000000000000
IV:                       0000000000000000000000000000000000000000000000000000000000000000
Plaintext:                0000000000000100000000000000000000
Ciphertext:               5b078985d8f6f20d42c5c02fa6b67951536b121fb04da3864fda25404e4a01171d
Reciphers for ciphertext: 0
Decipheredtext:           0000000000000100000000000000000000
RESULT CIPHER-DECIPHER: -----OK-----


Test: 48
Hash algorithm: 13
Symmetric key bit length: 256
IV bit length:            256
Plaintext bit length:     136
Symmetric key:            0000000000000000000000000000000000000000000000000000000000000000
IV:                       0000000000000000000000000000000000000000000000000000000000000000
Plaintext:                0000000000000080000000000000000000
Ciphertext:               5b078985d8f6f38d42c5c02fa6b6795153dc300c2209547bec34dd4cdd25d0ea9c
Reciphers for ciphertext: 0
Decipheredtext:           0000000000000080000000000000000000
RESULT CIPHER-DECIPHER: -----OK-----


Test: 49
Hash algorithm: 1
Symmetric key bit length: 256
IV bit length:            256
Plaintext bit length:     136
Symmetric key:            0000000000000000000000000000000000000000000000000000000000000000
IV:                       0000000000000000000000000000000000000000000000000000000000000000
Plaintext:                0000000000000040000000000000000000
Ciphertext:               5b078985d8f6f34d42c5c02fa6b67951530ac2c437152537f1771363c8b84e2cb83f378c3f40969ae19d1e439c
Reciphers for ciphertext: 0
Decipheredtext:           0000000000000040000000000000000000
RESULT CIPHER-DECIPHER: -----OK-----


Test: 50
Hash algorithm: 11
Symmetric key bit length: 256
IV bit length:            256
Plaintext bit length:     136
Symmetric key:            0000000000000000000000000000000000000000000000000000000000000000
IV:                       0000000000000000000000000000000000000000000000000000000000000000
Plaintext:                0000000000000020000000000000000000
Ciphertext:               5b078985d8f6f32d42c5c02fa6b67951534246e9c1d9b0de6c875ee9a1b57e7534
Reciphers for ciphertext: 0
Decipheredtext:           0000000000000020000000000000000000
RESULT CIPHER-DECIPHER: -----OK-----


Test: 51
Hash algorithm: 2
Symmetric key bit length: 256
IV bit length:            256
Plaintext bit length:     136
Symmetric key:            0000000000000000000000000000000000000000000000000000000000000000
IV:                       0000000000000000000000000000000000000000000000000000000000000000
Plaintext:                0000000000000010000000000000000000
Ciphertext:               5b078985d8f6f31d42c5c02fa6b679515329e9b4e398ba170714fa0888342c66d5bc1ab06f65db4bef9a69146d55f9567b
Reciphers for ciphertext: 0
Decipheredtext:           0000000000000010000000000000000000
RESULT CIPHER-DECIPHER: -----OK-----


Test: 52
Hash algorithm: 6
Symmetric key bit length: 256
IV bit length:            256
Plaintext bit length:     136
Symmetric key:            0000000000000000000000000000000000000000000000000000000000000000
IV:                       0000000000000000000000000000000000000000000000000000000000000000
Plaintext:                0000000000000008000000000000000000
Ciphertext:               5b078985d8f6f30542c5c02fa6b6795153b0ef30dc8aad3808e461c78d862d77f3fbec41747c556b9a8c4cb156a9cb4ac6
Reciphers for ciphertext: 0
Decipheredtext:           0000000000000008000000000000000000
RESULT CIPHER-DECIPHER: -----OK-----


Test: 53
Hash algorithm: 8
Symmetric key bit length: 256
IV bit length:            256
Plaintext bit length:     136
Symmetric key:            0000000000000000000000000000000000000000000000000000000000000000
IV:                       0000000000000000000000000000000000000000000000000000000000000000
Plaintext:                0000000000000004000000000000000000
Ciphertext:               5b078985d8f6f30942c5c02fa6b679515350e51f69c59140d0ca23a26330817e7b284a01cf
Reciphers for ciphertext: 0
Decipheredtext:           0000000000000004000000000000000000
RESULT CIPHER-DECIPHER: -----OK-----


Test: 54
Hash algorithm: 4
Symmetric key bit length: 256
IV bit length:            256
Plaintext bit length:     136
Symmetric key:            0000000000000000000000000000000000000000000000000000000000000000
IV:                       0000000000000000000000000000000000000000000000000000000000000000
Plaintext:                0000000000000002000000000000000000
Ciphertext:               5b078985d8f6f30f42c5c02fa6b6795153b053c74efdd3e0c85c4dc333f681c66e838968e7bfef8660257ec5f123ce71606772c54150d564176db12947247509476cb8e488c9009c30393070ea67b450c7
Reciphers for ciphertext: 0
Decipheredtext:           0000000000000002000000000000000000
RESULT CIPHER-DECIPHER: -----OK-----


Test: 55
Hash algorithm: 5
Symmetric key bit length: 256
IV bit length:            256
Plaintext bit length:     136
Symmetric key:            0000000000000000000000000000000000000000000000000000000000000000
IV:                       0000000000000000000000000000000000000000000000000000000000000000
Plaintext:                0000000000000001000000000000000000
Ciphertext:               5b078985d8f6f30c42c5c02fa6b6795153fad11806772784b9b92723962afea938ccd0e31281870aed66a5e25f
Reciphers for ciphertext: 0
Decipheredtext:           0000000000000001000000000000000000
RESULT CIPHER-DECIPHER: -----OK-----


Test: 56
Hash algorithm: 10
Symmetric key bit length: 256
IV bit length:            256
Plaintext bit length:     136
Symmetric key:            0000000000000000000000000000000000000000000000000000000000000000
IV:                       0000000000000000000000000000000000000000000000000000000000000000
Plaintext:                0000000000000000800000000000000000
Ciphertext:               5b078985d8f6f30dc2c5c02fa6b67951536852c34853a9c0bdf65b0f5214af78015e98a57b532db821272bb37b3e019d4d818ef6e53d5d8966
Reciphers for ciphertext: 0
Decipheredtext:           0000000000000000800000000000000000
RESULT CIPHER-DECIPHER: -----OK-----


Test: 57
Hash algorithm: 10
Symmetric key bit length: 256
IV bit length:            256
Plaintext bit length:     136
Symmetric key:            0000000000000000000000000000000000000000000000000000000000000000
IV:                       0000000000000000000000000000000000000000000000000000000000000000
Plaintext:                0000000000000000400000000000000000
Ciphertext:               5b078985d8f6f30d02c5c02fa6b67951535d4f7c2f5bc806c6221a3726820fd0aa60c3166a79bc7df7ddef50a7d60e5e5996c390b57ce3b6d8
Reciphers for ciphertext: 0
Decipheredtext:           0000000000000000400000000000000000
RESULT CIPHER-DECIPHER: -----OK-----


Test: 58
Hash algorithm: 9
Symmetric key bit length: 256
IV bit length:            256
Plaintext bit length:     136
Symmetric key:            0000000000000000000000000000000000000000000000000000000000000000
IV:                       0000000000000000000000000000000000000000000000000000000000000000
Plaintext:                0000000000000000200000000000000000
Ciphertext:               5b078985d8f6f30d62c5c02fa6b6795153330ef339ab6c96e85c94ab184845cbd06b25d24ba5fc18df8f959b0cf73344a2
Reciphers for ciphertext: 0
Decipheredtext:           0000000000000000200000000000000000
RESULT CIPHER-DECIPHER: -----OK-----


Test: 59
Hash algorithm: 5
Symmetric key bit length: 256
IV bit length:            256
Plaintext bit length:     136
Symmetric key:            0000000000000000000000000000000000000000000000000000000000000000
IV:                       0000000000000000000000000000000000000000000000000000000000000000
Plaintext:                0000000000000000100000000000000000
Ciphertext:               5b078985d8f6f30d52c5c02fa6b67951537ad57a760f6d6f01571ffd635344466bb25c39b45459d8fa43072b4f
Reciphers for ciphertext: 0
Decipheredtext:           0000000000000000100000000000000000
RESULT CIPHER-DECIPHER: -----OK-----


Test: 60
Hash algorithm: 1
Symmetric key bit length: 256
IV bit length:            256
Plaintext bit length:     136
Symmetric key:            0000000000000000000000000000000000000000000000000000000000000000
IV:                       0000000000000000000000000000000000000000000000000000000000000000
Plaintext:                0000000000000000080000000000000000
Ciphertext:               5b078985d8f6f30d4ac5c02fa6b67951537cbab3f16c4c953322d206156dcf38d6c836d05702a500905b6c6a0d
Reciphers for ciphertext: 0
Decipheredtext:           0000000000000000080000000000000000
RESULT CIPHER-DECIPHER: -----OK-----


Test: 61
Hash algorithm: 1
Symmetric key bit length: 256
IV bit length:            256
Plaintext bit length:     136
Symmetric key:            0000000000000000000000000000000000000000000000000000000000000000
IV:                       0000000000000000000000000000000000000000000000000000000000000000
Plaintext:                0000000000000000040000000000000000
Ciphertext:               5b078985d8f6f30d46c5c02fa6b67951532ca7721af677a284c657906aae73d87b31d390debb15891936b176c0
Reciphers for ciphertext: 0
Decipheredtext:           0000000000000000040000000000000000
RESULT CIPHER-DECIPHER: -----OK-----


Test: 62
Hash algorithm: 2
Symmetric key bit length: 256
IV bit length:            256
Plaintext bit length:     136
Symmetric key:            0000000000000000000000000000000000000000000000000000000000000000
IV:                       0000000000000000000000000000000000000000000000000000000000000000
Plaintext:                0000000000000000020000000000000000
Ciphertext:               5b078985d8f6f30d40c5c02fa6b6795153629c8ca45564207f9506d5319c603c25ee1e7f1d11c6bcfed2c7282c65cb6f3d
Reciphers for ciphertext: 0
Decipheredtext:           0000000000000000020000000000000000
RESULT CIPHER-DECIPHER: -----OK-----


Test: 63
Hash algorithm: 9
Symmetric key bit length: 256
IV bit length:            256
Plaintext bit length:     136
Symmetric key:            0000000000000000000000000000000000000000000000000000000000000000
IV:                       0000000000000000000000000000000000000000000000000000000000000000
Plaintext:                0000000000000000010000000000000000
Ciphertext:               5b078985d8f6f30d43c5c02fa6b67951538eca9dc21ee9966bae619cbbf43d732b75020be05406da4f1ad3a7b88a74220f
Reciphers for ciphertext: 0
Decipheredtext:           0000000000000000010000000000000000
RESULT CIPHER-DECIPHER: -----OK-----


Test: 64
Hash algorithm: 5
Symmetric key bit length: 256
IV bit length:            256
Plaintext bit length:     136
Symmetric key:            0000000000000000000000000000000000000000000000000000000000000000
IV:                       0000000000000000000000000000000000000000000000000000000000000000
Plaintext:                0000000000000000008000000000000000
Ciphertext:               5b078985d8f6f30d4245c02fa6b67951534681d54c7f15e9176ac347a4c470e537a67ae6f5550ccd43ff64efbd
Reciphers for ciphertext: 0
Decipheredtext:           0000000000000000008000000000000000
RESULT CIPHER-DECIPHER: -----OK-----


Test: 65
Hash algorithm: 7
Symmetric key bit length: 256
IV bit length:            256
Plaintext bit length:     136
Symmetric key:            0000000000000000000000000000000000000000000000000000000000000000
IV:                       0000000000000000000000000000000000000000000000000000000000000000
Plaintext:                0000000000000000004000000000000000
Ciphertext:               5b078985d8f6f30d4285c02fa6b6795153e977244025d3bba6fccffce33d9c1488
Reciphers for ciphertext: 0
Decipheredtext:           0000000000000000004000000000000000
RESULT CIPHER-DECIPHER: -----OK-----


Test: 66
Hash algorithm: 4
Symmetric key bit length: 256
IV bit length:            256
Plaintext bit length:     136
Symmetric key:            0000000000000000000000000000000000000000000000000000000000000000
IV:                       0000000000000000000000000000000000000000000000000000000000000000
Plaintext:                0000000000000000002000000000000000
Ciphertext:               5b078985d8f6f30d42e5c02fa6b6795153383947d96d56be75d475c3f5c2f9bc6bac87b784cea825384f655a052e8f7664bb12504ff0b3d7dd185a05e6d046d60cc1dfb2a3bc107165db149f0043f0c2d3
Reciphers for ciphertext: 0
Decipheredtext:           0000000000000000002000000000000000
RESULT CIPHER-DECIPHER: -----OK-----


Test: 67
Hash algorithm: 13
Symmetric key bit length: 256
IV bit length:            256
Plaintext bit length:     136
Symmetric key:            0000000000000000000000000000000000000000000000000000000000000000
IV:                       0000000000000000000000000000000000000000000000000000000000000000
Plaintext:                0000000000000000001000000000000000
Ciphertext:               5b078985d8f6f30d42d5c02fa6b679515322b3712f6fa7a7385f0200de0c515306
Reciphers for ciphertext: 0
Decipheredtext:           0000000000000000001000000000000000
RESULT CIPHER-DECIPHER: -----OK-----


Test: 68
Hash algorithm: 3
Symmetric key bit length: 256
IV bit length:            256
Plaintext bit length:     136
Symmetric key:            0000000000000000000000000000000000000000000000000000000000000000
IV:                       0000000000000000000000000000000000000000000000000000000000000000
Plaintext:                0000000000000000000800000000000000
Ciphertext:               5b078985d8f6f30d42cdc02fa6b6795153c9afeb8bb47f88ef6f7c98bbb16070a564b9af7de3c891ed3053fcbaecc41c41bcc7ee53e067bb49fea7e4df8d914f23
Reciphers for ciphertext: 0
Decipheredtext:           0000000000000000000800000000000000
RESULT CIPHER-DECIPHER: -----OK-----


Test: 69
Hash algorithm: 6
Symmetric key bit length: 256
IV bit length:            256
Plaintext bit length:     136
Symmetric key:            0000000000000000000000000000000000000000000000000000000000000000
IV:                       0000000000000000000000000000000000000000000000000000000000000000
Plaintext:                0000000000000000000400000000000000
Ciphertext:               5b078985d8f6f30d42c1c02fa6b679515374cf91226ea802fd0803a2054a13eca2ed1572f556b3aacfdd68dd47afbd1d37
Reciphers for ciphertext: 0
Decipheredtext:           0000000000000000000400000000000000
RESULT CIPHER-DECIPHER: -----OK-----


Test: 70
Hash algorithm: 7
Symmetric key bit length: 256
IV bit length:            256
Plaintext bit length:     136
Symmetric key:            0000000000000000000000000000000000000000000000000000000000000000
IV:                       0000000000000000000000000000000000000000000000000000000000000000
Plaintext:                0000000000000000000200000000000000
Ciphertext:               5b078985d8f6f30d42c7c02fa6b67951535e8646fb3396ac653544aafa06452b8d
Reciphers for ciphertext: 0
Decipheredtext:           0000000000000000000200000000000000
RESULT CIPHER-DECIPHER: -----OK-----


Test: 71
Hash algorithm: 11
Symmetric key bit length: 256
IV bit length:            256
Plaintext bit length:     136
Symmetric key:            0000000000000000000000000000000000000000000000000000000000000000
IV:                       0000000000000000000000000000000000000000000000000000000000000000
Plaintext:                0000000000000000000100000000000000
Ciphertext:               5b078985d8f6f30d42c4c02fa6b67951536965f8d050cc6204e9903c934b5265d0
Reciphers for ciphertext: 0
Decipheredtext:           0000000000000000000100000000000000
RESULT CIPHER-DECIPHER: -----OK-----


Test: 72
Hash algorithm: 0
Symmetric key bit length: 256
IV bit length:            256
Plaintext bit length:     136
Symmetric key:            0000000000000000000000000000000000000000000000000000000000000000
IV:                       0000000000000000000000000000000000000000000000000000000000000000
Plaintext:                0000000000000000000080000000000000
Ciphertext:               5b078985d8f6f30d42c5402fa6b6795153fddb1f98a6434a4ffdd5c0e6bb941794dc0e083b
Reciphers for ciphertext: 0
Decipheredtext:           0000000000000000000080000000000000
RESULT CIPHER-DECIPHER: -----OK-----


Test: 73
Hash algorithm: 6
Symmetric key bit length: 256
IV bit length:            256
Plaintext bit length:     136
Symmetric key:            0000000000000000000000000000000000000000000000000000000000000000
IV:                       0000000000000000000000000000000000000000000000000000000000000000
Plaintext:                0000000000000000000040000000000000
Ciphertext:               5b078985d8f6f30d42c5802fa6b67951536a3c9ffe39b44b54be5f21839ae251eaa0a80162254c90e022c45925b0343d25
Reciphers for ciphertext: 0
Decipheredtext:           0000000000000000000040000000000000
RESULT CIPHER-DECIPHER: -----OK-----


Test: 74
Hash algorithm: 9
Symmetric key bit length: 256
IV bit length:            256
Plaintext bit length:     136
Symmetric key:            0000000000000000000000000000000000000000000000000000000000000000
IV:                       0000000000000000000000000000000000000000000000000000000000000000
Plaintext:                0000000000000000000020000000000000
Ciphertext:               5b078985d8f6f30d42c5e02fa6b67951533b01e9de5804bd10f5636c43b4d5245b7e6990fac44ec9aa45d401461bbdd41c
Reciphers for ciphertext: 0
Decipheredtext:           0000000000000000000020000000000000
RESULT CIPHER-DECIPHER: -----OK-----


Test: 75
Hash algorithm: 5
Symmetric key bit length: 256
IV bit length:            256
Plaintext bit length:     136
Symmetric key:            0000000000000000000000000000000000000000000000000000000000000000
IV:                       0000000000000000000000000000000000000000000000000000000000000000
Plaintext:                0000000000000000000010000000000000
Ciphertext:               5b078985d8f6f30d42c5d02fa6b6795153d0aff7ea1e4fadf901063f15ad0f585ce813c53c7a05a00c63039e09
Reciphers for ciphertext: 0
Decipheredtext:           0000000000000000000010000000000000
RESULT CIPHER-DECIPHER: -----OK-----


Test: 76
Hash algorithm: 5
Symmetric key bit length: 256
IV bit length:            256
Plaintext bit length:     136
Symmetric key:            0000000000000000000000000000000000000000000000000000000000000000
IV:                       0000000000000000000000000000000000000000000000000000000000000000
Plaintext:                0000000000000000000008000000000000
Ciphertext:               5b078985d8f6f30d42c5c82fa6b6795153134143311c3408f756333de18f292654e6a8b5d93785efaafab0f43b
Reciphers for ciphertext: 0
Decipheredtext:           0000000000000000000008000000000000
RESULT CIPHER-DECIPHER: -----OK-----


Test: 77
Hash algorithm: 11
Symmetric key bit length: 256
IV bit length:            256
Plaintext bit length:     136
Symmetric key:            0000000000000000000000000000000000000000000000000000000000000000
IV:                       0000000000000000000000000000000000000000000000000000000000000000
Plaintext:                0000000000000000000004000000000000
Ciphertext:               5b078985d8f6f30d42c5c42fa6b679515329ae8c6eb357930ae831ead48cf65905
Reciphers for ciphertext: 0
Decipheredtext:           0000000000000000000004000000000000
RESULT CIPHER-DECIPHER: -----OK-----


Test: 78
Hash algorithm: 11
Symmetric key bit length: 256
IV bit length:            256
Plaintext bit length:     136
Symmetric key:            0000000000000000000000000000000000000000000000000000000000000000
IV:                       0000000000000000000000000000000000000000000000000000000000000000
Plaintext:                0000000000000000000002000000000000
Ciphertext:               5b078985d8f6f30d42c5c22fa6b67951532b483b46e480c8c6279eacbb171eb62a
Reciphers for ciphertext: 0
Decipheredtext:           0000000000000000000002000000000000
RESULT CIPHER-DECIPHER: -----OK-----


Test: 79
Hash algorithm: 7
Symmetric key bit length: 256
IV bit length:            256
Plaintext bit length:     136
Symmetric key:            0000000000000000000000000000000000000000000000000000000000000000
IV:                       0000000000000000000000000000000000000000000000000000000000000000
Plaintext:                0000000000000000000001000000000000
Ciphertext:               5b078985d8f6f30d42c5c12fa6b6795153797817146fc7e684f670af287cfab66a
Reciphers for ciphertext: 0
Decipheredtext:           0000000000000000000001000000000000
RESULT CIPHER-DECIPHER: -----OK-----


Test: 80
Hash algorithm: 10
Symmetric key bit length: 256
IV bit length:            256
Plaintext bit length:     136
Symmetric key:            0000000000000000000000000000000000000000000000000000000000000000
IV:                       0000000000000000000000000000000000000000000000000000000000000000
Plaintext:                0000000000000000000000800000000000
Ciphertext:               5b078985d8f6f30d42c5c0afa6b6795153bf8ddb109013e5396d9905b3dd2c81f7cb5fd1a8b4010eea2f0e62b8123736aa6db124abf2bcfe44
Reciphers for ciphertext: 0
Decipheredtext:           0000000000000000000000800000000000
RESULT CIPHER-DECIPHER: -----OK-----


Test: 81
Hash algorithm: 1
Symmetric key bit length: 256
IV bit length:            256
Plaintext bit length:     136
Symmetric key:            0000000000000000000000000000000000000000000000000000000000000000
IV:                       0000000000000000000000000000000000000000000000000000000000000000
Plaintext:                0000000000000000000000400000000000
Ciphertext:               5b078985d8f6f30d42c5c06fa6b6795153f7a108464981f12ffbde38383091e15af5c0e57bc5ceba900e30f46a
Reciphers for ciphertext: 0
Decipheredtext:           0000000000000000000000400000000000
RESULT CIPHER-DECIPHER: -----OK-----


Test: 82
Hash algorithm: 0
Symmetric key bit length: 256
IV bit length:            256
Plaintext bit length:     136
Symmetric key:            0000000000000000000000000000000000000000000000000000000000000000
IV:                       0000000000000000000000000000000000000000000000000000000000000000
Plaintext:                0000000000000000000000200000000000
Ciphertext:               5b078985d8f6f30d42c5c00fa6b6795153cd2d61b1046fbab9962b5ba5d3079a3203683ccc
Reciphers for ciphertext: 0
Decipheredtext:           0000000000000000000000200000000000
RESULT CIPHER-DECIPHER: -----OK-----


Test: 83
Hash algorithm: 0
Symmetric key bit length: 256
IV bit length:            256
Plaintext bit length:     136
Symmetric key:            0000000000000000000000000000000000000000000000000000000000000000
IV:                       0000000000000000000000000000000000000000000000000000000000000000
Plaintext:                0000000000000000000000100000000000
Ciphertext:               5b078985d8f6f30d42c5c03fa6b6795153b3364ee00ffd25f7fcefc0217e10db8f22c2bbb3
Reciphers for ciphertext: 0
Decipheredtext:           0000000000000000000000100000000000
RESULT CIPHER-DECIPHER: -----OK-----


Test: 84
Hash algorithm: 4
Symmetric key bit length: 256
IV bit length:            256
Plaintext bit length:     136
Symmetric key:            0000000000000000000000000000000000000000000000000000000000000000
IV:                       0000000000000000000000000000000000000000000000000000000000000000
Plaintext:                0000000000000000000000080000000000
Ciphertext:               5b078985d8f6f30d42c5c027a6b6795153aac2d3ea49ecbd230025c624718c84a5a887226acbdaf6fd0daf5e942067f2173272c3b78a787a26775be90961f1b04146725c8c6ab5bca041106fa9e972235f
Reciphers for ciphertext: 0
Decipheredtext:           0000000000000000000000080000000000
RESULT CIPHER-DECIPHER: -----OK-----


Test: 85
Hash algorithm: 8
Symmetric key bit length: 256
IV bit length:            256
Plaintext bit length:     136
Symmetric key:            0000000000000000000000000000000000000000000000000000000000000000
IV:                       0000000000000000000000000000000000000000000000000000000000000000
Plaintext:                0000000000000000000000040000000000
Ciphertext:               5b078985d8f6f30d42c5c02ba6b67951535df6752636c4e4e4cab1ed93de101733b5df3641
Reciphers for ciphertext: 0
Decipheredtext:           0000000000000000000000040000000000
RESULT CIPHER-DECIPHER: -----OK-----


Test: 86
Hash algorithm: 7
Symmetric key bit length: 256
IV bit length:            256
Plaintext bit length:     136
Symmetric key:            0000000000000000000000000000000000000000000000000000000000000000
IV:                       0000000000000000000000000000000000000000000000000000000000000000
Plaintext:                0000000000000000000000020000000000
Ciphertext:               5b078985d8f6f30d42c5c02da6b67951534f3b005d07e3408a09c5a466f9ee507b
Reciphers for ciphertext: 0
Decipheredtext:           0000000000000000000000020000000000
RESULT CIPHER-DECIPHER: -----OK-----


Test: 87
Hash algorithm: 8
Symmetric key bit length: 256
IV bit length:            256
Plaintext bit length:     136
Symmetric key:            0000000000000000000000000000000000000000000000000000000000000000
IV:                       0000000000000000000000000000000000000000000000000000000000000000
Plaintext:                0000000000000000000000010000000000
Ciphertext:               5b078985d8f6f30d42c5c02ea6b67951538a308dda98c5887fcebc48d8a9273b5036997139
Reciphers for ciphertext: 0
Decipheredtext:           0000000000000000000000010000000000
RESULT CIPHER-DECIPHER: -----OK-----


Test: 88
Hash algorithm: 1
Symmetric key bit length: 256
IV bit length:            256
Plaintext bit length:     136
Symmetric key:            0000000000000000000000000000000000000000000000000000000000000000
IV:                       0000000000000000000000000000000000000000000000000000000000000000
Plaintext:                0000000000000000000000008000000000
Ciphertext:               5b078985d8f6f30d42c5c02f26b6795153a16041fa21c3e73726110fcf85faf1752a839180a7b7f7bdd8aa05db
Reciphers for ciphertext: 0
Decipheredtext:           0000000000000000000000008000000000
RESULT CIPHER-DECIPHER: -----OK-----


Test: 89
Hash algorithm: 13
Symmetric key bit length: 256
IV bit length:            256
Plaintext bit length:     136
Symmetric key:            0000000000000000000000000000000000000000000000000000000000000000
IV:                       0000000000000000000000000000000000000000000000000000000000000000
Plaintext:                0000000000000000000000004000000000
Ciphertext:               5b078985d8f6f30d42c5c02fe6b6795153d0d0045c49dc8a4bb6beb1c9daec6594
Reciphers for ciphertext: 0
Decipheredtext:           0000000000000000000000004000000000
RESULT CIPHER-DECIPHER: -----OK-----


Test: 90
Hash algorithm: 3
Symmetric key bit length: 256
IV bit length:            256
Plaintext bit length:     136
Symmetric key:            0000000000000000000000000000000000000000000000000000000000000000
IV:                       0000000000000000000000000000000000000000000000000000000000000000
Plaintext:                0000000000000000000000002000000000
Ciphertext:               5b078985d8f6f30d42c5c02f86b67951530302315c573e70e9b5f69d3b6ba098274b44f5717a3ab256c28fc11f37290ee81098233f4670d29a26fcb460071a242f
Reciphers for ciphertext: 0
Decipheredtext:           0000000000000000000000002000000000
RESULT CIPHER-DECIPHER: -----OK-----


Test: 91
Hash algorithm: 11
Symmetric key bit length: 256
IV bit length:            256
Plaintext bit length:     136
Symmetric key:            0000000000000000000000000000000000000000000000000000000000000000
IV:                       0000000000000000000000000000000000000000000000000000000000000000
Plaintext:                0000000000000000000000001000000000
Ciphertext:               5b078985d8f6f30d42c5c02fb6b67951532bc47b8e8527067039aabf0114c8255a
Reciphers for ciphertext: 0
Decipheredtext:           0000000000000000000000001000000000
RESULT CIPHER-DECIPHER: -----OK-----


Test: 92
Hash algorithm: 3
Symmetric key bit length: 256
IV bit length:            256
Plaintext bit length:     136
Symmetric key:            0000000000000000000000000000000000000000000000000000000000000000
IV:                       0000000000000000000000000000000000000000000000000000000000000000
Plaintext:                0000000000000000000000000800000000
Ciphertext:               5b078985d8f6f30d42c5c02faeb679515334adf071d027936d6fde2bda60925258afde987cf7a04ae0aa3c2870af0cd699d4fdb6effdd1431a1031fe09dd0df241
Reciphers for ciphertext: 0
Decipheredtext:           0000000000000000000000000800000000
RESULT CIPHER-DECIPHER: -----OK-----


Test: 93
Hash algorithm: 10
Symmetric key bit length: 256
IV bit length:            256
Plaintext bit length:     136
Symmetric key:            0000000000000000000000000000000000000000000000000000000000000000
IV:                       0000000000000000000000000000000000000000000000000000000000000000
Plaintext:                0000000000000000000000000400000000
Ciphertext:               5b078985d8f6f30d42c5c02fa2b679515336a0863da833d82fb82bfa02c6cf8f3873414b081cfd399e456ce0f9f30cc0f6dffb7244c195e4d2
Reciphers for ciphertext: 0
Decipheredtext:           0000000000000000000000000400000000
RESULT CIPHER-DECIPHER: -----OK-----


Test: 94
Hash algorithm: 8
Symmetric key bit length: 256
IV bit length:            256
Plaintext bit length:     136
Symmetric key:            0000000000000000000000000000000000000000000000000000000000000000
IV:                       0000000000000000000000000000000000000000000000000000000000000000
Plaintext:                0000000000000000000000000200000000
Ciphertext:               5b078985d8f6f30d42c5c02fa4b6795153a399ed489845098415f9924e4b31da632e994773
Reciphers for ciphertext: 0
Decipheredtext:           0000000000000000000000000200000000
RESULT CIPHER-DECIPHER: -----OK-----


Test: 95
Hash algorithm: 4
Symmetric key bit length: 256
IV bit length:            256
Plaintext bit length:     136
Symmetric key:            0000000000000000000000000000000000000000000000000000000000000000
IV:                       0000000000000000000000000000000000000000000000000000000000000000
Plaintext:                0000000000000000000000000100000000
Ciphertext:               5b078985d8f6f30d42c5c02fa7b67951539cbd6d5236f05d751643f70986040c3bf3b57c602d263ba7a742168b569d3b1db221ac9cf38be5e262b226f9ef675f6d156a7e441bfafbeb26c76be6043e9563
Reciphers for ciphertext: 0
Decipheredtext:           0000000000000000000000000100000000
RESULT CIPHER-DECIPHER: -----OK-----


Test: 96
Hash algorithm: 2
Symmetric key bit length: 256
IV bit length:            256
Plaintext bit length:     136
Symmetric key:            0000000000000000000000000000000000000000000000000000000000000000
IV:                       0000000000000000000000000000000000000000000000000000000000000000
Plaintext:                0000000000000000000000000080000000
Ciphertext:               5b078985d8f6f30d42c5c02fa636795153cdb20ce81840f418e9120f3070d40bbe6490484ddcddf7913489bac725a54b83
Reciphers for ciphertext: 0
Decipheredtext:           0000000000000000000000000080000000
RESULT CIPHER-DECIPHER: -----OK-----


Test: 97
Hash algorithm: 5
Symmetric key bit length: 256
IV bit length:            256
Plaintext bit length:     136
Symmetric key:            0000000000000000000000000000000000000000000000000000000000000000
IV:                       0000000000000000000000000000000000000000000000000000000000000000
Plaintext:                0000000000000000000000000040000000
Ciphertext:               5b078985d8f6f30d42c5c02fa6f6795153f37eec13374c65999895e640b7ad4c20ff28ee4b1befd69534095da2
Reciphers for ciphertext: 0
Decipheredtext:           0000000000000000000000000040000000
RESULT CIPHER-DECIPHER: -----OK-----


Test: 98
Hash algorithm: 8
Symmetric key bit length: 256
IV bit length:            256
Plaintext bit length:     136
Symmetric key:            0000000000000000000000000000000000000000000000000000000000000000
IV:                       0000000000000000000000000000000000000000000000000000000000000000
Plaintext:                0000000000000000000000000020000000
Ciphertext:               5b078985d8f6f30d42c5c02fa696795153a9e94acb6687f593699cdbadaa7bb0443e93fd93
Reciphers for ciphertext: 0
Decipheredtext:           0000000000000000000000000020000000
RESULT CIPHER-DECIPHER: -----OK-----


Test: 99
Hash algorithm: 8
Symmetric key bit length: 256
IV bit length:            256
Plaintext bit length:     136
Symmetric key:            0000000000000000000000000000000000000000000000000000000000000000
IV:                       0000000000000000000000000000000000000000000000000000000000000000
Plaintext:                0000000000000000000000000010000000
Ciphertext:               5b078985d8f6f30d42c5c02fa6a6795153e5f686f4292b225e93e3f0c1aa6e434483cfbae4
Reciphers for ciphertext: 0
Decipheredtext:           0000000000000000000000000010000000
RESULT CIPHER-DECIPHER: -----OK-----


Test: 100
Hash algorithm: 8
Symmetric key bit length: 256
IV bit length:            256
Plaintext bit length:     136
Symmetric key:            0000000000000000000000000000000000000000000000000000000000000000
IV:                       0000000000000000000000000000000000000000000000000000000000000000
Plaintext:                0000000000000000000000000008000000
Ciphertext:               5b078985d8f6f30d42c5c02fa6be795153233a7a7ee08fc25cccf56b4b23818fc29e3a2e4d
Reciphers for ciphertext: 0
Decipheredtext:           0000000000000000000000000008000000
RESULT CIPHER-DECIPHER: -----OK-----


Test: 101
Hash algorithm: 3
Symmetric key bit length: 256
IV bit length:            256
Plaintext bit length:     136
Symmetric key:            0000000000000000000000000000000000000000000000000000000000000000
IV:                       0000000000000000000000000000000000000000000000000000000000000000
Plaintext:                0000000000000000000000000004000000
Ciphertext:               5b078985d8f6f30d42c5c02fa6b2795153763c75f72c5c96106a5672510d1a06050360968d42efe4587d6c385b20c7fab62b4e07cd5190c745282dab1cf7ff246c
Reciphers for ciphertext: 0
Decipheredtext:           0000000000000000000000000004000000
RESULT CIPHER-DECIPHER: -----OK-----


Test: 102
Hash algorithm: 13
Symmetric key bit length: 256
IV bit length:            256
Plaintext bit length:     136
Symmetric key:            0000000000000000000000000000000000000000000000000000000000000000
IV:                       0000000000000000000000000000000000000000000000000000000000000000
Plaintext:                0000000000000000000000000002000000
Ciphertext:               5b078985d8f6f30d42c5c02fa6b4795153b82ffc6682ccc92c6b26d4e278a6a9f7
Reciphers for ciphertext: 0
Decipheredtext:           0000000000000000000000000002000000
RESULT CIPHER-DECIPHER: -----OK-----


Test: 103
Hash algorithm: 11
Symmetric key bit length: 256
IV bit length:            256
Plaintext bit length:     136
Symmetric key:            0000000000000000000000000000000000000000000000000000000000000000
IV:                       0000000000000000000000000000000000000000000000000000000000000000
Plaintext:                0000000000000000000000000001000000
Ciphertext:               5b078985d8f6f30d42c5c02fa6b77951538e7a6442b84941e82ec663ea5ff31293
Reciphers for ciphertext: 0
Decipheredtext:           0000000000000000000000000001000000
RESULT CIPHER-DECIPHER: -----OK-----


Test: 104
Hash algorithm: 5
Symmetric key bit length: 256
IV bit length:            256
Plaintext bit length:     136
Symmetric key:            0000000000000000000000000000000000000000000000000000000000000000
IV:                       0000000000000000000000000000000000000000000000000000000000000000
Plaintext:                0000000000000000000000000000800000
Ciphertext:               5b078985d8f6f30d42c5c02fa6b6f95153c18b50ec439e1f459711c2cd23e473c5ad714b794cc736cfd8150ff2
Reciphers for ciphertext: 0
Decipheredtext:           0000000000000000000000000000800000
RESULT CIPHER-DECIPHER: -----OK-----


Test: 105
Hash algorithm: 13
Symmetric key bit length: 256
IV bit length:            256
Plaintext bit length:     136
Symmetric key:            0000000000000000000000000000000000000000000000000000000000000000
IV:                       0000000000000000000000000000000000000000000000000000000000000000
Plaintext:                0000000000000000000000000000400000
Ciphertext:               5b078985d8f6f30d42c5c02fa6b6395153696f51bb9e690fc4132a04c029f15c69
Reciphers for ciphertext: 0
Decipheredtext:           0000000000000000000000000000400000
RESULT CIPHER-DECIPHER: -----OK-----


Test: 106
Hash algorithm: 11
Symmetric key bit length: 256
IV bit length:            256
Plaintext bit length:     136
Symmetric key:            0000000000000000000000000000000000000000000000000000000000000000
IV:                       0000000000000000000000000000000000000000000000000000000000000000
Plaintext:                0000000000000000000000000000200000
Ciphertext:               5b078985d8f6f30d42c5c02fa6b6595153fcc75ea92849152d3d91b7bd184edae8
Reciphers for ciphertext: 0
Decipheredtext:           0000000000000000000000000000200000
RESULT CIPHER-DECIPHER: -----OK-----


Test: 107
Hash algorithm: 0
Symmetric key bit length: 256
IV bit length:            256
Plaintext bit length:     136
Symmetric key:            0000000000000000000000000000000000000000000000000000000000000000
IV:                       0000000000000000000000000000000000000000000000000000000000000000
Plaintext:                0000000000000000000000000000100000
Ciphertext:               5b078985d8f6f30d42c5c02fa6b6695153cd69660e198e594c842a67ea61995a1ef17b5fc1
Reciphers for ciphertext: 0
Decipheredtext:           0000000000000000000000000000100000
RESULT CIPHER-DECIPHER: -----OK-----


Test: 108
Hash algorithm: 13
Symmetric key bit length: 256
IV bit length:            256
Plaintext bit length:     136
Symmetric key:            0000000000000000000000000000000000000000000000000000000000000000
IV:                       0000000000000000000000000000000000000000000000000000000000000000
Plaintext:                0000000000000000000000000000080000
Ciphertext:               5b078985d8f6f30d42c5c02fa6b671515382152112f52b890f3f96212de09b149a
Reciphers for ciphertext: 0
Decipheredtext:           0000000000000000000000000000080000
RESULT CIPHER-DECIPHER: -----OK-----


Test: 109
Hash algorithm: 0
Symmetric key bit length: 256
IV bit length:            256
Plaintext bit length:     136
Symmetric key:            0000000000000000000000000000000000000000000000000000000000000000
IV:                       0000000000000000000000000000000000000000000000000000000000000000
Plaintext:                0000000000000000000000000000040000
Ciphertext:               5b078985d8f6f30d42c5c02fa6b67d51538518d2e7c35a5f97f480e3ea96ce90a3162e5ceb
Reciphers for ciphertext: 0
Decipheredtext:           0000000000000000000000000000040000
RESULT CIPHER-DECIPHER: -----OK-----


Test: 110
Hash algorithm: 10
Symmetric key bit length: 256
IV bit length:            256
Plaintext bit length:     136
Symmetric key:            0000000000000000000000000000000000000000000000000000000000000000
IV:                       0000000000000000000000000000000000000000000000000000000000000000
Plaintext:                0000000000000000000000000000020000
Ciphertext:               5b078985d8f6f30d42c5c02fa6b67b5153d9a2b6d53ec116f9040356d747e448dd067153ccabb587872d94d3281fc384d05223fd337df59a47
Reciphers for ciphertext: 0
Decipheredtext:           0000000000000000000000000000020000
RESULT CIPHER-DECIPHER: -----OK-----


Test: 111
Hash algorithm: 4
Symmetric key bit length: 256
IV bit length:            256
Plaintext bit length:     136
Symmetric key:            0000000000000000000000000000000000000000000000000000000000000000
IV:                       0000000000000000000000000000000000000000000000000000000000000000
Plaintext:                0000000000000000000000000000010000
Ciphertext:               5b078985d8f6f30d42c5c02fa6b67851532abbe2f0c6be1503e21feeab2dd464b93588b43d74a1314dfe9f527448bd872d8efb690c020e1be5f8268475439f1e66432785444fecb35c91793a7c96a9a1e0
Reciphers for ciphertext: 0
Decipheredtext:           0000000000000000000000000000010000
RESULT CIPHER-DECIPHER: -----OK-----


Test: 112
Hash algorithm: 7
Symmetric key bit length: 256
IV bit length:            256
Plaintext bit length:     136
Symmetric key:            0000000000000000000000000000000000000000000000000000000000000000
IV:                       0000000000000000000000000000000000000000000000000000000000000000
Plaintext:                0000000000000000000000000000008000
Ciphertext:               5b078985d8f6f30d42c5c02fa6b679d153b748ccbdf02001385e3933e91266f71a
Reciphers for ciphertext: 0
Decipheredtext:           0000000000000000000000000000008000
RESULT CIPHER-DECIPHER: -----OK-----


Test: 113
Hash algorithm: 4
Symmetric key bit length: 256
IV bit length:            256
Plaintext bit length:     136
Symmetric key:            0000000000000000000000000000000000000000000000000000000000000000
IV:                       0000000000000000000000000000000000000000000000000000000000000000
Plaintext:                0000000000000000000000000000004000
Ciphertext:               5b078985d8f6f30d42c5c02fa6b679115383bb772f023595dcfa85220b9d0dfe5b438cb871ebb7830879a2d8677cc8c02fca9f350eb23f64bcb02234e983ff433193da1513f6718f09d5b78c7b90880816
Reciphers for ciphertext: 0
Decipheredtext:           0000000000000000000000000000004000
RESULT CIPHER-DECIPHER: -----OK-----


Test: 114
Hash algorithm: 11
Symmetric key bit length: 256
IV bit length:            256
Plaintext bit length:     136
Symmetric key:            0000000000000000000000000000000000000000000000000000000000000000
IV:                       0000000000000000000000000000000000000000000000000000000000000000
Plaintext:                0000000000000000000000000000002000
Ciphertext:               5b078985d8f6f30d42c5c02fa6b6797153b6ceb53066310f508ae62e9a7f3db6ac
Reciphers for ciphertext: 0
Decipheredtext:           0000000000000000000000000000002000
RESULT CIPHER-DECIPHER: -----OK-----


Test: 115
Hash algorithm: 9
Symmetric key bit length: 256
IV bit length:            256
Plaintext bit length:     136
Symmetric key:            0000000000000000000000000000000000000000000000000000000000000000
IV:                       0000000000000000000000000000000000000000000000000000000000000000
Plaintext:                0000000000000000000000000000001000
Ciphertext:               5b078985d8f6f30d42c5c02fa6b6794153adbe3841b2a820a855c1cd431407eef55430d3b85f266206d0575dfc13908037
Reciphers for ciphertext: 0
Decipheredtext:           0000000000000000000000000000001000
RESULT CIPHER-DECIPHER: -----OK-----


Test: 116
Hash algorithm: 2
Symmetric key bit length: 256
IV bit length:            256
Plaintext bit length:     136
Symmetric key:            0000000000000000000000000000000000000000000000000000000000000000
IV:                       0000000000000000000000000000000000000000000000000000000000000000
Plaintext:                0000000000000000000000000000000800
Ciphertext:               5b078985d8f6f30d42c5c02fa6b6795953fcd025f5459b39cc185af1fbb7601119eb57426f70ad7661aee07a47c8d3a62f
Reciphers for ciphertext: 0
Decipheredtext:           0000000000000000000000000000000800
RESULT CIPHER-DECIPHER: -----OK-----


Test: 117
Hash algorithm: 11
Symmetric key bit length: 256
IV bit length:            256
Plaintext bit length:     136
Symmetric key:            0000000000000000000000000000000000000000000000000000000000000000
IV:                       0000000000000000000000000000000000000000000000000000000000000000
Plaintext:                0000000000000000000000000000000400
Ciphertext:               5b078985d8f6f30d42c5c02fa6b67955534f733a26d074a75508b1801266e4e15a
Reciphers for ciphertext: 0
Decipheredtext:           0000000000000000000000000000000400
RESULT CIPHER-DECIPHER: -----OK-----


Test: 118
Hash algorithm: 5
Symmetric key bit length: 256
IV bit length:            256
Plaintext bit length:     136
Symmetric key:            0000000000000000000000000000000000000000000000000000000000000000
IV:                       0000000000000000000000000000000000000000000000000000000000000000
Plaintext:                0000000000000000000000000000000200
Ciphertext:               5b078985d8f6f30d42c5c02fa6b679535392b6593ba27ca8c84e0a007b8166a1bc239633851ab54e6d2d2da1a0
Reciphers for ciphertext: 0
Decipheredtext:           0000000000000000000000000000000200
RESULT CIPHER-DECIPHER: -----OK-----


Test: 119
Hash algorithm: 11
Symmetric key bit length: 256
IV bit length:            256
Plaintext bit length:     136
Symmetric key:            0000000000000000000000000000000000000000000000000000000000000000
IV:                       0000000000000000000000000000000000000000000000000000000000000000
Plaintext:                0000000000000000000000000000000100
Ciphertext:               5b078985d8f6f30d42c5c02fa6b679505346b6570e49666fc4f27e3eaadb065df6
Reciphers for ciphertext: 0
Decipheredtext:           0000000000000000000000000000000100
RESULT CIPHER-DECIPHER: -----OK-----


Test: 120
Hash algorithm: 5
Symmetric key bit length: 256
IV bit length:            256
Plaintext bit length:     136
Symmetric key:            0000000000000000000000000000000000000000000000000000000000000000
IV:                       0000000000000000000000000000000000000000000000000000000000000000
Plaintext:                0000000000000000000000000000000080
Ciphertext:               5b078985d8f6f30d42c5c02fa6b67951d34fdbf56f61214ef7e20dd7dd22e178fe3fa26bc1c0bdb0033fdda801
Reciphers for ciphertext: 0
Decipheredtext:           0000000000000000000000000000000080
RESULT CIPHER-DECIPHER: -----OK-----


Test: 121
Hash algorithm: 1
Symmetric key bit length: 256
IV bit length:            256
Plaintext bit length:     136
Symmetric key:            0000000000000000000000000000000000000000000000000000000000000000
IV:                       0000000000000000000000000000000000000000000000000000000000000000
Plaintext:                0000000000000000000000000000000040
Ciphertext:               5b078985d8f6f30d42c5c02fa6b679511364e37b91fd6217d47b59cd57382c038834b7b699e4a6c4ec3e0da284
Reciphers for ciphertext: 0
Decipheredtext:           0000000000000000000000000000000040
RESULT CIPHER-DECIPHER: -----OK-----


Test: 122
Hash algorithm: 8
Symmetric key bit length: 256
IV bit length:            256
Plaintext bit length:     136
Symmetric key:            0000000000000000000000000000000000000000000000000000000000000000
IV:                       0000000000000000000000000000000000000000000000000000000000000000
Plaintext:                0000000000000000000000000000000020
Ciphertext:               5b078985d8f6f30d42c5c02fa6b6795173921fff548cf8a95fd266ea0e2327ffad2b72b595
Reciphers for ciphertext: 0
Decipheredtext:           0000000000000000000000000000000020
RESULT CIPHER-DECIPHER: -----OK-----


Test: 123
Hash algorithm: 8
Symmetric key bit length: 256
IV bit length:            256
Plaintext bit length:     136
Symmetric key:            0000000000000000000000000000000000000000000000000000000000000000
IV:                       0000000000000000000000000000000000000000000000000000000000000000
Plaintext:                0000000000000000000000000000000010
Ciphertext:               5b078985d8f6f30d42c5c02fa6b6795143e31bcf85b8ecd1e54b1d84b52d5b8a124d2c11b4
Reciphers for ciphertext: 0
Decipheredtext:           0000000000000000000000000000000010
RESULT CIPHER-DECIPHER: -----OK-----


Test: 124
Hash algorithm: 5
Symmetric key bit length: 256
IV bit length:            256
Plaintext bit length:     136
Symmetric key:            0000000000000000000000000000000000000000000000000000000000000000
IV:                       0000000000000000000000000000000000000000000000000000000000000000
Plaintext:                0000000000000000000000000000000008
Ciphertext:               5b078985d8f6f30d42c5c02fa6b679515b1c8224f5242e81c49a957ded20a62d9a02c73a6576fcc5cf826cf312
Reciphers for ciphertext: 0
Decipheredtext:           0000000000000000000000000000000008
RESULT CIPHER-DECIPHER: -----OK-----


Test: 125
Hash algorithm: 3
Symmetric key bit length: 256
IV bit length:            256
Plaintext bit length:     136
Symmetric key:            0000000000000000000000000000000000000000000000000000000000000000
IV:                       0000000000000000000000000000000000000000000000000000000000000000
Plaintext:                0000000000000000000000000000000004
Ciphertext:               5b078985d8f6f30d42c5c02fa6b6795157d7df03fdd396206d6aed45ff611651fda125727226aa0c170209e2c287c4b3252fc7be210dfc4a110b590aad68ba37c8
Reciphers for ciphertext: 0
Decipheredtext:           0000000000000000000000000000000004
RESULT CIPHER-DECIPHER: -----OK-----


Test: 126
Hash algorithm: 13
Symmetric key bit length: 256
IV bit length:            256
Plaintext bit length:     136
Symmetric key:            0000000000000000000000000000000000000000000000000000000000000000
IV:                       0000000000000000000000000000000000000000000000000000000000000000
Plaintext:                0000000000000000000000000000000002
Ciphertext:               5b078985d8f6f30d42c5c02fa6b6795151fcd461ab2893a3c45ed1394c06ca16ec
Reciphers for ciphertext: 0
Decipheredtext:           0000000000000000000000000000000002
RESULT CIPHER-DECIPHER: -----OK-----


Test: 127
Hash algorithm: 1
Symmetric key bit length: 256
IV bit length:            256
Plaintext bit length:     136
Symmetric key:            0000000000000000000000000000000000000000000000000000000000000000
IV:                       0000000000000000000000000000000000000000000000000000000000000000
Plaintext:                0000000000000000000000000000000001
Ciphertext:               5b078985d8f6f30d42c5c02fa6b6795152ee4d28b2a14338c5e89fe519775c0c86470bde1145d6ff7bd2976e43
Reciphers for ciphertext: 0
Decipheredtext:           0000000000000000000000000000000001
RESULT CIPHER-DECIPHER: -----OK-----


 DATA SHA1 (hexadecimal): a163f5c67dd1a7180643df6c2e8bf97a20070e9d

