
DiceLock 9.0.0.1

 TEST COMPONENTS:
 ----------------
 DiceLock:           DiceLockIVDigested class
 Base Stream Cipher: Rabbit class
 Hash algorithms:     0 - Sha1 class
                      1 - Sha224 class
                      2 - Sha256 class
                      3 - Sha384 class
                      4 - Sha512 class
                      5 - Sha512_224 class
                      6 - Sha512_256 class
                      7 - Ripemd128 class
                      8 - Ripemd160 class
                      9 - Ripemd256 class
                     10 - Ripemd320 class
                     11 - MD2 class
                     12 - MD4 class
                     13 - MD5 class
 Key Modifier:       IncreaseKeyModifier_6_0_0_1 class
 Random tests:       RandomTestSuite class
                     FrequencyTest class
                     BlockFrequencyTest class
                     CumulativeSumForwardTest class
                     LongestRunOfOnesTest class
                     RunsTest class
 Random alpha:       0.001

 VECTOR TEST: Test vector 5 - IV all byte value 0xXX


##### INDIVIDUAL TESTS #####

Number tests: 128


Test: 0
Hash algorithm: 7
Symmetric key bit length: 128
IV bit length:            64
Plaintext bit length:     136
Symmetric key:            00000000000000000000000000000000
IV:                       0000000000000000
Plaintext:                0000000000000000000000000000000000
Ciphertext:               edb70567375dcd7cd89554f85e27a7c68d27cdc05246637f1a3fb2ce0605dcf792
Reciphers for ciphertext: 0
Decipheredtext:           0000000000000000000000000000000000
RESULT CIPHER-DECIPHER: -----OK-----


Test: 1
Hash algorithm: 3
Symmetric key bit length: 128
IV bit length:            64
Plaintext bit length:     136
Symmetric key:            00000000000000000000000000000000
IV:                       0101010101010101
Plaintext:                0000000000000000000000000000000000
Ciphertext:               3ac88136d0cf5a8eee1268aeb9b10a859d306bb1600e02c27715d6daa950ae0f2532212203c23a459d3add5b3246d66e435c906a9b9cd17562180bfacc3c465791
Reciphers for ciphertext: 0
Decipheredtext:           0000000000000000000000000000000000
RESULT CIPHER-DECIPHER: -----OK-----


Test: 2
Hash algorithm: 5
Symmetric key bit length: 128
IV bit length:            64
Plaintext bit length:     136
Symmetric key:            00000000000000000000000000000000
IV:                       0202020202020202
Plaintext:                0000000000000000000000000000000000
Ciphertext:               ab4d4a566d944aa5cb932a4f3daac3a890ee1a4692da2b4753cc6caef21f7f7bf0e3755abb11017cca21cf64ba
Reciphers for ciphertext: 0
Decipheredtext:           0000000000000000000000000000000000
RESULT CIPHER-DECIPHER: -----OK-----


Test: 3
Hash algorithm: 5
Symmetric key bit length: 128
IV bit length:            64
Plaintext bit length:     136
Symmetric key:            00000000000000000000000000000000
IV:                       0303030303030303
Plaintext:                0000000000000000000000000000000000
Ciphertext:               0258c3af819d5e664c6dd8d3664716808c70c858f4cd06e55cb3a75589fa92c959f6fca3571815bf4ddf3df8e1
Reciphers for ciphertext: 0
Decipheredtext:           0000000000000000000000000000000000
RESULT CIPHER-DECIPHER: -----OK-----


Test: 4
Hash algorithm: 8
Symmetric key bit length: 128
IV bit length:            64
Plaintext bit length:     136
Symmetric key:            00000000000000000000000000000000
IV:                       0404040404040404
Plaintext:                0000000000000000000000000000000000
Ciphertext:               cd572464b7ca863d6aaac4f1ab81df52c23d6059be2dc5407fde47d59cf073a577f2a60719
Reciphers for ciphertext: 0
Decipheredtext:           0000000000000000000000000000000000
RESULT CIPHER-DECIPHER: -----OK-----


Test: 5
Hash algorithm: 7
Symmetric key bit length: 128
IV bit length:            64
Plaintext bit length:     136
Symmetric key:            00000000000000000000000000000000
IV:                       0505050505050505
Plaintext:                0000000000000000000000000000000000
Ciphertext:               fec83fa3958f6448774ec9bc788aefe27a20e56f3f54064e6885df789245058f81
Reciphers for ciphertext: 0
Decipheredtext:           0000000000000000000000000000000000
RESULT CIPHER-DECIPHER: -----OK-----


Test: 6
Hash algorithm: 0
Symmetric key bit length: 128
IV bit length:            64
Plaintext bit length:     136
Symmetric key:            00000000000000000000000000000000
IV:                       0606060606060606
Plaintext:                0000000000000000000000000000000000
Ciphertext:               ae937c8a25387d081e30957fb846c170c4af9f5a2b4d940e91b8c4ed0671d1cfb2d3513b9b
Reciphers for ciphertext: 0
Decipheredtext:           0000000000000000000000000000000000
RESULT CIPHER-DECIPHER: -----OK-----


Test: 7
Hash algorithm: 0
Symmetric key bit length: 128
IV bit length:            64
Plaintext bit length:     136
Symmetric key:            00000000000000000000000000000000
IV:                       0707070707070707
Plaintext:                0000000000000000000000000000000000
Ciphertext:               b81e8b14c27467a5f75b7143dee0b41b8badeab71fb2fd5cf8a0e83ab3386747a45ea6a57c
Reciphers for ciphertext: 0
Decipheredtext:           0000000000000000000000000000000000
RESULT CIPHER-DECIPHER: -----OK-----


Test: 8
Hash algorithm: 7
Symmetric key bit length: 128
IV bit length:            64
Plaintext bit length:     136
Symmetric key:            00000000000000000000000000000000
IV:                       0808080808080808
Plaintext:                0000000000000000000000000000000000
Ciphertext:               7bdc1199546727ef900966bcb8d1fd2870ee889c8aa79ab496a4c5a28b1f588004
Reciphers for ciphertext: 0
Decipheredtext:           0000000000000000000000000000000000
RESULT CIPHER-DECIPHER: -----OK-----


Test: 9
Hash algorithm: 11
Symmetric key bit length: 128
IV bit length:            64
Plaintext bit length:     136
Symmetric key:            00000000000000000000000000000000
IV:                       0909090909090909
Plaintext:                0000000000000000000000000000000000
Ciphertext:               327bba68092770f122f7d9886ca05a87a74a0f2a01a5cbbdc9a9920f5281acbbcc
Reciphers for ciphertext: 0
Decipheredtext:           0000000000000000000000000000000000
RESULT CIPHER-DECIPHER: -----OK-----


Test: 10
Hash algorithm: 11
Symmetric key bit length: 128
IV bit length:            64
Plaintext bit length:     136
Symmetric key:            00000000000000000000000000000000
IV:                       0a0a0a0a0a0a0a0a
Plaintext:                0000000000000000000000000000000000
Ciphertext:               42b9a4d846b9ac07630ac0305cc4d25d93e644018f42fa805fa16d7a2246e9c9bc
Reciphers for ciphertext: 0
Decipheredtext:           0000000000000000000000000000000000
RESULT CIPHER-DECIPHER: -----OK-----


Test: 11
Hash algorithm: 8
Symmetric key bit length: 128
IV bit length:            64
Plaintext bit length:     136
Symmetric key:            00000000000000000000000000000000
IV:                       0b0b0b0b0b0b0b0b
Plaintext:                0000000000000000000000000000000000
Ciphertext:               a3bb310c174f7926ae0b87e5db8620ef3ddde0ee5d2a276c2ac200f964155f1f191eb36fb9
Reciphers for ciphertext: 0
Decipheredtext:           0000000000000000000000000000000000
RESULT CIPHER-DECIPHER: -----OK-----


Test: 12
Hash algorithm: 0
Symmetric key bit length: 128
IV bit length:            64
Plaintext bit length:     136
Symmetric key:            00000000000000000000000000000000
IV:                       0c0c0c0c0c0c0c0c
Plaintext:                0000000000000000000000000000000000
Ciphertext:               209d8183ea1d49af2ebaa53b32e157c8c91317c8d1ce3e2d828cecb231b763f33cddac3254
Reciphers for ciphertext: 0
Decipheredtext:           0000000000000000000000000000000000
RESULT CIPHER-DECIPHER: -----OK-----


Test: 13
Hash algorithm: 10
Symmetric key bit length: 128
IV bit length:            64
Plaintext bit length:     136
Symmetric key:            00000000000000000000000000000000
IV:                       0d0d0d0d0d0d0d0d
Plaintext:                0000000000000000000000000000000000
Ciphertext:               79c174046e6dc6e5ac7621827467b00070083705d01aa73a576c6d06e3769e508e42b9d6a31d95c3a1d69f952da4ac8ea2dd894a50c3ffb058
Reciphers for ciphertext: 0
Decipheredtext:           0000000000000000000000000000000000
RESULT CIPHER-DECIPHER: -----OK-----


Test: 14
Hash algorithm: 0
Symmetric key bit length: 128
IV bit length:            64
Plaintext bit length:     136
Symmetric key:            00000000000000000000000000000000
IV:                       0e0e0e0e0e0e0e0e
Plaintext:                0000000000000000000000000000000000
Ciphertext:               4ae44c4c3735e94e974ad7aff35128bd7f50607923e04fc899ec1b317599145956a461fd89
Reciphers for ciphertext: 0
Decipheredtext:           0000000000000000000000000000000000
RESULT CIPHER-DECIPHER: -----OK-----


Test: 15
Hash algorithm: 9
Symmetric key bit length: 128
IV bit length:            64
Plaintext bit length:     136
Symmetric key:            00000000000000000000000000000000
IV:                       0f0f0f0f0f0f0f0f
Plaintext:                0000000000000000000000000000000000
Ciphertext:               56fd1dac0d1db03e1bf7d7e865e626ccede723d7c29eed0b46b04b4717654e5b455303852bcbedc03663a116ef1a316aea
Reciphers for ciphertext: 0
Decipheredtext:           0000000000000000000000000000000000
RESULT CIPHER-DECIPHER: -----OK-----


Test: 16
Hash algorithm: 11
Symmetric key bit length: 128
IV bit length:            64
Plaintext bit length:     136
Symmetric key:            00000000000000000000000000000000
IV:                       1010101010101010
Plaintext:                0000000000000000000000000000000000
Ciphertext:               baf9e3f08cf8fbf68b42cbf7ecb08f21b215b09773a3ba65e032564a11e2139644
Reciphers for ciphertext: 0
Decipheredtext:           0000000000000000000000000000000000
RESULT CIPHER-DECIPHER: -----OK-----


Test: 17
Hash algorithm: 10
Symmetric key bit length: 128
IV bit length:            64
Plaintext bit length:     136
Symmetric key:            00000000000000000000000000000000
IV:                       1111111111111111
Plaintext:                0000000000000000000000000000000000
Ciphertext:               91e07776d82a00b0685c1ce918be3b7d9cb79bcf2f87da989d684d4133b0963d6663baa4155a539665fca2fe417d27f34e622580af5e821292
Reciphers for ciphertext: 0
Decipheredtext:           0000000000000000000000000000000000
RESULT CIPHER-DECIPHER: -----OK-----


Test: 18
Hash algorithm: 13
Symmetric key bit length: 128
IV bit length:            64
Plaintext bit length:     136
Symmetric key:            00000000000000000000000000000000
IV:                       1212121212121212
Plaintext:                0000000000000000000000000000000000
Ciphertext:               b252f2a17fe8f0af6e6e7d73e7304267159a1103d56dd67d1124b92acf30b29a13
Reciphers for ciphertext: 0
Decipheredtext:           0000000000000000000000000000000000
RESULT CIPHER-DECIPHER: -----OK-----


Test: 19
Hash algorithm: 3
Symmetric key bit length: 128
IV bit length:            64
Plaintext bit length:     136
Symmetric key:            00000000000000000000000000000000
IV:                       1313131313131313
Plaintext:                0000000000000000000000000000000000
Ciphertext:               b380d92a45eb41e156ab1a5f153373259e9b261cb9032e4768cebd9536cfd3e3ac7a793e96e6212a2583afaa9ec4afce40f7ddc74291fdf07dc360b553a33bbbb6
Reciphers for ciphertext: 0
Decipheredtext:           0000000000000000000000000000000000
RESULT CIPHER-DECIPHER: -----OK-----


Test: 20
Hash algorithm: 1
Symmetric key bit length: 128
IV bit length:            64
Plaintext bit length:     136
Symmetric key:            00000000000000000000000000000000
IV:                       1414141414141414
Plaintext:                0000000000000000000000000000000000
Ciphertext:               bc9158f513586f20b8fe2e4f7d6cdd16856b873bfb18075d7a7b4ebbc0dd764ebed05dfaa56edb29059dc82c1a
Reciphers for ciphertext: 0
Decipheredtext:           0000000000000000000000000000000000
RESULT CIPHER-DECIPHER: -----OK-----


Test: 21
Hash algorithm: 3
Symmetric key bit length: 128
IV bit length:            64
Plaintext bit length:     136
Symmetric key:            00000000000000000000000000000000
IV:                       1515151515151515
Plaintext:                0000000000000000000000000000000000
Ciphertext:               1d5032a4ee1065c042a585d07c9ab21e648f916775d41e317c4d19b884ea3c4702aa92b03d1d050b318d3025f76d6ef5bae36abc8e46cd866940c498e186d41f8b
Reciphers for ciphertext: 0
Decipheredtext:           0000000000000000000000000000000000
RESULT CIPHER-DECIPHER: -----OK-----


Test: 22
Hash algorithm: 3
Symmetric key bit length: 128
IV bit length:            64
Plaintext bit length:     136
Symmetric key:            00000000000000000000000000000000
IV:                       1616161616161616
Plaintext:                0000000000000000000000000000000000
Ciphertext:               8bf1ed2888f5f83afbec6fd0e8119d5f33809d1bd99208cec767f9852e77be8b940b4d3c5bf898f188c4da2563e641b4edec66c02200db79d26a24a54b1b56d3e5
Reciphers for ciphertext: 0
Decipheredtext:           0000000000000000000000000000000000
RESULT CIPHER-DECIPHER: -----OK-----


Test: 23
Hash algorithm: 6
Symmetric key bit length: 128
IV bit length:            64
Plaintext bit length:     136
Symmetric key:            00000000000000000000000000000000
IV:                       1717171717171717
Plaintext:                0000000000000000000000000000000000
Ciphertext:               02617cd8c044b77a885e681826d99ff83f2afcca9289a86989ea689a86a77fafebd979fc5f54190aad02f8765087de05f7
Reciphers for ciphertext: 0
Decipheredtext:           0000000000000000000000000000000000
RESULT CIPHER-DECIPHER: -----OK-----


Test: 24
Hash algorithm: 4
Symmetric key bit length: 128
IV bit length:            64
Plaintext bit length:     136
Symmetric key:            00000000000000000000000000000000
IV:                       1818181818181818
Plaintext:                0000000000000000000000000000000000
Ciphertext:               ae525a70b296f8f07a62ffe58483f0acbd03e31720bd1ee9ca2b2e6803add9c31a27d8f62b9889d61b1408adb6db29e2191a1d6adbbcf2d1713c4f1bd92a04360e76c35ac32dd3c5e8c011d86d5ad0c71a
Reciphers for ciphertext: 0
Decipheredtext:           0000000000000000000000000000000000
RESULT CIPHER-DECIPHER: -----OK-----


Test: 25
Hash algorithm: 5
Symmetric key bit length: 128
IV bit length:            64
Plaintext bit length:     136
Symmetric key:            00000000000000000000000000000000
IV:                       1919191919191919
Plaintext:                0000000000000000000000000000000000
Ciphertext:               503f6af095100f18b4cdfa22d9b1fd1a34c7d756d8fc849a7b78c8c2f44ebb660b9155fc439544c1b57f1f095e
Reciphers for ciphertext: 0
Decipheredtext:           0000000000000000000000000000000000
RESULT CIPHER-DECIPHER: -----OK-----


Test: 26
Hash algorithm: 6
Symmetric key bit length: 128
IV bit length:            64
Plaintext bit length:     136
Symmetric key:            00000000000000000000000000000000
IV:                       1a1a1a1a1a1a1a1a
Plaintext:                0000000000000000000000000000000000
Ciphertext:               54c2a1d108bfcd3407d7f6ac5b2200155ac82c09ea39b75fa920373163fb89d7bd7aa4f597af6344228b66c22d7c41e892
Reciphers for ciphertext: 0
Decipheredtext:           0000000000000000000000000000000000
RESULT CIPHER-DECIPHER: -----OK-----


Test: 27
Hash algorithm: 7
Symmetric key bit length: 128
IV bit length:            64
Plaintext bit length:     136
Symmetric key:            00000000000000000000000000000000
IV:                       1b1b1b1b1b1b1b1b
Plaintext:                0000000000000000000000000000000000
Ciphertext:               4f3e5f8cd308add61294b2fd632151b5f2c51ea013bbc9b3aa09043cce96493830
Reciphers for ciphertext: 0
Decipheredtext:           0000000000000000000000000000000000
RESULT CIPHER-DECIPHER: -----OK-----


Test: 28
Hash algorithm: 4
Symmetric key bit length: 128
IV bit length:            64
Plaintext bit length:     136
Symmetric key:            00000000000000000000000000000000
IV:                       1c1c1c1c1c1c1c1c
Plaintext:                0000000000000000000000000000000000
Ciphertext:               cc5a38a095d163fd47928ac270965a5f0bcc84adabd434f0a1ddda72bd54ba7e782fba260cdf12db26e47d8a42ce8311afd57ad050d5d8c81acabb0167d3678bd4949e795d47bffb4d128243af33af86e0
Reciphers for ciphertext: 0
Decipheredtext:           0000000000000000000000000000000000
RESULT CIPHER-DECIPHER: -----OK-----


Test: 29
Hash algorithm: 1
Symmetric key bit length: 128
IV bit length:            64
Plaintext bit length:     136
Symmetric key:            00000000000000000000000000000000
IV:                       1d1d1d1d1d1d1d1d
Plaintext:                0000000000000000000000000000000000
Ciphertext:               c511d4cdc91761bbc6ce5b7e067f557de13b611eb96944f06a1dd8a9102448dbc750d1c27f21d5b27badbd1d61
Reciphers for ciphertext: 0
Decipheredtext:           0000000000000000000000000000000000
RESULT CIPHER-DECIPHER: -----OK-----


Test: 30
Hash algorithm: 13
Symmetric key bit length: 128
IV bit length:            64
Plaintext bit length:     136
Symmetric key:            00000000000000000000000000000000
IV:                       1e1e1e1e1e1e1e1e
Plaintext:                0000000000000000000000000000000000
Ciphertext:               58e41b3c5a593028ad02a12ad51b1a1d5b53a4a3de2f12bf24827728b8ee6355f9
Reciphers for ciphertext: 0
Decipheredtext:           0000000000000000000000000000000000
RESULT CIPHER-DECIPHER: -----OK-----


Test: 31
Hash algorithm: 0
Symmetric key bit length: 128
IV bit length:            64
Plaintext bit length:     136
Symmetric key:            00000000000000000000000000000000
IV:                       1f1f1f1f1f1f1f1f
Plaintext:                0000000000000000000000000000000000
Ciphertext:               f373e1b51dcfa2a349246748ddbe421e521861bbbed08b0c62c71eaf61be8f0aef33cc04a3
Reciphers for ciphertext: 0
Decipheredtext:           0000000000000000000000000000000000
RESULT CIPHER-DECIPHER: -----OK-----


Test: 32
Hash algorithm: 13
Symmetric key bit length: 128
IV bit length:            64
Plaintext bit length:     136
Symmetric key:            00000000000000000000000000000000
IV:                       2020202020202020
Plaintext:                0000000000000000000000000000000000
Ciphertext:               7cbc16f7a6bcb2350369ba8772e4708bf6ad622e2ad527f60c89190736f46f44dd
Reciphers for ciphertext: 0
Decipheredtext:           0000000000000000000000000000000000
RESULT CIPHER-DECIPHER: -----OK-----


Test: 33
Hash algorithm: 7
Symmetric key bit length: 128
IV bit length:            64
Plaintext bit length:     136
Symmetric key:            00000000000000000000000000000000
IV:                       2121212121212121
Plaintext:                0000000000000000000000000000000000
Ciphertext:               8a9b7d1fd673e46be461032a0eec5a7c369266225ff7a97752ca31f8e603a649f5
Reciphers for ciphertext: 0
Decipheredtext:           0000000000000000000000000000000000
RESULT CIPHER-DECIPHER: -----OK-----


Test: 34
Hash algorithm: 7
Symmetric key bit length: 128
IV bit length:            64
Plaintext bit length:     136
Symmetric key:            00000000000000000000000000000000
IV:                       2222222222222222
Plaintext:                0000000000000000000000000000000000
Ciphertext:               3cbec00cbb16968b8a988ebd179eb984f655fc1a4fe9b68501d84fbdb6a5bebb43
Reciphers for ciphertext: 0
Decipheredtext:           0000000000000000000000000000000000
RESULT CIPHER-DECIPHER: -----OK-----


Test: 35
Hash algorithm: 4
Symmetric key bit length: 128
IV bit length:            64
Plaintext bit length:     136
Symmetric key:            00000000000000000000000000000000
IV:                       2323232323232323
Plaintext:                0000000000000000000000000000000000
Ciphertext:               8ddb9b4129043c015435fdaf50e94c0349a7131d0e29ce1e02981cd020d608c139ae19c7b00a4d2735430ae762b1954dedbeed60f5282226b98f7da3fa51d5343cc0a05e2e0b185f198a788b73d168f0c3
Reciphers for ciphertext: 0
Decipheredtext:           0000000000000000000000000000000000
RESULT CIPHER-DECIPHER: -----OK-----


Test: 36
Hash algorithm: 3
Symmetric key bit length: 128
IV bit length:            64
Plaintext bit length:     136
Symmetric key:            00000000000000000000000000000000
IV:                       2424242424242424
Plaintext:                0000000000000000000000000000000000
Ciphertext:               049ab0017911705b9c4ede5870c4c1b9f511f387348a4e157ea06fd1e3de53bf1b601015aa1c1090ef666badfb331d522b7d085ccf189da26badb2f186b2bbe7d9
Reciphers for ciphertext: 0
Decipheredtext:           0000000000000000000000000000000000
RESULT CIPHER-DECIPHER: -----OK-----


Test: 37
Hash algorithm: 12
Symmetric key bit length: 128
IV bit length:            64
Plaintext bit length:     136
Symmetric key:            00000000000000000000000000000000
IV:                       2525252525252525
Plaintext:                0000000000000000000000000000000000
Ciphertext:               b396b2533e910c40536cd5eb705b794fbf007507e868c06d0bbab672ed53ca142d
Reciphers for ciphertext: 0
Decipheredtext:           0000000000000000000000000000000000
RESULT CIPHER-DECIPHER: -----OK-----


Test: 38
Hash algorithm: 7
Symmetric key bit length: 128
IV bit length:            64
Plaintext bit length:     136
Symmetric key:            00000000000000000000000000000000
IV:                       2626262626262626
Plaintext:                0000000000000000000000000000000000
Ciphertext:               7d26303c4acd14e13e7cef1e56d5e81b9265f57c42840d3380f7e081e7b5e5a702
Reciphers for ciphertext: 0
Decipheredtext:           0000000000000000000000000000000000
RESULT CIPHER-DECIPHER: -----OK-----


Test: 39
Hash algorithm: 6
Symmetric key bit length: 128
IV bit length:            64
Plaintext bit length:     136
Symmetric key:            00000000000000000000000000000000
IV:                       2727272727272727
Plaintext:                0000000000000000000000000000000000
Ciphertext:               08f4c49f9b8bb42774af97dde47cc471944ff0f896a71139f0fe3591391853a4e14cc1bb049b1a5751f307b39222858c5c
Reciphers for ciphertext: 0
Decipheredtext:           0000000000000000000000000000000000
RESULT CIPHER-DECIPHER: -----OK-----


Test: 40
Hash algorithm: 4
Symmetric key bit length: 128
IV bit length:            64
Plaintext bit length:     136
Symmetric key:            00000000000000000000000000000000
IV:                       2828282828282828
Plaintext:                0000000000000000000000000000000000
Ciphertext:               6f8c84374d6bcd043ae03d72d14339adf86a836883ad49fad31f819fa29dd0a0dbf906b1d465bc225b96ca3ae31be0e35c737d1578aca5c26808e0ec781a0d552c52bd5d942142cf17cac08465d8a3b8d7
Reciphers for ciphertext: 0
Decipheredtext:           0000000000000000000000000000000000
RESULT CIPHER-DECIPHER: -----OK-----


Test: 41
Hash algorithm: 8
Symmetric key bit length: 128
IV bit length:            64
Plaintext bit length:     136
Symmetric key:            00000000000000000000000000000000
IV:                       2929292929292929
Plaintext:                0000000000000000000000000000000000
Ciphertext:               abc98842b0266c768f8a4efec0abe757bc1a1b8295f462b109c195b53b8092ee116c0a211e
Reciphers for ciphertext: 0
Decipheredtext:           0000000000000000000000000000000000
RESULT CIPHER-DECIPHER: -----OK-----


Test: 42
Hash algorithm: 12
Symmetric key bit length: 128
IV bit length:            64
Plaintext bit length:     136
Symmetric key:            00000000000000000000000000000000
IV:                       2a2a2a2a2a2a2a2a
Plaintext:                0000000000000000000000000000000000
Ciphertext:               e4b2143c153236adab40352cfb7d4f650571921c22f49696d229265b0ef166e87a
Reciphers for ciphertext: 0
Decipheredtext:           0000000000000000000000000000000000
RESULT CIPHER-DECIPHER: -----OK-----


Test: 43
Hash algorithm: 6
Symmetric key bit length: 128
IV bit length:            64
Plaintext bit length:     136
Symmetric key:            00000000000000000000000000000000
IV:                       2b2b2b2b2b2b2b2b
Plaintext:                0000000000000000000000000000000000
Ciphertext:               e672f39406c535d3ed3b962698ddc4a0cd62c6d9ca3594dd6a8e0c4c2fc527a50fcaf6b099d59ba3c8670648ee83855d05
Reciphers for ciphertext: 0
Decipheredtext:           0000000000000000000000000000000000
RESULT CIPHER-DECIPHER: -----OK-----


Test: 44
Hash algorithm: 7
Symmetric key bit length: 128
IV bit length:            64
Plaintext bit length:     136
Symmetric key:            00000000000000000000000000000000
IV:                       2c2c2c2c2c2c2c2c
Plaintext:                0000000000000000000000000000000000
Ciphertext:               a00361c68586817917706d11c10d58e065e947c6a319d3dc49757ed7d77ff4acdf
Reciphers for ciphertext: 0
Decipheredtext:           0000000000000000000000000000000000
RESULT CIPHER-DECIPHER: -----OK-----


Test: 45
Hash algorithm: 11
Symmetric key bit length: 128
IV bit length:            64
Plaintext bit length:     136
Symmetric key:            00000000000000000000000000000000
IV:                       2d2d2d2d2d2d2d2d
Plaintext:                0000000000000000000000000000000000
Ciphertext:               8d4182ec0b26613493c633c74eae1ba1782e20965458640667aa298e93f96a8e73
Reciphers for ciphertext: 0
Decipheredtext:           0000000000000000000000000000000000
RESULT CIPHER-DECIPHER: -----OK-----


Test: 46
Hash algorithm: 1
Symmetric key bit length: 128
IV bit length:            64
Plaintext bit length:     136
Symmetric key:            00000000000000000000000000000000
IV:                       2e2e2e2e2e2e2e2e
Plaintext:                0000000000000000000000000000000000
Ciphertext:               8cff8d6b074759456bd6334d672667a735d31e94948cce1b6612cf5c7c19e0db8ebe8864b171ed4cd6b5d52e00
Reciphers for ciphertext: 0
Decipheredtext:           0000000000000000000000000000000000
RESULT CIPHER-DECIPHER: -----OK-----


Test: 47
Hash algorithm: 2
Symmetric key bit length: 128
IV bit length:            64
Plaintext bit length:     136
Symmetric key:            00000000000000000000000000000000
IV:                       2f2f2f2f2f2f2f2f
Plaintext:                0000000000000000000000000000000000
Ciphertext:               3f4723fd39f1497d1ef557b7418fb2682fe38c90413d068e6edfbe0a8c2adeefa603915a6f535aa4abf450600918c38976
Reciphers for ciphertext: 0
Decipheredtext:           0000000000000000000000000000000000
RESULT CIPHER-DECIPHER: -----OK-----


Test: 48
Hash algorithm: 12
Symmetric key bit length: 128
IV bit length:            64
Plaintext bit length:     136
Symmetric key:            00000000000000000000000000000000
IV:                       3030303030303030
Plaintext:                0000000000000000000000000000000000
Ciphertext:               942359d86f529a0756f2814544fdf168c901d83a7929fb7c9a85758d26591ad80a
Reciphers for ciphertext: 0
Decipheredtext:           0000000000000000000000000000000000
RESULT CIPHER-DECIPHER: -----OK-----


Test: 49
Hash algorithm: 0
Symmetric key bit length: 128
IV bit length:            64
Plaintext bit length:     136
Symmetric key:            00000000000000000000000000000000
IV:                       3131313131313131
Plaintext:                0000000000000000000000000000000000
Ciphertext:               693304377d7442898485d6a47601eecfb57f288a064a3fa3e30ea5ec9fed465275732986c3
Reciphers for ciphertext: 0
Decipheredtext:           0000000000000000000000000000000000
RESULT CIPHER-DECIPHER: -----OK-----


Test: 50
Hash algorithm: 11
Symmetric key bit length: 128
IV bit length:            64
Plaintext bit length:     136
Symmetric key:            00000000000000000000000000000000
IV:                       3232323232323232
Plaintext:                0000000000000000000000000000000000
Ciphertext:               2f345f9f1b332464c1be0225cd549e457078fbe941f3d52a8c30c97a8b300319d1
Reciphers for ciphertext: 0
Decipheredtext:           0000000000000000000000000000000000
RESULT CIPHER-DECIPHER: -----OK-----


Test: 51
Hash algorithm: 2
Symmetric key bit length: 128
IV bit length:            64
Plaintext bit length:     136
Symmetric key:            00000000000000000000000000000000
IV:                       3333333333333333
Plaintext:                0000000000000000000000000000000000
Ciphertext:               48f7bbe6d9ee155225e52893887e08b1968eff5a3d13aa84a726734b3190086ad1b309418f4c068b90e42f44c0e97950cf
Reciphers for ciphertext: 0
Decipheredtext:           0000000000000000000000000000000000
RESULT CIPHER-DECIPHER: -----OK-----


Test: 52
Hash algorithm: 1
Symmetric key bit length: 128
IV bit length:            64
Plaintext bit length:     136
Symmetric key:            00000000000000000000000000000000
IV:                       3434343434343434
Plaintext:                0000000000000000000000000000000000
Ciphertext:               426f6cd652c737216819eede624551844bb000127a1e655272ba1b374a0eccd1402e69d9e4f18328d57a08bd05
Reciphers for ciphertext: 0
Decipheredtext:           0000000000000000000000000000000000
RESULT CIPHER-DECIPHER: -----OK-----


Test: 53
Hash algorithm: 11
Symmetric key bit length: 128
IV bit length:            64
Plaintext bit length:     136
Symmetric key:            00000000000000000000000000000000
IV:                       3535353535353535
Plaintext:                0000000000000000000000000000000000
Ciphertext:               2f6c8b7ca45e227312f5a899fe1a6c80073de2e42b907174b54db40325bfe962d1
Reciphers for ciphertext: 0
Decipheredtext:           0000000000000000000000000000000000
RESULT CIPHER-DECIPHER: -----OK-----


Test: 54
Hash algorithm: 6
Symmetric key bit length: 128
IV bit length:            64
Plaintext bit length:     136
Symmetric key:            00000000000000000000000000000000
IV:                       3636363636363636
Plaintext:                0000000000000000000000000000000000
Ciphertext:               4bf60e306049e71e958a46eff680e0525369a7141a90bbffc011acdd321714d4a24e0b14ff59496eb0d6d68180dea1af9b
Reciphers for ciphertext: 0
Decipheredtext:           0000000000000000000000000000000000
RESULT CIPHER-DECIPHER: -----OK-----


Test: 55
Hash algorithm: 4
Symmetric key bit length: 128
IV bit length:            64
Plaintext bit length:     136
Symmetric key:            00000000000000000000000000000000
IV:                       3737373737373737
Plaintext:                0000000000000000000000000000000000
Ciphertext:               adabf45af82cb5304458747d4107a4fe06e6894b0998a7eccb5c606d08cc689519de76dc6122c416252e8335735f7db0a2ff7736f2994bd4704b011ed24bb56042523ddc2224ff8d65bc9e1ff137bf5629
Reciphers for ciphertext: 0
Decipheredtext:           0000000000000000000000000000000000
RESULT CIPHER-DECIPHER: -----OK-----


Test: 56
Hash algorithm: 1
Symmetric key bit length: 128
IV bit length:            64
Plaintext bit length:     136
Symmetric key:            00000000000000000000000000000000
IV:                       3838383838383838
Plaintext:                0000000000000000000000000000000000
Ciphertext:               2a6c136780f2c321042090da95173fb0674a1a21a3f50ad2dc8fce064ebef34f282d166836c47728b94376b9f2
Reciphers for ciphertext: 0
Decipheredtext:           0000000000000000000000000000000000
RESULT CIPHER-DECIPHER: -----OK-----


Test: 57
Hash algorithm: 5
Symmetric key bit length: 128
IV bit length:            64
Plaintext bit length:     136
Symmetric key:            00000000000000000000000000000000
IV:                       3939393939393939
Plaintext:                0000000000000000000000000000000000
Ciphertext:               cc2bd38a363e01bca9a6ecb770e94c5bfe8f69b1e6be7f1a3537df45058f47e69785ec86e0bb4a65a814099cf7
Reciphers for ciphertext: 0
Decipheredtext:           0000000000000000000000000000000000
RESULT CIPHER-DECIPHER: -----OK-----


Test: 58
Hash algorithm: 12
Symmetric key bit length: 128
IV bit length:            64
Plaintext bit length:     136
Symmetric key:            00000000000000000000000000000000
IV:                       3a3a3a3a3a3a3a3a
Plaintext:                0000000000000000000000000000000000
Ciphertext:               561794067bb53dc53f869d437889c60a45be6fa5f690175c6a590a5de952339fc8
Reciphers for ciphertext: 0
Decipheredtext:           0000000000000000000000000000000000
RESULT CIPHER-DECIPHER: -----OK-----


Test: 59
Hash algorithm: 6
Symmetric key bit length: 128
IV bit length:            64
Plaintext bit length:     136
Symmetric key:            00000000000000000000000000000000
IV:                       3b3b3b3b3b3b3b3b
Plaintext:                0000000000000000000000000000000000
Ciphertext:               08a0f56210b4fc52624c5f133954154a4dd7c77375bb455e248f60e11fd2613be118f0468fa452224710cf7d4f0a54b785
Reciphers for ciphertext: 0
Decipheredtext:           0000000000000000000000000000000000
RESULT CIPHER-DECIPHER: -----OK-----


Test: 60
Hash algorithm: 4
Symmetric key bit length: 128
IV bit length:            64
Plaintext bit length:     136
Symmetric key:            00000000000000000000000000000000
IV:                       3c3c3c3c3c3c3c3c
Plaintext:                0000000000000000000000000000000000
Ciphertext:               66ddfb80ad5be69cb3368d07b10db58c2b9e86ba8278c3eb2a07fa0c240dd27dd2a87906345597bad2407a4f83556cc28f8778c779792fd391109b7ffe8a0f883b9ecd7a3f137203e73a5bad6b85250455
Reciphers for ciphertext: 0
Decipheredtext:           0000000000000000000000000000000000
RESULT CIPHER-DECIPHER: -----OK-----


Test: 61
Hash algorithm: 2
Symmetric key bit length: 128
IV bit length:            64
Plaintext bit length:     136
Symmetric key:            00000000000000000000000000000000
IV:                       3d3d3d3d3d3d3d3d
Plaintext:                0000000000000000000000000000000000
Ciphertext:               17879629550fec6e08f8339a609e7fd68b1b155339714b00b3ee041d7c95b6ee8ec3248e03adffb7bdf9344d28090e37d2
Reciphers for ciphertext: 0
Decipheredtext:           0000000000000000000000000000000000
RESULT CIPHER-DECIPHER: -----OK-----


Test: 62
Hash algorithm: 6
Symmetric key bit length: 128
IV bit length:            64
Plaintext bit length:     136
Symmetric key:            00000000000000000000000000000000
IV:                       3e3e3e3e3e3e3e3e
Plaintext:                0000000000000000000000000000000000
Ciphertext:               dbeb3e6b09f2de6f19ff90a8e75d1218eac393f0bf5e425cfaff8a8b13f23b6432533b4f96e2701f3ca300c6910353e522
Reciphers for ciphertext: 0
Decipheredtext:           0000000000000000000000000000000000
RESULT CIPHER-DECIPHER: -----OK-----


Test: 63
Hash algorithm: 9
Symmetric key bit length: 128
IV bit length:            64
Plaintext bit length:     136
Symmetric key:            00000000000000000000000000000000
IV:                       3f3f3f3f3f3f3f3f
Plaintext:                0000000000000000000000000000000000
Ciphertext:               257cbf510b2d65b88465252b696caca4689290ed25e210cd835ca52343dfbfd536d2a1782dfb3846a9f153d5e390bb026f
Reciphers for ciphertext: 0
Decipheredtext:           0000000000000000000000000000000000
RESULT CIPHER-DECIPHER: -----OK-----


Test: 64
Hash algorithm: 10
Symmetric key bit length: 128
IV bit length:            64
Plaintext bit length:     136
Symmetric key:            00000000000000000000000000000000
IV:                       4040404040404040
Plaintext:                0000000000000000000000000000000000
Ciphertext:               e2d932d5c42acd34611b584da4e2a8f3b78b719ed1b54ed611449b589df5abd6155aff07095a9e126cbbe65afd21b47d655ecfd1516c165c1e
Reciphers for ciphertext: 0
Decipheredtext:           0000000000000000000000000000000000
RESULT CIPHER-DECIPHER: -----OK-----


Test: 65
Hash algorithm: 10
Symmetric key bit length: 128
IV bit length:            64
Plaintext bit length:     136
Symmetric key:            00000000000000000000000000000000
IV:                       4141414141414141
Plaintext:                0000000000000000000000000000000000
Ciphertext:               6316bf0ea1aa53e60138d12832ea65d014c7b0204a426a9bdcc314b845c46f0e949572dc6cda00c00c986f3f6b29795ec6120e6fca9b3211d3
Reciphers for ciphertext: 0
Decipheredtext:           0000000000000000000000000000000000
RESULT CIPHER-DECIPHER: -----OK-----


Test: 66
Hash algorithm: 12
Symmetric key bit length: 128
IV bit length:            64
Plaintext bit length:     136
Symmetric key:            00000000000000000000000000000000
IV:                       4242424242424242
Plaintext:                0000000000000000000000000000000000
Ciphertext:               9edc66d7a0ec457a9670144feb18d6602c8f5bcfc2d7e73e4a195c8b9be811af00
Reciphers for ciphertext: 0
Decipheredtext:           0000000000000000000000000000000000
RESULT CIPHER-DECIPHER: -----OK-----


Test: 67
Hash algorithm: 2
Symmetric key bit length: 128
IV bit length:            64
Plaintext bit length:     136
Symmetric key:            00000000000000000000000000000000
IV:                       4343434343434343
Plaintext:                0000000000000000000000000000000000
Ciphertext:               b4cb7f07b950c9e7d03a4a371edaf4cce0846fa9cb3fcba765e5ba92b69274362d8fcda0eff2da3e653b4de0564d852db9
Reciphers for ciphertext: 0
Decipheredtext:           0000000000000000000000000000000000
RESULT CIPHER-DECIPHER: -----OK-----


Test: 68
Hash algorithm: 5
Symmetric key bit length: 128
IV bit length:            64
Plaintext bit length:     136
Symmetric key:            00000000000000000000000000000000
IV:                       4444444444444444
Plaintext:                0000000000000000000000000000000000
Ciphertext:               f994756a00af047b8dc024ec934fce340f1e0be465f277da4ecc7eee4b6162eba23a4a66d62a4fa28c72c1c714
Reciphers for ciphertext: 0
Decipheredtext:           0000000000000000000000000000000000
RESULT CIPHER-DECIPHER: -----OK-----


Test: 69
Hash algorithm: 5
Symmetric key bit length: 128
IV bit length:            64
Plaintext bit length:     136
Symmetric key:            00000000000000000000000000000000
IV:                       4545454545454545
Plaintext:                0000000000000000000000000000000000
Ciphertext:               3b6b43ee3b11b4eca1e79b6549515506820a31a90159c6e53030041746f062d860c57ce2ed94ff35a0557e4ece
Reciphers for ciphertext: 0
Decipheredtext:           0000000000000000000000000000000000
RESULT CIPHER-DECIPHER: -----OK-----


Test: 70
Hash algorithm: 4
Symmetric key bit length: 128
IV bit length:            64
Plaintext bit length:     136
Symmetric key:            00000000000000000000000000000000
IV:                       4646464646464646
Plaintext:                0000000000000000000000000000000000
Ciphertext:               866fc6a41832dd8ff2fad8dcd9e096007554ef724549df4cf7c97b30c4a92dd4321a4422813caca9938c2f94ebb84f4ed14d110fbe4833744cde1a431e2ef021973b660a0eafd3ca232d2db38cacdfac8e
Reciphers for ciphertext: 0
Decipheredtext:           0000000000000000000000000000000000
RESULT CIPHER-DECIPHER: -----OK-----


Test: 71
Hash algorithm: 5
Symmetric key bit length: 128
IV bit length:            64
Plaintext bit length:     136
Symmetric key:            00000000000000000000000000000000
IV:                       4747474747474747
Plaintext:                0000000000000000000000000000000000
Ciphertext:               b634e398a3c695c50b3d55c58d92d2227e86c620efb18bd516a0a8b5eee80628ed9adc947543de1c0a8fb0ee0a
Reciphers for ciphertext: 0
Decipheredtext:           0000000000000000000000000000000000
RESULT CIPHER-DECIPHER: -----OK-----


Test: 72
Hash algorithm: 4
Symmetric key bit length: 128
IV bit length:            64
Plaintext bit length:     136
Symmetric key:            00000000000000000000000000000000
IV:                       4848484848484848
Plaintext:                0000000000000000000000000000000000
Ciphertext:               75734009b59060e719157b61ea134bc305b10abbd2a78a71d336e2f0c429be41c106c28f2c9e11c178638c29d84b928da1a8f4c629a66649682183831eae63b43a6992540308c5fd5231a4328044294c0c
Reciphers for ciphertext: 0
Decipheredtext:           0000000000000000000000000000000000
RESULT CIPHER-DECIPHER: -----OK-----


Test: 73
Hash algorithm: 2
Symmetric key bit length: 128
IV bit length:            64
Plaintext bit length:     136
Symmetric key:            00000000000000000000000000000000
IV:                       4949494949494949
Plaintext:                0000000000000000000000000000000000
Ciphertext:               8ded8e0d927c18a940dd38ade7156911c0fe337d57199be960d2b61773c94e6d14a93caac4de0b70f5dc3f7aaf8218f099
Reciphers for ciphertext: 0
Decipheredtext:           0000000000000000000000000000000000
RESULT CIPHER-DECIPHER: -----OK-----


Test: 74
Hash algorithm: 6
Symmetric key bit length: 128
IV bit length:            64
Plaintext bit length:     136
Symmetric key:            00000000000000000000000000000000
IV:                       4a4a4a4a4a4a4a4a
Plaintext:                0000000000000000000000000000000000
Ciphertext:               c333d49b1a12d017f9dc305af88bca277990e511f5c71fc45587ab7c43a8a0482a8bd1bf85027e67dc80a0348ed58bdab1
Reciphers for ciphertext: 0
Decipheredtext:           0000000000000000000000000000000000
RESULT CIPHER-DECIPHER: -----OK-----


Test: 75
Hash algorithm: 4
Symmetric key bit length: 128
IV bit length:            64
Plaintext bit length:     136
Symmetric key:            00000000000000000000000000000000
IV:                       4b4b4b4b4b4b4b4b
Plaintext:                0000000000000000000000000000000000
Ciphertext:               1d06460d82f281d5f4f627d4a3ecf10e0ef46ef03cc21ecf6aeeb44f1355a6d7a973c48b1bfcf0f39580d09c91b42840aaed908dc7c3f2f7d1f9d53cc9d27b226bc4a6c40807f363a720abcc9bf282ac2d
Reciphers for ciphertext: 0
Decipheredtext:           0000000000000000000000000000000000
RESULT CIPHER-DECIPHER: -----OK-----


Test: 76
Hash algorithm: 5
Symmetric key bit length: 128
IV bit length:            64
Plaintext bit length:     136
Symmetric key:            00000000000000000000000000000000
IV:                       4c4c4c4c4c4c4c4c
Plaintext:                0000000000000000000000000000000000
Ciphertext:               0825bcc2562e9c2e58d5cf4d797dd3b42b8fea1f937cc4fe711247c68d820375538b83ce80abd7f759672a66fe
Reciphers for ciphertext: 0
Decipheredtext:           0000000000000000000000000000000000
RESULT CIPHER-DECIPHER: -----OK-----


Test: 77
Hash algorithm: 10
Symmetric key bit length: 128
IV bit length:            64
Plaintext bit length:     136
Symmetric key:            00000000000000000000000000000000
IV:                       4d4d4d4d4d4d4d4d
Plaintext:                0000000000000000000000000000000000
Ciphertext:               1fd2a7365c652b2efc550ba8bdf01cc4a8d528002a11da6cfc76e13f9d25a0a1e8516ae491157808f1f5b5bfe433004a7a00964faac882e6f3
Reciphers for ciphertext: 0
Decipheredtext:           0000000000000000000000000000000000
RESULT CIPHER-DECIPHER: -----OK-----


Test: 78
Hash algorithm: 3
Symmetric key bit length: 128
IV bit length:            64
Plaintext bit length:     136
Symmetric key:            00000000000000000000000000000000
IV:                       4e4e4e4e4e4e4e4e
Plaintext:                0000000000000000000000000000000000
Ciphertext:               c5a0087e30d48238202de16c2ef7ca202a801d8801291f43c5664996a375d0d0da5aa86ae3d9e2f353055499a50016cbf4ece653fabbccf4d06b94b6c619388887
Reciphers for ciphertext: 0
Decipheredtext:           0000000000000000000000000000000000
RESULT CIPHER-DECIPHER: -----OK-----


Test: 79
Hash algorithm: 10
Symmetric key bit length: 128
IV bit length:            64
Plaintext bit length:     136
Symmetric key:            00000000000000000000000000000000
IV:                       4f4f4f4f4f4f4f4f
Plaintext:                0000000000000000000000000000000000
Ciphertext:               d1eeab1cd306f5da4feb63f33322a6a2e246ceb483cdeef9fd1d3572665e295f266d66ce1e76a6fc424bdde46ae1ba2c309370fb0314b673f2
Reciphers for ciphertext: 0
Decipheredtext:           0000000000000000000000000000000000
RESULT CIPHER-DECIPHER: -----OK-----


Test: 80
Hash algorithm: 4
Symmetric key bit length: 128
IV bit length:            64
Plaintext bit length:     136
Symmetric key:            00000000000000000000000000000000
IV:                       5050505050505050
Plaintext:                0000000000000000000000000000000000
Ciphertext:               5e223cecf771e8748240e1d595c992b57ad3b0c409a17d3549e1bdc881791e30ea57be6a6e7f9952e336169da7914bfbdeca4eb9f2a0910df2f6dcbb5bfec3c52f50c04f1a5de8941bf28755ba3e711c0f
Reciphers for ciphertext: 0
Decipheredtext:           0000000000000000000000000000000000
RESULT CIPHER-DECIPHER: -----OK-----


Test: 81
Hash algorithm: 7
Symmetric key bit length: 128
IV bit length:            64
Plaintext bit length:     136
Symmetric key:            00000000000000000000000000000000
IV:                       5151515151515151
Plaintext:                0000000000000000000000000000000000
Ciphertext:               101f1180a4d5399b0812800c061ca3fc3a8b4d87bd4fb22c4e4a6aeb351eb4916f
Reciphers for ciphertext: 0
Decipheredtext:           0000000000000000000000000000000000
RESULT CIPHER-DECIPHER: -----OK-----


Test: 82
Hash algorithm: 7
Symmetric key bit length: 128
IV bit length:            64
Plaintext bit length:     136
Symmetric key:            00000000000000000000000000000000
IV:                       5252525252525252
Plaintext:                0000000000000000000000000000000000
Ciphertext:               dbd684e98d23d394bd1016b692f4f0bdd4a43902aa05abc55493869a1582c3efa4
Reciphers for ciphertext: 0
Decipheredtext:           0000000000000000000000000000000000
RESULT CIPHER-DECIPHER: -----OK-----


Test: 83
Hash algorithm: 9
Symmetric key bit length: 128
IV bit length:            64
Plaintext bit length:     136
Symmetric key:            00000000000000000000000000000000
IV:                       5353535353535353
Plaintext:                0000000000000000000000000000000000
Ciphertext:               7bd325386274b1f84ad2c8b34a6edd4ba891f0faec2ee3385a2032e38a8d16b3687d3b1144a2ec066746be4dc092caedaf
Reciphers for ciphertext: 0
Decipheredtext:           0000000000000000000000000000000000
RESULT CIPHER-DECIPHER: -----OK-----


Test: 84
Hash algorithm: 9
Symmetric key bit length: 128
IV bit length:            64
Plaintext bit length:     136
Symmetric key:            00000000000000000000000000000000
IV:                       5454545454545454
Plaintext:                0000000000000000000000000000000000
Ciphertext:               871d4c6aa1bacc3ae061c5c3d1c482a47463a68a25136fa892d0f1cf90ce0a3694b35243876c91c4cdf5b33d5b38950273
Reciphers for ciphertext: 0
Decipheredtext:           0000000000000000000000000000000000
RESULT CIPHER-DECIPHER: -----OK-----


Test: 85
Hash algorithm: 1
Symmetric key bit length: 128
IV bit length:            64
Plaintext bit length:     136
Symmetric key:            00000000000000000000000000000000
IV:                       5555555555555555
Plaintext:                0000000000000000000000000000000000
Ciphertext:               ea4a9dff8124089164defb13a6d8eaa314a49c9c984939a92c19770a094fa682e80b98f03712bc98d9bd1d70c1
Reciphers for ciphertext: 0
Decipheredtext:           0000000000000000000000000000000000
RESULT CIPHER-DECIPHER: -----OK-----


Test: 86
Hash algorithm: 4
Symmetric key bit length: 128
IV bit length:            64
Plaintext bit length:     136
Symmetric key:            00000000000000000000000000000000
IV:                       5656565656565656
Plaintext:                0000000000000000000000000000000000
Ciphertext:               3597b79914cd21b5332dcd3767f31b7297d6825c608ded7856b6563b636dbcc881e2351f8dc35093525b3a7f55abc23c33cf7c219b8c0140eda13748b9ea613d777c77132af5e270ffa8950efbc756c9c5
Reciphers for ciphertext: 0
Decipheredtext:           0000000000000000000000000000000000
RESULT CIPHER-DECIPHER: -----OK-----


Test: 87
Hash algorithm: 13
Symmetric key bit length: 128
IV bit length:            64
Plaintext bit length:     136
Symmetric key:            00000000000000000000000000000000
IV:                       5757575757575757
Plaintext:                0000000000000000000000000000000000
Ciphertext:               3a236ff8948c2d75bfb915a21a874b4a3d72eab0b5bedf3d781f6d9ecc6a4c2c9b
Reciphers for ciphertext: 0
Decipheredtext:           0000000000000000000000000000000000
RESULT CIPHER-DECIPHER: -----OK-----


Test: 88
Hash algorithm: 12
Symmetric key bit length: 128
IV bit length:            64
Plaintext bit length:     136
Symmetric key:            00000000000000000000000000000000
IV:                       5858585858585858
Plaintext:                0000000000000000000000000000000000
Ciphertext:               70cdc6d3bffe3761c240be8c1f3153c0bb01e698447dcaadafccaf1c5cccfdbaee
Reciphers for ciphertext: 0
Decipheredtext:           0000000000000000000000000000000000
RESULT CIPHER-DECIPHER: -----OK-----


Test: 89
Hash algorithm: 10
Symmetric key bit length: 128
IV bit length:            64
Plaintext bit length:     136
Symmetric key:            00000000000000000000000000000000
IV:                       5959595959595959
Plaintext:                0000000000000000000000000000000000
Ciphertext:               c7f64e465b7c85d0c5cf8a6fb0825e2e294b19eef4d3593267f503d5f8a36c5f30758394960cd6f6c86f3478e94142a0fb9ea7a1740a01b868
Reciphers for ciphertext: 0
Decipheredtext:           0000000000000000000000000000000000
RESULT CIPHER-DECIPHER: -----OK-----


Test: 90
Hash algorithm: 0
Symmetric key bit length: 128
IV bit length:            64
Plaintext bit length:     136
Symmetric key:            00000000000000000000000000000000
IV:                       5a5a5a5a5a5a5a5a
Plaintext:                0000000000000000000000000000000000
Ciphertext:               52b0a1273034d52ccc494c5bbc6bd60acba9d9bcd744bddce1806853c5b4120c4ef08c968e
Reciphers for ciphertext: 0
Decipheredtext:           0000000000000000000000000000000000
RESULT CIPHER-DECIPHER: -----OK-----


Test: 91
Hash algorithm: 6
Symmetric key bit length: 128
IV bit length:            64
Plaintext bit length:     136
Symmetric key:            00000000000000000000000000000000
IV:                       5b5b5b5b5b5b5b5b
Plaintext:                0000000000000000000000000000000000
Ciphertext:               ceba25eb48d2966760479a12dc750604dfbf2ae0f4d3775d2206b58da90a21c2270220cfd7c23817451b0a7caa2b47f917
Reciphers for ciphertext: 0
Decipheredtext:           0000000000000000000000000000000000
RESULT CIPHER-DECIPHER: -----OK-----


Test: 92
Hash algorithm: 6
Symmetric key bit length: 128
IV bit length:            64
Plaintext bit length:     136
Symmetric key:            00000000000000000000000000000000
IV:                       5c5c5c5c5c5c5c5c
Plaintext:                0000000000000000000000000000000000
Ciphertext:               ede868fafb7bb51e0b263bd2cc58ec5f9be55f6fe78cd0ec46f2dcad49f6e91e04506dde646b1b6e2e7aabbcba06ada253
Reciphers for ciphertext: 0
Decipheredtext:           0000000000000000000000000000000000
RESULT CIPHER-DECIPHER: -----OK-----


Test: 93
Hash algorithm: 4
Symmetric key bit length: 128
IV bit length:            64
Plaintext bit length:     136
Symmetric key:            00000000000000000000000000000000
IV:                       5d5d5d5d5d5d5d5d
Plaintext:                0000000000000000000000000000000000
Ciphertext:               7c6e499f951f8330feeb330c7cef90d4bc34d1b9ea0c1de1e0094a107e43585dc81bcb190c11f2169f9dc4444eb7499a182d2fc4110df1d95b1e2b63a4c485a8d6a6a339202a68dfd86722e05d0b1e9f75
Reciphers for ciphertext: 0
Decipheredtext:           0000000000000000000000000000000000
RESULT CIPHER-DECIPHER: -----OK-----


Test: 94
Hash algorithm: 1
Symmetric key bit length: 128
IV bit length:            64
Plaintext bit length:     136
Symmetric key:            00000000000000000000000000000000
IV:                       5e5e5e5e5e5e5e5e
Plaintext:                0000000000000000000000000000000000
Ciphertext:               fe5b468aea6a246122d3546dbf9d7c4d4d49bbba3ea811a958e86c5e03eccd4efc1a43855c5c90689fb0b20ed8
Reciphers for ciphertext: 0
Decipheredtext:           0000000000000000000000000000000000
RESULT CIPHER-DECIPHER: -----OK-----


Test: 95
Hash algorithm: 10
Symmetric key bit length: 128
IV bit length:            64
Plaintext bit length:     136
Symmetric key:            00000000000000000000000000000000
IV:                       5f5f5f5f5f5f5f5f
Plaintext:                0000000000000000000000000000000000
Ciphertext:               bbe12afe6a085fd14c4bcb60fe36c9b1538edc289cf2e804bee2037032f0b0e74c62e72ca7780cf741eb7577a7f5d53f815b62671c2bb08eb1
Reciphers for ciphertext: 0
Decipheredtext:           0000000000000000000000000000000000
RESULT CIPHER-DECIPHER: -----OK-----


Test: 96
Hash algorithm: 12
Symmetric key bit length: 128
IV bit length:            64
Plaintext bit length:     136
Symmetric key:            00000000000000000000000000000000
IV:                       6060606060606060
Plaintext:                0000000000000000000000000000000000
Ciphertext:               d8a08184aceac193d911ef79fd380349c326ea0c95ab908e53b657af1dded13846
Reciphers for ciphertext: 0
Decipheredtext:           0000000000000000000000000000000000
RESULT CIPHER-DECIPHER: -----OK-----


Test: 97
Hash algorithm: 5
Symmetric key bit length: 128
IV bit length:            64
Plaintext bit length:     136
Symmetric key:            00000000000000000000000000000000
IV:                       6161616161616161
Plaintext:                0000000000000000000000000000000000
Ciphertext:               c497c3f7cc403f4e3d317bb8bf381391df907013fd64bec86780f5d56a1be7999f39fcfb1ac574973c839e9338
Reciphers for ciphertext: 0
Decipheredtext:           0000000000000000000000000000000000
RESULT CIPHER-DECIPHER: -----OK-----


Test: 98
Hash algorithm: 13
Symmetric key bit length: 128
IV bit length:            64
Plaintext bit length:     136
Symmetric key:            00000000000000000000000000000000
IV:                       6262626262626262
Plaintext:                0000000000000000000000000000000000
Ciphertext:               7a3add35e8f478d19af341c7168f9708d7649f2ae03a659d89034cd86b669571db
Reciphers for ciphertext: 0
Decipheredtext:           0000000000000000000000000000000000
RESULT CIPHER-DECIPHER: -----OK-----


Test: 99
Hash algorithm: 3
Symmetric key bit length: 128
IV bit length:            64
Plaintext bit length:     136
Symmetric key:            00000000000000000000000000000000
IV:                       6363636363636363
Plaintext:                0000000000000000000000000000000000
Ciphertext:               cb91a70bb6639790bd70871c3b09fe9221379caf2722c335efc5197b8189d736d46b071f656ef75bce5832e9b0fe2279ff5b6774dcb01082fac8c45be4e53f6ef9
Reciphers for ciphertext: 1
Decipheredtext:           0000000000000000000000000000000000
RESULT CIPHER-DECIPHER: -----OK-----


Test: 100
Hash algorithm: 2
Symmetric key bit length: 128
IV bit length:            64
Plaintext bit length:     136
Symmetric key:            00000000000000000000000000000000
IV:                       6464646464646464
Plaintext:                0000000000000000000000000000000000
Ciphertext:               62b11f85b261aa9e3273c154916f8777ab48b18486e2467a65efd8f5dfc8cca5fbf5ad22e4c3b9478772c683d9f8f696f2
Reciphers for ciphertext: 0
Decipheredtext:           0000000000000000000000000000000000
RESULT CIPHER-DECIPHER: -----OK-----


Test: 101
Hash algorithm: 11
Symmetric key bit length: 128
IV bit length:            64
Plaintext bit length:     136
Symmetric key:            00000000000000000000000000000000
IV:                       6565656565656565
Plaintext:                0000000000000000000000000000000000
Ciphertext:               39c4764e97b5d2edde4ed546c65b41ddcac2573ab3093aeea8ce23f70a13d6d9c7
Reciphers for ciphertext: 0
Decipheredtext:           0000000000000000000000000000000000
RESULT CIPHER-DECIPHER: -----OK-----


Test: 102
Hash algorithm: 7
Symmetric key bit length: 128
IV bit length:            64
Plaintext bit length:     136
Symmetric key:            00000000000000000000000000000000
IV:                       6666666666666666
Plaintext:                0000000000000000000000000000000000
Ciphertext:               3f85f9210eba871263ed2ba7ccbd8d45cbcaa456475c2ad9d3da9286eb2c246e40
Reciphers for ciphertext: 0
Decipheredtext:           0000000000000000000000000000000000
RESULT CIPHER-DECIPHER: -----OK-----


Test: 103
Hash algorithm: 2
Symmetric key bit length: 128
IV bit length:            64
Plaintext bit length:     136
Symmetric key:            00000000000000000000000000000000
IV:                       6767676767676767
Plaintext:                0000000000000000000000000000000000
Ciphertext:               10ad9e09cb9b8f54b771221c7a8cf8944c1b24ceefe249ae3755fa2b352b7c9b89e92cae9d399c8d027025cb321b897515
Reciphers for ciphertext: 0
Decipheredtext:           0000000000000000000000000000000000
RESULT CIPHER-DECIPHER: -----OK-----


Test: 104
Hash algorithm: 6
Symmetric key bit length: 128
IV bit length:            64
Plaintext bit length:     136
Symmetric key:            00000000000000000000000000000000
IV:                       6868686868686868
Plaintext:                0000000000000000000000000000000000
Ciphertext:               97821949dd46e88f709e10c7bb764dde6b98ae83079828e4c90c7e6642575c5e7e3a1c6d425646ff55c280a9cd280c23a3
Reciphers for ciphertext: 0
Decipheredtext:           0000000000000000000000000000000000
RESULT CIPHER-DECIPHER: -----OK-----


Test: 105
Hash algorithm: 12
Symmetric key bit length: 128
IV bit length:            64
Plaintext bit length:     136
Symmetric key:            00000000000000000000000000000000
IV:                       6969696969696969
Plaintext:                0000000000000000000000000000000000
Ciphertext:               db6e1694c8563ff564e274e37ab5b8a73659e03b1500a4497a5ade868280e14d45
Reciphers for ciphertext: 0
Decipheredtext:           0000000000000000000000000000000000
RESULT CIPHER-DECIPHER: -----OK-----


Test: 106
Hash algorithm: 9
Symmetric key bit length: 128
IV bit length:            64
Plaintext bit length:     136
Symmetric key:            00000000000000000000000000000000
IV:                       6a6a6a6a6a6a6a6a
Plaintext:                0000000000000000000000000000000000
Ciphertext:               5e80a316d143555b78409295c3a7f6289a9107eba489d34138a213bd2f35face4d2ebd3ff79508a555d4e46b495be18e9d
Reciphers for ciphertext: 0
Decipheredtext:           0000000000000000000000000000000000
RESULT CIPHER-DECIPHER: -----OK-----


Test: 107
Hash algorithm: 7
Symmetric key bit length: 128
IV bit length:            64
Plaintext bit length:     136
Symmetric key:            00000000000000000000000000000000
IV:                       6b6b6b6b6b6b6b6b
Plaintext:                0000000000000000000000000000000000
Ciphertext:               fa1b0c1acee0a2854b1505b1d1284d384ad1e00ab9e3efeebdca6353c8128f3f85
Reciphers for ciphertext: 0
Decipheredtext:           0000000000000000000000000000000000
RESULT CIPHER-DECIPHER: -----OK-----


Test: 108
Hash algorithm: 3
Symmetric key bit length: 128
IV bit length:            64
Plaintext bit length:     136
Symmetric key:            00000000000000000000000000000000
IV:                       6c6c6c6c6c6c6c6c
Plaintext:                0000000000000000000000000000000000
Ciphertext:               0e05d05097e3af9c2ec27db2fc12f3b4e8acdd4496be71f22b44491b6a31f33b11ff704444eecf575deac84777e52f5f36c0269f6d2ca2453e49943b0f5d1b6394
Reciphers for ciphertext: 0
Decipheredtext:           0000000000000000000000000000000000
RESULT CIPHER-DECIPHER: -----OK-----


Test: 109
Hash algorithm: 6
Symmetric key bit length: 128
IV bit length:            64
Plaintext bit length:     136
Symmetric key:            00000000000000000000000000000000
IV:                       6d6d6d6d6d6d6d6d
Plaintext:                0000000000000000000000000000000000
Ciphertext:               3560d3211cc9566f31efe2a1eed00ae4c27376d362967490f60553ef964398f7dcd8d60583d9f81f14b372cf988e4b190a
Reciphers for ciphertext: 0
Decipheredtext:           0000000000000000000000000000000000
RESULT CIPHER-DECIPHER: -----OK-----


Test: 110
Hash algorithm: 10
Symmetric key bit length: 128
IV bit length:            64
Plaintext bit length:     136
Symmetric key:            00000000000000000000000000000000
IV:                       6e6e6e6e6e6e6e6e
Plaintext:                0000000000000000000000000000000000
Ciphertext:               9956155030440abe5267c2d5849441d89a696ebe34529e8f5852acbb7e3cb8ba6ed5d882fd3459985fc77cc2dd575d5648bcd0f1b48bc60557
Reciphers for ciphertext: 0
Decipheredtext:           0000000000000000000000000000000000
RESULT CIPHER-DECIPHER: -----OK-----


Test: 111
Hash algorithm: 11
Symmetric key bit length: 128
IV bit length:            64
Plaintext bit length:     136
Symmetric key:            00000000000000000000000000000000
IV:                       6f6f6f6f6f6f6f6f
Plaintext:                0000000000000000000000000000000000
Ciphertext:               3a0c96747725eee48f47a178b38955f850c60842da8b3b0106b78680d26c3edac4
Reciphers for ciphertext: 0
Decipheredtext:           0000000000000000000000000000000000
RESULT CIPHER-DECIPHER: -----OK-----


Test: 112
Hash algorithm: 7
Symmetric key bit length: 128
IV bit length:            64
Plaintext bit length:     136
Symmetric key:            00000000000000000000000000000000
IV:                       7070707070707070
Plaintext:                0000000000000000000000000000000000
Ciphertext:               7f9c6d4d184f28f453263753e3e81271679a85b883c34184f43408dae1f65a2900
Reciphers for ciphertext: 0
Decipheredtext:           0000000000000000000000000000000000
RESULT CIPHER-DECIPHER: -----OK-----


Test: 113
Hash algorithm: 0
Symmetric key bit length: 128
IV bit length:            64
Plaintext bit length:     136
Symmetric key:            00000000000000000000000000000000
IV:                       7171717171717171
Plaintext:                0000000000000000000000000000000000
Ciphertext:               39795d5b3d85fd0863d6b52ce4117d229b5b48558dfbb5bcd669862e8f971c63253970ea83
Reciphers for ciphertext: 0
Decipheredtext:           0000000000000000000000000000000000
RESULT CIPHER-DECIPHER: -----OK-----


Test: 114
Hash algorithm: 7
Symmetric key bit length: 128
IV bit length:            64
Plaintext bit length:     136
Symmetric key:            00000000000000000000000000000000
IV:                       7272727272727272
Plaintext:                0000000000000000000000000000000000
Ciphertext:               acac90647f805a0e444d6cfd0964d52f6257e2774bf78af26482dc50d6e10cbcd3
Reciphers for ciphertext: 0
Decipheredtext:           0000000000000000000000000000000000
RESULT CIPHER-DECIPHER: -----OK-----


Test: 115
Hash algorithm: 9
Symmetric key bit length: 128
IV bit length:            64
Plaintext bit length:     136
Symmetric key:            00000000000000000000000000000000
IV:                       7373737373737373
Plaintext:                0000000000000000000000000000000000
Ciphertext:               f12a2d3be5b337f302bbfa5a03ff783d7413f9cea7c2ce6110c3afb2ab5e15cbe2843312c3656a0d2f2f8ca489036f9b73
Reciphers for ciphertext: 0
Decipheredtext:           0000000000000000000000000000000000
RESULT CIPHER-DECIPHER: -----OK-----


Test: 116
Hash algorithm: 4
Symmetric key bit length: 128
IV bit length:            64
Plaintext bit length:     136
Symmetric key:            00000000000000000000000000000000
IV:                       7474747474747474
Plaintext:                0000000000000000000000000000000000
Ciphertext:               0f5ee4249a6bd2391bc2bf4efc12a764575d336899dc2301b4e493577b692fdfbb2b66a20365a31f7ab44806ce4a7e2af344cd1562ddcf390ff3f224a1eef22a6fe74575c82f4d019fa4151ab1474d6136
Reciphers for ciphertext: 0
Decipheredtext:           0000000000000000000000000000000000
RESULT CIPHER-DECIPHER: -----OK-----


Test: 117
Hash algorithm: 0
Symmetric key bit length: 128
IV bit length:            64
Plaintext bit length:     136
Symmetric key:            00000000000000000000000000000000
IV:                       7575757575757575
Plaintext:                0000000000000000000000000000000000
Ciphertext:               b6f77a3b067aaee2067a4a3b6f2368b2d7d42edaefbd4327a481b9de16d77636aab7578ab8
Reciphers for ciphertext: 0
Decipheredtext:           0000000000000000000000000000000000
RESULT CIPHER-DECIPHER: -----OK-----


Test: 118
Hash algorithm: 13
Symmetric key bit length: 128
IV bit length:            64
Plaintext bit length:     136
Symmetric key:            00000000000000000000000000000000
IV:                       7676767676767676
Plaintext:                0000000000000000000000000000000000
Ciphertext:               bfa8f3aa0583cdadf20a5ca86aab59de7e3459bc844c87a87e11fe2828875fb81e
Reciphers for ciphertext: 0
Decipheredtext:           0000000000000000000000000000000000
RESULT CIPHER-DECIPHER: -----OK-----


Test: 119
Hash algorithm: 7
Symmetric key bit length: 128
IV bit length:            64
Plaintext bit length:     136
Symmetric key:            00000000000000000000000000000000
IV:                       7777777777777777
Plaintext:                0000000000000000000000000000000000
Ciphertext:               9b015bca6d6ad2bdf57dd9df54e89e665e3b42503de913ead690795879973e60e4
Reciphers for ciphertext: 0
Decipheredtext:           0000000000000000000000000000000000
RESULT CIPHER-DECIPHER: -----OK-----


Test: 120
Hash algorithm: 13
Symmetric key bit length: 128
IV bit length:            64
Plaintext bit length:     136
Symmetric key:            00000000000000000000000000000000
IV:                       7878787878787878
Plaintext:                0000000000000000000000000000000000
Ciphertext:               0b90141179af7f73642a57d2aa32ff51bd1388a37c166a7672bf927242d7b22faa
Reciphers for ciphertext: 0
Decipheredtext:           0000000000000000000000000000000000
RESULT CIPHER-DECIPHER: -----OK-----


Test: 121
Hash algorithm: 13
Symmetric key bit length: 128
IV bit length:            64
Plaintext bit length:     136
Symmetric key:            00000000000000000000000000000000
IV:                       7979797979797979
Plaintext:                0000000000000000000000000000000000
Ciphertext:               0f54e1b377e3cb32763008eee14b38e8b2e155184878d185da905e2d19c08bebae
Reciphers for ciphertext: 0
Decipheredtext:           0000000000000000000000000000000000
RESULT CIPHER-DECIPHER: -----OK-----


Test: 122
Hash algorithm: 6
Symmetric key bit length: 128
IV bit length:            64
Plaintext bit length:     136
Symmetric key:            00000000000000000000000000000000
IV:                       7a7a7a7a7a7a7a7a
Plaintext:                0000000000000000000000000000000000
Ciphertext:               d4b64208c6de43c42220f8d661daac90ff94a1c2de9afd583a9dab24e571ce273d0e472c59ceedb4077c68b81784ed6d37
Reciphers for ciphertext: 0
Decipheredtext:           0000000000000000000000000000000000
RESULT CIPHER-DECIPHER: -----OK-----


Test: 123
Hash algorithm: 5
Symmetric key bit length: 128
IV bit length:            64
Plaintext bit length:     136
Symmetric key:            00000000000000000000000000000000
IV:                       7b7b7b7b7b7b7b7b
Plaintext:                0000000000000000000000000000000000
Ciphertext:               6b15cbbd7773b3f2148e6d9a2ff33e7b55a623fbdd5fa752f2eada35c9a8050a30bbf4b1a1f6f82b153c88b1a8
Reciphers for ciphertext: 0
Decipheredtext:           0000000000000000000000000000000000
RESULT CIPHER-DECIPHER: -----OK-----


Test: 124
Hash algorithm: 6
Symmetric key bit length: 128
IV bit length:            64
Plaintext bit length:     136
Symmetric key:            00000000000000000000000000000000
IV:                       7c7c7c7c7c7c7c7c
Plaintext:                0000000000000000000000000000000000
Ciphertext:               b59720a3f0fcec05216f402e765d2cbc022b1e1eecd92288d93a202c1ef538605c2f25876fec42750433d04000036d41ca
Reciphers for ciphertext: 0
Decipheredtext:           0000000000000000000000000000000000
RESULT CIPHER-DECIPHER: -----OK-----


Test: 125
Hash algorithm: 1
Symmetric key bit length: 128
IV bit length:            64
Plaintext bit length:     136
Symmetric key:            00000000000000000000000000000000
IV:                       7d7d7d7d7d7d7d7d
Plaintext:                0000000000000000000000000000000000
Ciphertext:               065eb00a186828d202841f110985f56bc6e091bcd5c648ee51ee99b38891ee53041fb505ae5e9cdbbfe7f9726e
Reciphers for ciphertext: 0
Decipheredtext:           0000000000000000000000000000000000
RESULT CIPHER-DECIPHER: -----OK-----


Test: 126
Hash algorithm: 7
Symmetric key bit length: 128
IV bit length:            64
Plaintext bit length:     136
Symmetric key:            00000000000000000000000000000000
IV:                       7e7e7e7e7e7e7e7e
Plaintext:                0000000000000000000000000000000000
Ciphertext:               f70acc40e383e6c6b73a81fe605e91f6458cf49dc7c507f6df6263222731377f88
Reciphers for ciphertext: 0
Decipheredtext:           0000000000000000000000000000000000
RESULT CIPHER-DECIPHER: -----OK-----


Test: 127
Hash algorithm: 2
Symmetric key bit length: 128
IV bit length:            64
Plaintext bit length:     136
Symmetric key:            00000000000000000000000000000000
IV:                       7f7f7f7f7f7f7f7f
Plaintext:                0000000000000000000000000000000000
Ciphertext:               12b5fa60a4da6e52fdd1e4adf50a47e6d598e19bab656b4d155543f2bd8310698bf148c7f2787d8b48d0e37abd9d36078c
Reciphers for ciphertext: 0
Decipheredtext:           0000000000000000000000000000000000
RESULT CIPHER-DECIPHER: -----OK-----


 DATA SHA1 (hexadecimal): 2ab8934b9fa2fe24beb0922547a5d3641b26d4fd

