
DiceLock 9.0.0.1

 TEST COMPONENTS:
 ----------------
 DiceLock:           DiceLockIVDigested class
 Base Stream Cipher: Salsa20_20_256 class
 Hash algorithms:     0 - Sha1 class
                      1 - Sha224 class
                      2 - Sha256 class
                      3 - Sha384 class
                      4 - Sha512 class
                      5 - Sha512_224 class
                      6 - Sha512_256 class
                      7 - Ripemd128 class
                      8 - Ripemd160 class
                      9 - Ripemd256 class
                     10 - Ripemd320 class
                     11 - MD2 class
                     12 - MD4 class
                     13 - MD5 class
 Key Modifier:       DecreaseKeyModifier_6_0_0_1 class
 Random tests:       RandomTestSuite class
                     FrequencyTest class
                     BlockFrequencyTest class
                     CumulativeSumForwardTest class
                     LongestRunOfOnesTest class
                     RunsTest class
 Random alpha:       0.001

 VECTOR TEST: Test vector 7 - Symmetric key all byte value 0xXX, IV all byte value 0xYY and plaintext all byte value 0xZZ


##### INDIVIDUAL TESTS #####

Number tests: 128


Test: 0
Hash algorithm: 13
Symmetric key bit length: 256
IV bit length:            64
Plaintext bit length:     136
Symmetric key:            0000000000000000000000000000000000000000000000000000000000000000
IV:                       ffffffffffffffff
Plaintext:                ffffffffffffffffffffffffffffffffff
Ciphertext:               de0609b58545cf081fc399c76c92c8a08a97cea04140d2943bc579bae1a442f48e
Reciphers for ciphertext: 0
Decipheredtext:           ffffffffffffffffffffffffffffffffff
RESULT CIPHER-DECIPHER: -----OK-----


Test: 1
Hash algorithm: 11
Symmetric key bit length: 256
IV bit length:            64
Plaintext bit length:     136
Symmetric key:            0101010101010101010101010101010101010101010101010101010101010101
IV:                       fefefefefefefefe
Plaintext:                fefefefefefefefefefefefefefefefefe
Ciphertext:               8fac0b3c5ab00fd4da945eb449b9362963b103b9b09f66dd7b98dd81ed4bfd50d4
Reciphers for ciphertext: 0
Decipheredtext:           fefefefefefefefefefefefefefefefefe
RESULT CIPHER-DECIPHER: -----OK-----


Test: 2
Hash algorithm: 1
Symmetric key bit length: 256
IV bit length:            64
Plaintext bit length:     136
Symmetric key:            0202020202020202020202020202020202020202020202020202020202020202
IV:                       fdfdfdfdfdfdfdfd
Plaintext:                fdfdfdfdfdfdfdfdfdfdfdfdfdfdfdfdfd
Ciphertext:               5299b298336aff159fb5693e2e595eacecaacbf6bc08a20d1612df225403f8ec123f58531a9bf84ca824b8dada
Reciphers for ciphertext: 0
Decipheredtext:           fdfdfdfdfdfdfdfdfdfdfdfdfdfdfdfdfd
RESULT CIPHER-DECIPHER: -----OK-----


Test: 3
Hash algorithm: 11
Symmetric key bit length: 256
IV bit length:            64
Plaintext bit length:     136
Symmetric key:            0303030303030303030303030303030303030303030303030303030303030303
IV:                       fcfcfcfcfcfcfcfc
Plaintext:                fcfcfcfcfcfcfcfcfcfcfcfcfcfcfcfcfc
Ciphertext:               bb0c406912dc0120c613a2cfde5e2a24ef83c1cd899051f1aab1d5758791e86910
Reciphers for ciphertext: 0
Decipheredtext:           fcfcfcfcfcfcfcfcfcfcfcfcfcfcfcfcfc
RESULT CIPHER-DECIPHER: -----OK-----


Test: 4
Hash algorithm: 8
Symmetric key bit length: 256
IV bit length:            64
Plaintext bit length:     136
Symmetric key:            0404040404040404040404040404040404040404040404040404040404040404
IV:                       fbfbfbfbfbfbfbfb
Plaintext:                fbfbfbfbfbfbfbfbfbfbfbfbfbfbfbfbfb
Ciphertext:               7131912fbd537ac36d36c19a3dad186e0cf0517b15f166ba1f4510a50ae77597082447ad8f
Reciphers for ciphertext: 0
Decipheredtext:           fbfbfbfbfbfbfbfbfbfbfbfbfbfbfbfbfb
RESULT CIPHER-DECIPHER: -----OK-----


Test: 5
Hash algorithm: 6
Symmetric key bit length: 256
IV bit length:            64
Plaintext bit length:     136
Symmetric key:            0505050505050505050505050505050505050505050505050505050505050505
IV:                       fafafafafafafafa
Plaintext:                fafafafafafafafafafafafafafafafafa
Ciphertext:               31959e7b66678c4f825925641faf958ea4685ef5d5c3f39ac94c66873abd0f825b17d6069507f09a487ecdc21cec0403e0
Reciphers for ciphertext: 0
Decipheredtext:           fafafafafafafafafafafafafafafafafa
RESULT CIPHER-DECIPHER: -----OK-----


Test: 6
Hash algorithm: 11
Symmetric key bit length: 256
IV bit length:            64
Plaintext bit length:     136
Symmetric key:            0606060606060606060606060606060606060606060606060606060606060606
IV:                       f9f9f9f9f9f9f9f9
Plaintext:                f9f9f9f9f9f9f9f9f9f9f9f9f9f9f9f9f9
Ciphertext:               fa5d03392fea8cac29b755b218059c7d392f02641b32853914e64f31c7c0f2af90
Reciphers for ciphertext: 0
Decipheredtext:           f9f9f9f9f9f9f9f9f9f9f9f9f9f9f9f9f9
RESULT CIPHER-DECIPHER: -----OK-----


Test: 7
Hash algorithm: 3
Symmetric key bit length: 256
IV bit length:            64
Plaintext bit length:     136
Symmetric key:            0707070707070707070707070707070707070707070707070707070707070707
IV:                       f8f8f8f8f8f8f8f8
Plaintext:                f8f8f8f8f8f8f8f8f8f8f8f8f8f8f8f8f8
Ciphertext:               d832be0e85c6dca36975635ed0b155554afe83724e77a641ec1e186c50b75d822c92744dc9944405b6354cda63e32298bbbb6d1b634b77e9dbdf713a0ace83a1ae
Reciphers for ciphertext: 0
Decipheredtext:           f8f8f8f8f8f8f8f8f8f8f8f8f8f8f8f8f8
RESULT CIPHER-DECIPHER: -----OK-----


Test: 8
Hash algorithm: 11
Symmetric key bit length: 256
IV bit length:            64
Plaintext bit length:     136
Symmetric key:            0808080808080808080808080808080808080808080808080808080808080808
IV:                       f7f7f7f7f7f7f7f7
Plaintext:                f7f7f7f7f7f7f7f7f7f7f7f7f7f7f7f7f7
Ciphertext:               a8ddfb373f0b1539b7edbab5c3fa058a0ba4a762b506a70883c59793bfcc2b74bd
Reciphers for ciphertext: 0
Decipheredtext:           f7f7f7f7f7f7f7f7f7f7f7f7f7f7f7f7f7
RESULT CIPHER-DECIPHER: -----OK-----


Test: 9
Hash algorithm: 13
Symmetric key bit length: 256
IV bit length:            64
Plaintext bit length:     136
Symmetric key:            0909090909090909090909090909090909090909090909090909090909090909
IV:                       f6f6f6f6f6f6f6f6
Plaintext:                f6f6f6f6f6f6f6f6f6f6f6f6f6f6f6f6f6
Ciphertext:               4794b2954877f01665786b8617ec254db7f49e7d61dc08d3b125f48e7cb82d3a94
Reciphers for ciphertext: 0
Decipheredtext:           f6f6f6f6f6f6f6f6f6f6f6f6f6f6f6f6f6
RESULT CIPHER-DECIPHER: -----OK-----


Test: 10
Hash algorithm: 6
Symmetric key bit length: 256
IV bit length:            64
Plaintext bit length:     136
Symmetric key:            0a0a0a0a0a0a0a0a0a0a0a0a0a0a0a0a0a0a0a0a0a0a0a0a0a0a0a0a0a0a0a0a
IV:                       f5f5f5f5f5f5f5f5
Plaintext:                f5f5f5f5f5f5f5f5f5f5f5f5f5f5f5f5f5
Ciphertext:               dfbb0a9e6a113bf4a6c2c9ddbb4cb7b7a24be353fe8b0efe8e51aba9a1a5636e5342897eb376126a14b9c46516f7708805
Reciphers for ciphertext: 0
Decipheredtext:           f5f5f5f5f5f5f5f5f5f5f5f5f5f5f5f5f5
RESULT CIPHER-DECIPHER: -----OK-----


Test: 11
Hash algorithm: 9
Symmetric key bit length: 256
IV bit length:            64
Plaintext bit length:     136
Symmetric key:            0b0b0b0b0b0b0b0b0b0b0b0b0b0b0b0b0b0b0b0b0b0b0b0b0b0b0b0b0b0b0b0b
IV:                       f4f4f4f4f4f4f4f4
Plaintext:                f4f4f4f4f4f4f4f4f4f4f4f4f4f4f4f4f4
Ciphertext:               7c928433fa336a630eaaa0b27530e3e573a7ae1f6f67ce0c9adac83bea756ca3851125fc48c134c155fdadb25337d3bee7
Reciphers for ciphertext: 0
Decipheredtext:           f4f4f4f4f4f4f4f4f4f4f4f4f4f4f4f4f4
RESULT CIPHER-DECIPHER: -----OK-----


Test: 12
Hash algorithm: 0
Symmetric key bit length: 256
IV bit length:            64
Plaintext bit length:     136
Symmetric key:            0c0c0c0c0c0c0c0c0c0c0c0c0c0c0c0c0c0c0c0c0c0c0c0c0c0c0c0c0c0c0c0c
IV:                       f3f3f3f3f3f3f3f3
Plaintext:                f3f3f3f3f3f3f3f3f3f3f3f3f3f3f3f3f3
Ciphertext:               5bd7f29cb76e163a4cc49ef558b1976cbda453092899cc9867b293719f899ccb74dd7f4b38
Reciphers for ciphertext: 0
Decipheredtext:           f3f3f3f3f3f3f3f3f3f3f3f3f3f3f3f3f3
RESULT CIPHER-DECIPHER: -----OK-----


Test: 13
Hash algorithm: 12
Symmetric key bit length: 256
IV bit length:            64
Plaintext bit length:     136
Symmetric key:            0d0d0d0d0d0d0d0d0d0d0d0d0d0d0d0d0d0d0d0d0d0d0d0d0d0d0d0d0d0d0d0d
IV:                       f2f2f2f2f2f2f2f2
Plaintext:                f2f2f2f2f2f2f2f2f2f2f2f2f2f2f2f2f2
Ciphertext:               6e28d3404846ecb4d25593fb17276daff3060394f2624ece39da8aa8011c967f67
Reciphers for ciphertext: 0
Decipheredtext:           f2f2f2f2f2f2f2f2f2f2f2f2f2f2f2f2f2
RESULT CIPHER-DECIPHER: -----OK-----


Test: 14
Hash algorithm: 7
Symmetric key bit length: 256
IV bit length:            64
Plaintext bit length:     136
Symmetric key:            0e0e0e0e0e0e0e0e0e0e0e0e0e0e0e0e0e0e0e0e0e0e0e0e0e0e0e0e0e0e0e0e
IV:                       f1f1f1f1f1f1f1f1
Plaintext:                f1f1f1f1f1f1f1f1f1f1f1f1f1f1f1f1f1
Ciphertext:               d71697fede8b55c0acf8a16b3ef4a847a34829b7a2de1fc36417e6be300381b5d9
Reciphers for ciphertext: 0
Decipheredtext:           f1f1f1f1f1f1f1f1f1f1f1f1f1f1f1f1f1
RESULT CIPHER-DECIPHER: -----OK-----


Test: 15
Hash algorithm: 1
Symmetric key bit length: 256
IV bit length:            64
Plaintext bit length:     136
Symmetric key:            0f0f0f0f0f0f0f0f0f0f0f0f0f0f0f0f0f0f0f0f0f0f0f0f0f0f0f0f0f0f0f0f
IV:                       f0f0f0f0f0f0f0f0
Plaintext:                f0f0f0f0f0f0f0f0f0f0f0f0f0f0f0f0f0
Ciphertext:               a18e91623c34408a9b2879fc768d06c67c2a9dab3ca82b0c082841aa040ae057007993f2866a5257f2c59e53ab
Reciphers for ciphertext: 0
Decipheredtext:           f0f0f0f0f0f0f0f0f0f0f0f0f0f0f0f0f0
RESULT CIPHER-DECIPHER: -----OK-----


Test: 16
Hash algorithm: 0
Symmetric key bit length: 256
IV bit length:            64
Plaintext bit length:     136
Symmetric key:            1010101010101010101010101010101010101010101010101010101010101010
IV:                       efefefefefefefef
Plaintext:                efefefefefefefefefefefefefefefefef
Ciphertext:               8f91175f03366fd16fbff08a3e2491ecb024add7ed75b37805631513f9662b17e8bd2bc199
Reciphers for ciphertext: 0
Decipheredtext:           efefefefefefefefefefefefefefefefef
RESULT CIPHER-DECIPHER: -----OK-----


Test: 17
Hash algorithm: 13
Symmetric key bit length: 256
IV bit length:            64
Plaintext bit length:     136
Symmetric key:            1111111111111111111111111111111111111111111111111111111111111111
IV:                       eeeeeeeeeeeeeeee
Plaintext:                eeeeeeeeeeeeeeeeeeeeeeeeeeeeeeeeee
Ciphertext:               87563aaa8337a591546f7eab177e46e69caecaa4813352ccde15d06f808e331d7e
Reciphers for ciphertext: 0
Decipheredtext:           eeeeeeeeeeeeeeeeeeeeeeeeeeeeeeeeee
RESULT CIPHER-DECIPHER: -----OK-----


Test: 18
Hash algorithm: 9
Symmetric key bit length: 256
IV bit length:            64
Plaintext bit length:     136
Symmetric key:            1212121212121212121212121212121212121212121212121212121212121212
IV:                       edededededededed
Plaintext:                ededededededededededededededededed
Ciphertext:               d699e05f8b037c8e13b1801838ba28836b2ff83565e8f9d057ddee95db1d3bbf2e4ece461573f56b7583b1d2c8cf987cd6
Reciphers for ciphertext: 0
Decipheredtext:           ededededededededededededededededed
RESULT CIPHER-DECIPHER: -----OK-----


Test: 19
Hash algorithm: 2
Symmetric key bit length: 256
IV bit length:            64
Plaintext bit length:     136
Symmetric key:            1313131313131313131313131313131313131313131313131313131313131313
IV:                       ecececececececec
Plaintext:                ececececececececececececececececec
Ciphertext:               4eb8bce6889f9e4e0bc4abe12e35785270a71cda2c83562404de885129649ea2ca6b04c1f80c395be2c98f96fc4044be00
Reciphers for ciphertext: 0
Decipheredtext:           ececececececececececececececececec
RESULT CIPHER-DECIPHER: -----OK-----


Test: 20
Hash algorithm: 6
Symmetric key bit length: 256
IV bit length:            64
Plaintext bit length:     136
Symmetric key:            1414141414141414141414141414141414141414141414141414141414141414
IV:                       ebebebebebebebeb
Plaintext:                ebebebebebebebebebebebebebebebebeb
Ciphertext:               762523bc0709c85332f12c459fc8c68999143b5459f7c85d4fffe0e54c50f1c5043976da20900b9123d72a93e9027e1aac
Reciphers for ciphertext: 0
Decipheredtext:           ebebebebebebebebebebebebebebebebeb
RESULT CIPHER-DECIPHER: -----OK-----


Test: 21
Hash algorithm: 2
Symmetric key bit length: 256
IV bit length:            64
Plaintext bit length:     136
Symmetric key:            1515151515151515151515151515151515151515151515151515151515151515
IV:                       eaeaeaeaeaeaeaea
Plaintext:                eaeaeaeaeaeaeaeaeaeaeaeaeaeaeaeaea
Ciphertext:               f19fdb6a39b345814a614d04507a763e96058a5c375df1e61731e1c1d527d6c94866d0694afca8af5d4cf4879e2072867f
Reciphers for ciphertext: 0
Decipheredtext:           eaeaeaeaeaeaeaeaeaeaeaeaeaeaeaeaea
RESULT CIPHER-DECIPHER: -----OK-----


Test: 22
Hash algorithm: 5
Symmetric key bit length: 256
IV bit length:            64
Plaintext bit length:     136
Symmetric key:            1616161616161616161616161616161616161616161616161616161616161616
IV:                       e9e9e9e9e9e9e9e9
Plaintext:                e9e9e9e9e9e9e9e9e9e9e9e9e9e9e9e9e9
Ciphertext:               f614cb2cbfd57aecf2bbde876203a3e98b4cd6552330e23362e5bca1f7fcbeb1da06373065fceca91e1099f1cc
Reciphers for ciphertext: 0
Decipheredtext:           e9e9e9e9e9e9e9e9e9e9e9e9e9e9e9e9e9
RESULT CIPHER-DECIPHER: -----OK-----


Test: 23
Hash algorithm: 2
Symmetric key bit length: 256
IV bit length:            64
Plaintext bit length:     136
Symmetric key:            1717171717171717171717171717171717171717171717171717171717171717
IV:                       e8e8e8e8e8e8e8e8
Plaintext:                e8e8e8e8e8e8e8e8e8e8e8e8e8e8e8e8e8
Ciphertext:               5d31ad9540f9b3dc7cc7e993779259e712d420df8ea516cf0d4c9768fa1a20733ddfecc426f7c39d6069103af741f82962
Reciphers for ciphertext: 0
Decipheredtext:           e8e8e8e8e8e8e8e8e8e8e8e8e8e8e8e8e8
RESULT CIPHER-DECIPHER: -----OK-----


Test: 24
Hash algorithm: 6
Symmetric key bit length: 256
IV bit length:            64
Plaintext bit length:     136
Symmetric key:            1818181818181818181818181818181818181818181818181818181818181818
IV:                       e7e7e7e7e7e7e7e7
Plaintext:                e7e7e7e7e7e7e7e7e7e7e7e7e7e7e7e7e7
Ciphertext:               ee5311d8b4a8c444eca303606ba0858df0782a44127a1a3643365c88f97c255d9850a59879ed25b9aa522281e64dc4e889
Reciphers for ciphertext: 0
Decipheredtext:           e7e7e7e7e7e7e7e7e7e7e7e7e7e7e7e7e7
RESULT CIPHER-DECIPHER: -----OK-----


Test: 25
Hash algorithm: 6
Symmetric key bit length: 256
IV bit length:            64
Plaintext bit length:     136
Symmetric key:            1919191919191919191919191919191919191919191919191919191919191919
IV:                       e6e6e6e6e6e6e6e6
Plaintext:                e6e6e6e6e6e6e6e6e6e6e6e6e6e6e6e6e6
Ciphertext:               3d05c21df095a8026e7242abdfcc07ee6fd79d3100c5805772085e1c549b9ea8f56a69838934b2d84a8788bcaf86ca2851
Reciphers for ciphertext: 0
Decipheredtext:           e6e6e6e6e6e6e6e6e6e6e6e6e6e6e6e6e6
RESULT CIPHER-DECIPHER: -----OK-----


Test: 26
Hash algorithm: 5
Symmetric key bit length: 256
IV bit length:            64
Plaintext bit length:     136
Symmetric key:            1a1a1a1a1a1a1a1a1a1a1a1a1a1a1a1a1a1a1a1a1a1a1a1a1a1a1a1a1a1a1a1a
IV:                       e5e5e5e5e5e5e5e5
Plaintext:                e5e5e5e5e5e5e5e5e5e5e5e5e5e5e5e5e5
Ciphertext:               29874b853e94687ac3a5da697cacbf7415ff3ce56595f33c431d05a3702bd8ab92d83116a4bd9995915ab35a7d
Reciphers for ciphertext: 0
Decipheredtext:           e5e5e5e5e5e5e5e5e5e5e5e5e5e5e5e5e5
RESULT CIPHER-DECIPHER: -----OK-----


Test: 27
Hash algorithm: 1
Symmetric key bit length: 256
IV bit length:            64
Plaintext bit length:     136
Symmetric key:            1b1b1b1b1b1b1b1b1b1b1b1b1b1b1b1b1b1b1b1b1b1b1b1b1b1b1b1b1b1b1b1b
IV:                       e4e4e4e4e4e4e4e4
Plaintext:                e4e4e4e4e4e4e4e4e4e4e4e4e4e4e4e4e4
Ciphertext:               9f1831c6888006b3034a0af7464656eb9ef0ae70b15c5ffafc4d739de501532460b1636702d6f1eb3dc629c65b
Reciphers for ciphertext: 0
Decipheredtext:           e4e4e4e4e4e4e4e4e4e4e4e4e4e4e4e4e4
RESULT CIPHER-DECIPHER: -----OK-----


Test: 28
Hash algorithm: 6
Symmetric key bit length: 256
IV bit length:            64
Plaintext bit length:     136
Symmetric key:            1c1c1c1c1c1c1c1c1c1c1c1c1c1c1c1c1c1c1c1c1c1c1c1c1c1c1c1c1c1c1c1c
IV:                       e3e3e3e3e3e3e3e3
Plaintext:                e3e3e3e3e3e3e3e3e3e3e3e3e3e3e3e3e3
Ciphertext:               ddf1d429b87afc909b5eb51847666bf2c2d8def10be0e1ace091e415e88323aed94b6d79699332ed90ef85ba21c4ad8f4c
Reciphers for ciphertext: 0
Decipheredtext:           e3e3e3e3e3e3e3e3e3e3e3e3e3e3e3e3e3
RESULT CIPHER-DECIPHER: -----OK-----


Test: 29
Hash algorithm: 10
Symmetric key bit length: 256
IV bit length:            64
Plaintext bit length:     136
Symmetric key:            1d1d1d1d1d1d1d1d1d1d1d1d1d1d1d1d1d1d1d1d1d1d1d1d1d1d1d1d1d1d1d1d
IV:                       e2e2e2e2e2e2e2e2
Plaintext:                e2e2e2e2e2e2e2e2e2e2e2e2e2e2e2e2e2
Ciphertext:               5f6241f1b5f493b5ffbc1d9e53ec926411e753b74944ff2d7da15893324a97c32a27e92e1cc3d12c3fbd5fc5b9076cb62d7f9eb161f7ecc1b2
Reciphers for ciphertext: 0
Decipheredtext:           e2e2e2e2e2e2e2e2e2e2e2e2e2e2e2e2e2
RESULT CIPHER-DECIPHER: -----OK-----


Test: 30
Hash algorithm: 0
Symmetric key bit length: 256
IV bit length:            64
Plaintext bit length:     136
Symmetric key:            1e1e1e1e1e1e1e1e1e1e1e1e1e1e1e1e1e1e1e1e1e1e1e1e1e1e1e1e1e1e1e1e
IV:                       e1e1e1e1e1e1e1e1
Plaintext:                e1e1e1e1e1e1e1e1e1e1e1e1e1e1e1e1e1
Ciphertext:               0ef1b3c1f72cd9acf2870b554b59dffcb02a585596c719d06864e1b344533e7efb9a64f311
Reciphers for ciphertext: 0
Decipheredtext:           e1e1e1e1e1e1e1e1e1e1e1e1e1e1e1e1e1
RESULT CIPHER-DECIPHER: -----OK-----


Test: 31
Hash algorithm: 8
Symmetric key bit length: 256
IV bit length:            64
Plaintext bit length:     136
Symmetric key:            1f1f1f1f1f1f1f1f1f1f1f1f1f1f1f1f1f1f1f1f1f1f1f1f1f1f1f1f1f1f1f1f
IV:                       e0e0e0e0e0e0e0e0
Plaintext:                e0e0e0e0e0e0e0e0e0e0e0e0e0e0e0e0e0
Ciphertext:               cd091e805218b84ca5fc6e73a9a64c49ed63411c81b8d37b0ab26707459f589351ebb478b8
Reciphers for ciphertext: 0
Decipheredtext:           e0e0e0e0e0e0e0e0e0e0e0e0e0e0e0e0e0
RESULT CIPHER-DECIPHER: -----OK-----


Test: 32
Hash algorithm: 2
Symmetric key bit length: 256
IV bit length:            64
Plaintext bit length:     136
Symmetric key:            2020202020202020202020202020202020202020202020202020202020202020
IV:                       dfdfdfdfdfdfdfdf
Plaintext:                dfdfdfdfdfdfdfdfdfdfdfdfdfdfdfdfdf
Ciphertext:               b1799544f1aa85cf4d0b54197008b889d9d412e1becbbef0bf37f5319f8a4548bbfe00634e38482a3b3c7887b5e566ab66
Reciphers for ciphertext: 0
Decipheredtext:           dfdfdfdfdfdfdfdfdfdfdfdfdfdfdfdfdf
RESULT CIPHER-DECIPHER: -----OK-----


Test: 33
Hash algorithm: 11
Symmetric key bit length: 256
IV bit length:            64
Plaintext bit length:     136
Symmetric key:            2121212121212121212121212121212121212121212121212121212121212121
IV:                       dededededededede
Plaintext:                dedededededededededededededededede
Ciphertext:               803d721bf628b24d7508064d3ea238911215b82b2fa1f2d706ad4f701bb4b4717b
Reciphers for ciphertext: 0
Decipheredtext:           dedededededededededededededededede
RESULT CIPHER-DECIPHER: -----OK-----


Test: 34
Hash algorithm: 4
Symmetric key bit length: 256
IV bit length:            64
Plaintext bit length:     136
Symmetric key:            2222222222222222222222222222222222222222222222222222222222222222
IV:                       dddddddddddddddd
Plaintext:                dddddddddddddddddddddddddddddddddd
Ciphertext:               997b23318062e83c05eefc75f2a2e89892c3ddfd59f19a3f46cccbec43f9e47275781eba68ff5c40b7821e6b65aa82dcbb7d4f686b1bb08718cdc2d8b707fa5fbf54b45ec1076ffd73486646f5f457d7b3
Reciphers for ciphertext: 0
Decipheredtext:           dddddddddddddddddddddddddddddddddd
RESULT CIPHER-DECIPHER: -----OK-----


Test: 35
Hash algorithm: 2
Symmetric key bit length: 256
IV bit length:            64
Plaintext bit length:     136
Symmetric key:            2323232323232323232323232323232323232323232323232323232323232323
IV:                       dcdcdcdcdcdcdcdc
Plaintext:                dcdcdcdcdcdcdcdcdcdcdcdcdcdcdcdcdc
Ciphertext:               90a4bc54b3ea5a7b8435f2ddfa339ad70c15d9169d3c6ad21dea91a6c37b24cb163dc646b57ae149a42593fb5221f4c551
Reciphers for ciphertext: 0
Decipheredtext:           dcdcdcdcdcdcdcdcdcdcdcdcdcdcdcdcdc
RESULT CIPHER-DECIPHER: -----OK-----


Test: 36
Hash algorithm: 8
Symmetric key bit length: 256
IV bit length:            64
Plaintext bit length:     136
Symmetric key:            2424242424242424242424242424242424242424242424242424242424242424
IV:                       dbdbdbdbdbdbdbdb
Plaintext:                dbdbdbdbdbdbdbdbdbdbdbdbdbdbdbdbdb
Ciphertext:               d44c9d2b9fa8724129181164c2d6b564b58ad5ec82153effab24f4a8f53e6080f22438faf6
Reciphers for ciphertext: 0
Decipheredtext:           dbdbdbdbdbdbdbdbdbdbdbdbdbdbdbdbdb
RESULT CIPHER-DECIPHER: -----OK-----


Test: 37
Hash algorithm: 13
Symmetric key bit length: 256
IV bit length:            64
Plaintext bit length:     136
Symmetric key:            2525252525252525252525252525252525252525252525252525252525252525
IV:                       dadadadadadadada
Plaintext:                dadadadadadadadadadadadadadadadada
Ciphertext:               79fbe979753b09ce28bb999a7aae5d69c39932bf035d4c678f7d0e28dd2e593334
Reciphers for ciphertext: 0
Decipheredtext:           dadadadadadadadadadadadadadadadada
RESULT CIPHER-DECIPHER: -----OK-----


Test: 38
Hash algorithm: 13
Symmetric key bit length: 256
IV bit length:            64
Plaintext bit length:     136
Symmetric key:            2626262626262626262626262626262626262626262626262626262626262626
IV:                       d9d9d9d9d9d9d9d9
Plaintext:                d9d9d9d9d9d9d9d9d9d9d9d9d9d9d9d9d9
Ciphertext:               4b57c2bd79969d03751b06f645b724147f6c839ca22fa37f73aca90faee24d1919
Reciphers for ciphertext: 0
Decipheredtext:           d9d9d9d9d9d9d9d9d9d9d9d9d9d9d9d9d9
RESULT CIPHER-DECIPHER: -----OK-----


Test: 39
Hash algorithm: 9
Symmetric key bit length: 256
IV bit length:            64
Plaintext bit length:     136
Symmetric key:            2727272727272727272727272727272727272727272727272727272727272727
IV:                       d8d8d8d8d8d8d8d8
Plaintext:                d8d8d8d8d8d8d8d8d8d8d8d8d8d8d8d8d8
Ciphertext:               12a31230a612158b0ca016ae71170641e225ad939aeb909bff93b55e4212f0ae55d370001362b777562c192aa53588e882
Reciphers for ciphertext: 0
Decipheredtext:           d8d8d8d8d8d8d8d8d8d8d8d8d8d8d8d8d8
RESULT CIPHER-DECIPHER: -----OK-----


Test: 40
Hash algorithm: 0
Symmetric key bit length: 256
IV bit length:            64
Plaintext bit length:     136
Symmetric key:            2828282828282828282828282828282828282828282828282828282828282828
IV:                       d7d7d7d7d7d7d7d7
Plaintext:                d7d7d7d7d7d7d7d7d7d7d7d7d7d7d7d7d7
Ciphertext:               d9d014bf33e5680cce170098923a038c8736547f49dd25569880d1269e18247b989953d5e8
Reciphers for ciphertext: 0
Decipheredtext:           d7d7d7d7d7d7d7d7d7d7d7d7d7d7d7d7d7
RESULT CIPHER-DECIPHER: -----OK-----


Test: 41
Hash algorithm: 9
Symmetric key bit length: 256
IV bit length:            64
Plaintext bit length:     136
Symmetric key:            2929292929292929292929292929292929292929292929292929292929292929
IV:                       d6d6d6d6d6d6d6d6
Plaintext:                d6d6d6d6d6d6d6d6d6d6d6d6d6d6d6d6d6
Ciphertext:               3ccb1fe89098eb6b9cd7e7b0e8d2c7a199695a475a6b975e2c022131a2ab1e9df3d36b05f6fd364326ea55f6b3a699d45e
Reciphers for ciphertext: 0
Decipheredtext:           d6d6d6d6d6d6d6d6d6d6d6d6d6d6d6d6d6
RESULT CIPHER-DECIPHER: -----OK-----


Test: 42
Hash algorithm: 8
Symmetric key bit length: 256
IV bit length:            64
Plaintext bit length:     136
Symmetric key:            2a2a2a2a2a2a2a2a2a2a2a2a2a2a2a2a2a2a2a2a2a2a2a2a2a2a2a2a2a2a2a2a
IV:                       d5d5d5d5d5d5d5d5
Plaintext:                d5d5d5d5d5d5d5d5d5d5d5d5d5d5d5d5d5
Ciphertext:               affcb2a9390d385f28e976c445752721668f2a02f0809ef714e24c313cdcacb635743af23c
Reciphers for ciphertext: 0
Decipheredtext:           d5d5d5d5d5d5d5d5d5d5d5d5d5d5d5d5d5
RESULT CIPHER-DECIPHER: -----OK-----


Test: 43
Hash algorithm: 4
Symmetric key bit length: 256
IV bit length:            64
Plaintext bit length:     136
Symmetric key:            2b2b2b2b2b2b2b2b2b2b2b2b2b2b2b2b2b2b2b2b2b2b2b2b2b2b2b2b2b2b2b2b
IV:                       d4d4d4d4d4d4d4d4
Plaintext:                d4d4d4d4d4d4d4d4d4d4d4d4d4d4d4d4d4
Ciphertext:               a943e43b33ebef0f993c15bf3e3b92c15ca3af249e192c5663059190446c789ff93090a70a62227766003b240f32243d6320e6f5db7cf59aff791991c61e6c6c405b4217e8c08362418cb5ea0710cfe1c8
Reciphers for ciphertext: 0
Decipheredtext:           d4d4d4d4d4d4d4d4d4d4d4d4d4d4d4d4d4
RESULT CIPHER-DECIPHER: -----OK-----


Test: 44
Hash algorithm: 10
Symmetric key bit length: 256
IV bit length:            64
Plaintext bit length:     136
Symmetric key:            2c2c2c2c2c2c2c2c2c2c2c2c2c2c2c2c2c2c2c2c2c2c2c2c2c2c2c2c2c2c2c2c
IV:                       d3d3d3d3d3d3d3d3
Plaintext:                d3d3d3d3d3d3d3d3d3d3d3d3d3d3d3d3d3
Ciphertext:               ff4c9a8cbb11535324947368b1e8c808cf46fbfac78bfa05fb7900e0cec1de7ce01ceaa02acd1039d37a2b727df752f49071dc99896dd61990
Reciphers for ciphertext: 0
Decipheredtext:           d3d3d3d3d3d3d3d3d3d3d3d3d3d3d3d3d3
RESULT CIPHER-DECIPHER: -----OK-----


Test: 45
Hash algorithm: 7
Symmetric key bit length: 256
IV bit length:            64
Plaintext bit length:     136
Symmetric key:            2d2d2d2d2d2d2d2d2d2d2d2d2d2d2d2d2d2d2d2d2d2d2d2d2d2d2d2d2d2d2d2d
IV:                       d2d2d2d2d2d2d2d2
Plaintext:                d2d2d2d2d2d2d2d2d2d2d2d2d2d2d2d2d2
Ciphertext:               6ff278f329dfcf8772a4f4976f83d656a2cc8df8b956aa9c79dafb253115f9fd0f
Reciphers for ciphertext: 0
Decipheredtext:           d2d2d2d2d2d2d2d2d2d2d2d2d2d2d2d2d2
RESULT CIPHER-DECIPHER: -----OK-----


Test: 46
Hash algorithm: 13
Symmetric key bit length: 256
IV bit length:            64
Plaintext bit length:     136
Symmetric key:            2e2e2e2e2e2e2e2e2e2e2e2e2e2e2e2e2e2e2e2e2e2e2e2e2e2e2e2e2e2e2e2e
IV:                       d1d1d1d1d1d1d1d1
Plaintext:                d1d1d1d1d1d1d1d1d1d1d1d1d1d1d1d1d1
Ciphertext:               15e1adf623c05debf73596c8aa7bc18719a037d0d13aea7208a0e54f144c73fcb7
Reciphers for ciphertext: 0
Decipheredtext:           d1d1d1d1d1d1d1d1d1d1d1d1d1d1d1d1d1
RESULT CIPHER-DECIPHER: -----OK-----


Test: 47
Hash algorithm: 8
Symmetric key bit length: 256
IV bit length:            64
Plaintext bit length:     136
Symmetric key:            2f2f2f2f2f2f2f2f2f2f2f2f2f2f2f2f2f2f2f2f2f2f2f2f2f2f2f2f2f2f2f2f
IV:                       d0d0d0d0d0d0d0d0
Plaintext:                d0d0d0d0d0d0d0d0d0d0d0d0d0d0d0d0d0
Ciphertext:               a879fac7842d05e6cd021b761c8f4e2075a81bcacf24103b9c859be1973d84ce364f180c5f
Reciphers for ciphertext: 0
Decipheredtext:           d0d0d0d0d0d0d0d0d0d0d0d0d0d0d0d0d0
RESULT CIPHER-DECIPHER: -----OK-----


Test: 48
Hash algorithm: 5
Symmetric key bit length: 256
IV bit length:            64
Plaintext bit length:     136
Symmetric key:            3030303030303030303030303030303030303030303030303030303030303030
IV:                       cfcfcfcfcfcfcfcf
Plaintext:                cfcfcfcfcfcfcfcfcfcfcfcfcfcfcfcfcf
Ciphertext:               6f502c83785c77efba122713b7f601b95d426ffe5dc4ad6563962bd48669f557c8c3248d59fb06b734adc37113
Reciphers for ciphertext: 0
Decipheredtext:           cfcfcfcfcfcfcfcfcfcfcfcfcfcfcfcfcf
RESULT CIPHER-DECIPHER: -----OK-----


Test: 49
Hash algorithm: 2
Symmetric key bit length: 256
IV bit length:            64
Plaintext bit length:     136
Symmetric key:            3131313131313131313131313131313131313131313131313131313131313131
IV:                       cececececececece
Plaintext:                cecececececececececececececececece
Ciphertext:               2990fc226c2f9811cc52c98f3110158fcaf2d7e64a3ef5db680562b768a35803542ed1d63abc44a79754348f45712e3a2d
Reciphers for ciphertext: 0
Decipheredtext:           cecececececececececececececececece
RESULT CIPHER-DECIPHER: -----OK-----


Test: 50
Hash algorithm: 5
Symmetric key bit length: 256
IV bit length:            64
Plaintext bit length:     136
Symmetric key:            3232323232323232323232323232323232323232323232323232323232323232
IV:                       cdcdcdcdcdcdcdcd
Plaintext:                cdcdcdcdcdcdcdcdcdcdcdcdcdcdcdcdcd
Ciphertext:               1ff37e5ae16e22aee2f1ca924c97a6f743ee3c0373e71074e51bb5a8677b49768df74cebb8c5b62868fa5e2153
Reciphers for ciphertext: 0
Decipheredtext:           cdcdcdcdcdcdcdcdcdcdcdcdcdcdcdcdcd
RESULT CIPHER-DECIPHER: -----OK-----


Test: 51
Hash algorithm: 10
Symmetric key bit length: 256
IV bit length:            64
Plaintext bit length:     136
Symmetric key:            3333333333333333333333333333333333333333333333333333333333333333
IV:                       cccccccccccccccc
Plaintext:                cccccccccccccccccccccccccccccccccc
Ciphertext:               b2d8abcef7ca4232d9929214f28dba8b891a2791a0c3fda83531cbdb26f2a32adfd7a97ee96365e305544622ce5af4fc9dd6c95003fb0c951a
Reciphers for ciphertext: 0
Decipheredtext:           cccccccccccccccccccccccccccccccccc
RESULT CIPHER-DECIPHER: -----OK-----


Test: 52
Hash algorithm: 9
Symmetric key bit length: 256
IV bit length:            64
Plaintext bit length:     136
Symmetric key:            3434343434343434343434343434343434343434343434343434343434343434
IV:                       cbcbcbcbcbcbcbcb
Plaintext:                cbcbcbcbcbcbcbcbcbcbcbcbcbcbcbcbcb
Ciphertext:               5d1db9569cda988db9fa173a2412e9839a4efa44792663f186ef8eecd7f3464aea55e3607a9dd015e05b75a0e9e0d147cb
Reciphers for ciphertext: 0
Decipheredtext:           cbcbcbcbcbcbcbcbcbcbcbcbcbcbcbcbcb
RESULT CIPHER-DECIPHER: -----OK-----


Test: 53
Hash algorithm: 6
Symmetric key bit length: 256
IV bit length:            64
Plaintext bit length:     136
Symmetric key:            3535353535353535353535353535353535353535353535353535353535353535
IV:                       cacacacacacacaca
Plaintext:                cacacacacacacacacacacacacacacacaca
Ciphertext:               86452a08b8bb7a0ef7c44ae2a1001f04cd6230eb186d5ba8df0c6c5d6106756ff52c77f4f3eab94caed749448e421a4925
Reciphers for ciphertext: 0
Decipheredtext:           cacacacacacacacacacacacacacacacaca
RESULT CIPHER-DECIPHER: -----OK-----


Test: 54
Hash algorithm: 11
Symmetric key bit length: 256
IV bit length:            64
Plaintext bit length:     136
Symmetric key:            3636363636363636363636363636363636363636363636363636363636363636
IV:                       c9c9c9c9c9c9c9c9
Plaintext:                c9c9c9c9c9c9c9c9c9c9c9c9c9c9c9c9c9
Ciphertext:               3f0125a799523d7fc54cfd62a1730e7068e31ab870a97f13ad7785d044bff7505a
Reciphers for ciphertext: 0
Decipheredtext:           c9c9c9c9c9c9c9c9c9c9c9c9c9c9c9c9c9
RESULT CIPHER-DECIPHER: -----OK-----


Test: 55
Hash algorithm: 5
Symmetric key bit length: 256
IV bit length:            64
Plaintext bit length:     136
Symmetric key:            3737373737373737373737373737373737373737373737373737373737373737
IV:                       c8c8c8c8c8c8c8c8
Plaintext:                c8c8c8c8c8c8c8c8c8c8c8c8c8c8c8c8c8
Ciphertext:               cc6dcf532d13391eb12ee2d6c66cc9c91b0ab681273b41fd55b3fee3b8fb3d1d7687b27dfc12ec05fee80542bb
Reciphers for ciphertext: 0
Decipheredtext:           c8c8c8c8c8c8c8c8c8c8c8c8c8c8c8c8c8
RESULT CIPHER-DECIPHER: -----OK-----


Test: 56
Hash algorithm: 12
Symmetric key bit length: 256
IV bit length:            64
Plaintext bit length:     136
Symmetric key:            3838383838383838383838383838383838383838383838383838383838383838
IV:                       c7c7c7c7c7c7c7c7
Plaintext:                c7c7c7c7c7c7c7c7c7c7c7c7c7c7c7c7c7
Ciphertext:               3eae3cff54d2bd822f74907ef1dbed20e2608656be08db266203a590ed83432eed
Reciphers for ciphertext: 0
Decipheredtext:           c7c7c7c7c7c7c7c7c7c7c7c7c7c7c7c7c7
RESULT CIPHER-DECIPHER: -----OK-----


Test: 57
Hash algorithm: 6
Symmetric key bit length: 256
IV bit length:            64
Plaintext bit length:     136
Symmetric key:            3939393939393939393939393939393939393939393939393939393939393939
IV:                       c6c6c6c6c6c6c6c6
Plaintext:                c6c6c6c6c6c6c6c6c6c6c6c6c6c6c6c6c6
Ciphertext:               12e53658cc0a3c7a6435900aac7dfe0b7256d3501aa3fc7ca14312d350e1d8f4bbbd2ef546ed89a49d2689bb952205bba8
Reciphers for ciphertext: 0
Decipheredtext:           c6c6c6c6c6c6c6c6c6c6c6c6c6c6c6c6c6
RESULT CIPHER-DECIPHER: -----OK-----


Test: 58
Hash algorithm: 6
Symmetric key bit length: 256
IV bit length:            64
Plaintext bit length:     136
Symmetric key:            3a3a3a3a3a3a3a3a3a3a3a3a3a3a3a3a3a3a3a3a3a3a3a3a3a3a3a3a3a3a3a3a
IV:                       c5c5c5c5c5c5c5c5
Plaintext:                c5c5c5c5c5c5c5c5c5c5c5c5c5c5c5c5c5
Ciphertext:               00a0e1140dc7538428bcbc5d90a87c3f5c596868c5c80a464aa79e0474c31720a885ba4f0013adb610e43aad328b8daa85
Reciphers for ciphertext: 0
Decipheredtext:           c5c5c5c5c5c5c5c5c5c5c5c5c5c5c5c5c5
RESULT CIPHER-DECIPHER: -----OK-----


Test: 59
Hash algorithm: 9
Symmetric key bit length: 256
IV bit length:            64
Plaintext bit length:     136
Symmetric key:            3b3b3b3b3b3b3b3b3b3b3b3b3b3b3b3b3b3b3b3b3b3b3b3b3b3b3b3b3b3b3b3b
IV:                       c4c4c4c4c4c4c4c4
Plaintext:                c4c4c4c4c4c4c4c4c4c4c4c4c4c4c4c4c4
Ciphertext:               051242d06489e4518ba003c8d31385451a6b7a147833e78f05a82cbbc21ce1621099eadd037b52bbfb46df7d2ca02bedbe
Reciphers for ciphertext: 0
Decipheredtext:           c4c4c4c4c4c4c4c4c4c4c4c4c4c4c4c4c4
RESULT CIPHER-DECIPHER: -----OK-----


Test: 60
Hash algorithm: 10
Symmetric key bit length: 256
IV bit length:            64
Plaintext bit length:     136
Symmetric key:            3c3c3c3c3c3c3c3c3c3c3c3c3c3c3c3c3c3c3c3c3c3c3c3c3c3c3c3c3c3c3c3c
IV:                       c3c3c3c3c3c3c3c3
Plaintext:                c3c3c3c3c3c3c3c3c3c3c3c3c3c3c3c3c3
Ciphertext:               759f7509c7fba649f735c4672b65f652a9f975edc338ee2cacc3892d1913556f92624df81601d9c6488d9db57131fdbe4ce60bea2f20f0eb6d
Reciphers for ciphertext: 0
Decipheredtext:           c3c3c3c3c3c3c3c3c3c3c3c3c3c3c3c3c3
RESULT CIPHER-DECIPHER: -----OK-----


Test: 61
Hash algorithm: 0
Symmetric key bit length: 256
IV bit length:            64
Plaintext bit length:     136
Symmetric key:            3d3d3d3d3d3d3d3d3d3d3d3d3d3d3d3d3d3d3d3d3d3d3d3d3d3d3d3d3d3d3d3d
IV:                       c2c2c2c2c2c2c2c2
Plaintext:                c2c2c2c2c2c2c2c2c2c2c2c2c2c2c2c2c2
Ciphertext:               6b81bbf5f043e5f1e000df97ef8abf58c47f1ef0c4972112a4c42b4ac5819ee1c9906b468a
Reciphers for ciphertext: 0
Decipheredtext:           c2c2c2c2c2c2c2c2c2c2c2c2c2c2c2c2c2
RESULT CIPHER-DECIPHER: -----OK-----


Test: 62
Hash algorithm: 4
Symmetric key bit length: 256
IV bit length:            64
Plaintext bit length:     136
Symmetric key:            3e3e3e3e3e3e3e3e3e3e3e3e3e3e3e3e3e3e3e3e3e3e3e3e3e3e3e3e3e3e3e3e
IV:                       c1c1c1c1c1c1c1c1
Plaintext:                c1c1c1c1c1c1c1c1c1c1c1c1c1c1c1c1c1
Ciphertext:               dbe582c7743ba6ef4879dda55bb0a848a4f593d156e6cb0d31360adad9a1442ddc8df887dbae8605ffa6924e629299c2ee74dc4a1acc6bccb801e15991796c97656b4d835bbdab5c0b75b66cad9b93575b
Reciphers for ciphertext: 0
Decipheredtext:           c1c1c1c1c1c1c1c1c1c1c1c1c1c1c1c1c1
RESULT CIPHER-DECIPHER: -----OK-----


Test: 63
Hash algorithm: 13
Symmetric key bit length: 256
IV bit length:            64
Plaintext bit length:     136
Symmetric key:            3f3f3f3f3f3f3f3f3f3f3f3f3f3f3f3f3f3f3f3f3f3f3f3f3f3f3f3f3f3f3f3f
IV:                       c0c0c0c0c0c0c0c0
Plaintext:                c0c0c0c0c0c0c0c0c0c0c0c0c0c0c0c0c0
Ciphertext:               9710d463cb0e0d8a04368e1a9fe33ccd079e4cf8522a3bf9292cfae166245a8ddf
Reciphers for ciphertext: 0
Decipheredtext:           c0c0c0c0c0c0c0c0c0c0c0c0c0c0c0c0c0
RESULT CIPHER-DECIPHER: -----OK-----


Test: 64
Hash algorithm: 0
Symmetric key bit length: 256
IV bit length:            64
Plaintext bit length:     136
Symmetric key:            4040404040404040404040404040404040404040404040404040404040404040
IV:                       bfbfbfbfbfbfbfbf
Plaintext:                bfbfbfbfbfbfbfbfbfbfbfbfbfbfbfbfbf
Ciphertext:               100a5ea4fb61dd827bb3e9684242f68d538b71a06692d3acf87426a29c53a110eabc249123
Reciphers for ciphertext: 0
Decipheredtext:           bfbfbfbfbfbfbfbfbfbfbfbfbfbfbfbfbf
RESULT CIPHER-DECIPHER: -----OK-----


Test: 65
Hash algorithm: 2
Symmetric key bit length: 256
IV bit length:            64
Plaintext bit length:     136
Symmetric key:            4141414141414141414141414141414141414141414141414141414141414141
IV:                       bebebebebebebebe
Plaintext:                bebebebebebebebebebebebebebebebebe
Ciphertext:               fcdf5c696903aa1dbbde49da9309e41497ecba4f558a1e0de3864135c7f8149772480e03b456ab27c97214b8d8f0546813
Reciphers for ciphertext: 0
Decipheredtext:           bebebebebebebebebebebebebebebebebe
RESULT CIPHER-DECIPHER: -----OK-----


Test: 66
Hash algorithm: 8
Symmetric key bit length: 256
IV bit length:            64
Plaintext bit length:     136
Symmetric key:            4242424242424242424242424242424242424242424242424242424242424242
IV:                       bdbdbdbdbdbdbdbd
Plaintext:                bdbdbdbdbdbdbdbdbdbdbdbdbdbdbdbdbd
Ciphertext:               b27ea4bc3fefb1515abf0bf142231489690bf9b0480cfce247f62741bb1c8487a5d757e4bf
Reciphers for ciphertext: 0
Decipheredtext:           bdbdbdbdbdbdbdbdbdbdbdbdbdbdbdbdbd
RESULT CIPHER-DECIPHER: -----OK-----


Test: 67
Hash algorithm: 0
Symmetric key bit length: 256
IV bit length:            64
Plaintext bit length:     136
Symmetric key:            4343434343434343434343434343434343434343434343434343434343434343
IV:                       bcbcbcbcbcbcbcbc
Plaintext:                bcbcbcbcbcbcbcbcbcbcbcbcbcbcbcbcbc
Ciphertext:               6995d713969eeb39146badf1be61cf9916e51832cc54e2e24620b27f35dcc68a51671d0a70
Reciphers for ciphertext: 0
Decipheredtext:           bcbcbcbcbcbcbcbcbcbcbcbcbcbcbcbcbc
RESULT CIPHER-DECIPHER: -----OK-----


Test: 68
Hash algorithm: 10
Symmetric key bit length: 256
IV bit length:            64
Plaintext bit length:     136
Symmetric key:            4444444444444444444444444444444444444444444444444444444444444444
IV:                       bbbbbbbbbbbbbbbb
Plaintext:                bbbbbbbbbbbbbbbbbbbbbbbbbbbbbbbbbb
Ciphertext:               c88ea3ad076ed20b62c61b3b38e3b5f598d13c87b17294f88af18582b105f69c6d271b3a80e02b918ea4a7067909f7c004781a776db727cbed
Reciphers for ciphertext: 0
Decipheredtext:           bbbbbbbbbbbbbbbbbbbbbbbbbbbbbbbbbb
RESULT CIPHER-DECIPHER: -----OK-----


Test: 69
Hash algorithm: 0
Symmetric key bit length: 256
IV bit length:            64
Plaintext bit length:     136
Symmetric key:            4545454545454545454545454545454545454545454545454545454545454545
IV:                       babababababababa
Plaintext:                bababababababababababababababababa
Ciphertext:               3697a3c5814ec652ba73e5e13e1e69403fafb011f1527025ae5cea3d775b282b76ba75d607
Reciphers for ciphertext: 0
Decipheredtext:           bababababababababababababababababa
RESULT CIPHER-DECIPHER: -----OK-----


Test: 70
Hash algorithm: 2
Symmetric key bit length: 256
IV bit length:            64
Plaintext bit length:     136
Symmetric key:            4646464646464646464646464646464646464646464646464646464646464646
IV:                       b9b9b9b9b9b9b9b9
Plaintext:                b9b9b9b9b9b9b9b9b9b9b9b9b9b9b9b9b9
Ciphertext:               7262deb0e92215a521d24def18ec01f76fa8006b2caae6b74f2f690bfc1b3005b34a15ad036a2ee952181e1785d870419b
Reciphers for ciphertext: 0
Decipheredtext:           b9b9b9b9b9b9b9b9b9b9b9b9b9b9b9b9b9
RESULT CIPHER-DECIPHER: -----OK-----


Test: 71
Hash algorithm: 6
Symmetric key bit length: 256
IV bit length:            64
Plaintext bit length:     136
Symmetric key:            4747474747474747474747474747474747474747474747474747474747474747
IV:                       b8b8b8b8b8b8b8b8
Plaintext:                b8b8b8b8b8b8b8b8b8b8b8b8b8b8b8b8b8
Ciphertext:               3234f296a779862de7afeef87326cae7df00153f2cdde76f83d44838133036f294b05e6db502e9d9856c0ca1cf24dfb33f
Reciphers for ciphertext: 0
Decipheredtext:           b8b8b8b8b8b8b8b8b8b8b8b8b8b8b8b8b8
RESULT CIPHER-DECIPHER: -----OK-----


Test: 72
Hash algorithm: 8
Symmetric key bit length: 256
IV bit length:            64
Plaintext bit length:     136
Symmetric key:            4848484848484848484848484848484848484848484848484848484848484848
IV:                       b7b7b7b7b7b7b7b7
Plaintext:                b7b7b7b7b7b7b7b7b7b7b7b7b7b7b7b7b7
Ciphertext:               4e029f1a46834e6d57b44bb8d0a696d63199601705f1a4b1e610e3cf55b94be5309d8c9879
Reciphers for ciphertext: 0
Decipheredtext:           b7b7b7b7b7b7b7b7b7b7b7b7b7b7b7b7b7
RESULT CIPHER-DECIPHER: -----OK-----


Test: 73
Hash algorithm: 0
Symmetric key bit length: 256
IV bit length:            64
Plaintext bit length:     136
Symmetric key:            4949494949494949494949494949494949494949494949494949494949494949
IV:                       b6b6b6b6b6b6b6b6
Plaintext:                b6b6b6b6b6b6b6b6b6b6b6b6b6b6b6b6b6
Ciphertext:               ee86dc4dd2c8fd4212f89406685987d0b616570919fc64a699de738d4d0292ab8e868e6193
Reciphers for ciphertext: 0
Decipheredtext:           b6b6b6b6b6b6b6b6b6b6b6b6b6b6b6b6b6
RESULT CIPHER-DECIPHER: -----OK-----


Test: 74
Hash algorithm: 6
Symmetric key bit length: 256
IV bit length:            64
Plaintext bit length:     136
Symmetric key:            4a4a4a4a4a4a4a4a4a4a4a4a4a4a4a4a4a4a4a4a4a4a4a4a4a4a4a4a4a4a4a4a
IV:                       b5b5b5b5b5b5b5b5
Plaintext:                b5b5b5b5b5b5b5b5b5b5b5b5b5b5b5b5b5
Ciphertext:               f599fb47f5d3ae3a9c38069411647eca51e3520bef93c6c9c2e2be60cc82d357cb98b28502e955162a134310372e4718f0
Reciphers for ciphertext: 0
Decipheredtext:           b5b5b5b5b5b5b5b5b5b5b5b5b5b5b5b5b5
RESULT CIPHER-DECIPHER: -----OK-----


Test: 75
Hash algorithm: 2
Symmetric key bit length: 256
IV bit length:            64
Plaintext bit length:     136
Symmetric key:            4b4b4b4b4b4b4b4b4b4b4b4b4b4b4b4b4b4b4b4b4b4b4b4b4b4b4b4b4b4b4b4b
IV:                       b4b4b4b4b4b4b4b4
Plaintext:                b4b4b4b4b4b4b4b4b4b4b4b4b4b4b4b4b4
Ciphertext:               e06f011ed053bbcbdcca3af69124bdce689bf790736b23051b04530ce936ba34f0bc3354a1fdd1d14d073ca6e45e011d2c
Reciphers for ciphertext: 0
Decipheredtext:           b4b4b4b4b4b4b4b4b4b4b4b4b4b4b4b4b4
RESULT CIPHER-DECIPHER: -----OK-----


Test: 76
Hash algorithm: 6
Symmetric key bit length: 256
IV bit length:            64
Plaintext bit length:     136
Symmetric key:            4c4c4c4c4c4c4c4c4c4c4c4c4c4c4c4c4c4c4c4c4c4c4c4c4c4c4c4c4c4c4c4c
IV:                       b3b3b3b3b3b3b3b3
Plaintext:                b3b3b3b3b3b3b3b3b3b3b3b3b3b3b3b3b3
Ciphertext:               a6aeeebf0794c9a48e5f20a202434d8fe7d812217e48162c7b20e7193d244e2a4c5e74718316fd378724c6a27bff12baa0
Reciphers for ciphertext: 0
Decipheredtext:           b3b3b3b3b3b3b3b3b3b3b3b3b3b3b3b3b3
RESULT CIPHER-DECIPHER: -----OK-----


Test: 77
Hash algorithm: 13
Symmetric key bit length: 256
IV bit length:            64
Plaintext bit length:     136
Symmetric key:            4d4d4d4d4d4d4d4d4d4d4d4d4d4d4d4d4d4d4d4d4d4d4d4d4d4d4d4d4d4d4d4d
IV:                       b2b2b2b2b2b2b2b2
Plaintext:                b2b2b2b2b2b2b2b2b2b2b2b2b2b2b2b2b2
Ciphertext:               8b84123964e6767c2502962dc6e089dc140a2cb70fb64cc977705635690a885b69
Reciphers for ciphertext: 0
Decipheredtext:           b2b2b2b2b2b2b2b2b2b2b2b2b2b2b2b2b2
RESULT CIPHER-DECIPHER: -----OK-----


Test: 78
Hash algorithm: 4
Symmetric key bit length: 256
IV bit length:            64
Plaintext bit length:     136
Symmetric key:            4e4e4e4e4e4e4e4e4e4e4e4e4e4e4e4e4e4e4e4e4e4e4e4e4e4e4e4e4e4e4e4e
IV:                       b1b1b1b1b1b1b1b1
Plaintext:                b1b1b1b1b1b1b1b1b1b1b1b1b1b1b1b1b1
Ciphertext:               45f17dc67f99ebe45bacc469b6153b0600fb9f0b5438dac9a3ae0a42e69436bff57b70ca3d3e461b3f9ea5493b2cad7b168bf3408df72d2ebf6eb2f670f2d92aba448dec73744928df4501b444d836775d
Reciphers for ciphertext: 0
Decipheredtext:           b1b1b1b1b1b1b1b1b1b1b1b1b1b1b1b1b1
RESULT CIPHER-DECIPHER: -----OK-----


Test: 79
Hash algorithm: 13
Symmetric key bit length: 256
IV bit length:            64
Plaintext bit length:     136
Symmetric key:            4f4f4f4f4f4f4f4f4f4f4f4f4f4f4f4f4f4f4f4f4f4f4f4f4f4f4f4f4f4f4f4f
IV:                       b0b0b0b0b0b0b0b0
Plaintext:                b0b0b0b0b0b0b0b0b0b0b0b0b0b0b0b0b0
Ciphertext:               0fd9d99363edb82c87aacc077b3f7f4ee50144c8127a2b4bf425acba3c6238a963
Reciphers for ciphertext: 0
Decipheredtext:           b0b0b0b0b0b0b0b0b0b0b0b0b0b0b0b0b0
RESULT CIPHER-DECIPHER: -----OK-----


Test: 80
Hash algorithm: 7
Symmetric key bit length: 256
IV bit length:            64
Plaintext bit length:     136
Symmetric key:            5050505050505050505050505050505050505050505050505050505050505050
IV:                       afafafafafafafaf
Plaintext:                afafafafafafafafafafafafafafafafaf
Ciphertext:               869fbe09353680a00392fac2d57383599cd786721aa187bb47495eceeddc4ffcaa
Reciphers for ciphertext: 0
Decipheredtext:           afafafafafafafafafafafafafafafafaf
RESULT CIPHER-DECIPHER: -----OK-----


Test: 81
Hash algorithm: 4
Symmetric key bit length: 256
IV bit length:            64
Plaintext bit length:     136
Symmetric key:            5151515151515151515151515151515151515151515151515151515151515151
IV:                       aeaeaeaeaeaeaeae
Plaintext:                aeaeaeaeaeaeaeaeaeaeaeaeaeaeaeaeae
Ciphertext:               e68bdfd4b7f7e788d09920893b9e8333cdee3650bf8a3552352432b8ed1e7bbb19390b33e1e6750e90cabc473f5f481438d123deabfbd4a06fa1702f53cfa2e4bfc63c136c8425918636018fe86635ed65
Reciphers for ciphertext: 0
Decipheredtext:           aeaeaeaeaeaeaeaeaeaeaeaeaeaeaeaeae
RESULT CIPHER-DECIPHER: -----OK-----


Test: 82
Hash algorithm: 11
Symmetric key bit length: 256
IV bit length:            64
Plaintext bit length:     136
Symmetric key:            5252525252525252525252525252525252525252525252525252525252525252
IV:                       adadadadadadadad
Plaintext:                adadadadadadadadadadadadadadadadad
Ciphertext:               7d11c212b72377f7d0451868fad130e764f5d853c933db47cd59892e0c79d533d8
Reciphers for ciphertext: 0
Decipheredtext:           adadadadadadadadadadadadadadadadad
RESULT CIPHER-DECIPHER: -----OK-----


Test: 83
Hash algorithm: 11
Symmetric key bit length: 256
IV bit length:            64
Plaintext bit length:     136
Symmetric key:            5353535353535353535353535353535353535353535353535353535353535353
IV:                       acacacacacacacac
Plaintext:                acacacacacacacacacacacacacacacacac
Ciphertext:               7e9febf2b287ada1689584406c26e785e902bde280ca4618662d49e44c3ecc2457
Reciphers for ciphertext: 0
Decipheredtext:           acacacacacacacacacacacacacacacacac
RESULT CIPHER-DECIPHER: -----OK-----


Test: 84
Hash algorithm: 4
Symmetric key bit length: 256
IV bit length:            64
Plaintext bit length:     136
Symmetric key:            5454545454545454545454545454545454545454545454545454545454545454
IV:                       abababababababab
Plaintext:                ababababababababababababababababab
Ciphertext:               2c54420a93c704206b247ed1c515b8ab732ca1f7f723d6356c48c382b8f95d856b354b060f717771b29755b1f70c0472be0855318a8f62ec244196c4fb01d16d2b31bea988971c957291eb080b2ff6aad4
Reciphers for ciphertext: 0
Decipheredtext:           ababababababababababababababababab
RESULT CIPHER-DECIPHER: -----OK-----


Test: 85
Hash algorithm: 8
Symmetric key bit length: 256
IV bit length:            64
Plaintext bit length:     136
Symmetric key:            5555555555555555555555555555555555555555555555555555555555555555
IV:                       aaaaaaaaaaaaaaaa
Plaintext:                aaaaaaaaaaaaaaaaaaaaaaaaaaaaaaaaaa
Ciphertext:               69df3edf8b50693ee0f64d518f2fea631c22dbaf49327cedf7c28cf29d096692f6df62f528
Reciphers for ciphertext: 0
Decipheredtext:           aaaaaaaaaaaaaaaaaaaaaaaaaaaaaaaaaa
RESULT CIPHER-DECIPHER: -----OK-----


Test: 86
Hash algorithm: 1
Symmetric key bit length: 256
IV bit length:            64
Plaintext bit length:     136
Symmetric key:            5656565656565656565656565656565656565656565656565656565656565656
IV:                       a9a9a9a9a9a9a9a9
Plaintext:                a9a9a9a9a9a9a9a9a9a9a9a9a9a9a9a9a9
Ciphertext:               7edcfc2e5721768253f2eee555ca59613e1fcbdf8fd4176879adcd19a7b7cbdc2c8275573f90eefcde6abbcb77
Reciphers for ciphertext: 0
Decipheredtext:           a9a9a9a9a9a9a9a9a9a9a9a9a9a9a9a9a9
RESULT CIPHER-DECIPHER: -----OK-----


Test: 87
Hash algorithm: 3
Symmetric key bit length: 256
IV bit length:            64
Plaintext bit length:     136
Symmetric key:            5757575757575757575757575757575757575757575757575757575757575757
IV:                       a8a8a8a8a8a8a8a8
Plaintext:                a8a8a8a8a8a8a8a8a8a8a8a8a8a8a8a8a8
Ciphertext:               94c4487c8ec14cccb89696a1b42a112a0b25023a01322aee8e360df82c3b69169ca8560560cfeb4b705d427bcc48e51f131c86114257a16c3a362a815084cd1da4
Reciphers for ciphertext: 0
Decipheredtext:           a8a8a8a8a8a8a8a8a8a8a8a8a8a8a8a8a8
RESULT CIPHER-DECIPHER: -----OK-----


Test: 88
Hash algorithm: 11
Symmetric key bit length: 256
IV bit length:            64
Plaintext bit length:     136
Symmetric key:            5858585858585858585858585858585858585858585858585858585858585858
IV:                       a7a7a7a7a7a7a7a7
Plaintext:                a7a7a7a7a7a7a7a7a7a7a7a7a7a7a7a7a7
Ciphertext:               fac8489215a19ef6f89c69503796013c2042bf6b489b55cdb1ee36084ede210851
Reciphers for ciphertext: 0
Decipheredtext:           a7a7a7a7a7a7a7a7a7a7a7a7a7a7a7a7a7
RESULT CIPHER-DECIPHER: -----OK-----


Test: 89
Hash algorithm: 5
Symmetric key bit length: 256
IV bit length:            64
Plaintext bit length:     136
Symmetric key:            5959595959595959595959595959595959595959595959595959595959595959
IV:                       a6a6a6a6a6a6a6a6
Plaintext:                a6a6a6a6a6a6a6a6a6a6a6a6a6a6a6a6a6
Ciphertext:               7ae4a5d4b0d73f9934c61d8e90873c0e932ab9db524f88db3cc3c38869b2485967a941c6ca3371372a9de9c913
Reciphers for ciphertext: 0
Decipheredtext:           a6a6a6a6a6a6a6a6a6a6a6a6a6a6a6a6a6
RESULT CIPHER-DECIPHER: -----OK-----


Test: 90
Hash algorithm: 0
Symmetric key bit length: 256
IV bit length:            64
Plaintext bit length:     136
Symmetric key:            5a5a5a5a5a5a5a5a5a5a5a5a5a5a5a5a5a5a5a5a5a5a5a5a5a5a5a5a5a5a5a5a
IV:                       a5a5a5a5a5a5a5a5
Plaintext:                a5a5a5a5a5a5a5a5a5a5a5a5a5a5a5a5a5
Ciphertext:               09a906e78fe8319b0038856545e65cb699b4085303cc1cbf53f1cb214beaf94162411d0a8a
Reciphers for ciphertext: 0
Decipheredtext:           a5a5a5a5a5a5a5a5a5a5a5a5a5a5a5a5a5
RESULT CIPHER-DECIPHER: -----OK-----


Test: 91
Hash algorithm: 12
Symmetric key bit length: 256
IV bit length:            64
Plaintext bit length:     136
Symmetric key:            5b5b5b5b5b5b5b5b5b5b5b5b5b5b5b5b5b5b5b5b5b5b5b5b5b5b5b5b5b5b5b5b
IV:                       a4a4a4a4a4a4a4a4
Plaintext:                a4a4a4a4a4a4a4a4a4a4a4a4a4a4a4a4a4
Ciphertext:               5d127b24e07d9988aa8590864e9736af4e1cd085e72022d7a17958c3cf0f577531
Reciphers for ciphertext: 0
Decipheredtext:           a4a4a4a4a4a4a4a4a4a4a4a4a4a4a4a4a4
RESULT CIPHER-DECIPHER: -----OK-----


Test: 92
Hash algorithm: 12
Symmetric key bit length: 256
IV bit length:            64
Plaintext bit length:     136
Symmetric key:            5c5c5c5c5c5c5c5c5c5c5c5c5c5c5c5c5c5c5c5c5c5c5c5c5c5c5c5c5c5c5c5c
IV:                       a3a3a3a3a3a3a3a3
Plaintext:                a3a3a3a3a3a3a3a3a3a3a3a3a3a3a3a3a3
Ciphertext:               3242e3289fe0675fe06df5efb61dddb97ed7f52a5aaf8a8005d42b95cb82f7d548
Reciphers for ciphertext: 0
Decipheredtext:           a3a3a3a3a3a3a3a3a3a3a3a3a3a3a3a3a3
RESULT CIPHER-DECIPHER: -----OK-----


Test: 93
Hash algorithm: 6
Symmetric key bit length: 256
IV bit length:            64
Plaintext bit length:     136
Symmetric key:            5d5d5d5d5d5d5d5d5d5d5d5d5d5d5d5d5d5d5d5d5d5d5d5d5d5d5d5d5d5d5d5d
IV:                       a2a2a2a2a2a2a2a2
Plaintext:                a2a2a2a2a2a2a2a2a2a2a2a2a2a2a2a2a2
Ciphertext:               9a3bb91c86d0bce8986f2550844df0018221ea8d4daf3a305737f646506a900bf0c7c5161532cda26d33c68e9c35da0601
Reciphers for ciphertext: 0
Decipheredtext:           a2a2a2a2a2a2a2a2a2a2a2a2a2a2a2a2a2
RESULT CIPHER-DECIPHER: -----OK-----


Test: 94
Hash algorithm: 9
Symmetric key bit length: 256
IV bit length:            64
Plaintext bit length:     136
Symmetric key:            5e5e5e5e5e5e5e5e5e5e5e5e5e5e5e5e5e5e5e5e5e5e5e5e5e5e5e5e5e5e5e5e
IV:                       a1a1a1a1a1a1a1a1
Plaintext:                a1a1a1a1a1a1a1a1a1a1a1a1a1a1a1a1a1
Ciphertext:               dbcc0e7bc2673177d094705faa528fcfc2c35f4c184b2fdff7188bfaf29d88453b2a954bc5ad4d53f4bde98bf47cbd035a
Reciphers for ciphertext: 0
Decipheredtext:           a1a1a1a1a1a1a1a1a1a1a1a1a1a1a1a1a1
RESULT CIPHER-DECIPHER: -----OK-----


Test: 95
Hash algorithm: 11
Symmetric key bit length: 256
IV bit length:            64
Plaintext bit length:     136
Symmetric key:            5f5f5f5f5f5f5f5f5f5f5f5f5f5f5f5f5f5f5f5f5f5f5f5f5f5f5f5f5f5f5f5f
IV:                       a0a0a0a0a0a0a0a0
Plaintext:                a0a0a0a0a0a0a0a0a0a0a0a0a0a0a0a0a0
Ciphertext:               54213e8526a371563c4d7c026d0ec062abad196f1f777b50020a3d81c196c0c061
Reciphers for ciphertext: 0
Decipheredtext:           a0a0a0a0a0a0a0a0a0a0a0a0a0a0a0a0a0
RESULT CIPHER-DECIPHER: -----OK-----


Test: 96
Hash algorithm: 12
Symmetric key bit length: 256
IV bit length:            64
Plaintext bit length:     136
Symmetric key:            6060606060606060606060606060606060606060606060606060606060606060
IV:                       9f9f9f9f9f9f9f9f
Plaintext:                9f9f9f9f9f9f9f9f9f9f9f9f9f9f9f9f9f
Ciphertext:               e0ccf69f735695ad5398257abd9ce0175723e8145b8c988074f33f4a3d55d0b180
Reciphers for ciphertext: 0
Decipheredtext:           9f9f9f9f9f9f9f9f9f9f9f9f9f9f9f9f9f
RESULT CIPHER-DECIPHER: -----OK-----


Test: 97
Hash algorithm: 5
Symmetric key bit length: 256
IV bit length:            64
Plaintext bit length:     136
Symmetric key:            6161616161616161616161616161616161616161616161616161616161616161
IV:                       9e9e9e9e9e9e9e9e
Plaintext:                9e9e9e9e9e9e9e9e9e9e9e9e9e9e9e9e9e
Ciphertext:               212af62e71d16299e398c7c85cfca7adca133d5bef79c4ff638b990673caf8314de601c61b7dff6365f18bb0d6
Reciphers for ciphertext: 0
Decipheredtext:           9e9e9e9e9e9e9e9e9e9e9e9e9e9e9e9e9e
RESULT CIPHER-DECIPHER: -----OK-----


Test: 98
Hash algorithm: 2
Symmetric key bit length: 256
IV bit length:            64
Plaintext bit length:     136
Symmetric key:            6262626262626262626262626262626262626262626262626262626262626262
IV:                       9d9d9d9d9d9d9d9d
Plaintext:                9d9d9d9d9d9d9d9d9d9d9d9d9d9d9d9d9d
Ciphertext:               e7ba8016713751976ac9996a50bbf5448c1362f9cc10b9749dd5f8d50a630263d5f05d39eb6c19ddd2667fb5b6255f4876
Reciphers for ciphertext: 0
Decipheredtext:           9d9d9d9d9d9d9d9d9d9d9d9d9d9d9d9d9d
RESULT CIPHER-DECIPHER: -----OK-----


Test: 99
Hash algorithm: 0
Symmetric key bit length: 256
IV bit length:            64
Plaintext bit length:     136
Symmetric key:            6363636363636363636363636363636363636363636363636363636363636363
IV:                       9c9c9c9c9c9c9c9c
Plaintext:                9c9c9c9c9c9c9c9c9c9c9c9c9c9c9c9c9c
Ciphertext:               4ffb5edd9a56d6ac575238df82ca3ec95fdac0dc4e4c752ad2fa74321e25ea3a407695afaf
Reciphers for ciphertext: 0
Decipheredtext:           9c9c9c9c9c9c9c9c9c9c9c9c9c9c9c9c9c
RESULT CIPHER-DECIPHER: -----OK-----


Test: 100
Hash algorithm: 12
Symmetric key bit length: 256
IV bit length:            64
Plaintext bit length:     136
Symmetric key:            6464646464646464646464646464646464646464646464646464646464646464
IV:                       9b9b9b9b9b9b9b9b
Plaintext:                9b9b9b9b9b9b9b9b9b9b9b9b9b9b9b9b9b
Ciphertext:               a847ad8d5240e72f1c10ec539364b2b6790aaf1db68bea9aff360e2a712a50c583
Reciphers for ciphertext: 0
Decipheredtext:           9b9b9b9b9b9b9b9b9b9b9b9b9b9b9b9b9b
RESULT CIPHER-DECIPHER: -----OK-----


Test: 101
Hash algorithm: 2
Symmetric key bit length: 256
IV bit length:            64
Plaintext bit length:     136
Symmetric key:            6565656565656565656565656565656565656565656565656565656565656565
IV:                       9a9a9a9a9a9a9a9a
Plaintext:                9a9a9a9a9a9a9a9a9a9a9a9a9a9a9a9a9a
Ciphertext:               b2062390948a450cc7e5b404c9cef750038c3b8cb5e9043ee53da3c65bd10b3fc0bcba9cfe08bec13cfd31aacc6ad999df
Reciphers for ciphertext: 0
Decipheredtext:           9a9a9a9a9a9a9a9a9a9a9a9a9a9a9a9a9a
RESULT CIPHER-DECIPHER: -----OK-----


Test: 102
Hash algorithm: 13
Symmetric key bit length: 256
IV bit length:            64
Plaintext bit length:     136
Symmetric key:            6666666666666666666666666666666666666666666666666666666666666666
IV:                       9999999999999999
Plaintext:                9999999999999999999999999999999999
Ciphertext:               d6ad21bf0cd2857bbf899bf151eea79e1b7ff05e31f049895c82ae45114c9ac0cc
Reciphers for ciphertext: 0
Decipheredtext:           9999999999999999999999999999999999
RESULT CIPHER-DECIPHER: -----OK-----


Test: 103
Hash algorithm: 8
Symmetric key bit length: 256
IV bit length:            64
Plaintext bit length:     136
Symmetric key:            6767676767676767676767676767676767676767676767676767676767676767
IV:                       9898989898989898
Plaintext:                9898989898989898989898989898989898
Ciphertext:               a84c6d0d7b48b961d55033248038a9d553fb424bde19fc8c92b2c4770baa91aa2341b3eefe
Reciphers for ciphertext: 0
Decipheredtext:           9898989898989898989898989898989898
RESULT CIPHER-DECIPHER: -----OK-----


Test: 104
Hash algorithm: 10
Symmetric key bit length: 256
IV bit length:            64
Plaintext bit length:     136
Symmetric key:            6868686868686868686868686868686868686868686868686868686868686868
IV:                       9797979797979797
Plaintext:                9797979797979797979797979797979797
Ciphertext:               3dfbd0948e85d2286644e8cbd2934640935343485853554742331b0682f7aa28bcf0b4e36d75fa3cd4c9eb7b83500de1d9b15c1be37ced69d9
Reciphers for ciphertext: 0
Decipheredtext:           9797979797979797979797979797979797
RESULT CIPHER-DECIPHER: -----OK-----


Test: 105
Hash algorithm: 1
Symmetric key bit length: 256
IV bit length:            64
Plaintext bit length:     136
Symmetric key:            6969696969696969696969696969696969696969696969696969696969696969
IV:                       9696969696969696
Plaintext:                9696969696969696969696969696969696
Ciphertext:               8a8cd2c438558796b5f6a3bde4880036901292cba5fe26473f31e9010421d4901886552c08b2bd49865df9d69b
Reciphers for ciphertext: 0
Decipheredtext:           9696969696969696969696969696969696
RESULT CIPHER-DECIPHER: -----OK-----


Test: 106
Hash algorithm: 11
Symmetric key bit length: 256
IV bit length:            64
Plaintext bit length:     136
Symmetric key:            6a6a6a6a6a6a6a6a6a6a6a6a6a6a6a6a6a6a6a6a6a6a6a6a6a6a6a6a6a6a6a6a
IV:                       9595959595959595
Plaintext:                9595959595959595959595959595959595
Ciphertext:               567b748bb2c11cf1ceeb9758d12f43ca945115d86d5d58e31491d4f5aa41ef2517
Reciphers for ciphertext: 0
Decipheredtext:           9595959595959595959595959595959595
RESULT CIPHER-DECIPHER: -----OK-----


Test: 107
Hash algorithm: 7
Symmetric key bit length: 256
IV bit length:            64
Plaintext bit length:     136
Symmetric key:            6b6b6b6b6b6b6b6b6b6b6b6b6b6b6b6b6b6b6b6b6b6b6b6b6b6b6b6b6b6b6b6b
IV:                       9494949494949494
Plaintext:                9494949494949494949494949494949494
Ciphertext:               33a1313fbc8aeb76efb1aa0db62a319069b77822bc59ab816a4a4b47f003fabfc7
Reciphers for ciphertext: 0
Decipheredtext:           9494949494949494949494949494949494
RESULT CIPHER-DECIPHER: -----OK-----


Test: 108
Hash algorithm: 1
Symmetric key bit length: 256
IV bit length:            64
Plaintext bit length:     136
Symmetric key:            6c6c6c6c6c6c6c6c6c6c6c6c6c6c6c6c6c6c6c6c6c6c6c6c6c6c6c6c6c6c6c6c
IV:                       9393939393939393
Plaintext:                9393939393939393939393939393939393
Ciphertext:               dee2eb0b41086a2e9e348451a4bd279677df7f75e2089be085766d99a3eb27c1b24c02f63e5767b32ce5daa501
Reciphers for ciphertext: 0
Decipheredtext:           9393939393939393939393939393939393
RESULT CIPHER-DECIPHER: -----OK-----


Test: 109
Hash algorithm: 3
Symmetric key bit length: 256
IV bit length:            64
Plaintext bit length:     136
Symmetric key:            6d6d6d6d6d6d6d6d6d6d6d6d6d6d6d6d6d6d6d6d6d6d6d6d6d6d6d6d6d6d6d6d
IV:                       9292929292929292
Plaintext:                9292929292929292929292929292929292
Ciphertext:               f782a8caea654ec63d3aadb232b0fa8e63743438b4de45e3937fd630c2452240f616152dc65c3451fe46f94bc80ab6b546ac616ac7b0fbfd6965eb3a2f31ee8917
Reciphers for ciphertext: 0
Decipheredtext:           9292929292929292929292929292929292
RESULT CIPHER-DECIPHER: -----OK-----


Test: 110
Hash algorithm: 2
Symmetric key bit length: 256
IV bit length:            64
Plaintext bit length:     136
Symmetric key:            6e6e6e6e6e6e6e6e6e6e6e6e6e6e6e6e6e6e6e6e6e6e6e6e6e6e6e6e6e6e6e6e
IV:                       9191919191919191
Plaintext:                9191919191919191919191919191919191
Ciphertext:               10931fa79151be7ddf1c89410e29223097acd1e3d37533ae121103f5567fea452c007fe77201fb8a8aa3aacd5f81c028fd
Reciphers for ciphertext: 0
Decipheredtext:           9191919191919191919191919191919191
RESULT CIPHER-DECIPHER: -----OK-----


Test: 111
Hash algorithm: 8
Symmetric key bit length: 256
IV bit length:            64
Plaintext bit length:     136
Symmetric key:            6f6f6f6f6f6f6f6f6f6f6f6f6f6f6f6f6f6f6f6f6f6f6f6f6f6f6f6f6f6f6f6f
IV:                       9090909090909090
Plaintext:                9090909090909090909090909090909090
Ciphertext:               dd34034785b3ef406562b00b712386664210be8f2b43061c97d5209e2f4854dd37e2954593
Reciphers for ciphertext: 0
Decipheredtext:           9090909090909090909090909090909090
RESULT CIPHER-DECIPHER: -----OK-----


Test: 112
Hash algorithm: 2
Symmetric key bit length: 256
IV bit length:            64
Plaintext bit length:     136
Symmetric key:            7070707070707070707070707070707070707070707070707070707070707070
IV:                       8f8f8f8f8f8f8f8f
Plaintext:                8f8f8f8f8f8f8f8f8f8f8f8f8f8f8f8f8f
Ciphertext:               e4b38fb11e4c8f7deecf80b0873088d0bcadfb7beaeebb46f416855b0f8bccef22528e78f2d95bc0a96f954b5f383f74dc
Reciphers for ciphertext: 0
Decipheredtext:           8f8f8f8f8f8f8f8f8f8f8f8f8f8f8f8f8f
RESULT CIPHER-DECIPHER: -----OK-----


Test: 113
Hash algorithm: 10
Symmetric key bit length: 256
IV bit length:            64
Plaintext bit length:     136
Symmetric key:            7171717171717171717171717171717171717171717171717171717171717171
IV:                       8e8e8e8e8e8e8e8e
Plaintext:                8e8e8e8e8e8e8e8e8e8e8e8e8e8e8e8e8e
Ciphertext:               ca1104cc4b2994266cf8c8f4c70f01fff1cd61c868bdcfb86b142f9e963547e6ef736d67143a8005507ec4bc419921eb396dbbc94c207df67f
Reciphers for ciphertext: 0
Decipheredtext:           8e8e8e8e8e8e8e8e8e8e8e8e8e8e8e8e8e
RESULT CIPHER-DECIPHER: -----OK-----


Test: 114
Hash algorithm: 8
Symmetric key bit length: 256
IV bit length:            64
Plaintext bit length:     136
Symmetric key:            7272727272727272727272727272727272727272727272727272727272727272
IV:                       8d8d8d8d8d8d8d8d
Plaintext:                8d8d8d8d8d8d8d8d8d8d8d8d8d8d8d8d8d
Ciphertext:               4f3280d7bf679e43102c8a700381cf416ed92839bd4621ac6b199a3a5e9225d60df50e78a3
Reciphers for ciphertext: 0
Decipheredtext:           8d8d8d8d8d8d8d8d8d8d8d8d8d8d8d8d8d
RESULT CIPHER-DECIPHER: -----OK-----


Test: 115
Hash algorithm: 6
Symmetric key bit length: 256
IV bit length:            64
Plaintext bit length:     136
Symmetric key:            7373737373737373737373737373737373737373737373737373737373737373
IV:                       8c8c8c8c8c8c8c8c
Plaintext:                8c8c8c8c8c8c8c8c8c8c8c8c8c8c8c8c8c
Ciphertext:               759ddae7cb377b226a187e2467d06d8b2f7fb36cb480387d82e21a064e3ffd235ea6a35e32601cf311bdf4cb4974e14011
Reciphers for ciphertext: 0
Decipheredtext:           8c8c8c8c8c8c8c8c8c8c8c8c8c8c8c8c8c
RESULT CIPHER-DECIPHER: -----OK-----


Test: 116
Hash algorithm: 1
Symmetric key bit length: 256
IV bit length:            64
Plaintext bit length:     136
Symmetric key:            7474747474747474747474747474747474747474747474747474747474747474
IV:                       8b8b8b8b8b8b8b8b
Plaintext:                8b8b8b8b8b8b8b8b8b8b8b8b8b8b8b8b8b
Ciphertext:               a4238e350e747b60bf5e040493ed40d8d8f5292ef35ac731442aca00455afa6145b050ef6741eee571533cadf9
Reciphers for ciphertext: 0
Decipheredtext:           8b8b8b8b8b8b8b8b8b8b8b8b8b8b8b8b8b
RESULT CIPHER-DECIPHER: -----OK-----


Test: 117
Hash algorithm: 8
Symmetric key bit length: 256
IV bit length:            64
Plaintext bit length:     136
Symmetric key:            7575757575757575757575757575757575757575757575757575757575757575
IV:                       8a8a8a8a8a8a8a8a
Plaintext:                8a8a8a8a8a8a8a8a8a8a8a8a8a8a8a8a8a
Ciphertext:               1e16b61c29d345266ebb9201a740ff59136a502fd7c62c3f88911145e179e6bbee2edfb9d8
Reciphers for ciphertext: 0
Decipheredtext:           8a8a8a8a8a8a8a8a8a8a8a8a8a8a8a8a8a
RESULT CIPHER-DECIPHER: -----OK-----


Test: 118
Hash algorithm: 13
Symmetric key bit length: 256
IV bit length:            64
Plaintext bit length:     136
Symmetric key:            7676767676767676767676767676767676767676767676767676767676767676
IV:                       8989898989898989
Plaintext:                8989898989898989898989898989898989
Ciphertext:               cf66c8b016a56247aa56daaaaa24cbf64168992d120f93fa221c257bf1333837b9
Reciphers for ciphertext: 0
Decipheredtext:           8989898989898989898989898989898989
RESULT CIPHER-DECIPHER: -----OK-----


Test: 119
Hash algorithm: 13
Symmetric key bit length: 256
IV bit length:            64
Plaintext bit length:     136
Symmetric key:            7777777777777777777777777777777777777777777777777777777777777777
IV:                       8888888888888888
Plaintext:                8888888888888888888888888888888888
Ciphertext:               9236f9bc9d870715f8e05661950f786589fc8abf610aa26caeb05af43e74e4e485
Reciphers for ciphertext: 0
Decipheredtext:           8888888888888888888888888888888888
RESULT CIPHER-DECIPHER: -----OK-----


Test: 120
Hash algorithm: 3
Symmetric key bit length: 256
IV bit length:            64
Plaintext bit length:     136
Symmetric key:            7878787878787878787878787878787878787878787878787878787878787878
IV:                       8787878787878787
Plaintext:                8787878787878787878787878787878787
Ciphertext:               55deb5051383daeb5dc88b27ffd958c971f3f12fba4dd6be060536bff32e4f5e53277cc92ffc001c660a760d4c3b18ed30463cdc41c0876eb364c0c9004e417eee
Reciphers for ciphertext: 0
Decipheredtext:           8787878787878787878787878787878787
RESULT CIPHER-DECIPHER: -----OK-----


Test: 121
Hash algorithm: 12
Symmetric key bit length: 256
IV bit length:            64
Plaintext bit length:     136
Symmetric key:            7979797979797979797979797979797979797979797979797979797979797979
IV:                       8686868686868686
Plaintext:                8686868686868686868686868686868686
Ciphertext:               8d22370593d65fafc1069af38ef09db406501a5565b7162eeb2d3439c35a6ba5ba
Reciphers for ciphertext: 0
Decipheredtext:           8686868686868686868686868686868686
RESULT CIPHER-DECIPHER: -----OK-----


Test: 122
Hash algorithm: 4
Symmetric key bit length: 256
IV bit length:            64
Plaintext bit length:     136
Symmetric key:            7a7a7a7a7a7a7a7a7a7a7a7a7a7a7a7a7a7a7a7a7a7a7a7a7a7a7a7a7a7a7a7a
IV:                       8585858585858585
Plaintext:                8585858585858585858585858585858585
Ciphertext:               32bc2cc30680a50fa06d5d170fe0e7c49d276c80f718e2670f1c72b50f9fc8bc9dc38aa28fd33532a21d9e44513de690d3d7f5fcdaa3bb4a7dd3cd027480b212e1c575b7cff88d1f4e2d27b417b29b80ba
Reciphers for ciphertext: 0
Decipheredtext:           8585858585858585858585858585858585
RESULT CIPHER-DECIPHER: -----OK-----


Test: 123
Hash algorithm: 0
Symmetric key bit length: 256
IV bit length:            64
Plaintext bit length:     136
Symmetric key:            7b7b7b7b7b7b7b7b7b7b7b7b7b7b7b7b7b7b7b7b7b7b7b7b7b7b7b7b7b7b7b7b
IV:                       8484848484848484
Plaintext:                8484848484848484848484848484848484
Ciphertext:               c3366bc5ffd38416a7d4fdf56aa969a04730ac0fc0f19cfd1c6d703006110b2a207799995c
Reciphers for ciphertext: 0
Decipheredtext:           8484848484848484848484848484848484
RESULT CIPHER-DECIPHER: -----OK-----


Test: 124
Hash algorithm: 12
Symmetric key bit length: 256
IV bit length:            64
Plaintext bit length:     136
Symmetric key:            7c7c7c7c7c7c7c7c7c7c7c7c7c7c7c7c7c7c7c7c7c7c7c7c7c7c7c7c7c7c7c7c
IV:                       8383838383838383
Plaintext:                8383838383838383838383838383838383
Ciphertext:               5b0312a716017b0644f2ea7cd1153b6707c425b39383b17ec05886cb891ba36dcd
Reciphers for ciphertext: 0
Decipheredtext:           8383838383838383838383838383838383
RESULT CIPHER-DECIPHER: -----OK-----


Test: 125
Hash algorithm: 6
Symmetric key bit length: 256
IV bit length:            64
Plaintext bit length:     136
Symmetric key:            7d7d7d7d7d7d7d7d7d7d7d7d7d7d7d7d7d7d7d7d7d7d7d7d7d7d7d7d7d7d7d7d
IV:                       8282828282828282
Plaintext:                8282828282828282828282828282828282
Ciphertext:               ab2d113de6823211440376f9673e393cd77cc86cf0ad8f7db94caeef190d50ecffdcd91b604d54ae3fcafb212b1b87462a
Reciphers for ciphertext: 0
Decipheredtext:           8282828282828282828282828282828282
RESULT CIPHER-DECIPHER: -----OK-----


Test: 126
Hash algorithm: 4
Symmetric key bit length: 256
IV bit length:            64
Plaintext bit length:     136
Symmetric key:            7e7e7e7e7e7e7e7e7e7e7e7e7e7e7e7e7e7e7e7e7e7e7e7e7e7e7e7e7e7e7e7e
IV:                       8181818181818181
Plaintext:                8181818181818181818181818181818181
Ciphertext:               298eedd28c07b886e52d333b18f020b54ccac48482b451ac8e166120909f5bc50fab4752c6ca3db889786d7d5c8609b01aa2510332c6bb74bb1487c32cc260fa8f4535cb861760caf8c56648135bc40c6b
Reciphers for ciphertext: 0
Decipheredtext:           8181818181818181818181818181818181
RESULT CIPHER-DECIPHER: -----OK-----


Test: 127
Hash algorithm: 4
Symmetric key bit length: 256
IV bit length:            64
Plaintext bit length:     136
Symmetric key:            7f7f7f7f7f7f7f7f7f7f7f7f7f7f7f7f7f7f7f7f7f7f7f7f7f7f7f7f7f7f7f7f
IV:                       8080808080808080
Plaintext:                8080808080808080808080808080808080
Ciphertext:               e60363ecd5a9a8045b5f6355fc8e872e4aaca1c168af4946ca0f980827b0a59fb35e135c15e00933bb7c2aeda93fdae08d4ee786259f18557b9d03e84bcda8ea77ab5fa3082fd582da0126098f2af7e5d2
Reciphers for ciphertext: 0
Decipheredtext:           8080808080808080808080808080808080
RESULT CIPHER-DECIPHER: -----OK-----


 DATA SHA1 (hexadecimal): ac7bb4612c666551a51930b62ed9aa67fc1b0b08

