
DiceLock 9.0.0.1

 TEST COMPONENTS:
 ----------------
 DiceLock:           DiceLockIVDigested class
 Operation Mode:     CBC_Mode class
 Crypto pads:        0 - ANSI_X_923 class
                     1 - ISO_IEC_9797_1 class
                     2 - PKCS7 class
 Block Cipher:       Twofish192 class
 Hash algorithms:     0 - Sha1 class
                      1 - Sha224 class
                      2 - Sha256 class
                      3 - Sha384 class
                      4 - Sha512 class
                      5 - Sha512_224 class
                      6 - Sha512_256 class
                      7 - Ripemd128 class
                      8 - Ripemd160 class
                      9 - Ripemd256 class
                     10 - Ripemd320 class
                     11 - MD2 class
                     12 - MD4 class
                     13 - MD5 class
 Key Modifier:       DecreaseKeyModifier_6_0_0_1 class
 Random tests:       RandomTestSuite class
                     FrequencyTest class
                     BlockFrequencyTest class
                     CumulativeSumForwardTest class
                     LongestRunOfOnesTest class
                     RunsTest class
 Random alpha:       0.001

 VECTOR TEST: Test vector 4 - Symmetric key all byte value 0xXX


##### INDIVIDUAL TESTS #####

Number tests: 128


Test: 0
Hash algorithm: 5
Crypto pad: 2
Symmetric key bit length: 192
IV bit length:            128
Plaintext bit length:     128
Symmetric key:            000000000000000000000000000000000000000000000000
IV:                       00000000000000000000000000000000
Plaintext:                00000000000000000000000000000000
Ciphertext:               efa71f788965bd4453f860178fc191018c79560314b0e95619c73d252c0d0d93a8b33148f18d3d8dcdafafd8229006597b1ac57c2cf5690f465e02b6011d863a
Reciphers for ciphertext: 0
Decipheredtext:           00000000000000000000000000000000
RESULT CIPHER-DECIPHER: -----OK-----


Test: 1
Hash algorithm: 5
Crypto pad: 2
Symmetric key bit length: 192
IV bit length:            128
Plaintext bit length:     128
Symmetric key:            010101010101010101010101010101010101010101010101
IV:                       00000000000000000000000000000000
Plaintext:                00000000000000000000000000000000
Ciphertext:               9b24b49ebdef62a8738e6e3e4de876da1e8aee6442fa0e07a1cc52b2be2c79b377f4fc016a285c7eedff4f06be9cf1c92eeab506ba4ca05eda9178b413df44c5
Reciphers for ciphertext: 0
Decipheredtext:           00000000000000000000000000000000
RESULT CIPHER-DECIPHER: -----OK-----


Test: 2
Hash algorithm: 9
Crypto pad: 2
Symmetric key bit length: 192
IV bit length:            128
Plaintext bit length:     128
Symmetric key:            020202020202020202020202020202020202020202020202
IV:                       00000000000000000000000000000000
Plaintext:                00000000000000000000000000000000
Ciphertext:               ee66407e2bdaa5fb52a0e206f3a85963063153003f1fb0cb766ef0566fba8b0e133cf064d6e97f32550fc960f72ce747efd845fe1877fe115aa405eec7d269c46b2218dbb5b9ca4457dbbcc657f61860
Reciphers for ciphertext: 0
Decipheredtext:           00000000000000000000000000000000
RESULT CIPHER-DECIPHER: -----OK-----


Test: 3
Hash algorithm: 2
Crypto pad: 1
Symmetric key bit length: 192
IV bit length:            128
Plaintext bit length:     128
Symmetric key:            030303030303030303030303030303030303030303030303
IV:                       00000000000000000000000000000000
Plaintext:                00000000000000000000000000000000
Ciphertext:               a8dffccb44b7df25d20d614f98231c8413d42f17d4c795be3ec0046221c61abad04e1349128fbd72e4c2037394fc8a8f1836969013d1ac6dfd6817935f1c9656022a88bbf01e3c53ef65448a309a2e45
Reciphers for ciphertext: 0
Decipheredtext:           00000000000000000000000000000000
RESULT CIPHER-DECIPHER: -----OK-----


Test: 4
Hash algorithm: 10
Crypto pad: 1
Symmetric key bit length: 192
IV bit length:            128
Plaintext bit length:     128
Symmetric key:            040404040404040404040404040404040404040404040404
IV:                       00000000000000000000000000000000
Plaintext:                00000000000000000000000000000000
Ciphertext:               b98a13f4214878016bf0dcdd388db0013bbb743b3453047cffa2d44d6c861fc485514573d0a0d9456289bbdc92d057da6b71d6f0923275ad62ae7681dab7404df418a93f973b0131835c25956a08dec5
Reciphers for ciphertext: 0
Decipheredtext:           00000000000000000000000000000000
RESULT CIPHER-DECIPHER: -----OK-----


Test: 5
Hash algorithm: 2
Crypto pad: 0
Symmetric key bit length: 192
IV bit length:            128
Plaintext bit length:     128
Symmetric key:            050505050505050505050505050505050505050505050505
IV:                       00000000000000000000000000000000
Plaintext:                00000000000000000000000000000000
Ciphertext:               96a392ba29d3cce5cdbba514f83183b510ff4f050953f0f7dea6018dfe906b2575999044a3b61b752f270eca919513fdd3c06818314444de09e2fb96ff5155ed7afee7a9aab7c67d5c723b1001e6641b
Reciphers for ciphertext: 0
Decipheredtext:           00000000000000000000000000000000
RESULT CIPHER-DECIPHER: -----OK-----


Test: 6
Hash algorithm: 0
Crypto pad: 1
Symmetric key bit length: 192
IV bit length:            128
Plaintext bit length:     128
Symmetric key:            060606060606060606060606060606060606060606060606
IV:                       00000000000000000000000000000000
Plaintext:                00000000000000000000000000000000
Ciphertext:               37ccd0848b10251ab8eaba72901aecde49fe481fd7bbf52a4adbcb796cdb60180a3d53a18d5387af9e17ae39c04bb9e56bf09d50d70a013f1a2916a8b1a698ea
Reciphers for ciphertext: 0
Decipheredtext:           00000000000000000000000000000000
RESULT CIPHER-DECIPHER: -----OK-----


Test: 7
Hash algorithm: 11
Crypto pad: 0
Symmetric key bit length: 192
IV bit length:            128
Plaintext bit length:     128
Symmetric key:            070707070707070707070707070707070707070707070707
IV:                       00000000000000000000000000000000
Plaintext:                00000000000000000000000000000000
Ciphertext:               8d7595bf45568a74655518b507beb244ee112937fa09c4357445c095858cb97f70fcc07323c6c64e210560c49340e77264a24caa3c32a71281339ba5dc3b8a8b
Reciphers for ciphertext: 0
Decipheredtext:           00000000000000000000000000000000
RESULT CIPHER-DECIPHER: -----OK-----


Test: 8
Hash algorithm: 4
Crypto pad: 2
Symmetric key bit length: 192
IV bit length:            128
Plaintext bit length:     128
Symmetric key:            080808080808080808080808080808080808080808080808
IV:                       00000000000000000000000000000000
Plaintext:                00000000000000000000000000000000
Ciphertext:               81ee4ac381c1834537af271c39c83108650e107fc76e6755d7ea9555c43c1b99d99dda339981affacc1c4bdda2aa9bf86abfdbbe4f14547018957416442e9d71f9f2e4a09a64e401623de443d27e6625e8233be3c45f171067e8b7f4deb6ab39691b29b25b2c5c381286ed9d0d80f630
Reciphers for ciphertext: 0
Decipheredtext:           00000000000000000000000000000000
RESULT CIPHER-DECIPHER: -----OK-----


Test: 9
Hash algorithm: 11
Crypto pad: 0
Symmetric key bit length: 192
IV bit length:            128
Plaintext bit length:     128
Symmetric key:            090909090909090909090909090909090909090909090909
IV:                       00000000000000000000000000000000
Plaintext:                00000000000000000000000000000000
Ciphertext:               66c6f9d7553bd605cb0092aee29f3391b8a77d15066283f3e733c3e72ed2121145aabf9d1ea252f80ccf5568fb44eb192e30d4309e5539aac283484f5d502447
Reciphers for ciphertext: 0
Decipheredtext:           00000000000000000000000000000000
RESULT CIPHER-DECIPHER: -----OK-----


Test: 10
Hash algorithm: 1
Crypto pad: 1
Symmetric key bit length: 192
IV bit length:            128
Plaintext bit length:     128
Symmetric key:            0a0a0a0a0a0a0a0a0a0a0a0a0a0a0a0a0a0a0a0a0a0a0a0a
IV:                       00000000000000000000000000000000
Plaintext:                00000000000000000000000000000000
Ciphertext:               4bfbbb4c3e4b42c5099aac6d155ad1053da1535973e1df38dbdfe37f5a0479e49382c932945cf7f16714d0b7d22aa1c089ccac985b48d8c16c634e4da25542cf
Reciphers for ciphertext: 0
Decipheredtext:           00000000000000000000000000000000
RESULT CIPHER-DECIPHER: -----OK-----


Test: 11
Hash algorithm: 3
Crypto pad: 1
Symmetric key bit length: 192
IV bit length:            128
Plaintext bit length:     128
Symmetric key:            0b0b0b0b0b0b0b0b0b0b0b0b0b0b0b0b0b0b0b0b0b0b0b0b
IV:                       00000000000000000000000000000000
Plaintext:                00000000000000000000000000000000
Ciphertext:               6fa9157ca08e894e316a4f7db851b18c4f7785d981662d3dc478831580fb02429e485033c0836e7d031cf7abd1d546f1fe2ef9b6c2ebe9d5ef4fdb9b174fba3d0e0f9dc4413b6ae4bf3b5f28460419b9c2c40b943b2215a43c6c7412c67d13db
Reciphers for ciphertext: 0
Decipheredtext:           00000000000000000000000000000000
RESULT CIPHER-DECIPHER: -----OK-----


Test: 12
Hash algorithm: 13
Crypto pad: 2
Symmetric key bit length: 192
IV bit length:            128
Plaintext bit length:     128
Symmetric key:            0c0c0c0c0c0c0c0c0c0c0c0c0c0c0c0c0c0c0c0c0c0c0c0c
IV:                       00000000000000000000000000000000
Plaintext:                00000000000000000000000000000000
Ciphertext:               4e633b26bed1aa6d65d7e46ae244de19bdcc66c16731cc0b07af0272b5ebb1a5ac4a70de38fb8ed87df6c6f4a8794fd017c064a620cca6c1c850b6b6e8e03436
Reciphers for ciphertext: 0
Decipheredtext:           00000000000000000000000000000000
RESULT CIPHER-DECIPHER: -----OK-----


Test: 13
Hash algorithm: 8
Crypto pad: 1
Symmetric key bit length: 192
IV bit length:            128
Plaintext bit length:     128
Symmetric key:            0d0d0d0d0d0d0d0d0d0d0d0d0d0d0d0d0d0d0d0d0d0d0d0d
IV:                       00000000000000000000000000000000
Plaintext:                00000000000000000000000000000000
Ciphertext:               e287e7068fd27b1e19f44d9e3b69dadcb2ef370d6fe4f7eebe2cd2ff067dc5d009622dadd3ae22c6fde4edf0ba522fc53165de1aadb8fd4776746e2d2c59348b
Reciphers for ciphertext: 0
Decipheredtext:           00000000000000000000000000000000
RESULT CIPHER-DECIPHER: -----OK-----


Test: 14
Hash algorithm: 11
Crypto pad: 0
Symmetric key bit length: 192
IV bit length:            128
Plaintext bit length:     128
Symmetric key:            0e0e0e0e0e0e0e0e0e0e0e0e0e0e0e0e0e0e0e0e0e0e0e0e
IV:                       00000000000000000000000000000000
Plaintext:                00000000000000000000000000000000
Ciphertext:               8f1f2b3f75f7da259303d454133a1cd2bbda9c07d50f5203cff818182744bad0b3e2aecd6e2ec62c6a26e7761013f48dae3a1fd5564bae03671ae09207f71596
Reciphers for ciphertext: 0
Decipheredtext:           00000000000000000000000000000000
RESULT CIPHER-DECIPHER: -----OK-----


Test: 15
Hash algorithm: 0
Crypto pad: 1
Symmetric key bit length: 192
IV bit length:            128
Plaintext bit length:     128
Symmetric key:            0f0f0f0f0f0f0f0f0f0f0f0f0f0f0f0f0f0f0f0f0f0f0f0f
IV:                       00000000000000000000000000000000
Plaintext:                00000000000000000000000000000000
Ciphertext:               147023965dcd8bb2a5549e1460fe5558791546049f9f7043b7b8144b1fa255f2b58d6c166cdaf88421eac8079b491b7ce4801b1fcb8ab0a3bdc184f448076811
Reciphers for ciphertext: 0
Decipheredtext:           00000000000000000000000000000000
RESULT CIPHER-DECIPHER: -----OK-----


Test: 16
Hash algorithm: 11
Crypto pad: 2
Symmetric key bit length: 192
IV bit length:            128
Plaintext bit length:     128
Symmetric key:            101010101010101010101010101010101010101010101010
IV:                       00000000000000000000000000000000
Plaintext:                00000000000000000000000000000000
Ciphertext:               81feac456478f40c8a0104a69902fc9c5317c69ff4f49a27aeda8b161dbbfb74bfcaa31b9712ee42695ff490f344ddd0269dec07af706ed7fc68a1ec88bc2e4a
Reciphers for ciphertext: 0
Decipheredtext:           00000000000000000000000000000000
RESULT CIPHER-DECIPHER: -----OK-----


Test: 17
Hash algorithm: 9
Crypto pad: 2
Symmetric key bit length: 192
IV bit length:            128
Plaintext bit length:     128
Symmetric key:            111111111111111111111111111111111111111111111111
IV:                       00000000000000000000000000000000
Plaintext:                00000000000000000000000000000000
Ciphertext:               a7b7a6df8ff6eaf9e991f9bb29615f8c6039d853f713a5659e4d84e96934e91f91f0f812e3427f1283f9ad7bfe448ecc2dc006371081ce5d21e67f185c87b824ff151fe077d74a964600adc641adec5b
Reciphers for ciphertext: 0
Decipheredtext:           00000000000000000000000000000000
RESULT CIPHER-DECIPHER: -----OK-----


Test: 18
Hash algorithm: 9
Crypto pad: 2
Symmetric key bit length: 192
IV bit length:            128
Plaintext bit length:     128
Symmetric key:            121212121212121212121212121212121212121212121212
IV:                       00000000000000000000000000000000
Plaintext:                00000000000000000000000000000000
Ciphertext:               b35d270b6305a6cba3e95222fe426bc081b44eac05fd6adea01ead5b226e25657e0f67d8176ddba0b18ba2cb1ae77ee3f94580edeefa5039599349f6057ae1f83e32a62730fb97dc8ecd42af60925ffa
Reciphers for ciphertext: 0
Decipheredtext:           00000000000000000000000000000000
RESULT CIPHER-DECIPHER: -----OK-----


Test: 19
Hash algorithm: 3
Crypto pad: 1
Symmetric key bit length: 192
IV bit length:            128
Plaintext bit length:     128
Symmetric key:            131313131313131313131313131313131313131313131313
IV:                       00000000000000000000000000000000
Plaintext:                00000000000000000000000000000000
Ciphertext:               63f8bde07f2cb3f173bf015133501b2ec0f78b38938fb2b76f8e4164d956367e4fe006407ecf1d075eed29e98d296ff7ea1a1f3a0d6ddc30e53eae8e254e2b05dab92b19367b0e9e779a1dc0a92cf9dd5c14991973736be10ddb7a75f05b3428
Reciphers for ciphertext: 0
Decipheredtext:           00000000000000000000000000000000
RESULT CIPHER-DECIPHER: -----OK-----


Test: 20
Hash algorithm: 5
Crypto pad: 1
Symmetric key bit length: 192
IV bit length:            128
Plaintext bit length:     128
Symmetric key:            141414141414141414141414141414141414141414141414
IV:                       00000000000000000000000000000000
Plaintext:                00000000000000000000000000000000
Ciphertext:               f8e6a7e8785e6fe0bec502e0c1be82beb60ddd793af4aefebf595dae8629fb03196c9cdd5148b8909b1044f107334f22da424a940d2348426038d04abd65c3f1
Reciphers for ciphertext: 0
Decipheredtext:           00000000000000000000000000000000
RESULT CIPHER-DECIPHER: -----OK-----


Test: 21
Hash algorithm: 10
Crypto pad: 2
Symmetric key bit length: 192
IV bit length:            128
Plaintext bit length:     128
Symmetric key:            151515151515151515151515151515151515151515151515
IV:                       00000000000000000000000000000000
Plaintext:                00000000000000000000000000000000
Ciphertext:               660c9c6f0e215a83063048f72b525d225e0539c514dec24c62a464eb5044bde798b47a13e39c95471bbaf3b1cac1e5f6edf5a74386d3bff6316dfcf1e9abab60bd025ca915c5bad501d60982ced89f94
Reciphers for ciphertext: 0
Decipheredtext:           00000000000000000000000000000000
RESULT CIPHER-DECIPHER: -----OK-----


Test: 22
Hash algorithm: 8
Crypto pad: 1
Symmetric key bit length: 192
IV bit length:            128
Plaintext bit length:     128
Symmetric key:            161616161616161616161616161616161616161616161616
IV:                       00000000000000000000000000000000
Plaintext:                00000000000000000000000000000000
Ciphertext:               e522d8c81fa6e174e8633ef0544700762f7b8236baa9ef7976504340f15c785828fd4c86b89c8bce5edbffe228c6084e429069cd53f9820e0817c85e5ac6033c
Reciphers for ciphertext: 0
Decipheredtext:           00000000000000000000000000000000
RESULT CIPHER-DECIPHER: -----OK-----


Test: 23
Hash algorithm: 7
Crypto pad: 1
Symmetric key bit length: 192
IV bit length:            128
Plaintext bit length:     128
Symmetric key:            171717171717171717171717171717171717171717171717
IV:                       00000000000000000000000000000000
Plaintext:                00000000000000000000000000000000
Ciphertext:               cdd4fe8c4f4c582e5ce66f0a6f82ed7fa4aef339bb4b4f7f32be43f91e505e306eebfd7e82176533c1a95cf75945888f5d620a4582f66054de81306c811498d5
Reciphers for ciphertext: 0
Decipheredtext:           00000000000000000000000000000000
RESULT CIPHER-DECIPHER: -----OK-----


Test: 24
Hash algorithm: 5
Crypto pad: 1
Symmetric key bit length: 192
IV bit length:            128
Plaintext bit length:     128
Symmetric key:            181818181818181818181818181818181818181818181818
IV:                       00000000000000000000000000000000
Plaintext:                00000000000000000000000000000000
Ciphertext:               c9c01ac532ff90b6a6a2c9704a259f073f8491416f38ecb803d3688c80a696e03139491f4a7c684badd8127f8e2551e9b035c6061d03e68f53ea03152f0ba1c1
Reciphers for ciphertext: 0
Decipheredtext:           00000000000000000000000000000000
RESULT CIPHER-DECIPHER: -----OK-----


Test: 25
Hash algorithm: 4
Crypto pad: 1
Symmetric key bit length: 192
IV bit length:            128
Plaintext bit length:     128
Symmetric key:            191919191919191919191919191919191919191919191919
IV:                       00000000000000000000000000000000
Plaintext:                00000000000000000000000000000000
Ciphertext:               a021b57b32ed56d713386bf37721a372934bad1b36b926cc28859c1ac4543a32516ea43c703fce51ec58abc934bd5983fd2e69ede4501c1dca4048bca4dd5243b284ad8f96188703da890973cb914418f8b3f1cf16a026baa52a5346de779a42bb8d3ec6790d585817988d41b43a4ee5
Reciphers for ciphertext: 0
Decipheredtext:           00000000000000000000000000000000
RESULT CIPHER-DECIPHER: -----OK-----


Test: 26
Hash algorithm: 12
Crypto pad: 0
Symmetric key bit length: 192
IV bit length:            128
Plaintext bit length:     128
Symmetric key:            1a1a1a1a1a1a1a1a1a1a1a1a1a1a1a1a1a1a1a1a1a1a1a1a
IV:                       00000000000000000000000000000000
Plaintext:                00000000000000000000000000000000
Ciphertext:               24ee33e52504c2d36a266adb9f843cb935d80136b76bcf08f2d8c314a64b838903643293303ab9a4ccf57777c2b5362eafe37a1390d8645a278c17085bc8c412
Reciphers for ciphertext: 0
Decipheredtext:           00000000000000000000000000000000
RESULT CIPHER-DECIPHER: -----OK-----


Test: 27
Hash algorithm: 11
Crypto pad: 1
Symmetric key bit length: 192
IV bit length:            128
Plaintext bit length:     128
Symmetric key:            1b1b1b1b1b1b1b1b1b1b1b1b1b1b1b1b1b1b1b1b1b1b1b1b
IV:                       00000000000000000000000000000000
Plaintext:                00000000000000000000000000000000
Ciphertext:               14d9d8a2e2c7373d5ff76cb9b10bc2c89b521528632cfcafb19c3151be7e648194a6f157780a7e7219b673f8793af840504f2d436ff861a02c55a7a0044f975b
Reciphers for ciphertext: 0
Decipheredtext:           00000000000000000000000000000000
RESULT CIPHER-DECIPHER: -----OK-----


Test: 28
Hash algorithm: 10
Crypto pad: 1
Symmetric key bit length: 192
IV bit length:            128
Plaintext bit length:     128
Symmetric key:            1c1c1c1c1c1c1c1c1c1c1c1c1c1c1c1c1c1c1c1c1c1c1c1c
IV:                       00000000000000000000000000000000
Plaintext:                00000000000000000000000000000000
Ciphertext:               918d420d0dd565ed22e7dc87364297625e391133450159b2d380b3f1733dd7def24e8b0aed54822015027dda0b416e19f3e08f3f81a882fbfcbe52fb4760ce49f9e48a01c0388190924b67aa8e7e568b
Reciphers for ciphertext: 0
Decipheredtext:           00000000000000000000000000000000
RESULT CIPHER-DECIPHER: -----OK-----


Test: 29
Hash algorithm: 2
Crypto pad: 0
Symmetric key bit length: 192
IV bit length:            128
Plaintext bit length:     128
Symmetric key:            1d1d1d1d1d1d1d1d1d1d1d1d1d1d1d1d1d1d1d1d1d1d1d1d
IV:                       00000000000000000000000000000000
Plaintext:                00000000000000000000000000000000
Ciphertext:               e9d91abeb259ef5ce051e083560172f5f429420722f9786a391d94aa1b6cdde56e5d97b884bae868e2ccd9ef9eb2e26fea476d473ac57ada7b4730af80fd5d2efed073c67c2b67a854831763402c2bf7
Reciphers for ciphertext: 0
Decipheredtext:           00000000000000000000000000000000
RESULT CIPHER-DECIPHER: -----OK-----


Test: 30
Hash algorithm: 2
Crypto pad: 2
Symmetric key bit length: 192
IV bit length:            128
Plaintext bit length:     128
Symmetric key:            1e1e1e1e1e1e1e1e1e1e1e1e1e1e1e1e1e1e1e1e1e1e1e1e
IV:                       00000000000000000000000000000000
Plaintext:                00000000000000000000000000000000
Ciphertext:               82e89affd87d8aadeb050ec03813c6697f78d7c34a22ced094dda1ce56dd2cf4c38401a103714b914365a5ab6794eed6afb2499637769abccc28d025152b304a177bbe1a6c93630fd262e6f4156c2bc7
Reciphers for ciphertext: 0
Decipheredtext:           00000000000000000000000000000000
RESULT CIPHER-DECIPHER: -----OK-----


Test: 31
Hash algorithm: 13
Crypto pad: 0
Symmetric key bit length: 192
IV bit length:            128
Plaintext bit length:     128
Symmetric key:            1f1f1f1f1f1f1f1f1f1f1f1f1f1f1f1f1f1f1f1f1f1f1f1f
IV:                       00000000000000000000000000000000
Plaintext:                00000000000000000000000000000000
Ciphertext:               7557a984e4b99a4c4d2b3943e0ff3ca1a5cd3480184b755d39cf0850442d1107b017d7ef064e5068f46edac4a0f7e63d7cfb1674a4a7219c3cdc3748d3f91d3f
Reciphers for ciphertext: 0
Decipheredtext:           00000000000000000000000000000000
RESULT CIPHER-DECIPHER: -----OK-----


Test: 32
Hash algorithm: 6
Crypto pad: 1
Symmetric key bit length: 192
IV bit length:            128
Plaintext bit length:     128
Symmetric key:            202020202020202020202020202020202020202020202020
IV:                       00000000000000000000000000000000
Plaintext:                00000000000000000000000000000000
Ciphertext:               74c0477a3d1d84bb3d6f5534877e14361a18d72c1206b8ab6f1d13b1062c82fd3d0917d0c68d54ff620b3f483d33b215e0233ffe8241aa1660dc68a457382073a06d9993b9bddeb0fd011ea2ccc5b3ec
Reciphers for ciphertext: 0
Decipheredtext:           00000000000000000000000000000000
RESULT CIPHER-DECIPHER: -----OK-----


Test: 33
Hash algorithm: 7
Crypto pad: 2
Symmetric key bit length: 192
IV bit length:            128
Plaintext bit length:     128
Symmetric key:            212121212121212121212121212121212121212121212121
IV:                       00000000000000000000000000000000
Plaintext:                00000000000000000000000000000000
Ciphertext:               0e1c4529b4dc53228fd7021b9de426599f05530a98cd55378528c64884894fd7d0890b58ba0344fd48e3793eee0de59fe5380ab888e88a589298a253a4ee5cdc
Reciphers for ciphertext: 0
Decipheredtext:           00000000000000000000000000000000
RESULT CIPHER-DECIPHER: -----OK-----


Test: 34
Hash algorithm: 8
Crypto pad: 1
Symmetric key bit length: 192
IV bit length:            128
Plaintext bit length:     128
Symmetric key:            222222222222222222222222222222222222222222222222
IV:                       00000000000000000000000000000000
Plaintext:                00000000000000000000000000000000
Ciphertext:               23d482340f18dc52afe3fa8f981813c1ade1faaf9ce1dbb50abd925b758740fcd882128bec31c0035bf9ec321b34ae662384c1c429acecaf6095510caab936ab
Reciphers for ciphertext: 0
Decipheredtext:           00000000000000000000000000000000
RESULT CIPHER-DECIPHER: -----OK-----


Test: 35
Hash algorithm: 10
Crypto pad: 2
Symmetric key bit length: 192
IV bit length:            128
Plaintext bit length:     128
Symmetric key:            232323232323232323232323232323232323232323232323
IV:                       00000000000000000000000000000000
Plaintext:                00000000000000000000000000000000
Ciphertext:               81f44c86d0be5f60b248deca71c113c9c5033ff45e3c28d82e66e129208e9007e1d084919905f9a1c98b4065041b9d5bdb1a81fa37d2e3241cad637b9123789a16955043fea7594f56c457755e3691e6
Reciphers for ciphertext: 0
Decipheredtext:           00000000000000000000000000000000
RESULT CIPHER-DECIPHER: -----OK-----


Test: 36
Hash algorithm: 13
Crypto pad: 2
Symmetric key bit length: 192
IV bit length:            128
Plaintext bit length:     128
Symmetric key:            242424242424242424242424242424242424242424242424
IV:                       00000000000000000000000000000000
Plaintext:                00000000000000000000000000000000
Ciphertext:               19d0f6f598e3b571e15a20da54f7aec214dc93efc225160d25c87f53543c8d06819886de11e7e6619caf3747b182f584e32fb7b073cd676636ee2faa252f8415
Reciphers for ciphertext: 0
Decipheredtext:           00000000000000000000000000000000
RESULT CIPHER-DECIPHER: -----OK-----


Test: 37
Hash algorithm: 12
Crypto pad: 1
Symmetric key bit length: 192
IV bit length:            128
Plaintext bit length:     128
Symmetric key:            252525252525252525252525252525252525252525252525
IV:                       00000000000000000000000000000000
Plaintext:                00000000000000000000000000000000
Ciphertext:               223fdb95a06f0690bc9d9435ded81ef000cd6d88acc04666a0e794f4bfd8d3106d3e4fe7aadfbb18c4c61590647260821e7437cb9ec922f0e6ab804b910ce0e9
Reciphers for ciphertext: 0
Decipheredtext:           00000000000000000000000000000000
RESULT CIPHER-DECIPHER: -----OK-----


Test: 38
Hash algorithm: 12
Crypto pad: 0
Symmetric key bit length: 192
IV bit length:            128
Plaintext bit length:     128
Symmetric key:            262626262626262626262626262626262626262626262626
IV:                       00000000000000000000000000000000
Plaintext:                00000000000000000000000000000000
Ciphertext:               0ba48b6d3506638328ff82d8a7b17cfdf70e3bcc393d433c669c900a610d2c90c3b1ce0d69e0a764840879274674d26e7b85f747152e031f3a5b095ff8fb8cc4
Reciphers for ciphertext: 0
Decipheredtext:           00000000000000000000000000000000
RESULT CIPHER-DECIPHER: -----OK-----


Test: 39
Hash algorithm: 11
Crypto pad: 1
Symmetric key bit length: 192
IV bit length:            128
Plaintext bit length:     128
Symmetric key:            272727272727272727272727272727272727272727272727
IV:                       00000000000000000000000000000000
Plaintext:                00000000000000000000000000000000
Ciphertext:               ba6f3a287c0ebafc44cede4b6ae3007b6fc4265b7dfd029f3b9266f36fa194d3c47f0178cee4766188645f2ab44a213f09191415f63db4d2777f1cd4e329d943
Reciphers for ciphertext: 0
Decipheredtext:           00000000000000000000000000000000
RESULT CIPHER-DECIPHER: -----OK-----


Test: 40
Hash algorithm: 10
Crypto pad: 0
Symmetric key bit length: 192
IV bit length:            128
Plaintext bit length:     128
Symmetric key:            282828282828282828282828282828282828282828282828
IV:                       00000000000000000000000000000000
Plaintext:                00000000000000000000000000000000
Ciphertext:               b028650ee57348a9baf5c332e64a0b522de1ce6fc3b69bc3886c0d603a39ece05b0ac571e0d5b57b526d683a0e7b533a8ed598b4a90b0aa842ce41531f6e0206b892b4a1473f702ea6f924072135734e
Reciphers for ciphertext: 0
Decipheredtext:           00000000000000000000000000000000
RESULT CIPHER-DECIPHER: -----OK-----


Test: 41
Hash algorithm: 4
Crypto pad: 2
Symmetric key bit length: 192
IV bit length:            128
Plaintext bit length:     128
Symmetric key:            292929292929292929292929292929292929292929292929
IV:                       00000000000000000000000000000000
Plaintext:                00000000000000000000000000000000
Ciphertext:               7cccba96ac9ce4785972031f305dc960f30db87a7491b3acad3b51df74d52020be7bbbe82bee485cbe59ad854e55e9d8c3f578498e1948badd1021e1e558b08d71139353136a8501c601cbe0f286adc772d02c18f86fd523fcff4a137d371a3e29becb45e1ccd1a0809e3e8afa996ee6
Reciphers for ciphertext: 0
Decipheredtext:           00000000000000000000000000000000
RESULT CIPHER-DECIPHER: -----OK-----


Test: 42
Hash algorithm: 10
Crypto pad: 1
Symmetric key bit length: 192
IV bit length:            128
Plaintext bit length:     128
Symmetric key:            2a2a2a2a2a2a2a2a2a2a2a2a2a2a2a2a2a2a2a2a2a2a2a2a
IV:                       00000000000000000000000000000000
Plaintext:                00000000000000000000000000000000
Ciphertext:               d74aae72037d570a9817e969f48d4d7d0c49b790228834e59b47e096585aa243e8056d6b2305ebcb1162f3b37156bcde6f8bbc4563aaff0d07ce88e4df3ee9140e91df0b52c6f0e61dff1025653b4138
Reciphers for ciphertext: 0
Decipheredtext:           00000000000000000000000000000000
RESULT CIPHER-DECIPHER: -----OK-----


Test: 43
Hash algorithm: 0
Crypto pad: 0
Symmetric key bit length: 192
IV bit length:            128
Plaintext bit length:     128
Symmetric key:            2b2b2b2b2b2b2b2b2b2b2b2b2b2b2b2b2b2b2b2b2b2b2b2b
IV:                       00000000000000000000000000000000
Plaintext:                00000000000000000000000000000000
Ciphertext:               486b20c5f09efda8fb102dbbe6dabccbb1641468a698668e14b18cde059c194c093a65e1c1a9593f63134bcff74c01f022baa30d5c90fc6253fe41136700305d
Reciphers for ciphertext: 0
Decipheredtext:           00000000000000000000000000000000
RESULT CIPHER-DECIPHER: -----OK-----


Test: 44
Hash algorithm: 5
Crypto pad: 1
Symmetric key bit length: 192
IV bit length:            128
Plaintext bit length:     128
Symmetric key:            2c2c2c2c2c2c2c2c2c2c2c2c2c2c2c2c2c2c2c2c2c2c2c2c
IV:                       00000000000000000000000000000000
Plaintext:                00000000000000000000000000000000
Ciphertext:               7caabe4ba0983992db588e953a3a532a59de80ebb2487b9c3f03f5118f31f129ab7a227e3221d0dee9647dad15b979711f9bc7f693364c113b59953487204c56
Reciphers for ciphertext: 0
Decipheredtext:           00000000000000000000000000000000
RESULT CIPHER-DECIPHER: -----OK-----


Test: 45
Hash algorithm: 4
Crypto pad: 0
Symmetric key bit length: 192
IV bit length:            128
Plaintext bit length:     128
Symmetric key:            2d2d2d2d2d2d2d2d2d2d2d2d2d2d2d2d2d2d2d2d2d2d2d2d
IV:                       00000000000000000000000000000000
Plaintext:                00000000000000000000000000000000
Ciphertext:               e30ab898cd58a4ebf6532f762e22f4ea0ccb91902de886f12d22b5573ef44829fe286e721f68bd29c9f4965d0253741b5a59f701e0d92073adc712c26b47c262dba0795c028368037162357302a79f4cbf6a9dd04c9798d810956545e375042f08284a18bc3152b41f29ae170a66661a
Reciphers for ciphertext: 0
Decipheredtext:           00000000000000000000000000000000
RESULT CIPHER-DECIPHER: -----OK-----


Test: 46
Hash algorithm: 2
Crypto pad: 2
Symmetric key bit length: 192
IV bit length:            128
Plaintext bit length:     128
Symmetric key:            2e2e2e2e2e2e2e2e2e2e2e2e2e2e2e2e2e2e2e2e2e2e2e2e
IV:                       00000000000000000000000000000000
Plaintext:                00000000000000000000000000000000
Ciphertext:               bb1767d23f5fdd5e15c329ca4ca20c0eb81e6dee34072e3a20c31db95ce1207e3c19e9c697703b365c5f3d7f590801d25aeddb4d555ef4960c4c86870683d8bd5c583f47bfa27a861c393c569fa530bd
Reciphers for ciphertext: 0
Decipheredtext:           00000000000000000000000000000000
RESULT CIPHER-DECIPHER: -----OK-----


Test: 47
Hash algorithm: 9
Crypto pad: 2
Symmetric key bit length: 192
IV bit length:            128
Plaintext bit length:     128
Symmetric key:            2f2f2f2f2f2f2f2f2f2f2f2f2f2f2f2f2f2f2f2f2f2f2f2f
IV:                       00000000000000000000000000000000
Plaintext:                00000000000000000000000000000000
Ciphertext:               8d9342d8cbb90f3c5f795c9099010fe198b54062d38c9bb996065bae492cf5d53437a0e041ec5a5ab7eed33c4f034d778c9d5eaf0cd35c84caeb5ab91399cc4b1e0985bd4f4fb0c0489d4d3e99819a81
Reciphers for ciphertext: 0
Decipheredtext:           00000000000000000000000000000000
RESULT CIPHER-DECIPHER: -----OK-----


Test: 48
Hash algorithm: 2
Crypto pad: 2
Symmetric key bit length: 192
IV bit length:            128
Plaintext bit length:     128
Symmetric key:            303030303030303030303030303030303030303030303030
IV:                       00000000000000000000000000000000
Plaintext:                00000000000000000000000000000000
Ciphertext:               c1e0fc89af42fe228c718f364ac69a24f079ebc2592d275ea9da045438581bbdb32409b2a2d328e116d1e978c49c2c7ea3077c7609f370d629bc26aa5f80a7da2d1da25ee522c4407c5cb13712a07c56
Reciphers for ciphertext: 0
Decipheredtext:           00000000000000000000000000000000
RESULT CIPHER-DECIPHER: -----OK-----


Test: 49
Hash algorithm: 8
Crypto pad: 1
Symmetric key bit length: 192
IV bit length:            128
Plaintext bit length:     128
Symmetric key:            313131313131313131313131313131313131313131313131
IV:                       00000000000000000000000000000000
Plaintext:                00000000000000000000000000000000
Ciphertext:               7c175b833113b10f4d112ce4c21107f358ba0ee4ba4e06efd516ff31c04d18a5ecca2a26fbf589092579cec303ce1380230b6849e85b7eca9533cebfb2d20b2f
Reciphers for ciphertext: 0
Decipheredtext:           00000000000000000000000000000000
RESULT CIPHER-DECIPHER: -----OK-----


Test: 50
Hash algorithm: 0
Crypto pad: 0
Symmetric key bit length: 192
IV bit length:            128
Plaintext bit length:     128
Symmetric key:            323232323232323232323232323232323232323232323232
IV:                       00000000000000000000000000000000
Plaintext:                00000000000000000000000000000000
Ciphertext:               e14c09fa43174a9b59cb15879918dca01e5cce2629378dbeade68bf7734151781d6d435bfe63b757d9b819c248eb0604d47697ba205db24a171c2ece365c7aa8
Reciphers for ciphertext: 0
Decipheredtext:           00000000000000000000000000000000
RESULT CIPHER-DECIPHER: -----OK-----


Test: 51
Hash algorithm: 6
Crypto pad: 2
Symmetric key bit length: 192
IV bit length:            128
Plaintext bit length:     128
Symmetric key:            333333333333333333333333333333333333333333333333
IV:                       00000000000000000000000000000000
Plaintext:                00000000000000000000000000000000
Ciphertext:               91d1dc09645ee1423535a531db7d39e5fb502282c919649e93d6deb6a6310e0ae8c40167b81e4cc686d354b1bb493f5a60b5ac15513aa9a9da970eb9eb5de727c51f47336a9bc7d483023f64e46f9df4
Reciphers for ciphertext: 0
Decipheredtext:           00000000000000000000000000000000
RESULT CIPHER-DECIPHER: -----OK-----


Test: 52
Hash algorithm: 7
Crypto pad: 1
Symmetric key bit length: 192
IV bit length:            128
Plaintext bit length:     128
Symmetric key:            343434343434343434343434343434343434343434343434
IV:                       00000000000000000000000000000000
Plaintext:                00000000000000000000000000000000
Ciphertext:               42f780bfc39e69c513a6ee59d305657433f7424f5d4c25e594d56744a4d5bdfa47f79ed7fd70a3f4b7ecc03817ab3a103a0966e74d3cf96247f979bffe19f8cc
Reciphers for ciphertext: 0
Decipheredtext:           00000000000000000000000000000000
RESULT CIPHER-DECIPHER: -----OK-----


Test: 53
Hash algorithm: 8
Crypto pad: 0
Symmetric key bit length: 192
IV bit length:            128
Plaintext bit length:     128
Symmetric key:            353535353535353535353535353535353535353535353535
IV:                       00000000000000000000000000000000
Plaintext:                00000000000000000000000000000000
Ciphertext:               45fbd294e5b793605744bb0540fd52925095d4c1cff7509b9f160d4235f1b317d5dd0ee8e3803ad7c8e15330b23f5451753f7bed351fea8789b8ec2e052c2136
Reciphers for ciphertext: 0
Decipheredtext:           00000000000000000000000000000000
RESULT CIPHER-DECIPHER: -----OK-----


Test: 54
Hash algorithm: 13
Crypto pad: 0
Symmetric key bit length: 192
IV bit length:            128
Plaintext bit length:     128
Symmetric key:            363636363636363636363636363636363636363636363636
IV:                       00000000000000000000000000000000
Plaintext:                00000000000000000000000000000000
Ciphertext:               71320f35fe57e5c999414962b91bc439f595a7c4ae369847c4e191886fed26eb1d19c8b26ab4db41de80b275ef9cc31908c8d176bc8d4a2ed2de117cad0349c9
Reciphers for ciphertext: 0
Decipheredtext:           00000000000000000000000000000000
RESULT CIPHER-DECIPHER: -----OK-----


Test: 55
Hash algorithm: 4
Crypto pad: 1
Symmetric key bit length: 192
IV bit length:            128
Plaintext bit length:     128
Symmetric key:            373737373737373737373737373737373737373737373737
IV:                       00000000000000000000000000000000
Plaintext:                00000000000000000000000000000000
Ciphertext:               12d7952f28ff77a809fd954afa010190e14b88d7fcfa31bf2abbb8ce40a09a4da56c5923c5aced88a6318c38f96a426ea590cf9df0e6c60b76037b0045dafad3d8f9333f7fcf730f94f3eff742324aa1ad51fc423c5b1d4f6db6a3d0c135821d91065fcf663781b3c5ffa29cc2053069
Reciphers for ciphertext: 0
Decipheredtext:           00000000000000000000000000000000
RESULT CIPHER-DECIPHER: -----OK-----


Test: 56
Hash algorithm: 4
Crypto pad: 1
Symmetric key bit length: 192
IV bit length:            128
Plaintext bit length:     128
Symmetric key:            383838383838383838383838383838383838383838383838
IV:                       00000000000000000000000000000000
Plaintext:                00000000000000000000000000000000
Ciphertext:               18cb6b6aba2863972c8482105a3cb2a0fa1af186a0d3a19e8a6dd58088bfd6d8dd9fa52fb016f74c258f70afec9ca0cf8c2850dea9ac3fd1934aa2a087e952de0343a593f6669d7aac46fcb7328fb40fcb4b476fd95cc1774780f3387cc995701672b2d960e9ff8229df1e85b56fee18
Reciphers for ciphertext: 0
Decipheredtext:           00000000000000000000000000000000
RESULT CIPHER-DECIPHER: -----OK-----


Test: 57
Hash algorithm: 7
Crypto pad: 0
Symmetric key bit length: 192
IV bit length:            128
Plaintext bit length:     128
Symmetric key:            393939393939393939393939393939393939393939393939
IV:                       00000000000000000000000000000000
Plaintext:                00000000000000000000000000000000
Ciphertext:               a7155dd88327b5fc536b59d95b19ad2fcd2b3c294d3d52b47a2459871f1e75ab7a58db392e382ad795a279865baecf6efa0cdadc1a1371dae5700d69064cfe52
Reciphers for ciphertext: 0
Decipheredtext:           00000000000000000000000000000000
RESULT CIPHER-DECIPHER: -----OK-----


Test: 58
Hash algorithm: 9
Crypto pad: 1
Symmetric key bit length: 192
IV bit length:            128
Plaintext bit length:     128
Symmetric key:            3a3a3a3a3a3a3a3a3a3a3a3a3a3a3a3a3a3a3a3a3a3a3a3a
IV:                       00000000000000000000000000000000
Plaintext:                00000000000000000000000000000000
Ciphertext:               c0759a80ed67f82cf01349a023793d489dacae6b0cabbd9c1de2eaa2d485c494968b3b878b9960c5c4d3b834948addb49492e90d59d33935c2ccdc3d96e992eb848818f52251f7da212f99ca58cbb2f2
Reciphers for ciphertext: 0
Decipheredtext:           00000000000000000000000000000000
RESULT CIPHER-DECIPHER: -----OK-----


Test: 59
Hash algorithm: 1
Crypto pad: 1
Symmetric key bit length: 192
IV bit length:            128
Plaintext bit length:     128
Symmetric key:            3b3b3b3b3b3b3b3b3b3b3b3b3b3b3b3b3b3b3b3b3b3b3b3b
IV:                       00000000000000000000000000000000
Plaintext:                00000000000000000000000000000000
Ciphertext:               2c64fc39ff71260f361d859ba45a9fe6fefab21e57519a8e2ccc4919cb2adb96e15a56924d8288cf7a9b77dcba10b80b777501ae287cd5a361d11623d42bf622
Reciphers for ciphertext: 0
Decipheredtext:           00000000000000000000000000000000
RESULT CIPHER-DECIPHER: -----OK-----


Test: 60
Hash algorithm: 10
Crypto pad: 0
Symmetric key bit length: 192
IV bit length:            128
Plaintext bit length:     128
Symmetric key:            3c3c3c3c3c3c3c3c3c3c3c3c3c3c3c3c3c3c3c3c3c3c3c3c
IV:                       00000000000000000000000000000000
Plaintext:                00000000000000000000000000000000
Ciphertext:               651baad9644838a8a5ed820cdfbcdfc1208b936c1ec3ae8d80f41a729a329c7decc0bbfe5a8a1a1ad83092718f7d624419a84084e8743dbda6fcf5191ea889d751296f42882c084637f62298ee9349c1
Reciphers for ciphertext: 0
Decipheredtext:           00000000000000000000000000000000
RESULT CIPHER-DECIPHER: -----OK-----


Test: 61
Hash algorithm: 10
Crypto pad: 1
Symmetric key bit length: 192
IV bit length:            128
Plaintext bit length:     128
Symmetric key:            3d3d3d3d3d3d3d3d3d3d3d3d3d3d3d3d3d3d3d3d3d3d3d3d
IV:                       00000000000000000000000000000000
Plaintext:                00000000000000000000000000000000
Ciphertext:               f97c20025ba0e0182d38b7eaeced3e92e662e5e56c51b5e9be13de7915bd698ac4e9b4373f4206de588f7ba53d693bc41cb40f45e473c5f8e3e8e78bb1c01c2bceb8d3bfb2ca8188438e0042005ce164
Reciphers for ciphertext: 0
Decipheredtext:           00000000000000000000000000000000
RESULT CIPHER-DECIPHER: -----OK-----


Test: 62
Hash algorithm: 7
Crypto pad: 1
Symmetric key bit length: 192
IV bit length:            128
Plaintext bit length:     128
Symmetric key:            3e3e3e3e3e3e3e3e3e3e3e3e3e3e3e3e3e3e3e3e3e3e3e3e
IV:                       00000000000000000000000000000000
Plaintext:                00000000000000000000000000000000
Ciphertext:               343240b1c4cf54f6fc594e82c0b4e67cc2372f24d08e1b20e4c50b0fc4cd576bd9a579035faecb91f6c5693929dac5d62c5339c9938ff74aea214a6f00739345
Reciphers for ciphertext: 0
Decipheredtext:           00000000000000000000000000000000
RESULT CIPHER-DECIPHER: -----OK-----


Test: 63
Hash algorithm: 2
Crypto pad: 1
Symmetric key bit length: 192
IV bit length:            128
Plaintext bit length:     128
Symmetric key:            3f3f3f3f3f3f3f3f3f3f3f3f3f3f3f3f3f3f3f3f3f3f3f3f
IV:                       00000000000000000000000000000000
Plaintext:                00000000000000000000000000000000
Ciphertext:               42d6143a7bdaf8739c9742508a876992e50ead1ae6bba9272e57c258df8bf2580855e9b0542d7d52326827ab6b19be4bafbd4a2879b3b20c7ba1e37357ab1ed625db5198ba61fc7fcd74d3a57702e7eb
Reciphers for ciphertext: 0
Decipheredtext:           00000000000000000000000000000000
RESULT CIPHER-DECIPHER: -----OK-----


Test: 64
Hash algorithm: 3
Crypto pad: 0
Symmetric key bit length: 192
IV bit length:            128
Plaintext bit length:     128
Symmetric key:            404040404040404040404040404040404040404040404040
IV:                       00000000000000000000000000000000
Plaintext:                00000000000000000000000000000000
Ciphertext:               671570184674716fed45358f8c6207f204045524112c3c225e6b501d67b4fe10270761b24a4fca648df2bd60f7b2bc3916e643f9f5914e377ac91b378982953830aff1e5618c7176921d1cb425a8bf3efa47ac4d0822b10755fcb9b5bcc0db8f
Reciphers for ciphertext: 0
Decipheredtext:           00000000000000000000000000000000
RESULT CIPHER-DECIPHER: -----OK-----


Test: 65
Hash algorithm: 0
Crypto pad: 0
Symmetric key bit length: 192
IV bit length:            128
Plaintext bit length:     128
Symmetric key:            414141414141414141414141414141414141414141414141
IV:                       00000000000000000000000000000000
Plaintext:                00000000000000000000000000000000
Ciphertext:               810cdb07efb86a0a39429476aee72476cfb4fdc372fc59c042332c70a4c10579188c9dcd9dbc4343abd2c3792a567ef7720b8fd6de9cbd9a95c5d1e598cb051e
Reciphers for ciphertext: 0
Decipheredtext:           00000000000000000000000000000000
RESULT CIPHER-DECIPHER: -----OK-----


Test: 66
Hash algorithm: 2
Crypto pad: 0
Symmetric key bit length: 192
IV bit length:            128
Plaintext bit length:     128
Symmetric key:            424242424242424242424242424242424242424242424242
IV:                       00000000000000000000000000000000
Plaintext:                00000000000000000000000000000000
Ciphertext:               2c5820b35d2f2bc7f5f537f9cb1614aa82dd6e67352ebc36c0dbe3562c33c52e3473b9fdbac9fca6583a92f1a351c4ecd30ca2a3485570b3de25ce189806659b115e6225c44f87bd6fe4e3d0642e0cba
Reciphers for ciphertext: 0
Decipheredtext:           00000000000000000000000000000000
RESULT CIPHER-DECIPHER: -----OK-----


Test: 67
Hash algorithm: 1
Crypto pad: 2
Symmetric key bit length: 192
IV bit length:            128
Plaintext bit length:     128
Symmetric key:            434343434343434343434343434343434343434343434343
IV:                       00000000000000000000000000000000
Plaintext:                00000000000000000000000000000000
Ciphertext:               cec1bcd3b73f4fe8d65e22c5ecd1908f3c96d40a5bdbf6722414586870c4036fd75b9a8f642b76e57a0827af73d7fe55a4197cf1b15eedc1b0bcca8283e5df1f
Reciphers for ciphertext: 0
Decipheredtext:           00000000000000000000000000000000
RESULT CIPHER-DECIPHER: -----OK-----


Test: 68
Hash algorithm: 2
Crypto pad: 2
Symmetric key bit length: 192
IV bit length:            128
Plaintext bit length:     128
Symmetric key:            444444444444444444444444444444444444444444444444
IV:                       00000000000000000000000000000000
Plaintext:                00000000000000000000000000000000
Ciphertext:               754f6d806c293b01474867bd9a236ae5eca26cdd6502b77fd90ceceaddc669c24a94d373a1da103eb21b4898ecc14b40ca00b39e89504f67e3dc40b7dbcb9e4abde48a5e877a46ffc197910f82167368
Reciphers for ciphertext: 0
Decipheredtext:           00000000000000000000000000000000
RESULT CIPHER-DECIPHER: -----OK-----


Test: 69
Hash algorithm: 2
Crypto pad: 0
Symmetric key bit length: 192
IV bit length:            128
Plaintext bit length:     128
Symmetric key:            454545454545454545454545454545454545454545454545
IV:                       00000000000000000000000000000000
Plaintext:                00000000000000000000000000000000
Ciphertext:               bf786cbaea4e9d264dbaefe63813a75c874585da3692d0fe3f5800ea9c643b005e7fc873c49c9026dce4ca0452841e6958e6a82c67120f9f38f87ed806a047f61ec4b4aa89e7ce0ef74e4279b092b4b3
Reciphers for ciphertext: 0
Decipheredtext:           00000000000000000000000000000000
RESULT CIPHER-DECIPHER: -----OK-----


Test: 70
Hash algorithm: 6
Crypto pad: 1
Symmetric key bit length: 192
IV bit length:            128
Plaintext bit length:     128
Symmetric key:            464646464646464646464646464646464646464646464646
IV:                       00000000000000000000000000000000
Plaintext:                00000000000000000000000000000000
Ciphertext:               421acb2cd4f53d0870d69120f4801aca1e5991f6407cae10d7218914dabe72a13aaedfe3595828584306677f726d8cf1b3bc273a59b3c9f1d9435bf4be9d05e8a890e41a83582597632085041ac5c089
Reciphers for ciphertext: 0
Decipheredtext:           00000000000000000000000000000000
RESULT CIPHER-DECIPHER: -----OK-----


Test: 71
Hash algorithm: 7
Crypto pad: 1
Symmetric key bit length: 192
IV bit length:            128
Plaintext bit length:     128
Symmetric key:            474747474747474747474747474747474747474747474747
IV:                       00000000000000000000000000000000
Plaintext:                00000000000000000000000000000000
Ciphertext:               001880b38752bcbf88c1e4236a5939e064db9957876aaff1dd5b41226694915657b4993641deec05964636220688803b4a003fb7b8400fe9e7f8f128c5f2aca5
Reciphers for ciphertext: 0
Decipheredtext:           00000000000000000000000000000000
RESULT CIPHER-DECIPHER: -----OK-----


Test: 72
Hash algorithm: 7
Crypto pad: 0
Symmetric key bit length: 192
IV bit length:            128
Plaintext bit length:     128
Symmetric key:            484848484848484848484848484848484848484848484848
IV:                       00000000000000000000000000000000
Plaintext:                00000000000000000000000000000000
Ciphertext:               3782b2dd69582e179f038f1bcaa1d09333288f053bd2f1f24b832f0a1b88572c2c085f1e6183b9f99e98a542a5eca2c0c4c71c3143bb8f961ecc39358be4e76e
Reciphers for ciphertext: 0
Decipheredtext:           00000000000000000000000000000000
RESULT CIPHER-DECIPHER: -----OK-----


Test: 73
Hash algorithm: 1
Crypto pad: 2
Symmetric key bit length: 192
IV bit length:            128
Plaintext bit length:     128
Symmetric key:            494949494949494949494949494949494949494949494949
IV:                       00000000000000000000000000000000
Plaintext:                00000000000000000000000000000000
Ciphertext:               838b842d80873c8b4a7526aa9cb44fe365ef7003bd4f56a40a3d7792c23b037ab375ddc98eb5641c8f80ec765a770fd7f3df86bc1f3b268235cde16a044f25e6
Reciphers for ciphertext: 0
Decipheredtext:           00000000000000000000000000000000
RESULT CIPHER-DECIPHER: -----OK-----


Test: 74
Hash algorithm: 11
Crypto pad: 1
Symmetric key bit length: 192
IV bit length:            128
Plaintext bit length:     128
Symmetric key:            4a4a4a4a4a4a4a4a4a4a4a4a4a4a4a4a4a4a4a4a4a4a4a4a
IV:                       00000000000000000000000000000000
Plaintext:                00000000000000000000000000000000
Ciphertext:               a2eef453be487f8dfdddb4a1a917a9a1baf5b0d626a0a80f47c9fc5e13ba9ab0df7f401c61245678aadec213e49b8b29c7f68a026ab8cd97edac4ad4d70f7e9c
Reciphers for ciphertext: 0
Decipheredtext:           00000000000000000000000000000000
RESULT CIPHER-DECIPHER: -----OK-----


Test: 75
Hash algorithm: 12
Crypto pad: 2
Symmetric key bit length: 192
IV bit length:            128
Plaintext bit length:     128
Symmetric key:            4b4b4b4b4b4b4b4b4b4b4b4b4b4b4b4b4b4b4b4b4b4b4b4b
IV:                       00000000000000000000000000000000
Plaintext:                00000000000000000000000000000000
Ciphertext:               ac60335d57c49f9e45bb869b14079dad51ccf24077c4302535d58ad3edcff598fe7ce5dde26fd9302a5900be377d11959ced83dac5b4f2757d6ae72a6177b88a
Reciphers for ciphertext: 0
Decipheredtext:           00000000000000000000000000000000
RESULT CIPHER-DECIPHER: -----OK-----


Test: 76
Hash algorithm: 1
Crypto pad: 2
Symmetric key bit length: 192
IV bit length:            128
Plaintext bit length:     128
Symmetric key:            4c4c4c4c4c4c4c4c4c4c4c4c4c4c4c4c4c4c4c4c4c4c4c4c
IV:                       00000000000000000000000000000000
Plaintext:                00000000000000000000000000000000
Ciphertext:               197311654290145882d07acc10943bbe1f1563cb55a82d150b3e8bb499926a6ddd3f37b3314b619cf58cd8d726d0de3097d3659b2f82a4f370ddac7d81654545
Reciphers for ciphertext: 0
Decipheredtext:           00000000000000000000000000000000
RESULT CIPHER-DECIPHER: -----OK-----


Test: 77
Hash algorithm: 3
Crypto pad: 0
Symmetric key bit length: 192
IV bit length:            128
Plaintext bit length:     128
Symmetric key:            4d4d4d4d4d4d4d4d4d4d4d4d4d4d4d4d4d4d4d4d4d4d4d4d
IV:                       00000000000000000000000000000000
Plaintext:                00000000000000000000000000000000
Ciphertext:               666d18db5500314e2d5d0804e557ae8543aa73368d3d36f699025e3b5124a37993b3b2aab3c3d63cc6c56fd01e9b7447bbacad8f564b9345fca8e9adf6486780e5b73747571fec53418fc3da1f79a721211bae5b7e89b58cca735b9d538b10a7
Reciphers for ciphertext: 0
Decipheredtext:           00000000000000000000000000000000
RESULT CIPHER-DECIPHER: -----OK-----


Test: 78
Hash algorithm: 1
Crypto pad: 2
Symmetric key bit length: 192
IV bit length:            128
Plaintext bit length:     128
Symmetric key:            4e4e4e4e4e4e4e4e4e4e4e4e4e4e4e4e4e4e4e4e4e4e4e4e
IV:                       00000000000000000000000000000000
Plaintext:                00000000000000000000000000000000
Ciphertext:               2eba75ce85ab336876647d403240657f52d4361e5fcbfd9ecc6f316d035619fa463d38f988aabcbd9e12f7b731dced25e5b44c29ec902a8a5f2814f40a75df93
Reciphers for ciphertext: 0
Decipheredtext:           00000000000000000000000000000000
RESULT CIPHER-DECIPHER: -----OK-----


Test: 79
Hash algorithm: 4
Crypto pad: 0
Symmetric key bit length: 192
IV bit length:            128
Plaintext bit length:     128
Symmetric key:            4f4f4f4f4f4f4f4f4f4f4f4f4f4f4f4f4f4f4f4f4f4f4f4f
IV:                       00000000000000000000000000000000
Plaintext:                00000000000000000000000000000000
Ciphertext:               f6f82f4ab9911a0c5b0e19178b553227027971cd8f6d29c9f18c48af78d1a7ceca6f891404561b321ca729e4916abb22c2b4e663af19b110dfa8fb5ca4e12e169bbef9302e0bfc59db49e5ded0a44782269a8a8bbd82d1266e5a047c60d8fcb30dd0fb1cc916d4f00b2a3675f714b58f
Reciphers for ciphertext: 0
Decipheredtext:           00000000000000000000000000000000
RESULT CIPHER-DECIPHER: -----OK-----


Test: 80
Hash algorithm: 4
Crypto pad: 0
Symmetric key bit length: 192
IV bit length:            128
Plaintext bit length:     128
Symmetric key:            505050505050505050505050505050505050505050505050
IV:                       00000000000000000000000000000000
Plaintext:                00000000000000000000000000000000
Ciphertext:               1189d3a62ec08164351be0d9d01bd52b09519c3dccf5ddef14845ee6a6562a6f91de59066afcd8e345f5cf1f35410c390a6121b3ee62ea59081c655f92cae663c6fa7ba9223e6cef4dba725abd54dd50819d10482d55dff4d7cc49789b33ce3a0b3ee0f47e90b46cd135705bfed47e61
Reciphers for ciphertext: 0
Decipheredtext:           00000000000000000000000000000000
RESULT CIPHER-DECIPHER: -----OK-----


Test: 81
Hash algorithm: 3
Crypto pad: 1
Symmetric key bit length: 192
IV bit length:            128
Plaintext bit length:     128
Symmetric key:            515151515151515151515151515151515151515151515151
IV:                       00000000000000000000000000000000
Plaintext:                00000000000000000000000000000000
Ciphertext:               bb7af9baf9932ef596422efd65969089790e9280c3bf3083788654025c17eedc4244cea6b2995d5345dcc4a52c088f099aa01f02792d3657d307a589b7d2aca31080a8ea248b31bb67bbba4c6ffe7013a58667fd83014754b8ca4e9e4c251f9f
Reciphers for ciphertext: 0
Decipheredtext:           00000000000000000000000000000000
RESULT CIPHER-DECIPHER: -----OK-----


Test: 82
Hash algorithm: 9
Crypto pad: 2
Symmetric key bit length: 192
IV bit length:            128
Plaintext bit length:     128
Symmetric key:            525252525252525252525252525252525252525252525252
IV:                       00000000000000000000000000000000
Plaintext:                00000000000000000000000000000000
Ciphertext:               368187df1e3b1bfa859f6ccec6137334374c34def843b348b8188691a503bb0bb914106a0ed27a0585f3f51f683c876d71dd300b1ce6a6eb778773a51da569ef7db38b097cb3bb684e4b376aa4394ac0
Reciphers for ciphertext: 0
Decipheredtext:           00000000000000000000000000000000
RESULT CIPHER-DECIPHER: -----OK-----


Test: 83
Hash algorithm: 5
Crypto pad: 1
Symmetric key bit length: 192
IV bit length:            128
Plaintext bit length:     128
Symmetric key:            535353535353535353535353535353535353535353535353
IV:                       00000000000000000000000000000000
Plaintext:                00000000000000000000000000000000
Ciphertext:               86190e6479c00651457664e37a675322a955aee25ad38f226cdc241b367a212464fe577a62aabd34f99aae900e45da543942e71d7227ddfafa055d7c8387872a
Reciphers for ciphertext: 0
Decipheredtext:           00000000000000000000000000000000
RESULT CIPHER-DECIPHER: -----OK-----


Test: 84
Hash algorithm: 8
Crypto pad: 1
Symmetric key bit length: 192
IV bit length:            128
Plaintext bit length:     128
Symmetric key:            545454545454545454545454545454545454545454545454
IV:                       00000000000000000000000000000000
Plaintext:                00000000000000000000000000000000
Ciphertext:               d6920b5c084ec20c17ef53205f62bd49d66071dc671b042d8c22f8447a7f20c1545a27fa92ec359e4b3e3f4b5e7367b909b6d64985c58617205149599cf2badc
Reciphers for ciphertext: 0
Decipheredtext:           00000000000000000000000000000000
RESULT CIPHER-DECIPHER: -----OK-----


Test: 85
Hash algorithm: 7
Crypto pad: 2
Symmetric key bit length: 192
IV bit length:            128
Plaintext bit length:     128
Symmetric key:            555555555555555555555555555555555555555555555555
IV:                       00000000000000000000000000000000
Plaintext:                00000000000000000000000000000000
Ciphertext:               b0272c1542eb73793bf6738fdf694ca1360c31b1df6f7662660c3d2e5165c726aae398e9ae546c2a87601c025315690a78da378f6dd3b349091bbd65b0dcebbc
Reciphers for ciphertext: 0
Decipheredtext:           00000000000000000000000000000000
RESULT CIPHER-DECIPHER: -----OK-----


Test: 86
Hash algorithm: 1
Crypto pad: 2
Symmetric key bit length: 192
IV bit length:            128
Plaintext bit length:     128
Symmetric key:            565656565656565656565656565656565656565656565656
IV:                       00000000000000000000000000000000
Plaintext:                00000000000000000000000000000000
Ciphertext:               2208aa2fb7151c65a93d0bcf7430d172818275f9496b0f5f3b43e9957a9cf8a2d282d58174bd284cd41161d242ce90a0d89079a3153bc07f1b22c3df3c3df95a
Reciphers for ciphertext: 0
Decipheredtext:           00000000000000000000000000000000
RESULT CIPHER-DECIPHER: -----OK-----


Test: 87
Hash algorithm: 1
Crypto pad: 2
Symmetric key bit length: 192
IV bit length:            128
Plaintext bit length:     128
Symmetric key:            575757575757575757575757575757575757575757575757
IV:                       00000000000000000000000000000000
Plaintext:                00000000000000000000000000000000
Ciphertext:               77800fc300275307fd69201fd5c3ed15ef22e81a57a3d56e454c4b4b359da5568be268a13f1053aede29046f034c7179b8c928d7a0c2ca3b199b778df0249b76
Reciphers for ciphertext: 0
Decipheredtext:           00000000000000000000000000000000
RESULT CIPHER-DECIPHER: -----OK-----


Test: 88
Hash algorithm: 11
Crypto pad: 1
Symmetric key bit length: 192
IV bit length:            128
Plaintext bit length:     128
Symmetric key:            585858585858585858585858585858585858585858585858
IV:                       00000000000000000000000000000000
Plaintext:                00000000000000000000000000000000
Ciphertext:               6b5a7a725696bbf479b18992da52a403052d30045182d37bb9d2e9109d04bdc4db7abdd68f3f6b63bef6f73f18c77b9978ef82d75034ad60921aa429268adbc0
Reciphers for ciphertext: 0
Decipheredtext:           00000000000000000000000000000000
RESULT CIPHER-DECIPHER: -----OK-----


Test: 89
Hash algorithm: 7
Crypto pad: 0
Symmetric key bit length: 192
IV bit length:            128
Plaintext bit length:     128
Symmetric key:            595959595959595959595959595959595959595959595959
IV:                       00000000000000000000000000000000
Plaintext:                00000000000000000000000000000000
Ciphertext:               ee3a009137cb0c78e11f40c43c70e19b5a01b4d214e02722fb97df68c14d4f7511cde7ee85fe64318d1180b70df80c8c9bf6c463f780e49c3da5150b912b09d2
Reciphers for ciphertext: 0
Decipheredtext:           00000000000000000000000000000000
RESULT CIPHER-DECIPHER: -----OK-----


Test: 90
Hash algorithm: 6
Crypto pad: 2
Symmetric key bit length: 192
IV bit length:            128
Plaintext bit length:     128
Symmetric key:            5a5a5a5a5a5a5a5a5a5a5a5a5a5a5a5a5a5a5a5a5a5a5a5a
IV:                       00000000000000000000000000000000
Plaintext:                00000000000000000000000000000000
Ciphertext:               b412dcf667056bdf94b64ea6313eaee8cc1d9b2c47dbe93367f010a2dd47232ed48fffdbc1bb1724b39fb02bc42f74aa596507ca89f1ee195b58efffb3ab2b046dc6f19961ad36953c4a262ce6b8607a
Reciphers for ciphertext: 0
Decipheredtext:           00000000000000000000000000000000
RESULT CIPHER-DECIPHER: -----OK-----


Test: 91
Hash algorithm: 3
Crypto pad: 2
Symmetric key bit length: 192
IV bit length:            128
Plaintext bit length:     128
Symmetric key:            5b5b5b5b5b5b5b5b5b5b5b5b5b5b5b5b5b5b5b5b5b5b5b5b
IV:                       00000000000000000000000000000000
Plaintext:                00000000000000000000000000000000
Ciphertext:               45f737e54d11849d76e7e90a6d18acf0968d7e4ba6d91c3b8729165e4fe95ab17121f352ce6096a447f17fb2590b9d33bba89d3b453f07323e90e724748bf9d8f10d87b87c050f6cd0c8a508b5e0aeb95471adcb301742b6cb58b6acacf329e2
Reciphers for ciphertext: 0
Decipheredtext:           00000000000000000000000000000000
RESULT CIPHER-DECIPHER: -----OK-----


Test: 92
Hash algorithm: 6
Crypto pad: 1
Symmetric key bit length: 192
IV bit length:            128
Plaintext bit length:     128
Symmetric key:            5c5c5c5c5c5c5c5c5c5c5c5c5c5c5c5c5c5c5c5c5c5c5c5c
IV:                       00000000000000000000000000000000
Plaintext:                00000000000000000000000000000000
Ciphertext:               ceccbe2d652234c670446092c1b3c1edd17e2dfb590628af69523a20980c0e15d43d30b49daaaeb17224fe83893c360e66fcf3b5f807b414f8aef03844c29058fe6e276a1b9dc196e5ee69913a07248e
Reciphers for ciphertext: 0
Decipheredtext:           00000000000000000000000000000000
RESULT CIPHER-DECIPHER: -----OK-----


Test: 93
Hash algorithm: 6
Crypto pad: 0
Symmetric key bit length: 192
IV bit length:            128
Plaintext bit length:     128
Symmetric key:            5d5d5d5d5d5d5d5d5d5d5d5d5d5d5d5d5d5d5d5d5d5d5d5d
IV:                       00000000000000000000000000000000
Plaintext:                00000000000000000000000000000000
Ciphertext:               4e862fab24fdbe0c160bceb786d633af5108c9ca3eb54f83b53701482985533880a6570fa7f906328eb891288474d7491416c9f20587f59b00b2af3e54e6f83668d33af2fb0bbfa7b69d5d15957cc039
Reciphers for ciphertext: 0
Decipheredtext:           00000000000000000000000000000000
RESULT CIPHER-DECIPHER: -----OK-----


Test: 94
Hash algorithm: 10
Crypto pad: 0
Symmetric key bit length: 192
IV bit length:            128
Plaintext bit length:     128
Symmetric key:            5e5e5e5e5e5e5e5e5e5e5e5e5e5e5e5e5e5e5e5e5e5e5e5e
IV:                       00000000000000000000000000000000
Plaintext:                00000000000000000000000000000000
Ciphertext:               157356f916365589cad671112bfdd42e1ccf0c1f2b978a057784c6e3541c2edb461ef7c7c516e6a817405fe00a894b30ab598efa9ec18f0378ff77a81920fe244da703ac3e9205e89577dad600cb386c
Reciphers for ciphertext: 0
Decipheredtext:           00000000000000000000000000000000
RESULT CIPHER-DECIPHER: -----OK-----


Test: 95
Hash algorithm: 10
Crypto pad: 1
Symmetric key bit length: 192
IV bit length:            128
Plaintext bit length:     128
Symmetric key:            5f5f5f5f5f5f5f5f5f5f5f5f5f5f5f5f5f5f5f5f5f5f5f5f
IV:                       00000000000000000000000000000000
Plaintext:                00000000000000000000000000000000
Ciphertext:               f3b6ecd7ef1c340053361c9b31ce3c935d30c00b87f891c8a35ad8085cc2c8ad30b826ed6b964c3646f6e0d96b5e87a533e3bed76f8cb0652771735b340bd82745e0599216573d3f4df3d860ed8ce514
Reciphers for ciphertext: 0
Decipheredtext:           00000000000000000000000000000000
RESULT CIPHER-DECIPHER: -----OK-----


Test: 96
Hash algorithm: 12
Crypto pad: 0
Symmetric key bit length: 192
IV bit length:            128
Plaintext bit length:     128
Symmetric key:            606060606060606060606060606060606060606060606060
IV:                       00000000000000000000000000000000
Plaintext:                00000000000000000000000000000000
Ciphertext:               0bd06a59fd31023bbc21592772fb35e0eb577d7968b874e3f9fc42f3421144ecc135a10f8132f3023757c194eb59922c5c709cee89686143755e9e558c8d3878
Reciphers for ciphertext: 0
Decipheredtext:           00000000000000000000000000000000
RESULT CIPHER-DECIPHER: -----OK-----


Test: 97
Hash algorithm: 8
Crypto pad: 0
Symmetric key bit length: 192
IV bit length:            128
Plaintext bit length:     128
Symmetric key:            616161616161616161616161616161616161616161616161
IV:                       00000000000000000000000000000000
Plaintext:                00000000000000000000000000000000
Ciphertext:               4512719d324294e8ae6c2439b3419f0d4bb40b2ee026e7c7216dddd8beba18ce442921ae4423d7a993eaab760f330783210157135e4e9dec0b8ba1182f73fd2d
Reciphers for ciphertext: 0
Decipheredtext:           00000000000000000000000000000000
RESULT CIPHER-DECIPHER: -----OK-----


Test: 98
Hash algorithm: 3
Crypto pad: 1
Symmetric key bit length: 192
IV bit length:            128
Plaintext bit length:     128
Symmetric key:            626262626262626262626262626262626262626262626262
IV:                       00000000000000000000000000000000
Plaintext:                00000000000000000000000000000000
Ciphertext:               e59532a7ca285533999d33ff737350c2d4b56c2211cb6f2f7693fda7c369baacd1339e56c4abe0638fac12d79c6f99cebe94efd36db76b125ef349f3274e2fe615c244e8283b5c4134f732f76be26092a3b02237bb83f33a08906de0a6be289d
Reciphers for ciphertext: 0
Decipheredtext:           00000000000000000000000000000000
RESULT CIPHER-DECIPHER: -----OK-----


Test: 99
Hash algorithm: 11
Crypto pad: 1
Symmetric key bit length: 192
IV bit length:            128
Plaintext bit length:     128
Symmetric key:            636363636363636363636363636363636363636363636363
IV:                       00000000000000000000000000000000
Plaintext:                00000000000000000000000000000000
Ciphertext:               d2708cf6661166466c58bd9c7ff0ec7d952060234036434821885353d7b1af5951b17b14ca4b29488e1dc9f746db2aee45d96c60d2e5022673f8bcf7d1a5fccb
Reciphers for ciphertext: 0
Decipheredtext:           00000000000000000000000000000000
RESULT CIPHER-DECIPHER: -----OK-----


Test: 100
Hash algorithm: 8
Crypto pad: 0
Symmetric key bit length: 192
IV bit length:            128
Plaintext bit length:     128
Symmetric key:            646464646464646464646464646464646464646464646464
IV:                       00000000000000000000000000000000
Plaintext:                00000000000000000000000000000000
Ciphertext:               ecb05924f154bc2898c5f8379a50488269f973827c2c39af834246893958828ecdb3302fa1ba4e61e5cea10d80f6e02461b3a880f6c80a2bf29e31322f4b6f4f
Reciphers for ciphertext: 0
Decipheredtext:           00000000000000000000000000000000
RESULT CIPHER-DECIPHER: -----OK-----


Test: 101
Hash algorithm: 12
Crypto pad: 1
Symmetric key bit length: 192
IV bit length:            128
Plaintext bit length:     128
Symmetric key:            656565656565656565656565656565656565656565656565
IV:                       00000000000000000000000000000000
Plaintext:                00000000000000000000000000000000
Ciphertext:               d77c564cf93e18187a5ce9eb58d38850f8f3dd90fcd34ff25a794444ecdc5c223466e02ebf0dcef87aca809e32d47e64bceb10db7e566ac1d501ecd003b1e0d3
Reciphers for ciphertext: 0
Decipheredtext:           00000000000000000000000000000000
RESULT CIPHER-DECIPHER: -----OK-----


Test: 102
Hash algorithm: 3
Crypto pad: 0
Symmetric key bit length: 192
IV bit length:            128
Plaintext bit length:     128
Symmetric key:            666666666666666666666666666666666666666666666666
IV:                       00000000000000000000000000000000
Plaintext:                00000000000000000000000000000000
Ciphertext:               521a0d2eb981d881c754c3006be486459dfcaab249a46a3ee4d0538e33e8b0a3b45e2045d86cc44032c0102b96b31f0bb3b6f85cf0400f166f5b26ab776bd9611d2de502fec6470de5a9cf17fe38515a95c066e308e855149d96a776f1791134
Reciphers for ciphertext: 0
Decipheredtext:           00000000000000000000000000000000
RESULT CIPHER-DECIPHER: -----OK-----


Test: 103
Hash algorithm: 2
Crypto pad: 2
Symmetric key bit length: 192
IV bit length:            128
Plaintext bit length:     128
Symmetric key:            676767676767676767676767676767676767676767676767
IV:                       00000000000000000000000000000000
Plaintext:                00000000000000000000000000000000
Ciphertext:               cd1386d4d514e52947bc1ff7d40803c9a48d0e98220972ff14e46acc2057ef246f9f118ac2741a10779b16801da043f28841d4c6eb8898186a5764f1520f3901d1e013be64dd16cb96d03c2c9e339c46
Reciphers for ciphertext: 0
Decipheredtext:           00000000000000000000000000000000
RESULT CIPHER-DECIPHER: -----OK-----


Test: 104
Hash algorithm: 5
Crypto pad: 2
Symmetric key bit length: 192
IV bit length:            128
Plaintext bit length:     128
Symmetric key:            686868686868686868686868686868686868686868686868
IV:                       00000000000000000000000000000000
Plaintext:                00000000000000000000000000000000
Ciphertext:               c0167410dabb2628fed6e1d78c5396b759d9f57e1f3225a3009b654a0986e3e3cad701b3b0481bcdba74dbdb6c68bc7e8d3312a88828cb0970899f5644f48d8c
Reciphers for ciphertext: 0
Decipheredtext:           00000000000000000000000000000000
RESULT CIPHER-DECIPHER: -----OK-----


Test: 105
Hash algorithm: 13
Crypto pad: 0
Symmetric key bit length: 192
IV bit length:            128
Plaintext bit length:     128
Symmetric key:            696969696969696969696969696969696969696969696969
IV:                       00000000000000000000000000000000
Plaintext:                00000000000000000000000000000000
Ciphertext:               9beacc6a461a64e4432f647d743448a1703e2b9aab90a124adde7277c9ee3dcde4caa99b12653a60247ab8cf9f279fec51e37a448cb77d515fafd62722e79463
Reciphers for ciphertext: 0
Decipheredtext:           00000000000000000000000000000000
RESULT CIPHER-DECIPHER: -----OK-----


Test: 106
Hash algorithm: 8
Crypto pad: 2
Symmetric key bit length: 192
IV bit length:            128
Plaintext bit length:     128
Symmetric key:            6a6a6a6a6a6a6a6a6a6a6a6a6a6a6a6a6a6a6a6a6a6a6a6a
IV:                       00000000000000000000000000000000
Plaintext:                00000000000000000000000000000000
Ciphertext:               d66293b17becc476e7f4eed6469c7eb991dd39e28686fcef2e2489ac1dcad7e6f9e08f03f7819be5e2f8fd12f7a2e07815ecf50711ec5b67bcf522911927688f
Reciphers for ciphertext: 0
Decipheredtext:           00000000000000000000000000000000
RESULT CIPHER-DECIPHER: -----OK-----


Test: 107
Hash algorithm: 7
Crypto pad: 0
Symmetric key bit length: 192
IV bit length:            128
Plaintext bit length:     128
Symmetric key:            6b6b6b6b6b6b6b6b6b6b6b6b6b6b6b6b6b6b6b6b6b6b6b6b
IV:                       00000000000000000000000000000000
Plaintext:                00000000000000000000000000000000
Ciphertext:               7c8a01f4ac14898acd3f3eff015b1409d37ba338465409a333ce74e45e5910d8f14a9a5e76da1401579403a04cc974749dde56ac751b1eaf046b199125ea4aa5
Reciphers for ciphertext: 0
Decipheredtext:           00000000000000000000000000000000
RESULT CIPHER-DECIPHER: -----OK-----


Test: 108
Hash algorithm: 6
Crypto pad: 2
Symmetric key bit length: 192
IV bit length:            128
Plaintext bit length:     128
Symmetric key:            6c6c6c6c6c6c6c6c6c6c6c6c6c6c6c6c6c6c6c6c6c6c6c6c
IV:                       00000000000000000000000000000000
Plaintext:                00000000000000000000000000000000
Ciphertext:               9fc642372aa0edfdd275ce7ffd4b3365eb9c132dcc45e3b23a2dce42948b05da7a1d992304a8bce3c42b0104e05ce73fdc8e162947a2f1c5e44c56eea50af022735d85b0d389d803a59d49cb01f181ea
Reciphers for ciphertext: 0
Decipheredtext:           00000000000000000000000000000000
RESULT CIPHER-DECIPHER: -----OK-----


Test: 109
Hash algorithm: 9
Crypto pad: 0
Symmetric key bit length: 192
IV bit length:            128
Plaintext bit length:     128
Symmetric key:            6d6d6d6d6d6d6d6d6d6d6d6d6d6d6d6d6d6d6d6d6d6d6d6d
IV:                       00000000000000000000000000000000
Plaintext:                00000000000000000000000000000000
Ciphertext:               d5d8abedcd1ae3cce94a14dbf7b5fe6326da2eb21265ed1c12f03af5e512d28c95a5e6deb5b56ea953c0dbe79033b963b74f99af00dd4b421d4574cc9c74fd48084a40665d224169f016f46f8052411a
Reciphers for ciphertext: 0
Decipheredtext:           00000000000000000000000000000000
RESULT CIPHER-DECIPHER: -----OK-----


Test: 110
Hash algorithm: 5
Crypto pad: 0
Symmetric key bit length: 192
IV bit length:            128
Plaintext bit length:     128
Symmetric key:            6e6e6e6e6e6e6e6e6e6e6e6e6e6e6e6e6e6e6e6e6e6e6e6e
IV:                       00000000000000000000000000000000
Plaintext:                00000000000000000000000000000000
Ciphertext:               b82d2a8bffb5f1ab3fe10878eda8acaa511089e2de4f327cb16794c5cc93bfbf9927e7e2768f361a2afd1b93d9e5f488dedf161954ed5b2e4a112dea437e1e99
Reciphers for ciphertext: 0
Decipheredtext:           00000000000000000000000000000000
RESULT CIPHER-DECIPHER: -----OK-----


Test: 111
Hash algorithm: 6
Crypto pad: 2
Symmetric key bit length: 192
IV bit length:            128
Plaintext bit length:     128
Symmetric key:            6f6f6f6f6f6f6f6f6f6f6f6f6f6f6f6f6f6f6f6f6f6f6f6f
IV:                       00000000000000000000000000000000
Plaintext:                00000000000000000000000000000000
Ciphertext:               62e0e50a8068bda3d0a538b20bf7a101ae5782685edf8fbeadf539561a4fcec9433d2d0eb6016508c8bec30d2bb0e07f47785857398559c46e4c864b6b7b656f76bd572deb93920f73a86e41ba34caa3
Reciphers for ciphertext: 0
Decipheredtext:           00000000000000000000000000000000
RESULT CIPHER-DECIPHER: -----OK-----


Test: 112
Hash algorithm: 7
Crypto pad: 0
Symmetric key bit length: 192
IV bit length:            128
Plaintext bit length:     128
Symmetric key:            707070707070707070707070707070707070707070707070
IV:                       00000000000000000000000000000000
Plaintext:                00000000000000000000000000000000
Ciphertext:               4de7fa39ace07f7b081d64d9fc3bf693ef5ad5d3d68eb8615dbc76c33368327289b13b28b0af5941f6cdd34c32f6cd6808f8de4b3386120e6b169fcd5b89d2eb
Reciphers for ciphertext: 0
Decipheredtext:           00000000000000000000000000000000
RESULT CIPHER-DECIPHER: -----OK-----


Test: 113
Hash algorithm: 8
Crypto pad: 1
Symmetric key bit length: 192
IV bit length:            128
Plaintext bit length:     128
Symmetric key:            717171717171717171717171717171717171717171717171
IV:                       00000000000000000000000000000000
Plaintext:                00000000000000000000000000000000
Ciphertext:               56ab1803d06e4b7e2affdbff5c22d9e339692425349d825c145db19c6a08c769fd0db555d8f16f66ef53493b90440b6834bb7894eb59d0871cf847bc7d9d789d
Reciphers for ciphertext: 0
Decipheredtext:           00000000000000000000000000000000
RESULT CIPHER-DECIPHER: -----OK-----


Test: 114
Hash algorithm: 5
Crypto pad: 0
Symmetric key bit length: 192
IV bit length:            128
Plaintext bit length:     128
Symmetric key:            727272727272727272727272727272727272727272727272
IV:                       00000000000000000000000000000000
Plaintext:                00000000000000000000000000000000
Ciphertext:               ce09bdd72f64d8b59f7f3274689c3883fe37e83393fd986260af3e98fd4f7483ae2097d6f3b12d5be2878560ab8ff2d2f26cd99a1fd81bfe65b2ea57c36c0c6c
Reciphers for ciphertext: 0
Decipheredtext:           00000000000000000000000000000000
RESULT CIPHER-DECIPHER: -----OK-----


Test: 115
Hash algorithm: 0
Crypto pad: 0
Symmetric key bit length: 192
IV bit length:            128
Plaintext bit length:     128
Symmetric key:            737373737373737373737373737373737373737373737373
IV:                       00000000000000000000000000000000
Plaintext:                00000000000000000000000000000000
Ciphertext:               c5c21bd48cecf3ec638ade3e47f77a0cbf896a9adaa96ee17aa86b154d51a8b799272f6ca51f246bb35fde0120fef98905f82cf7550672ed4bfb9b1859924023
Reciphers for ciphertext: 0
Decipheredtext:           00000000000000000000000000000000
RESULT CIPHER-DECIPHER: -----OK-----


Test: 116
Hash algorithm: 13
Crypto pad: 1
Symmetric key bit length: 192
IV bit length:            128
Plaintext bit length:     128
Symmetric key:            747474747474747474747474747474747474747474747474
IV:                       00000000000000000000000000000000
Plaintext:                00000000000000000000000000000000
Ciphertext:               486f6011cdf6171b6370cd9d6b36d46feed5adcd40dabe4a6714ed55e1cd7363141a327a651f80ab3187d2367bd77e5ee678af254dcf816beb7f3c1940b6c490
Reciphers for ciphertext: 0
Decipheredtext:           00000000000000000000000000000000
RESULT CIPHER-DECIPHER: -----OK-----


Test: 117
Hash algorithm: 9
Crypto pad: 0
Symmetric key bit length: 192
IV bit length:            128
Plaintext bit length:     128
Symmetric key:            757575757575757575757575757575757575757575757575
IV:                       00000000000000000000000000000000
Plaintext:                00000000000000000000000000000000
Ciphertext:               81fc52e47ad0a841ba8f987c9514eb9eeceee7cba3cd6c4b7f914425458077bd5523455183a787953f9c6d7d617299fc3fc764e6fb3a638c00cd933df79b50ae2c4e70d1595b33f5548e6d420d66265a
Reciphers for ciphertext: 0
Decipheredtext:           00000000000000000000000000000000
RESULT CIPHER-DECIPHER: -----OK-----


Test: 118
Hash algorithm: 1
Crypto pad: 0
Symmetric key bit length: 192
IV bit length:            128
Plaintext bit length:     128
Symmetric key:            767676767676767676767676767676767676767676767676
IV:                       00000000000000000000000000000000
Plaintext:                00000000000000000000000000000000
Ciphertext:               bcc51b3f55b874910f61ea032d0b25005d42f4a8ca0ecc00198a4b3ce80bfbec64895a3be527e1ec5e8f8a204a3600e37def117d672d7ea2e4ef06bdb0341276
Reciphers for ciphertext: 0
Decipheredtext:           00000000000000000000000000000000
RESULT CIPHER-DECIPHER: -----OK-----


Test: 119
Hash algorithm: 8
Crypto pad: 1
Symmetric key bit length: 192
IV bit length:            128
Plaintext bit length:     128
Symmetric key:            777777777777777777777777777777777777777777777777
IV:                       00000000000000000000000000000000
Plaintext:                00000000000000000000000000000000
Ciphertext:               6b055a7b4cc9c6ee4a5325fe4c53816b8d60cd16da4ba1c9f5d5af9fa6cef7774bc616db921d91ecc3801c9b2aef3e304d9af0c3b094e0ae92361b2b005580e2
Reciphers for ciphertext: 0
Decipheredtext:           00000000000000000000000000000000
RESULT CIPHER-DECIPHER: -----OK-----


Test: 120
Hash algorithm: 12
Crypto pad: 2
Symmetric key bit length: 192
IV bit length:            128
Plaintext bit length:     128
Symmetric key:            787878787878787878787878787878787878787878787878
IV:                       00000000000000000000000000000000
Plaintext:                00000000000000000000000000000000
Ciphertext:               a91a9751a3d6b608ca409a81d02b6bbb7c693996d638c3f117b0f92ed35d09203315e88e6135c2643e67f17aec8b83d4b0dad291e7327addcc990e67873defea
Reciphers for ciphertext: 0
Decipheredtext:           00000000000000000000000000000000
RESULT CIPHER-DECIPHER: -----OK-----


Test: 121
Hash algorithm: 11
Crypto pad: 0
Symmetric key bit length: 192
IV bit length:            128
Plaintext bit length:     128
Symmetric key:            797979797979797979797979797979797979797979797979
IV:                       00000000000000000000000000000000
Plaintext:                00000000000000000000000000000000
Ciphertext:               9518b1d50e5aac2dfec757a16301ec82effa7e7861ffda7fe5e504003df79be8b195e13a63803b9ee6c824ffe460eb47bd8b25582e43dedef7d22efe5d548a78
Reciphers for ciphertext: 0
Decipheredtext:           00000000000000000000000000000000
RESULT CIPHER-DECIPHER: -----OK-----


Test: 122
Hash algorithm: 12
Crypto pad: 1
Symmetric key bit length: 192
IV bit length:            128
Plaintext bit length:     128
Symmetric key:            7a7a7a7a7a7a7a7a7a7a7a7a7a7a7a7a7a7a7a7a7a7a7a7a
IV:                       00000000000000000000000000000000
Plaintext:                00000000000000000000000000000000
Ciphertext:               c7b939d00262ba671be2d4bfe2b8c333df4a8f9f6a019b08034c5f0152cfe94da7c486df60953513f04a4fd78c98498554fe5eebae4ac43f90bf733868b13546
Reciphers for ciphertext: 0
Decipheredtext:           00000000000000000000000000000000
RESULT CIPHER-DECIPHER: -----OK-----


Test: 123
Hash algorithm: 7
Crypto pad: 1
Symmetric key bit length: 192
IV bit length:            128
Plaintext bit length:     128
Symmetric key:            7b7b7b7b7b7b7b7b7b7b7b7b7b7b7b7b7b7b7b7b7b7b7b7b
IV:                       00000000000000000000000000000000
Plaintext:                00000000000000000000000000000000
Ciphertext:               bd3dab271eacca9fddb08da5355b0d410c7af5dcd94eda7e9fb33b828f5b1aa72747990ff9526dfc5f077bbfe3b095b5e47422e95576c081a6ee957eb58f1724
Reciphers for ciphertext: 0
Decipheredtext:           00000000000000000000000000000000
RESULT CIPHER-DECIPHER: -----OK-----


Test: 124
Hash algorithm: 10
Crypto pad: 0
Symmetric key bit length: 192
IV bit length:            128
Plaintext bit length:     128
Symmetric key:            7c7c7c7c7c7c7c7c7c7c7c7c7c7c7c7c7c7c7c7c7c7c7c7c
IV:                       00000000000000000000000000000000
Plaintext:                00000000000000000000000000000000
Ciphertext:               02f2c32e68e31df43f91e0ef73f196898bce02b1af9643fe81250f1140e2d59f8f936017dbe864ca908db2426376ac7b9dbd7707ce22e025fb4a60c42343e28fc89c0e863d6d8e5c7080a5d4b4e6364c
Reciphers for ciphertext: 0
Decipheredtext:           00000000000000000000000000000000
RESULT CIPHER-DECIPHER: -----OK-----


Test: 125
Hash algorithm: 12
Crypto pad: 0
Symmetric key bit length: 192
IV bit length:            128
Plaintext bit length:     128
Symmetric key:            7d7d7d7d7d7d7d7d7d7d7d7d7d7d7d7d7d7d7d7d7d7d7d7d
IV:                       00000000000000000000000000000000
Plaintext:                00000000000000000000000000000000
Ciphertext:               823cc24756fce017dcaf43d80b962dc196d05af439b4a1f848464ee4081197c5a6284b6c29a0f4a8f010e3c70762eb3594c069dee8f6f277cfb8b1b5c2f281ef
Reciphers for ciphertext: 0
Decipheredtext:           00000000000000000000000000000000
RESULT CIPHER-DECIPHER: -----OK-----


Test: 126
Hash algorithm: 8
Crypto pad: 1
Symmetric key bit length: 192
IV bit length:            128
Plaintext bit length:     128
Symmetric key:            7e7e7e7e7e7e7e7e7e7e7e7e7e7e7e7e7e7e7e7e7e7e7e7e
IV:                       00000000000000000000000000000000
Plaintext:                00000000000000000000000000000000
Ciphertext:               d2570f04aa017fe9a5b5f2a01ef71004454ecb273bcc179598168073be00b123b0e71229bf40fc75ade2e66012c8923bc33b3a9620cfe66b82240dd099a934c0
Reciphers for ciphertext: 0
Decipheredtext:           00000000000000000000000000000000
RESULT CIPHER-DECIPHER: -----OK-----


Test: 127
Hash algorithm: 6
Crypto pad: 2
Symmetric key bit length: 192
IV bit length:            128
Plaintext bit length:     128
Symmetric key:            7f7f7f7f7f7f7f7f7f7f7f7f7f7f7f7f7f7f7f7f7f7f7f7f
IV:                       00000000000000000000000000000000
Plaintext:                00000000000000000000000000000000
Ciphertext:               e2cafef5d79c50faf4dbbaa0366784e25b3b0c9d0773979e491e74134034a09be68cb71e84db63e563db55841e0828ada2cd72a080e8752d4a82d242e8d4a6f16b9e5eaf236c5ad82469d491b96c54b3
Reciphers for ciphertext: 0
Decipheredtext:           00000000000000000000000000000000
RESULT CIPHER-DECIPHER: -----OK-----


 DATA SHA1 (hexadecimal): 33e7197a9f2c78dcb6e0f2df3d0a10326c5ddd56

