
DiceLock 9.0.0.1

 TEST COMPONENTS:
 ----------------
 DiceLock:           DiceLockIVDigested class
 Operation Mode:     CBC_Mode class
 Crypto pads:        0 - ANSI_X_923 class
                     1 - ISO_IEC_9797_1 class
                     2 - PKCS7 class
 Block Cipher:       TDEA class
 Hash algorithms:     0 - Sha1 class
                      1 - Sha224 class
                      2 - Sha256 class
                      3 - Sha384 class
                      4 - Sha512 class
                      5 - Sha512_224 class
                      6 - Sha512_256 class
                      7 - Ripemd128 class
                      8 - Ripemd160 class
                      9 - Ripemd256 class
                     10 - Ripemd320 class
                     11 - MD2 class
                     12 - MD4 class
                     13 - MD5 class
 Key Modifier:       IncreaseKeyModifier_6_0_0_1 class
 Random tests:       RandomTestSuite class
                     FrequencyTest class
                     BlockFrequencyTest class
                     CumulativeSumForwardTest class
                     LongestRunOfOnesTest class
                     RunsTest class
 Random alpha:       0.001

 VECTOR TEST: Test vector 4 - Symmetric key all byte value 0xXX


##### INDIVIDUAL TESTS #####

Number tests: 128


Test: 0
Hash algorithm: 9
Crypto pad: 1
Symmetric key bit length: 192
IV bit length:            64
Plaintext bit length:     136
Symmetric key:            000000000000000000000000000000000000000000000000
IV:                       0000000000000000
Plaintext:                0000000000000000000000000000000000
Ciphertext:               4615aa1d33e72f108212e88645754c851ac82b1bc0a91c8783146db67857cc02652512b85f11d6fb7427b9f9902c7645ebdb81d87897c9600738f0728a9564c8
Reciphers for ciphertext: 2
Decipheredtext:           0000000000000000000000000000000000
RESULT CIPHER-DECIPHER: -----OK-----


Test: 1
Hash algorithm: 12
Crypto pad: 1
Symmetric key bit length: 192
IV bit length:            64
Plaintext bit length:     136
Symmetric key:            010101010101010101010101010101010101010101010101
IV:                       0000000000000000
Plaintext:                0000000000000000000000000000000000
Ciphertext:               4615aa1d33e72f108212e88645754c851ac82b1bc0a91c87602423b4c935c51b5a5a23a73eb69a7c2e817286634a459b
Reciphers for ciphertext: 1
Decipheredtext:           0000000000000000000000000000000000
RESULT CIPHER-DECIPHER: -----OK-----


Test: 2
Hash algorithm: 11
Crypto pad: 2
Symmetric key bit length: 192
IV bit length:            64
Plaintext bit length:     136
Symmetric key:            020202020202020202020202020202020202020202020202
IV:                       0000000000000000
Plaintext:                0000000000000000000000000000000000
Ciphertext:               c4af51bd0a0f8add9f39b55411213445dbd0184f1f203c78b35e08c971efbf49ba7dbfb430410a45727132518cb64f58
Reciphers for ciphertext: 0
Decipheredtext:           0000000000000000000000000000000000
RESULT CIPHER-DECIPHER: -----OK-----


Test: 3
Hash algorithm: 1
Crypto pad: 0
Symmetric key bit length: 192
IV bit length:            64
Plaintext bit length:     136
Symmetric key:            030303030303030303030303030303030303030303030303
IV:                       0000000000000000
Plaintext:                0000000000000000000000000000000000
Ciphertext:               c4af51bd0a0f8add9f39b55411213445568f1e03371bc2a386eded8761ac64b1cf6bd0f15cdaa361d6a3bc27ec8c6b93766546f25b4ddf1e
Reciphers for ciphertext: 0
Decipheredtext:           0000000000000000000000000000000000
RESULT CIPHER-DECIPHER: -----OK-----


Test: 4
Hash algorithm: 5
Crypto pad: 2
Symmetric key bit length: 192
IV bit length:            64
Plaintext bit length:     136
Symmetric key:            040404040404040404040404040404040404040404040404
IV:                       0000000000000000
Plaintext:                0000000000000000000000000000000000
Ciphertext:               8ca0964581b0eb53a16b32336f90dd5344c87577f26cf2d7890bcfa440ed2cdd2353fbfb16c61a858bff30860a414c087f3ccf23b15664dd
Reciphers for ciphertext: 0
Decipheredtext:           0000000000000000000000000000000000
RESULT CIPHER-DECIPHER: -----OK-----


Test: 5
Hash algorithm: 10
Crypto pad: 2
Symmetric key bit length: 192
IV bit length:            64
Plaintext bit length:     136
Symmetric key:            050505050505050505050505050505050505050505050505
IV:                       0000000000000000
Plaintext:                0000000000000000000000000000000000
Ciphertext:               8ca0964581b0eb53a16b32336f90dd5344c87577f26cf2d7be5c04f2e134f945d638d7d8ea0cb9ec445f5e2e46a8a680d18de74a49f80aa8cb3b3292b95259b0a45308b270c25bc8
Reciphers for ciphertext: 0
Decipheredtext:           0000000000000000000000000000000000
RESULT CIPHER-DECIPHER: -----OK-----


Test: 6
Hash algorithm: 5
Crypto pad: 0
Symmetric key bit length: 192
IV bit length:            64
Plaintext bit length:     136
Symmetric key:            060606060606060606060606060606060606060606060606
IV:                       0000000000000000
Plaintext:                0000000000000000000000000000000000
Ciphertext:               e818736e6ea987db9ab6b7e44f32346ad587c92e77ab3380fd164ee3a92a654190accd08b8718db40b7bd1ffe9814e904d0ede5923c22d4e
Reciphers for ciphertext: 0
Decipheredtext:           0000000000000000000000000000000000
RESULT CIPHER-DECIPHER: -----OK-----


Test: 7
Hash algorithm: 2
Crypto pad: 1
Symmetric key bit length: 192
IV bit length:            64
Plaintext bit length:     136
Symmetric key:            070707070707070707070707070707070707070707070707
IV:                       0000000000000000
Plaintext:                0000000000000000000000000000000000
Ciphertext:               e818736e6ea987db9ab6b7e44f32346a5d2fcdaf49ce8795c328af56c858b5e45a3c1a974ccd0f290f03211e07f1f4b49ccf2d1cbdcb8ffb6c7419443455ae40
Reciphers for ciphertext: 0
Decipheredtext:           0000000000000000000000000000000000
RESULT CIPHER-DECIPHER: -----OK-----


Test: 8
Hash algorithm: 0
Crypto pad: 1
Symmetric key bit length: 192
IV bit length:            64
Plaintext bit length:     136
Symmetric key:            080808080808080808080808080808080808080808080808
IV:                       0000000000000000
Plaintext:                0000000000000000000000000000000000
Ciphertext:               d6a875a7a871df70cc5e8e49c64f61c9d12da3da688bc5862c8c2f773123018585d164f963f4ffe81a42ce7996fd212e
Reciphers for ciphertext: 0
Decipheredtext:           0000000000000000000000000000000000
RESULT CIPHER-DECIPHER: -----OK-----


Test: 9
Hash algorithm: 10
Crypto pad: 2
Symmetric key bit length: 192
IV bit length:            64
Plaintext bit length:     136
Symmetric key:            090909090909090909090909090909090909090909090909
IV:                       0000000000000000
Plaintext:                0000000000000000000000000000000000
Ciphertext:               d6a875a7a871df70cc5e8e49c64f61c911d66ecca8d10ee49ea88331e79bbf2665e1577525104c269148842c06c58629c0b11e4c214c2ce653752372d5e9453f784e2a2945b82424
Reciphers for ciphertext: 0
Decipheredtext:           0000000000000000000000000000000000
RESULT CIPHER-DECIPHER: -----OK-----


Test: 10
Hash algorithm: 5
Crypto pad: 2
Symmetric key bit length: 192
IV bit length:            64
Plaintext bit length:     136
Symmetric key:            0a0a0a0a0a0a0a0a0a0a0a0a0a0a0a0a0a0a0a0a0a0a0a0a
IV:                       0000000000000000
Plaintext:                0000000000000000000000000000000000
Ciphertext:               e7920457f6a431321691ba2e3a8a88a1816210ffb4a81c7b744e4174af666da410235444cbc850a42329d61b285e049e59a99f9f99cec7ac
Reciphers for ciphertext: 0
Decipheredtext:           0000000000000000000000000000000000
RESULT CIPHER-DECIPHER: -----OK-----


Test: 11
Hash algorithm: 0
Crypto pad: 2
Symmetric key bit length: 192
IV bit length:            64
Plaintext bit length:     136
Symmetric key:            0b0b0b0b0b0b0b0b0b0b0b0b0b0b0b0b0b0b0b0b0b0b0b0b
IV:                       0000000000000000
Plaintext:                0000000000000000000000000000000000
Ciphertext:               e7920457f6a431321691ba2e3a8a88a1816210ffb4a81c7b35c7fa9c0a8c89b4769ab443aa149770f91b6b624b332ce5
Reciphers for ciphertext: 0
Decipheredtext:           0000000000000000000000000000000000
RESULT CIPHER-DECIPHER: -----OK-----


Test: 12
Hash algorithm: 13
Crypto pad: 1
Symmetric key bit length: 192
IV bit length:            64
Plaintext bit length:     136
Symmetric key:            0c0c0c0c0c0c0c0c0c0c0c0c0c0c0c0c0c0c0c0c0c0c0c0c
IV:                       0000000000000000
Plaintext:                0000000000000000000000000000000000
Ciphertext:               88f8569b4502edfa0f804bc7dfe7b5b2a184176c4dc3e4f9865a52114b092d61a0c5df6f9d926f5a15f5959c9e390185
Reciphers for ciphertext: 0
Decipheredtext:           0000000000000000000000000000000000
RESULT CIPHER-DECIPHER: -----OK-----


Test: 13
Hash algorithm: 12
Crypto pad: 0
Symmetric key bit length: 192
IV bit length:            64
Plaintext bit length:     136
Symmetric key:            0d0d0d0d0d0d0d0d0d0d0d0d0d0d0d0d0d0d0d0d0d0d0d0d
IV:                       0000000000000000
Plaintext:                0000000000000000000000000000000000
Ciphertext:               88f8569b4502edfa0f804bc7dfe7b5b2920937f877ec05acb0eded155ba8e2e2f2da55a807cafcd5ac1a6e58c413fe18
Reciphers for ciphertext: 0
Decipheredtext:           0000000000000000000000000000000000
RESULT CIPHER-DECIPHER: -----OK-----


Test: 14
Hash algorithm: 2
Crypto pad: 0
Symmetric key bit length: 192
IV bit length:            64
Plaintext bit length:     136
Symmetric key:            0e0e0e0e0e0e0e0e0e0e0e0e0e0e0e0e0e0e0e0e0e0e0e0e
IV:                       0000000000000000
Plaintext:                0000000000000000000000000000000000
Ciphertext:               508d26d80e298ca14d08f51160f1393f0ac0b7d8481ccd4b0f01895e9ce0aaa867d7198fc5dfacdd63b18816d82bd5841270d76bbb504398b6f3ed93f9db0857
Reciphers for ciphertext: 0
Decipheredtext:           0000000000000000000000000000000000
RESULT CIPHER-DECIPHER: -----OK-----


Test: 15
Hash algorithm: 13
Crypto pad: 2
Symmetric key bit length: 192
IV bit length:            64
Plaintext bit length:     136
Symmetric key:            0f0f0f0f0f0f0f0f0f0f0f0f0f0f0f0f0f0f0f0f0f0f0f0f
IV:                       0000000000000000
Plaintext:                0000000000000000000000000000000000
Ciphertext:               508d26d80e298ca14d08f51160f1393ff2f4a523428708bd271df05e45ac15b0d6a565a5c36b68f01f5960addc94a8f7
Reciphers for ciphertext: 0
Decipheredtext:           0000000000000000000000000000000000
RESULT CIPHER-DECIPHER: -----OK-----


Test: 16
Hash algorithm: 0
Crypto pad: 2
Symmetric key bit length: 192
IV bit length:            64
Plaintext bit length:     136
Symmetric key:            101010101010101010101010101010101010101010101010
IV:                       0000000000000000
Plaintext:                0000000000000000000000000000000000
Ciphertext:               82e13665b4624df57bd24a786c3f60cf703958290adfcf043bdfc09a09e8a6b5382cd73aa18760b86bd9952eb2edbba8
Reciphers for ciphertext: 0
Decipheredtext:           0000000000000000000000000000000000
RESULT CIPHER-DECIPHER: -----OK-----


Test: 17
Hash algorithm: 3
Crypto pad: 1
Symmetric key bit length: 192
IV bit length:            64
Plaintext bit length:     136
Symmetric key:            111111111111111111111111111111111111111111111111
IV:                       0000000000000000
Plaintext:                0000000000000000000000000000000000
Ciphertext:               82e13665b4624df57bd24a786c3f60cf3da0eaa7c945cc4725995b58390a9ee7bb7cf8b38803db25d1bab2ffaa21d71d3cf34361f48ca75e56b82810efd9c7ec7765eea281eb9f345011ae7a0a817fd4
Reciphers for ciphertext: 0
Decipheredtext:           0000000000000000000000000000000000
RESULT CIPHER-DECIPHER: -----OK-----


Test: 18
Hash algorithm: 3
Crypto pad: 1
Symmetric key bit length: 192
IV bit length:            64
Plaintext bit length:     136
Symmetric key:            121212121212121212121212121212121212121212121212
IV:                       0000000000000000
Plaintext:                0000000000000000000000000000000000
Ciphertext:               a8b7b5bd4a67d640a56f085f20da8665e15e7a25d63143e52d049d26acc085d97fdc7387db48f94b47a79aae6a1c12bfd6262587b390d3f1c2a8e9600d178a8273dbc2f20818072a000b318ee0367ffb
Reciphers for ciphertext: 0
Decipheredtext:           0000000000000000000000000000000000
RESULT CIPHER-DECIPHER: -----OK-----


Test: 19
Hash algorithm: 4
Crypto pad: 2
Symmetric key bit length: 192
IV bit length:            64
Plaintext bit length:     136
Symmetric key:            131313131313131313131313131313131313131313131313
IV:                       0000000000000000
Plaintext:                0000000000000000000000000000000000
Ciphertext:               a8b7b5bd4a67d640a56f085f20da86656d3d2f3d5c3410e770cb76c18fceda19867d72156924dfff06d17ebc979bc62a8f3dbdf94e431ff8c1448e41c01e21c00a3ebcdca55a75d183e1e82dc00b82f3bdfb823164a380d7d9bc65b75fb43202
Reciphers for ciphertext: 0
Decipheredtext:           0000000000000000000000000000000000
RESULT CIPHER-DECIPHER: -----OK-----


Test: 20
Hash algorithm: 5
Crypto pad: 1
Symmetric key bit length: 192
IV bit length:            64
Plaintext bit length:     136
Symmetric key:            141414141414141414141414141414141414141414141414
IV:                       0000000000000000
Plaintext:                0000000000000000000000000000000000
Ciphertext:               265a7abf6b3f4a17edd5628bf5102929d97d39013d912a536534b2a96ebce2c319b78f8b02b811be80692f381ce0c3cdbea80c7db1944429
Reciphers for ciphertext: 0
Decipheredtext:           0000000000000000000000000000000000
RESULT CIPHER-DECIPHER: -----OK-----


Test: 21
Hash algorithm: 12
Crypto pad: 1
Symmetric key bit length: 192
IV bit length:            64
Plaintext bit length:     136
Symmetric key:            151515151515151515151515151515151515151515151515
IV:                       0000000000000000
Plaintext:                0000000000000000000000000000000000
Ciphertext:               265a7abf6b3f4a17edd5628bf5102929d97d39013d912a53a6177ea9d6ab8c064b3d4c314aa8965547c6e6168a308960
Reciphers for ciphertext: 0
Decipheredtext:           0000000000000000000000000000000000
RESULT CIPHER-DECIPHER: -----OK-----


Test: 22
Hash algorithm: 2
Crypto pad: 1
Symmetric key bit length: 192
IV bit length:            64
Plaintext bit length:     136
Symmetric key:            161616161616161616161616161616161616161616161616
IV:                       0000000000000000
Plaintext:                0000000000000000000000000000000000
Ciphertext:               3adebbe036e29c8ee43967d89144b32d00af9adc9f5a4a2cd9babc0fd822db9d5beaf024166cb30d17f82f7407ee96eb04953d3d3fa9713ac85a1683d155e384
Reciphers for ciphertext: 0
Decipheredtext:           0000000000000000000000000000000000
RESULT CIPHER-DECIPHER: -----OK-----


Test: 23
Hash algorithm: 8
Crypto pad: 0
Symmetric key bit length: 192
IV bit length:            64
Plaintext bit length:     136
Symmetric key:            171717171717171717171717171717171717171717171717
IV:                       0000000000000000
Plaintext:                0000000000000000000000000000000000
Ciphertext:               3adebbe036e29c8ee43967d89144b32dc58319e6a1448f777d771b7e4eb5d667205a8b03f91b7ae87295accdc53f78f7
Reciphers for ciphertext: 0
Decipheredtext:           0000000000000000000000000000000000
RESULT CIPHER-DECIPHER: -----OK-----


Test: 24
Hash algorithm: 2
Crypto pad: 2
Symmetric key bit length: 192
IV bit length:            64
Plaintext bit length:     136
Symmetric key:            181818181818181818181818181818181818181818181818
IV:                       0000000000000000
Plaintext:                0000000000000000000000000000000000
Ciphertext:               9da493aa4b21b8d1f92c82bf5541a19ac23c861c177b460647f07b89407cb23617b437dbf93d6430f3ca7f56cac453aa4031bdc5637423d2f446caf38cfecde1
Reciphers for ciphertext: 0
Decipheredtext:           0000000000000000000000000000000000
RESULT CIPHER-DECIPHER: -----OK-----


Test: 25
Hash algorithm: 8
Crypto pad: 1
Symmetric key bit length: 192
IV bit length:            64
Plaintext bit length:     136
Symmetric key:            191919191919191919191919191919191919191919191919
IV:                       0000000000000000
Plaintext:                0000000000000000000000000000000000
Ciphertext:               9da493aa4b21b8d1f92c82bf5541a19ad70040da908a26db365050dbc8be3fc7b9fd746abe5b72f3bd8eb2a48697dca1
Reciphers for ciphertext: 0
Decipheredtext:           0000000000000000000000000000000000
RESULT CIPHER-DECIPHER: -----OK-----


Test: 26
Hash algorithm: 10
Crypto pad: 2
Symmetric key bit length: 192
IV bit length:            64
Plaintext bit length:     136
Symmetric key:            1a1a1a1a1a1a1a1a1a1a1a1a1a1a1a1a1a1a1a1a1a1a1a1a
IV:                       0000000000000000
Plaintext:                0000000000000000000000000000000000
Ciphertext:               7eed30f7d699a4138ebd34cdd379b5751978e9197a2b4a937cce64de4dd0222e6d64eabb22f1da891edbc4580bdfa729fa5fd73a8a7c278475533eb382f381a6946cd361d36a3c94
Reciphers for ciphertext: 0
Decipheredtext:           0000000000000000000000000000000000
RESULT CIPHER-DECIPHER: -----OK-----


Test: 27
Hash algorithm: 4
Crypto pad: 0
Symmetric key bit length: 192
IV bit length:            64
Plaintext bit length:     136
Symmetric key:            1b1b1b1b1b1b1b1b1b1b1b1b1b1b1b1b1b1b1b1b1b1b1b1b
IV:                       0000000000000000
Plaintext:                0000000000000000000000000000000000
Ciphertext:               7eed30f7d699a4138ebd34cdd379b575bdab891c1361f50aa04b85dce76ecc33b066f8323c6747a996141c7189da49e3c7834a4d9d6b107d42934cb564ce98e4e778abf38da5fe2b7f0c08383ad858f17b3b611c9e3be5d1108c76706432fe71
Reciphers for ciphertext: 0
Decipheredtext:           0000000000000000000000000000000000
RESULT CIPHER-DECIPHER: -----OK-----


Test: 28
Hash algorithm: 1
Crypto pad: 1
Symmetric key bit length: 192
IV bit length:            64
Plaintext bit length:     136
Symmetric key:            1c1c1c1c1c1c1c1c1c1c1c1c1c1c1c1c1c1c1c1c1c1c1c1c
IV:                       0000000000000000
Plaintext:                0000000000000000000000000000000000
Ciphertext:               77800cba1e6054a59ae77abc5461af560c1389a697b468016e6d3d6b3314eacca514c24a912aa0ea5a489f16090a7bf5b56104db2f96a56b
Reciphers for ciphertext: 0
Decipheredtext:           0000000000000000000000000000000000
RESULT CIPHER-DECIPHER: -----OK-----


Test: 29
Hash algorithm: 3
Crypto pad: 2
Symmetric key bit length: 192
IV bit length:            64
Plaintext bit length:     136
Symmetric key:            1d1d1d1d1d1d1d1d1d1d1d1d1d1d1d1d1d1d1d1d1d1d1d1d
IV:                       0000000000000000
Plaintext:                0000000000000000000000000000000000
Ciphertext:               77800cba1e6054a59ae77abc5461af568e8be3e4c00046eb3d85172d8696271d0600021ff663a449f2b84e0b67cc5060b4916d86310beb6c61d6263656f19b5ed97328e99d4a38b231cf1ee83e6c0ed5
Reciphers for ciphertext: 0
Decipheredtext:           0000000000000000000000000000000000
RESULT CIPHER-DECIPHER: -----OK-----


Test: 30
Hash algorithm: 12
Crypto pad: 0
Symmetric key bit length: 192
IV bit length:            64
Plaintext bit length:     136
Symmetric key:            1e1e1e1e1e1e1e1e1e1e1e1e1e1e1e1e1e1e1e1e1e1e1e1e
IV:                       0000000000000000
Plaintext:                0000000000000000000000000000000000
Ciphertext:               4bb0c823540b654c8eafe21506ee6ebb4a17439ef409c0bd2410b9a7af54241d11ce27014f63e283079aae260741344e
Reciphers for ciphertext: 0
Decipheredtext:           0000000000000000000000000000000000
RESULT CIPHER-DECIPHER: -----OK-----


Test: 31
Hash algorithm: 9
Crypto pad: 2
Symmetric key bit length: 192
IV bit length:            64
Plaintext bit length:     136
Symmetric key:            1f1f1f1f1f1f1f1f1f1f1f1f1f1f1f1f1f1f1f1f1f1f1f1f
IV:                       0000000000000000
Plaintext:                0000000000000000000000000000000000
Ciphertext:               4bb0c823540b654c8eafe21506ee6ebbe2ce36f34fec55fc6a83af31833c5dd4bea0e4efbcbc4fc1e3ea1aa596be311cba122037922e0bff58b4a7b78ddd7ca1
Reciphers for ciphertext: 0
Decipheredtext:           0000000000000000000000000000000000
RESULT CIPHER-DECIPHER: -----OK-----


Test: 32
Hash algorithm: 7
Crypto pad: 0
Symmetric key bit length: 192
IV bit length:            64
Plaintext bit length:     136
Symmetric key:            202020202020202020202020202020202020202020202020
IV:                       0000000000000000
Plaintext:                0000000000000000000000000000000000
Ciphertext:               9772208c6b1993f3aeaaeb5fd46b33926db71a350d39f874daa5ffd48a3319ade997112cc39e17a889f7b518aafb3359
Reciphers for ciphertext: 0
Decipheredtext:           0000000000000000000000000000000000
RESULT CIPHER-DECIPHER: -----OK-----


Test: 33
Hash algorithm: 12
Crypto pad: 2
Symmetric key bit length: 192
IV bit length:            64
Plaintext bit length:     136
Symmetric key:            212121212121212121212121212121212121212121212121
IV:                       0000000000000000
Plaintext:                0000000000000000000000000000000000
Ciphertext:               9772208c6b1993f3aeaaeb5fd46b3392cffd1a43e5a7ee7eb8c05e8e48e9e7daf53332264a891cc3e8e64bd166d06c9a
Reciphers for ciphertext: 0
Decipheredtext:           0000000000000000000000000000000000
RESULT CIPHER-DECIPHER: -----OK-----


Test: 34
Hash algorithm: 8
Crypto pad: 2
Symmetric key bit length: 192
IV bit length:            64
Plaintext bit length:     136
Symmetric key:            222222222222222222222222222222222222222222222222
IV:                       0000000000000000
Plaintext:                0000000000000000000000000000000000
Ciphertext:               00962b60aa556e6570a6c40fa4fc9eee7e897c995272744b6b80f268a7898fd7f2b21d192258f462fa9aa6b4129abaad
Reciphers for ciphertext: 0
Decipheredtext:           0000000000000000000000000000000000
RESULT CIPHER-DECIPHER: -----OK-----


Test: 35
Hash algorithm: 5
Crypto pad: 2
Symmetric key bit length: 192
IV bit length:            64
Plaintext bit length:     136
Symmetric key:            232323232323232323232323232323232323232323232323
IV:                       0000000000000000
Plaintext:                0000000000000000000000000000000000
Ciphertext:               00962b60aa556e6570a6c40fa4fc9eee7e897c995272744bfc57ece77c2a09156902dfc2254c6469f7b3dbcbab8e98a8d18c615761d6632a
Reciphers for ciphertext: 0
Decipheredtext:           0000000000000000000000000000000000
RESULT CIPHER-DECIPHER: -----OK-----


Test: 36
Hash algorithm: 6
Crypto pad: 1
Symmetric key bit length: 192
IV bit length:            64
Plaintext bit length:     136
Symmetric key:            242424242424242424242424242424242424242424242424
IV:                       0000000000000000
Plaintext:                0000000000000000000000000000000000
Ciphertext:               c335c9d8a63cc1f4357f5bf7cc4ebeaa3da3352c047d4a79a0612ca93e53b6eb4f9fb820e5959c73a5d7193a701f3490e0c0a5e7ec1ace58b9c84ceb8ab7e302
Reciphers for ciphertext: 0
Decipheredtext:           0000000000000000000000000000000000
RESULT CIPHER-DECIPHER: -----OK-----


Test: 37
Hash algorithm: 3
Crypto pad: 0
Symmetric key bit length: 192
IV bit length:            64
Plaintext bit length:     136
Symmetric key:            252525252525252525252525252525252525252525252525
IV:                       0000000000000000
Plaintext:                0000000000000000000000000000000000
Ciphertext:               c335c9d8a63cc1f4357f5bf7cc4ebeaa7830db8307acc732b31a16c7ed8f7147f46b94599bcbdc5cae1b30d4f1170e80d23f2263c0b5ae7bd25f4a898c88cab426c91590315211e2d6fd06052f2553fd
Reciphers for ciphertext: 0
Decipheredtext:           0000000000000000000000000000000000
RESULT CIPHER-DECIPHER: -----OK-----


Test: 38
Hash algorithm: 7
Crypto pad: 1
Symmetric key bit length: 192
IV bit length:            64
Plaintext bit length:     136
Symmetric key:            262626262626262626262626262626262626262626262626
IV:                       0000000000000000
Plaintext:                0000000000000000000000000000000000
Ciphertext:               4e5a416420dfd5cd01d23d2281ac983231bc08a7c36303cfee4aa511f0f7b3e5586377695579bd7b9c176e01790aeb9e
Reciphers for ciphertext: 0
Decipheredtext:           0000000000000000000000000000000000
RESULT CIPHER-DECIPHER: -----OK-----


Test: 39
Hash algorithm: 7
Crypto pad: 0
Symmetric key bit length: 192
IV bit length:            64
Plaintext bit length:     136
Symmetric key:            272727272727272727272727272727272727272727272727
IV:                       0000000000000000
Plaintext:                0000000000000000000000000000000000
Ciphertext:               4e5a416420dfd5cd01d23d2281ac983249b42938ef3a1142ee4aa511f0f7b3e5586377695579bd7bd476dedf6cb6c5fd
Reciphers for ciphertext: 0
Decipheredtext:           0000000000000000000000000000000000
RESULT CIPHER-DECIPHER: -----OK-----


Test: 40
Hash algorithm: 5
Crypto pad: 1
Symmetric key bit length: 192
IV bit length:            64
Plaintext bit length:     136
Symmetric key:            282828282828282828282828282828282828282828282828
IV:                       0000000000000000
Plaintext:                0000000000000000000000000000000000
Ciphertext:               50af41cdd6ecf0d4f1903aa65388f78e08d44b82bd292e9e96726612fb5474382105e32b4f64bd10f284f48cbe45586d70052891aeb8fc96
Reciphers for ciphertext: 0
Decipheredtext:           0000000000000000000000000000000000
RESULT CIPHER-DECIPHER: -----OK-----


Test: 41
Hash algorithm: 13
Crypto pad: 1
Symmetric key bit length: 192
IV bit length:            64
Plaintext bit length:     136
Symmetric key:            292929292929292929292929292929292929292929292929
IV:                       0000000000000000
Plaintext:                0000000000000000000000000000000000
Ciphertext:               50af41cdd6ecf0d4f1903aa65388f78e08d44b82bd292e9e4ea55cb6cb1f15e89e2644e6922a1d0198d6ece1d769eab2
Reciphers for ciphertext: 0
Decipheredtext:           0000000000000000000000000000000000
RESULT CIPHER-DECIPHER: -----OK-----


Test: 42
Hash algorithm: 10
Crypto pad: 1
Symmetric key bit length: 192
IV bit length:            64
Plaintext bit length:     136
Symmetric key:            2a2a2a2a2a2a2a2a2a2a2a2a2a2a2a2a2a2a2a2a2a2a2a2a
IV:                       0000000000000000
Plaintext:                0000000000000000000000000000000000
Ciphertext:               30825bb00b2f8959546f98be57d6419b8f9e87c3c6d2494b16c7f9ab9513ec6d2d2c140e8d52e1ff991b8152f952ced0b613f8162f5895894d246536201acd99b84c0848be6c793a
Reciphers for ciphertext: 0
Decipheredtext:           0000000000000000000000000000000000
RESULT CIPHER-DECIPHER: -----OK-----


Test: 43
Hash algorithm: 8
Crypto pad: 1
Symmetric key bit length: 192
IV bit length:            64
Plaintext bit length:     136
Symmetric key:            2b2b2b2b2b2b2b2b2b2b2b2b2b2b2b2b2b2b2b2b2b2b2b2b
IV:                       0000000000000000
Plaintext:                0000000000000000000000000000000000
Ciphertext:               30825bb00b2f8959546f98be57d6419b8f9e87c3c6d2494b6fb4bbb7d69c6a17fa4cbf6a5adbd5148f65846c16474cfc
Reciphers for ciphertext: 0
Decipheredtext:           0000000000000000000000000000000000
RESULT CIPHER-DECIPHER: -----OK-----


Test: 44
Hash algorithm: 9
Crypto pad: 2
Symmetric key bit length: 192
IV bit length:            64
Plaintext bit length:     136
Symmetric key:            2c2c2c2c2c2c2c2c2c2c2c2c2c2c2c2c2c2c2c2c2c2c2c2c
IV:                       0000000000000000
Plaintext:                0000000000000000000000000000000000
Ciphertext:               7dccc004ffd49e04e960ca35c671ac37abcb4d43f09d170ab6e2a5e332fc3358c4e893c93ca5afe5d87f6577905f0435e3593c50e16311d407f98729aaa5c037
Reciphers for ciphertext: 0
Decipheredtext:           0000000000000000000000000000000000
RESULT CIPHER-DECIPHER: -----OK-----


Test: 45
Hash algorithm: 10
Crypto pad: 0
Symmetric key bit length: 192
IV bit length:            64
Plaintext bit length:     136
Symmetric key:            2d2d2d2d2d2d2d2d2d2d2d2d2d2d2d2d2d2d2d2d2d2d2d2d
IV:                       0000000000000000
Plaintext:                0000000000000000000000000000000000
Ciphertext:               7dccc004ffd49e04e960ca35c671ac376d6217ec23de9c4b8e16d5507f616852e03000db8e3934c7112e965de3435bac20fbd78be73010b02456967245c5ac6ad3f323a25ce32870
Reciphers for ciphertext: 0
Decipheredtext:           0000000000000000000000000000000000
RESULT CIPHER-DECIPHER: -----OK-----


Test: 46
Hash algorithm: 10
Crypto pad: 0
Symmetric key bit length: 192
IV bit length:            64
Plaintext bit length:     136
Symmetric key:            2e2e2e2e2e2e2e2e2e2e2e2e2e2e2e2e2e2e2e2e2e2e2e2e
IV:                       0000000000000000
Plaintext:                0000000000000000000000000000000000
Ciphertext:               40d2e042fdd5cc28c6df9517d1885228481ee6a032a37b6d01e41fc66203f410451dca15f0e322b953f93ad3ed1a4fe217c4513454890372b46fbd12d8c9caa9f14fea918d97cf77
Reciphers for ciphertext: 0
Decipheredtext:           0000000000000000000000000000000000
RESULT CIPHER-DECIPHER: -----OK-----


Test: 47
Hash algorithm: 2
Crypto pad: 0
Symmetric key bit length: 192
IV bit length:            64
Plaintext bit length:     136
Symmetric key:            2f2f2f2f2f2f2f2f2f2f2f2f2f2f2f2f2f2f2f2f2f2f2f2f
IV:                       0000000000000000
Plaintext:                0000000000000000000000000000000000
Ciphertext:               40d2e042fdd5cc28c6df9517d1885228481ee6a032a37b6dd4982fe29b7dc67c2ebe0dfcb500dcd022ed14755c2be4056457b8874e1363a1552c1dac6dcbb85e
Reciphers for ciphertext: 0
Decipheredtext:           0000000000000000000000000000000000
RESULT CIPHER-DECIPHER: -----OK-----


Test: 48
Hash algorithm: 11
Crypto pad: 0
Symmetric key bit length: 192
IV bit length:            64
Plaintext bit length:     136
Symmetric key:            303030303030303030303030303030303030303030303030
IV:                       0000000000000000
Plaintext:                0000000000000000000000000000000000
Ciphertext:               40826a5800608c8736b5c6ad1cb03a549ba8f6a8c3096a1666b497d86539337d156fbd56aa7b06ef6e2f15fcc19a4a9b
Reciphers for ciphertext: 0
Decipheredtext:           0000000000000000000000000000000000
RESULT CIPHER-DECIPHER: -----OK-----


Test: 49
Hash algorithm: 1
Crypto pad: 2
Symmetric key bit length: 192
IV bit length:            64
Plaintext bit length:     136
Symmetric key:            313131313131313131313131313131313131313131313131
IV:                       0000000000000000
Plaintext:                0000000000000000000000000000000000
Ciphertext:               40826a5800608c8736b5c6ad1cb03a54494fbaade57dff8e81e15d19e75df067eece928a4f11ca2cc19764c6639b8b6b490e545237184df6
Reciphers for ciphertext: 0
Decipheredtext:           0000000000000000000000000000000000
RESULT CIPHER-DECIPHER: -----OK-----


Test: 50
Hash algorithm: 12
Crypto pad: 2
Symmetric key bit length: 192
IV bit length:            64
Plaintext bit length:     136
Symmetric key:            323232323232323232323232323232323232323232323232
IV:                       0000000000000000
Plaintext:                0000000000000000000000000000000000
Ciphertext:               adc67d8473bf2f065a5303289322c0670d1fe5c2dc43b9af437e638a6e95962da99ab447220fb9a6de82f9936a57a46b
Reciphers for ciphertext: 0
Decipheredtext:           0000000000000000000000000000000000
RESULT CIPHER-DECIPHER: -----OK-----


Test: 51
Hash algorithm: 4
Crypto pad: 1
Symmetric key bit length: 192
IV bit length:            64
Plaintext bit length:     136
Symmetric key:            333333333333333333333333333333333333333333333333
IV:                       0000000000000000
Plaintext:                0000000000000000000000000000000000
Ciphertext:               adc67d8473bf2f065a5303289322c06787f8079412a44e900b54532f48b12599965e5c678ab017620f33ac41955f917fef6e2161bb088a45095001cc33fb4368f44914cee49b14a54285927533df27ea21fc98ff3772c24e049fe6731ef35d67
Reciphers for ciphertext: 0
Decipheredtext:           0000000000000000000000000000000000
RESULT CIPHER-DECIPHER: -----OK-----


Test: 52
Hash algorithm: 7
Crypto pad: 2
Symmetric key bit length: 192
IV bit length:            64
Plaintext bit length:     136
Symmetric key:            343434343434343434343434343434343434343434343434
IV:                       0000000000000000
Plaintext:                0000000000000000000000000000000000
Ciphertext:               d2db51f1d2013a6300573802a09e9d3733d94b5ecb628e870e59d0a6a6868c66c82debfe848a964506c838041012b148
Reciphers for ciphertext: 0
Decipheredtext:           0000000000000000000000000000000000
RESULT CIPHER-DECIPHER: -----OK-----


Test: 53
Hash algorithm: 9
Crypto pad: 0
Symmetric key bit length: 192
IV bit length:            64
Plaintext bit length:     136
Symmetric key:            353535353535353535353535353535353535353535353535
IV:                       0000000000000000
Plaintext:                0000000000000000000000000000000000
Ciphertext:               d2db51f1d2013a6300573802a09e9d371b7c436429a1c28b531ae144dad30b086dacc4a515f3b1700a3dca7a4e452cea04c36b6058bedbf7116d6d4510cd1acc
Reciphers for ciphertext: 0
Decipheredtext:           0000000000000000000000000000000000
RESULT CIPHER-DECIPHER: -----OK-----


Test: 54
Hash algorithm: 9
Crypto pad: 0
Symmetric key bit length: 192
IV bit length:            64
Plaintext bit length:     136
Symmetric key:            363636363636363636363636363636363636363636363636
IV:                       0000000000000000
Plaintext:                0000000000000000000000000000000000
Ciphertext:               3aa3ea2d72ecf9fa1a0773f380af650f77db8a371956a07c2f5fba7d1e01e52ea9161a5e2c70e0b3b0c47b314b8fb6437ffc044ea876ed22032cf4eb8dd270e1
Reciphers for ciphertext: 0
Decipheredtext:           0000000000000000000000000000000000
RESULT CIPHER-DECIPHER: -----OK-----


Test: 55
Hash algorithm: 6
Crypto pad: 2
Symmetric key bit length: 192
IV bit length:            64
Plaintext bit length:     136
Symmetric key:            373737373737373737373737373737373737373737373737
IV:                       0000000000000000
Plaintext:                0000000000000000000000000000000000
Ciphertext:               3aa3ea2d72ecf9fa1a0773f380af650fd68c83f95b88acb22c56065ebb21de1de0ae60a30004925701ada9000739e18d651cf8cd8ba8ad87430267c084ce719d
Reciphers for ciphertext: 0
Decipheredtext:           0000000000000000000000000000000000
RESULT CIPHER-DECIPHER: -----OK-----


Test: 56
Hash algorithm: 12
Crypto pad: 1
Symmetric key bit length: 192
IV bit length:            64
Plaintext bit length:     136
Symmetric key:            383838383838383838383838383838383838383838383838
IV:                       0000000000000000
Plaintext:                0000000000000000000000000000000000
Ciphertext:               74d669c708972b1a389456d7b11dd16bdb4a5c03babe3aa409f15726f78e332bb18d094c8ad91a83207199dea38f83f2
Reciphers for ciphertext: 0
Decipheredtext:           0000000000000000000000000000000000
RESULT CIPHER-DECIPHER: -----OK-----


Test: 57
Hash algorithm: 1
Crypto pad: 1
Symmetric key bit length: 192
IV bit length:            64
Plaintext bit length:     136
Symmetric key:            393939393939393939393939393939393939393939393939
IV:                       0000000000000000
Plaintext:                0000000000000000000000000000000000
Ciphertext:               74d669c708972b1a389456d7b11dd16bdb4a5c03babe3aa4b8c7b90e5f796a0faf6bdfcf339ab78d326afad6b03b4e83087aea464c310c8b
Reciphers for ciphertext: 0
Decipheredtext:           0000000000000000000000000000000000
RESULT CIPHER-DECIPHER: -----OK-----


Test: 58
Hash algorithm: 4
Crypto pad: 1
Symmetric key bit length: 192
IV bit length:            64
Plaintext bit length:     136
Symmetric key:            3a3a3a3a3a3a3a3a3a3a3a3a3a3a3a3a3a3a3a3a3a3a3a3a
IV:                       0000000000000000
Plaintext:                0000000000000000000000000000000000
Ciphertext:               4c372b229cceb764ba6116248b546f2e562a382b5db12f714afb9a2523b0e42ac7eacd4817f986a257459cbc4141df77ff6af1941a060fd36fe44b3659c68ae72e4ea51ef574276b944d61da04de6586e6e1fde47888d711490abfa6ee34d739
Reciphers for ciphertext: 0
Decipheredtext:           0000000000000000000000000000000000
RESULT CIPHER-DECIPHER: -----OK-----


Test: 59
Hash algorithm: 11
Crypto pad: 0
Symmetric key bit length: 192
IV bit length:            64
Plaintext bit length:     136
Symmetric key:            3b3b3b3b3b3b3b3b3b3b3b3b3b3b3b3b3b3b3b3b3b3b3b3b
IV:                       0000000000000000
Plaintext:                0000000000000000000000000000000000
Ciphertext:               4c372b229cceb764ba6116248b546f2e26c8b6ab79ef1f994658d633c8b6649db2717ec4753d2bef33099ae54e600094
Reciphers for ciphertext: 0
Decipheredtext:           0000000000000000000000000000000000
RESULT CIPHER-DECIPHER: -----OK-----


Test: 60
Hash algorithm: 9
Crypto pad: 2
Symmetric key bit length: 192
IV bit length:            64
Plaintext bit length:     136
Symmetric key:            3c3c3c3c3c3c3c3c3c3c3c3c3c3c3c3c3c3c3c3c3c3c3c3c
IV:                       0000000000000000
Plaintext:                0000000000000000000000000000000000
Ciphertext:               46d327dadabb677aa892af3645dfa7cb10e31bff040a7eff50f6cfc2e0ebd2034e3a7c5f14ef545a7fa3ce195f9844ed1ddff058464097aa9f666d248477bf2b
Reciphers for ciphertext: 0
Decipheredtext:           0000000000000000000000000000000000
RESULT CIPHER-DECIPHER: -----OK-----


Test: 61
Hash algorithm: 12
Crypto pad: 0
Symmetric key bit length: 192
IV bit length:            64
Plaintext bit length:     136
Symmetric key:            3d3d3d3d3d3d3d3d3d3d3d3d3d3d3d3d3d3d3d3d3d3d3d3d
IV:                       0000000000000000
Plaintext:                0000000000000000000000000000000000
Ciphertext:               46d327dadabb677aa892af3645dfa7cb06648c560e25459deaff21c27dd244c960ec44c055939556f4cffe4562f32b8e
Reciphers for ciphertext: 0
Decipheredtext:           0000000000000000000000000000000000
RESULT CIPHER-DECIPHER: -----OK-----


Test: 62
Hash algorithm: 13
Crypto pad: 1
Symmetric key bit length: 192
IV bit length:            64
Plaintext bit length:     136
Symmetric key:            3e3e3e3e3e3e3e3e3e3e3e3e3e3e3e3e3e3e3e3e3e3e3e3e
IV:                       0000000000000000
Plaintext:                0000000000000000000000000000000000
Ciphertext:               f0a427ae4bdbde04a6c7d76830932960f68e4d40b70da24c19d08dd42814fba3f666b10642747c833646da83be57561b
Reciphers for ciphertext: 0
Decipheredtext:           0000000000000000000000000000000000
RESULT CIPHER-DECIPHER: -----OK-----


Test: 63
Hash algorithm: 8
Crypto pad: 2
Symmetric key bit length: 192
IV bit length:            64
Plaintext bit length:     136
Symmetric key:            3f3f3f3f3f3f3f3f3f3f3f3f3f3f3f3f3f3f3f3f3f3f3f3f
IV:                       0000000000000000
Plaintext:                0000000000000000000000000000000000
Ciphertext:               f0a427ae4bdbde04a6c7d768309329605f7be28a6e023abc22a6cdae514aeb03ee3181067d3b6c82161a38051b16e512
Reciphers for ciphertext: 0
Decipheredtext:           0000000000000000000000000000000000
RESULT CIPHER-DECIPHER: -----OK-----


Test: 64
Hash algorithm: 13
Crypto pad: 2
Symmetric key bit length: 192
IV bit length:            64
Plaintext bit length:     136
Symmetric key:            404040404040404040404040404040404040404040404040
IV:                       0000000000000000
Plaintext:                0000000000000000000000000000000000
Ciphertext:               c4b738cdd18d6e4802ce6def788d4485c6aee86f4786430fc9d7ec399bc39f54748106084075501a2c9c0749d11c736b
Reciphers for ciphertext: 0
Decipheredtext:           0000000000000000000000000000000000
RESULT CIPHER-DECIPHER: -----OK-----


Test: 65
Hash algorithm: 7
Crypto pad: 0
Symmetric key bit length: 192
IV bit length:            64
Plaintext bit length:     136
Symmetric key:            414141414141414141414141414141414141414141414141
IV:                       0000000000000000
Plaintext:                0000000000000000000000000000000000
Ciphertext:               c4b738cdd18d6e4802ce6def788d44858a56f46222aea9f903ca9e006e77ef992f565b67f6f5783d45be3e39e5ba4a21
Reciphers for ciphertext: 0
Decipheredtext:           0000000000000000000000000000000000
RESULT CIPHER-DECIPHER: -----OK-----


Test: 66
Hash algorithm: 4
Crypto pad: 2
Symmetric key bit length: 192
IV bit length:            64
Plaintext bit length:     136
Symmetric key:            424242424242424242424242424242424242424242424242
IV:                       0000000000000000
Plaintext:                0000000000000000000000000000000000
Ciphertext:               ffbaffe6d2aa6d9674ff130058fd0606050cd75f3c2ae69d84cbec748708d0015446a1cb915cb8c23c72abc28bcb58bb30fa500bf08e9de637afbd2fd38b12f340336cfca03bbcb481c05dfb8ee81cd82a5172c8b5b0600626e4031dc8ebda50
Reciphers for ciphertext: 0
Decipheredtext:           0000000000000000000000000000000000
RESULT CIPHER-DECIPHER: -----OK-----


Test: 67
Hash algorithm: 8
Crypto pad: 1
Symmetric key bit length: 192
IV bit length:            64
Plaintext bit length:     136
Symmetric key:            434343434343434343434343434343434343434343434343
IV:                       0000000000000000
Plaintext:                0000000000000000000000000000000000
Ciphertext:               ffbaffe6d2aa6d9674ff130058fd06062d2a6800512b7b2dcda7deb3bc9c60ab592052ae648e07c1dd9b2b576b6c111f
Reciphers for ciphertext: 0
Decipheredtext:           0000000000000000000000000000000000
RESULT CIPHER-DECIPHER: -----OK-----


Test: 68
Hash algorithm: 3
Crypto pad: 1
Symmetric key bit length: 192
IV bit length:            64
Plaintext bit length:     136
Symmetric key:            444444444444444444444444444444444444444444444444
IV:                       0000000000000000
Plaintext:                0000000000000000000000000000000000
Ciphertext:               e2f2434039aa34acd2d7a99e1e0ff9dcded560404203989f32d35e7a326ad57d531300b1d4db15b7afa472b405a8bf91cdca000fede147a1e9c52f214c88e5658d25f98b64d3506678c329cb45af089b
Reciphers for ciphertext: 0
Decipheredtext:           0000000000000000000000000000000000
RESULT CIPHER-DECIPHER: -----OK-----


Test: 69
Hash algorithm: 2
Crypto pad: 0
Symmetric key bit length: 192
IV bit length:            64
Plaintext bit length:     136
Symmetric key:            454545454545454545454545454545454545454545454545
IV:                       0000000000000000
Plaintext:                0000000000000000000000000000000000
Ciphertext:               e2f2434039aa34acd2d7a99e1e0ff9dc6cc463aa7aed851070c112b3c3181e92904a59198d018ca192569ffde9e250e2e5d73761b10f69653b121d88f837e20e
Reciphers for ciphertext: 0
Decipheredtext:           0000000000000000000000000000000000
RESULT CIPHER-DECIPHER: -----OK-----


Test: 70
Hash algorithm: 13
Crypto pad: 2
Symmetric key bit length: 192
IV bit length:            64
Plaintext bit length:     136
Symmetric key:            464646464646464646464646464646464646464646464646
IV:                       0000000000000000
Plaintext:                0000000000000000000000000000000000
Ciphertext:               b99d86495b7f4c65478133b32d30a53d05cbf6a33e96d270c488dbdc0cfc49b27ba97a7bbc6ca1ad8bd6fed98a67d358
Reciphers for ciphertext: 0
Decipheredtext:           0000000000000000000000000000000000
RESULT CIPHER-DECIPHER: -----OK-----


Test: 71
Hash algorithm: 11
Crypto pad: 0
Symmetric key bit length: 192
IV bit length:            64
Plaintext bit length:     136
Symmetric key:            474747474747474747474747474747474747474747474747
IV:                       0000000000000000
Plaintext:                0000000000000000000000000000000000
Ciphertext:               b99d86495b7f4c65478133b32d30a53d5a97e930d4a0ee195de95044aafcebd24c546313790f14cee18ae70624a52af2
Reciphers for ciphertext: 0
Decipheredtext:           0000000000000000000000000000000000
RESULT CIPHER-DECIPHER: -----OK-----


Test: 72
Hash algorithm: 12
Crypto pad: 0
Symmetric key bit length: 192
IV bit length:            64
Plaintext bit length:     136
Symmetric key:            484848484848484848484848484848484848484848484848
IV:                       0000000000000000
Plaintext:                0000000000000000000000000000000000
Ciphertext:               d549caf0e8bae9b10d8d8927b4c1e5f02a85b7382ca88efc1526208678b17402e45da268209be47a364b3051a4b78a71
Reciphers for ciphertext: 0
Decipheredtext:           0000000000000000000000000000000000
RESULT CIPHER-DECIPHER: -----OK-----


Test: 73
Hash algorithm: 0
Crypto pad: 1
Symmetric key bit length: 192
IV bit length:            64
Plaintext bit length:     136
Symmetric key:            494949494949494949494949494949494949494949494949
IV:                       0000000000000000
Plaintext:                0000000000000000000000000000000000
Ciphertext:               d549caf0e8bae9b10d8d8927b4c1e5f03f198b92b0e07c6aa4906822080ac8cae382cdb28ca14735d2c88e3035fd77ef
Reciphers for ciphertext: 0
Decipheredtext:           0000000000000000000000000000000000
RESULT CIPHER-DECIPHER: -----OK-----


Test: 74
Hash algorithm: 0
Crypto pad: 1
Symmetric key bit length: 192
IV bit length:            64
Plaintext bit length:     136
Symmetric key:            4a4a4a4a4a4a4a4a4a4a4a4a4a4a4a4a4a4a4a4a4a4a4a4a
IV:                       0000000000000000
Plaintext:                0000000000000000000000000000000000
Ciphertext:               cdace95ef9ecac1a3a77b165edd8f0e50bdc71e33b2ddda8755834200b9bc41bbf0343c4e048b082f2bbfefc544af036
Reciphers for ciphertext: 0
Decipheredtext:           0000000000000000000000000000000000
RESULT CIPHER-DECIPHER: -----OK-----


Test: 75
Hash algorithm: 12
Crypto pad: 2
Symmetric key bit length: 192
IV bit length:            64
Plaintext bit length:     136
Symmetric key:            4b4b4b4b4b4b4b4b4b4b4b4b4b4b4b4b4b4b4b4b4b4b4b4b
IV:                       0000000000000000
Plaintext:                0000000000000000000000000000000000
Ciphertext:               cdace95ef9ecac1a3a77b165edd8f0e595953982bfee5f5482b5dc567a71ed8586b4a60d216d31a85bd618d759e58103
Reciphers for ciphertext: 0
Decipheredtext:           0000000000000000000000000000000000
RESULT CIPHER-DECIPHER: -----OK-----


Test: 76
Hash algorithm: 9
Crypto pad: 2
Symmetric key bit length: 192
IV bit length:            64
Plaintext bit length:     136
Symmetric key:            4c4c4c4c4c4c4c4c4c4c4c4c4c4c4c4c4c4c4c4c4c4c4c4c
IV:                       0000000000000000
Plaintext:                0000000000000000000000000000000000
Ciphertext:               e878ddf761277a18e32ae52bcbea54c35f8baa28e70a33d91f30050c6bc4d4dec94bb74a0f129324c2e845278972a226be69816f542831f71f44961db506f3c2
Reciphers for ciphertext: 0
Decipheredtext:           0000000000000000000000000000000000
RESULT CIPHER-DECIPHER: -----OK-----


Test: 77
Hash algorithm: 11
Crypto pad: 0
Symmetric key bit length: 192
IV bit length:            64
Plaintext bit length:     136
Symmetric key:            4d4d4d4d4d4d4d4d4d4d4d4d4d4d4d4d4d4d4d4d4d4d4d4d
IV:                       0000000000000000
Plaintext:                0000000000000000000000000000000000
Ciphertext:               e878ddf761277a18e32ae52bcbea54c35e1e1201a31eb1d4d6fb7b147f0469edaff18e84d0fcf8111b9f6bc38c0e1b66
Reciphers for ciphertext: 0
Decipheredtext:           0000000000000000000000000000000000
RESULT CIPHER-DECIPHER: -----OK-----


Test: 78
Hash algorithm: 12
Crypto pad: 1
Symmetric key bit length: 192
IV bit length:            64
Plaintext bit length:     136
Symmetric key:            4e4e4e4e4e4e4e4e4e4e4e4e4e4e4e4e4e4e4e4e4e4e4e4e
IV:                       0000000000000000
Plaintext:                0000000000000000000000000000000000
Ciphertext:               06744c265ff9cebc49964e37c470d0c2d1bdacdf5d4bca60e362400f890c631da3a398dfc063bab8710c109e6c77ca66
Reciphers for ciphertext: 0
Decipheredtext:           0000000000000000000000000000000000
RESULT CIPHER-DECIPHER: -----OK-----


Test: 79
Hash algorithm: 1
Crypto pad: 2
Symmetric key bit length: 192
IV bit length:            64
Plaintext bit length:     136
Symmetric key:            4f4f4f4f4f4f4f4f4f4f4f4f4f4f4f4f4f4f4f4f4f4f4f4f
IV:                       0000000000000000
Plaintext:                0000000000000000000000000000000000
Ciphertext:               06744c265ff9cebc49964e37c470d0c24db9b3baa45eb201cb62b9ef7f444dce61b2af61129fd6a42e528968d23f63c1d37aeb9513239434
Reciphers for ciphertext: 0
Decipheredtext:           0000000000000000000000000000000000
RESULT CIPHER-DECIPHER: -----OK-----


Test: 80
Hash algorithm: 11
Crypto pad: 2
Symmetric key bit length: 192
IV bit length:            64
Plaintext bit length:     136
Symmetric key:            505050505050505050505050505050505050505050505050
IV:                       0000000000000000
Plaintext:                0000000000000000000000000000000000
Ciphertext:               070edb0735f68d05ab8e5be3688e8547a4a7b19cae9eb61ac252a8d3ce772b4be5f4e2f7667db15e485fa8e7c6de7292
Reciphers for ciphertext: 0
Decipheredtext:           0000000000000000000000000000000000
RESULT CIPHER-DECIPHER: -----OK-----


Test: 81
Hash algorithm: 1
Crypto pad: 0
Symmetric key bit length: 192
IV bit length:            64
Plaintext bit length:     136
Symmetric key:            515151515151515151515151515151515151515151515151
IV:                       0000000000000000
Plaintext:                0000000000000000000000000000000000
Ciphertext:               070edb0735f68d05ab8e5be3688e854728c312adae4e2bbadd3a68d055b43a90ed08e8851d6ff3824608171e0028b88eabded16fd274fa29
Reciphers for ciphertext: 0
Decipheredtext:           0000000000000000000000000000000000
RESULT CIPHER-DECIPHER: -----OK-----


Test: 82
Hash algorithm: 12
Crypto pad: 1
Symmetric key bit length: 192
IV bit length:            64
Plaintext bit length:     136
Symmetric key:            525252525252525252525252525252525252525252525252
IV:                       0000000000000000
Plaintext:                0000000000000000000000000000000000
Ciphertext:               17d819b45d919a56dabc7c892aa13e8c649d61354f716568c4793dd0b9909b9de097c7b2836acba696c828d07eabdb9e
Reciphers for ciphertext: 0
Decipheredtext:           0000000000000000000000000000000000
RESULT CIPHER-DECIPHER: -----OK-----


Test: 83
Hash algorithm: 8
Crypto pad: 2
Symmetric key bit length: 192
IV bit length:            64
Plaintext bit length:     136
Symmetric key:            535353535353535353535353535353535353535353535353
IV:                       0000000000000000
Plaintext:                0000000000000000000000000000000000
Ciphertext:               17d819b45d919a56dabc7c892aa13e8c7915866eb642ec040a099d869bfc4aff470164f5c6cbbec43c51b16e57b520f0
Reciphers for ciphertext: 0
Decipheredtext:           0000000000000000000000000000000000
RESULT CIPHER-DECIPHER: -----OK-----


Test: 84
Hash algorithm: 8
Crypto pad: 0
Symmetric key bit length: 192
IV bit length:            64
Plaintext bit length:     136
Symmetric key:            545454545454545454545454545454545454545454545454
IV:                       0000000000000000
Plaintext:                0000000000000000000000000000000000
Ciphertext:               0cd7dc4903a8b88b1da74beabf8ab51b81c94f0610684c9da263a46c047f30376f082316475028f63748cc25d45ea275
Reciphers for ciphertext: 0
Decipheredtext:           0000000000000000000000000000000000
RESULT CIPHER-DECIPHER: -----OK-----


Test: 85
Hash algorithm: 0
Crypto pad: 0
Symmetric key bit length: 192
IV bit length:            64
Plaintext bit length:     136
Symmetric key:            555555555555555555555555555555555555555555555555
IV:                       0000000000000000
Plaintext:                0000000000000000000000000000000000
Ciphertext:               0cd7dc4903a8b88b1da74beabf8ab51b81c94f0610684c9daef116bd9685c31feee244ad428263bf7d85b8278ddf37cf
Reciphers for ciphertext: 0
Decipheredtext:           0000000000000000000000000000000000
RESULT CIPHER-DECIPHER: -----OK-----


Test: 86
Hash algorithm: 11
Crypto pad: 0
Symmetric key bit length: 192
IV bit length:            64
Plaintext bit length:     136
Symmetric key:            565656565656565656565656565656565656565656565656
IV:                       0000000000000000
Plaintext:                0000000000000000000000000000000000
Ciphertext:               c994711eaa5e210d58222b8cd5d12b97e701cafeadd81f7739a52bb930540cb0806f45dc83519161aaf0508888c62944
Reciphers for ciphertext: 0
Decipheredtext:           0000000000000000000000000000000000
RESULT CIPHER-DECIPHER: -----OK-----


Test: 87
Hash algorithm: 12
Crypto pad: 0
Symmetric key bit length: 192
IV bit length:            64
Plaintext bit length:     136
Symmetric key:            575757575757575757575757575757575757575757575757
IV:                       0000000000000000
Plaintext:                0000000000000000000000000000000000
Ciphertext:               c994711eaa5e210d58222b8cd5d12b97e701cafeadd81f77f7d901d3890a9073d0769ac4a23beedcc0f9d2574da4f992
Reciphers for ciphertext: 0
Decipheredtext:           0000000000000000000000000000000000
RESULT CIPHER-DECIPHER: -----OK-----


Test: 88
Hash algorithm: 7
Crypto pad: 1
Symmetric key bit length: 192
IV bit length:            64
Plaintext bit length:     136
Symmetric key:            585858585858585858585858585858585858585858585858
IV:                       0000000000000000
Plaintext:                0000000000000000000000000000000000
Ciphertext:               059ccc383210c57c8c9486dada3e3c1bac9b79b3da5e394fe9465c131c1059fa505d6651d5cbba9e2d51c6d053763d5d
Reciphers for ciphertext: 0
Decipheredtext:           0000000000000000000000000000000000
RESULT CIPHER-DECIPHER: -----OK-----


Test: 89
Hash algorithm: 1
Crypto pad: 0
Symmetric key bit length: 192
IV bit length:            64
Plaintext bit length:     136
Symmetric key:            595959595959595959595959595959595959595959595959
IV:                       0000000000000000
Plaintext:                0000000000000000000000000000000000
Ciphertext:               059ccc383210c57c8c9486dada3e3c1b3aabbb90d506eab324e97a0290b1f526c06428a0a063835ff6fd3bd51c7f42a97ed8186aadf24157
Reciphers for ciphertext: 0
Decipheredtext:           0000000000000000000000000000000000
RESULT CIPHER-DECIPHER: -----OK-----


Test: 90
Hash algorithm: 7
Crypto pad: 0
Symmetric key bit length: 192
IV bit length:            64
Plaintext bit length:     136
Symmetric key:            5a5a5a5a5a5a5a5a5a5a5a5a5a5a5a5a5a5a5a5a5a5a5a5a
IV:                       0000000000000000
Plaintext:                0000000000000000000000000000000000
Ciphertext:               c747b49fb22cad2a5e6fd0d5d360f2a53553ce4d01bae91aad607ac9cf050ed4bad12990aa5e5068f8dc0b98e4530d57
Reciphers for ciphertext: 0
Decipheredtext:           0000000000000000000000000000000000
RESULT CIPHER-DECIPHER: -----OK-----


Test: 91
Hash algorithm: 2
Crypto pad: 1
Symmetric key bit length: 192
IV bit length:            64
Plaintext bit length:     136
Symmetric key:            5b5b5b5b5b5b5b5b5b5b5b5b5b5b5b5b5b5b5b5b5b5b5b5b
IV:                       0000000000000000
Plaintext:                0000000000000000000000000000000000
Ciphertext:               c747b49fb22cad2a5e6fd0d5d360f2a554404193aa50d1271218f9330682d6f1f59d4e38db7a15f9d7aab669d6f41c8f43149a1923a6639fa5d3ba773a0cc161
Reciphers for ciphertext: 0
Decipheredtext:           0000000000000000000000000000000000
RESULT CIPHER-DECIPHER: -----OK-----


Test: 92
Hash algorithm: 7
Crypto pad: 0
Symmetric key bit length: 192
IV bit length:            64
Plaintext bit length:     136
Symmetric key:            5c5c5c5c5c5c5c5c5c5c5c5c5c5c5c5c5c5c5c5c5c5c5c5c
IV:                       0000000000000000
Plaintext:                0000000000000000000000000000000000
Ciphertext:               cb7d0ff2de460aba2369edb2b341b65fd95ead970299fb532b18051d1de51627a8e5d47cb9032da24d76922b82d2bb50
Reciphers for ciphertext: 0
Decipheredtext:           0000000000000000000000000000000000
RESULT CIPHER-DECIPHER: -----OK-----


Test: 93
Hash algorithm: 11
Crypto pad: 2
Symmetric key bit length: 192
IV bit length:            64
Plaintext bit length:     136
Symmetric key:            5d5d5d5d5d5d5d5d5d5d5d5d5d5d5d5d5d5d5d5d5d5d5d5d
IV:                       0000000000000000
Plaintext:                0000000000000000000000000000000000
Ciphertext:               cb7d0ff2de460aba2369edb2b341b65f76370040f0dd15709f7a1378a2c7fa653504568aedcb2959cf11fb2dc62ad44d
Reciphers for ciphertext: 0
Decipheredtext:           0000000000000000000000000000000000
RESULT CIPHER-DECIPHER: -----OK-----


Test: 94
Hash algorithm: 11
Crypto pad: 1
Symmetric key bit length: 192
IV bit length:            64
Plaintext bit length:     136
Symmetric key:            5e5e5e5e5e5e5e5e5e5e5e5e5e5e5e5e5e5e5e5e5e5e5e5e
IV:                       0000000000000000
Plaintext:                0000000000000000000000000000000000
Ciphertext:               e2acb69a1c6f513285e114faafc4b0f9dea746a3bdacb86d51ee3cb38f435047d6d41aa5f5965c0718915deb5dcdca94
Reciphers for ciphertext: 0
Decipheredtext:           0000000000000000000000000000000000
RESULT CIPHER-DECIPHER: -----OK-----


Test: 95
Hash algorithm: 2
Crypto pad: 2
Symmetric key bit length: 192
IV bit length:            64
Plaintext bit length:     136
Symmetric key:            5f5f5f5f5f5f5f5f5f5f5f5f5f5f5f5f5f5f5f5f5f5f5f5f
IV:                       0000000000000000
Plaintext:                0000000000000000000000000000000000
Ciphertext:               e2acb69a1c6f513285e114faafc4b0f999aff2ed0cf9b41da883f52b0d2fdd7b69a6d64df76ac16ccbfe7168e4b643c05d5a7bcad0490731eda5de00e64a78c3
Reciphers for ciphertext: 0
Decipheredtext:           0000000000000000000000000000000000
RESULT CIPHER-DECIPHER: -----OK-----


Test: 96
Hash algorithm: 0
Crypto pad: 1
Symmetric key bit length: 192
IV bit length:            64
Plaintext bit length:     136
Symmetric key:            606060606060606060606060606060606060606060606060
IV:                       0000000000000000
Plaintext:                0000000000000000000000000000000000
Ciphertext:               5ff660cb09f83313415d8444eef756dd1b61f953399833f772f734884a0f99cb3ff6ee1ffb3e0313ab41ca5daccaecbf
Reciphers for ciphertext: 0
Decipheredtext:           0000000000000000000000000000000000
RESULT CIPHER-DECIPHER: -----OK-----


Test: 97
Hash algorithm: 13
Crypto pad: 1
Symmetric key bit length: 192
IV bit length:            64
Plaintext bit length:     136
Symmetric key:            616161616161616161616161616161616161616161616161
IV:                       0000000000000000
Plaintext:                0000000000000000000000000000000000
Ciphertext:               5ff660cb09f83313415d8444eef756dd1b61f953399833f7e045107c46bc121d6fe1501253ae9d149e484f2e3fd553e5
Reciphers for ciphertext: 0
Decipheredtext:           0000000000000000000000000000000000
RESULT CIPHER-DECIPHER: -----OK-----


Test: 98
Hash algorithm: 9
Crypto pad: 1
Symmetric key bit length: 192
IV bit length:            64
Plaintext bit length:     136
Symmetric key:            626262626262626262626262626262626262626262626262
IV:                       0000000000000000
Plaintext:                0000000000000000000000000000000000
Ciphertext:               3ba0c9c8d5a1549395ad600ece0ee2ec61089c57d0599d646a8cd3532ad9db0631e4377b946166e6f3d34d1fd1891c210fbba6fc9eae2d9ddac8df528d4f1489
Reciphers for ciphertext: 0
Decipheredtext:           0000000000000000000000000000000000
RESULT CIPHER-DECIPHER: -----OK-----


Test: 99
Hash algorithm: 10
Crypto pad: 2
Symmetric key bit length: 192
IV bit length:            64
Plaintext bit length:     136
Symmetric key:            636363636363636363636363636363636363636363636363
IV:                       0000000000000000
Plaintext:                0000000000000000000000000000000000
Ciphertext:               3ba0c9c8d5a1549395ad600ece0ee2ec143f48af53bb5588222ab416269e9a87b1955ec3b5a263d5cd187d2ae41673fe6c9c9f9088662d4a7883e302b045b69db53a5028d3e48a43
Reciphers for ciphertext: 0
Decipheredtext:           0000000000000000000000000000000000
RESULT CIPHER-DECIPHER: -----OK-----


Test: 100
Hash algorithm: 2
Crypto pad: 0
Symmetric key bit length: 192
IV bit length:            64
Plaintext bit length:     136
Symmetric key:            646464646464646464646464646464646464646464646464
IV:                       0000000000000000
Plaintext:                0000000000000000000000000000000000
Ciphertext:               57a7e1986c2c69a4f80bbb58befb63b658cbd76fba2e483428f95b43f32a5047f36d6bfe79e13d500f14044ec014bcd12c21dde3b9aba9f1ac61cd3f13f48404
Reciphers for ciphertext: 0
Decipheredtext:           0000000000000000000000000000000000
RESULT CIPHER-DECIPHER: -----OK-----


Test: 101
Hash algorithm: 8
Crypto pad: 2
Symmetric key bit length: 192
IV bit length:            64
Plaintext bit length:     136
Symmetric key:            656565656565656565656565656565656565656565656565
IV:                       0000000000000000
Plaintext:                0000000000000000000000000000000000
Ciphertext:               57a7e1986c2c69a4f80bbb58befb63b61853e68cc8df43ab37947ee53efe59eb88b0b2cffb212a52fa5bfc41ef5b073a
Reciphers for ciphertext: 0
Decipheredtext:           0000000000000000000000000000000000
RESULT CIPHER-DECIPHER: -----OK-----


Test: 102
Hash algorithm: 12
Crypto pad: 2
Symmetric key bit length: 192
IV bit length:            64
Plaintext bit length:     136
Symmetric key:            666666666666666666666666666666666666666666666666
IV:                       0000000000000000
Plaintext:                0000000000000000000000000000000000
Ciphertext:               b0b563c2e4ac77212f1b37a7d7a12fd948a2b8f7d86a011defb632cd253235a13a5d4c585b5b4aa7989ca9412c8b41aa
Reciphers for ciphertext: 0
Decipheredtext:           0000000000000000000000000000000000
RESULT CIPHER-DECIPHER: -----OK-----


Test: 103
Hash algorithm: 12
Crypto pad: 1
Symmetric key bit length: 192
IV bit length:            64
Plaintext bit length:     136
Symmetric key:            676767676767676767676767676767676767676767676767
IV:                       0000000000000000
Plaintext:                0000000000000000000000000000000000
Ciphertext:               b0b563c2e4ac77212f1b37a7d7a12fd9f97d3acb5d9138a3efb632cd253235a13a5d4c585b5b4aa73405b5bcbabe2095
Reciphers for ciphertext: 0
Decipheredtext:           0000000000000000000000000000000000
RESULT CIPHER-DECIPHER: -----OK-----


Test: 104
Hash algorithm: 4
Crypto pad: 1
Symmetric key bit length: 192
IV bit length:            64
Plaintext bit length:     136
Symmetric key:            686868686868686868686868686868686868686868686868
IV:                       0000000000000000
Plaintext:                0000000000000000000000000000000000
Ciphertext:               15e63703e499d1ab38c047a2f1a95c6e0b6a07bba49dd84c5f0f2fd116d77e1a8c2b86f2ea68b22df699c3a6ccf02cfa4b04868f2d132548aa60d41e6a9d363c8ab5e4ecfd17a9843151d413de433b6222a954be7e7a6d0f34e584e7051ca043
Reciphers for ciphertext: 0
Decipheredtext:           0000000000000000000000000000000000
RESULT CIPHER-DECIPHER: -----OK-----


Test: 105
Hash algorithm: 0
Crypto pad: 2
Symmetric key bit length: 192
IV bit length:            64
Plaintext bit length:     136
Symmetric key:            696969696969696969696969696969696969696969696969
IV:                       0000000000000000
Plaintext:                0000000000000000000000000000000000
Ciphertext:               15e63703e499d1ab38c047a2f1a95c6e08b2aa535b0f528af3c1e991f5e266673bdf4967720c65b19dda1153d5f99cd9
Reciphers for ciphertext: 0
Decipheredtext:           0000000000000000000000000000000000
RESULT CIPHER-DECIPHER: -----OK-----


Test: 106
Hash algorithm: 12
Crypto pad: 1
Symmetric key bit length: 192
IV bit length:            64
Plaintext bit length:     136
Symmetric key:            6a6a6a6a6a6a6a6a6a6a6a6a6a6a6a6a6a6a6a6a6a6a6a6a
IV:                       0000000000000000
Plaintext:                0000000000000000000000000000000000
Ciphertext:               0cfa0f95e515647fe4f2262b37af02e6c1822a7493486a9dd0cbb6c5d7bd1ac5391ca32558a2a1f720e255ab1802e09c
Reciphers for ciphertext: 0
Decipheredtext:           0000000000000000000000000000000000
RESULT CIPHER-DECIPHER: -----OK-----


Test: 107
Hash algorithm: 7
Crypto pad: 2
Symmetric key bit length: 192
IV bit length:            64
Plaintext bit length:     136
Symmetric key:            6b6b6b6b6b6b6b6b6b6b6b6b6b6b6b6b6b6b6b6b6b6b6b6b
IV:                       0000000000000000
Plaintext:                0000000000000000000000000000000000
Ciphertext:               0cfa0f95e515647fe4f2262b37af02e6a63060626320dae2a098405ed327acf36265b5451ddb3da8d050f39a0313e6b1
Reciphers for ciphertext: 0
Decipheredtext:           0000000000000000000000000000000000
RESULT CIPHER-DECIPHER: -----OK-----


Test: 108
Hash algorithm: 0
Crypto pad: 0
Symmetric key bit length: 192
IV bit length:            64
Plaintext bit length:     136
Symmetric key:            6c6c6c6c6c6c6c6c6c6c6c6c6c6c6c6c6c6c6c6c6c6c6c6c
IV:                       0000000000000000
Plaintext:                0000000000000000000000000000000000
Ciphertext:               813cc9417d4ae3e55c0b2f42de55aac45aaaae52e16a518d0afa5e792d4a19b44af34601d5f27074075d1520f2518dbe
Reciphers for ciphertext: 0
Decipheredtext:           0000000000000000000000000000000000
RESULT CIPHER-DECIPHER: -----OK-----


Test: 109
Hash algorithm: 5
Crypto pad: 0
Symmetric key bit length: 192
IV bit length:            64
Plaintext bit length:     136
Symmetric key:            6d6d6d6d6d6d6d6d6d6d6d6d6d6d6d6d6d6d6d6d6d6d6d6d
IV:                       0000000000000000
Plaintext:                0000000000000000000000000000000000
Ciphertext:               813cc9417d4ae3e55c0b2f42de55aac45aaaae52e16a518daac3816fe578e99209134b53accac61ffa15ce1fd07d2a296ba925eab0767d10
Reciphers for ciphertext: 0
Decipheredtext:           0000000000000000000000000000000000
RESULT CIPHER-DECIPHER: -----OK-----


Test: 110
Hash algorithm: 11
Crypto pad: 1
Symmetric key bit length: 192
IV bit length:            64
Plaintext bit length:     136
Symmetric key:            6e6e6e6e6e6e6e6e6e6e6e6e6e6e6e6e6e6e6e6e6e6e6e6e
IV:                       0000000000000000
Plaintext:                0000000000000000000000000000000000
Ciphertext:               6dca86cb5a0faed09b1f271a242f4791cc0d94bd505e16a76513bad02f49a7fd3a40316ed12eea6d179aae9fedc7bc15
Reciphers for ciphertext: 0
Decipheredtext:           0000000000000000000000000000000000
RESULT CIPHER-DECIPHER: -----OK-----


Test: 111
Hash algorithm: 7
Crypto pad: 0
Symmetric key bit length: 192
IV bit length:            64
Plaintext bit length:     136
Symmetric key:            6f6f6f6f6f6f6f6f6f6f6f6f6f6f6f6f6f6f6f6f6f6f6f6f
IV:                       0000000000000000
Plaintext:                0000000000000000000000000000000000
Ciphertext:               6dca86cb5a0faed09b1f271a242f4791acd42ea334e78d9e1ef04ed78ea7b379f50c83b3c76593b1c559211ace14c611
Reciphers for ciphertext: 0
Decipheredtext:           0000000000000000000000000000000000
RESULT CIPHER-DECIPHER: -----OK-----


Test: 112
Hash algorithm: 8
Crypto pad: 1
Symmetric key bit length: 192
IV bit length:            64
Plaintext bit length:     136
Symmetric key:            707070707070707070707070707070707070707070707070
IV:                       0000000000000000
Plaintext:                0000000000000000000000000000000000
Ciphertext:               db294ebc6c922253aa573b8f8777668d9795c58ebc11cd8614e8e3a940d47994fdbf0e1df3ff75e68311c96528c57a50
Reciphers for ciphertext: 0
Decipheredtext:           0000000000000000000000000000000000
RESULT CIPHER-DECIPHER: -----OK-----


Test: 113
Hash algorithm: 11
Crypto pad: 1
Symmetric key bit length: 192
IV bit length:            64
Plaintext bit length:     136
Symmetric key:            717171717171717171717171717171717171717171717171
IV:                       0000000000000000
Plaintext:                0000000000000000000000000000000000
Ciphertext:               db294ebc6c922253aa573b8f8777668d9795c58ebc11cd865eaae78fda9c46c631030df60724feedff27d6bcf82663f7
Reciphers for ciphertext: 0
Decipheredtext:           0000000000000000000000000000000000
RESULT CIPHER-DECIPHER: -----OK-----


Test: 114
Hash algorithm: 10
Crypto pad: 2
Symmetric key bit length: 192
IV bit length:            64
Plaintext bit length:     136
Symmetric key:            727272727272727272727272727272727272727272727272
IV:                       0000000000000000
Plaintext:                0000000000000000000000000000000000
Ciphertext:               19e79e1032880b88dc584f733915ef826d8dc45c9fa04f42e1b5aac387737dc7946cba380fb8544fa2b1e2753f74663e71dcdae04ed27396473bcdd0979208ebb238e86e6247b975
Reciphers for ciphertext: 0
Decipheredtext:           0000000000000000000000000000000000
RESULT CIPHER-DECIPHER: -----OK-----


Test: 115
Hash algorithm: 4
Crypto pad: 1
Symmetric key bit length: 192
IV bit length:            64
Plaintext bit length:     136
Symmetric key:            737373737373737373737373737373737373737373737373
IV:                       0000000000000000
Plaintext:                0000000000000000000000000000000000
Ciphertext:               19e79e1032880b88dc584f733915ef826ea7e01e16e0a059d0c8446116fd9d2777c567c4d2257ada1f0b830e06b215999ebaf31f4ab04185e31e511abc928f965d5b794bd131a1c1d8f037b56ac1b2f83577f5a73da2a129e5df25b6a1d8dc39
Reciphers for ciphertext: 0
Decipheredtext:           0000000000000000000000000000000000
RESULT CIPHER-DECIPHER: -----OK-----


Test: 116
Hash algorithm: 8
Crypto pad: 1
Symmetric key bit length: 192
IV bit length:            64
Plaintext bit length:     136
Symmetric key:            747474747474747474747474747474747474747474747474
IV:                       0000000000000000
Plaintext:                0000000000000000000000000000000000
Ciphertext:               2dd21e58f1fe5167ccd7fc483b8342cc3f001b470f7f0d50bf76417b60fca3fe7b9977e2c4165739afa3a6b6d6e9f8b3
Reciphers for ciphertext: 0
Decipheredtext:           0000000000000000000000000000000000
RESULT CIPHER-DECIPHER: -----OK-----


Test: 117
Hash algorithm: 8
Crypto pad: 2
Symmetric key bit length: 192
IV bit length:            64
Plaintext bit length:     136
Symmetric key:            757575757575757575757575757575757575757575757575
IV:                       0000000000000000
Plaintext:                0000000000000000000000000000000000
Ciphertext:               2dd21e58f1fe5167ccd7fc483b8342ccfc62d15e4adcc632bf76417b60fca3fe7b9977e2c4165739030e0edec87a27a4
Reciphers for ciphertext: 0
Decipheredtext:           0000000000000000000000000000000000
RESULT CIPHER-DECIPHER: -----OK-----


Test: 118
Hash algorithm: 3
Crypto pad: 1
Symmetric key bit length: 192
IV bit length:            64
Plaintext bit length:     136
Symmetric key:            767676767676767676767676767676767676767676767676
IV:                       0000000000000000
Plaintext:                0000000000000000000000000000000000
Ciphertext:               4cbe91beadba353f8aec9e92084ec3f4e4dc76d7b2cf7bf2689393283b7396d547a4e724371f9401bb6aa79acc87798ef4e7cd08fdb61c532cc634caa749c31eadba8edde05a3d3d381259a17b0365ac
Reciphers for ciphertext: 0
Decipheredtext:           0000000000000000000000000000000000
RESULT CIPHER-DECIPHER: -----OK-----


Test: 119
Hash algorithm: 2
Crypto pad: 2
Symmetric key bit length: 192
IV bit length:            64
Plaintext bit length:     136
Symmetric key:            777777777777777777777777777777777777777777777777
IV:                       0000000000000000
Plaintext:                0000000000000000000000000000000000
Ciphertext:               4cbe91beadba353f8aec9e92084ec3f47add118ec2016d84f4ea7517aa964891cac9c426e9fb2b12c52594821d522f752a44133fbe8f06a183f6f6884c9a6248
Reciphers for ciphertext: 0
Decipheredtext:           0000000000000000000000000000000000
RESULT CIPHER-DECIPHER: -----OK-----


Test: 120
Hash algorithm: 8
Crypto pad: 0
Symmetric key bit length: 192
IV bit length:            64
Plaintext bit length:     136
Symmetric key:            787878787878787878787878787878787878787878787878
IV:                       0000000000000000
Plaintext:                0000000000000000000000000000000000
Ciphertext:               3cc323b2465e3a8ce89b6c73b5bffbb29754e63cb11e6517f5e89009859164e42253dc4519d45ed65ce37038a45620cf
Reciphers for ciphertext: 0
Decipheredtext:           0000000000000000000000000000000000
RESULT CIPHER-DECIPHER: -----OK-----


Test: 121
Hash algorithm: 1
Crypto pad: 0
Symmetric key bit length: 192
IV bit length:            64
Plaintext bit length:     136
Symmetric key:            797979797979797979797979797979797979797979797979
IV:                       0000000000000000
Plaintext:                0000000000000000000000000000000000
Ciphertext:               3cc323b2465e3a8ce89b6c73b5bffbb29754e63cb11e6517625e5b9704ea73f5850f65240fda1d8a7b5205289dbacb78be46feb21d6f3155
Reciphers for ciphertext: 0
Decipheredtext:           0000000000000000000000000000000000
RESULT CIPHER-DECIPHER: -----OK-----


Test: 122
Hash algorithm: 7
Crypto pad: 0
Symmetric key bit length: 192
IV bit length:            64
Plaintext bit length:     136
Symmetric key:            7a7a7a7a7a7a7a7a7a7a7a7a7a7a7a7a7a7a7a7a7a7a7a7a
IV:                       0000000000000000
Plaintext:                0000000000000000000000000000000000
Ciphertext:               d15f4504f20845f6a7365ddc88974300ce8c79d082f7c38f3ccb447a4843d33e9c36dcfc2dba78b88c96ea8cb7583795
Reciphers for ciphertext: 0
Decipheredtext:           0000000000000000000000000000000000
RESULT CIPHER-DECIPHER: -----OK-----


Test: 123
Hash algorithm: 11
Crypto pad: 1
Symmetric key bit length: 192
IV bit length:            64
Plaintext bit length:     136
Symmetric key:            7b7b7b7b7b7b7b7b7b7b7b7b7b7b7b7b7b7b7b7b7b7b7b7b
IV:                       0000000000000000
Plaintext:                0000000000000000000000000000000000
Ciphertext:               d15f4504f20845f6a7365ddc88974300def32c233d32150e263763ae5f1241ec30f1a07e35986a18de3068aa953adbdc
Reciphers for ciphertext: 0
Decipheredtext:           0000000000000000000000000000000000
RESULT CIPHER-DECIPHER: -----OK-----


Test: 124
Hash algorithm: 7
Crypto pad: 1
Symmetric key bit length: 192
IV bit length:            64
Plaintext bit length:     136
Symmetric key:            7c7c7c7c7c7c7c7c7c7c7c7c7c7c7c7c7c7c7c7c7c7c7c7c
IV:                       0000000000000000
Plaintext:                0000000000000000000000000000000000
Ciphertext:               8b1536d4d60fec196f1b90e1abcae9a53ca503ec2278279b32d3a1480dc38deb388f174b6e94733c93d6292483026600
Reciphers for ciphertext: 0
Decipheredtext:           0000000000000000000000000000000000
RESULT CIPHER-DECIPHER: -----OK-----


Test: 125
Hash algorithm: 5
Crypto pad: 1
Symmetric key bit length: 192
IV bit length:            64
Plaintext bit length:     136
Symmetric key:            7d7d7d7d7d7d7d7d7d7d7d7d7d7d7d7d7d7d7d7d7d7d7d7d
IV:                       0000000000000000
Plaintext:                0000000000000000000000000000000000
Ciphertext:               8b1536d4d60fec196f1b90e1abcae9a53ca503ec2278279b62d2e0a77b731016608150ad251318afecb87e02f5a001cfcf4f51da2f747524
Reciphers for ciphertext: 0
Decipheredtext:           0000000000000000000000000000000000
RESULT CIPHER-DECIPHER: -----OK-----


Test: 126
Hash algorithm: 3
Crypto pad: 1
Symmetric key bit length: 192
IV bit length:            64
Plaintext bit length:     136
Symmetric key:            7e7e7e7e7e7e7e7e7e7e7e7e7e7e7e7e7e7e7e7e7e7e7e7e
IV:                       0000000000000000
Plaintext:                0000000000000000000000000000000000
Ciphertext:               5efa76b8a5a9eb374a1db5b713f5aaa303e54ac136f792e103cd8a09ab2d973cd51642a4f7d43255ddd35911347c6940a286f63f25ba75a7b78456895dcff88002b3dfeae2cfe4ab7b53cc7a198f3db3
Reciphers for ciphertext: 0
Decipheredtext:           0000000000000000000000000000000000
RESULT CIPHER-DECIPHER: -----OK-----


Test: 127
Hash algorithm: 4
Crypto pad: 0
Symmetric key bit length: 192
IV bit length:            64
Plaintext bit length:     136
Symmetric key:            7f7f7f7f7f7f7f7f7f7f7f7f7f7f7f7f7f7f7f7f7f7f7f7f
IV:                       0000000000000000
Plaintext:                0000000000000000000000000000000000
Ciphertext:               5efa76b8a5a9eb374a1db5b713f5aaa331245da1c86322e9f7edd4b306f8405f006938c31e11e2085e374f18c7475f2916f39b442d44831cda25922dff9b50b51c381f90386cfecc46f0645e5bb0bc619aa9764754dcfbf049dbcff0036af0e3
Reciphers for ciphertext: 0
Decipheredtext:           0000000000000000000000000000000000
RESULT CIPHER-DECIPHER: -----OK-----


 DATA SHA1 (hexadecimal): 7c93ec1b3d70323f4b925d20561d3723b4551d54

