
DiceLock 9.0.0.1

 TEST COMPONENTS:
 ----------------
 DiceLock:           DiceLockIVDigested class
 Operation Mode:     CBC_Mode class
 Crypto pads:        0 - ANSI_X_923 class
                     1 - ISO_IEC_9797_1 class
                     2 - PKCS7 class
 Block Cipher:       Camellia256 class
 Hash algorithms:     0 - Sha1 class
                      1 - Sha224 class
                      2 - Sha256 class
                      3 - Sha384 class
                      4 - Sha512 class
                      5 - Sha512_224 class
                      6 - Sha512_256 class
                      7 - Ripemd128 class
                      8 - Ripemd160 class
                      9 - Ripemd256 class
                     10 - Ripemd320 class
                     11 - MD2 class
                     12 - MD4 class
                     13 - MD5 class
 Key Modifier:       IncreaseKeyModifier_6_0_0_1 class
 Random tests:       RandomTestSuite class
                     FrequencyTest class
                     BlockFrequencyTest class
                     CumulativeSumForwardTest class
                     LongestRunOfOnesTest class
                     RunsTest class
 Random alpha:       0.001

 VECTOR TEST: Test vector 0 - Changing symmetric key, shifting 1 bit set


##### INDIVIDUAL TESTS #####

Number tests: 128


Test: 0
Hash algorithm: 12
Crypto pad: 2
Symmetric key bit length: 256
IV bit length:            128
Plaintext bit length:     128
Symmetric key:            0000000000000000000000000000000080000000000000000000000000000000
IV:                       00000000000000000000000000000000
Plaintext:                00000000000000000000000000000000
Ciphertext:               12012e8e028d0d3d8dc00847130d424c4cee9a99d3cea699c8bdce8b384bf7d1e8d57670b54f78a5ab856f21a870587321d767b46638a6cc62e67c7c717bbd2c
Reciphers for ciphertext: 0
Decipheredtext:           00000000000000000000000000000000
RESULT CIPHER-DECIPHER: -----OK-----


Test: 1
Hash algorithm: 1
Crypto pad: 0
Symmetric key bit length: 256
IV bit length:            128
Plaintext bit length:     128
Symmetric key:            0000000000000000000000000000000040000000000000000000000000000000
IV:                       00000000000000000000000000000000
Plaintext:                00000000000000000000000000000000
Ciphertext:               182a96cc3bf10035b9db292d1399f993d7853359db75252a8806539a0df22f83c56d34bfe696d36c9ee9b298b3b87203e917be227213b73b981dbf72c18e2978
Reciphers for ciphertext: 0
Decipheredtext:           00000000000000000000000000000000
RESULT CIPHER-DECIPHER: -----OK-----


Test: 2
Hash algorithm: 8
Crypto pad: 0
Symmetric key bit length: 256
IV bit length:            128
Plaintext bit length:     128
Symmetric key:            0000000000000000000000000000000020000000000000000000000000000000
IV:                       00000000000000000000000000000000
Plaintext:                00000000000000000000000000000000
Ciphertext:               91e0e6991989d1fc4cbd754e4e7d05902ac5bfaf768972da713f77e1cd243c84220e8b80c26025df29a29b76ca4a8a421e1d96b3f8cd62ddcba3e64f6cbc016e
Reciphers for ciphertext: 0
Decipheredtext:           00000000000000000000000000000000
RESULT CIPHER-DECIPHER: -----OK-----


Test: 3
Hash algorithm: 1
Crypto pad: 0
Symmetric key bit length: 256
IV bit length:            128
Plaintext bit length:     128
Symmetric key:            0000000000000000000000000000000010000000000000000000000000000000
IV:                       00000000000000000000000000000000
Plaintext:                00000000000000000000000000000000
Ciphertext:               f3efc4e6f207e370c8cae39408c4bf1b8e07cf6c857bdcb233828f2390e337493abbdcd0d8be42e528f5cfbe1a9cd34c1ea14ca551fbe9f8cf1d016bb00df631
Reciphers for ciphertext: 0
Decipheredtext:           00000000000000000000000000000000
RESULT CIPHER-DECIPHER: -----OK-----


Test: 4
Hash algorithm: 11
Crypto pad: 1
Symmetric key bit length: 256
IV bit length:            128
Plaintext bit length:     128
Symmetric key:            0000000000000000000000000000000008000000000000000000000000000000
IV:                       00000000000000000000000000000000
Plaintext:                00000000000000000000000000000000
Ciphertext:               aa767ab2ec6fa2fa183daf9c0f3bae5ee1b102595f8d4dbe2528a2f60d1214de374cb52dafb310d20ae5d4c09e881549318bce7c6c2e3dcde29523aeaf156cc4
Reciphers for ciphertext: 0
Decipheredtext:           00000000000000000000000000000000
RESULT CIPHER-DECIPHER: -----OK-----


Test: 5
Hash algorithm: 5
Crypto pad: 1
Symmetric key bit length: 256
IV bit length:            128
Plaintext bit length:     128
Symmetric key:            0000000000000000000000000000000004000000000000000000000000000000
IV:                       00000000000000000000000000000000
Plaintext:                00000000000000000000000000000000
Ciphertext:               d1ff11f4d1aeeaae01a115081af886ef42d0bcb467cb5a246970c6b8d865bdbcce94a08edafd903c05d4095a8e090ad2a56844463bb747dfe33307d7b2ac47eb
Reciphers for ciphertext: 0
Decipheredtext:           00000000000000000000000000000000
RESULT CIPHER-DECIPHER: -----OK-----


Test: 6
Hash algorithm: 3
Crypto pad: 2
Symmetric key bit length: 256
IV bit length:            128
Plaintext bit length:     128
Symmetric key:            0000000000000000000000000000000002000000000000000000000000000000
IV:                       00000000000000000000000000000000
Plaintext:                00000000000000000000000000000000
Ciphertext:               5390139711090b56b28338fea98fcc8247a930496620d56f6e2501bc31e4a5b74c9d6c4d51cdb93eea985aaa04004d49a8604bf062fda5fb2a8a0a4743cc203fd0e00a84b53eec9ce931ad33a39e275af8b3c8ee78410909bddbe7d9ef2dc49c
Reciphers for ciphertext: 0
Decipheredtext:           00000000000000000000000000000000
RESULT CIPHER-DECIPHER: -----OK-----


Test: 7
Hash algorithm: 6
Crypto pad: 1
Symmetric key bit length: 256
IV bit length:            128
Plaintext bit length:     128
Symmetric key:            0000000000000000000000000000000001000000000000000000000000000000
IV:                       00000000000000000000000000000000
Plaintext:                00000000000000000000000000000000
Ciphertext:               13e693ccf6ebf0e6061b92b7ed0b95b689e13c16d78bf15d710d2d9d618b5f0c96dd469b377a8698da393839569e61e0ec74de83e1269e485741fa020f91560d21855e5dec33e6fb4083779178a3f08e
Reciphers for ciphertext: 0
Decipheredtext:           00000000000000000000000000000000
RESULT CIPHER-DECIPHER: -----OK-----


Test: 8
Hash algorithm: 6
Crypto pad: 2
Symmetric key bit length: 256
IV bit length:            128
Plaintext bit length:     128
Symmetric key:            0000000000000000000000000000000000800000000000000000000000000000
IV:                       00000000000000000000000000000000
Plaintext:                00000000000000000000000000000000
Ciphertext:               588fb2f95861d3c427669c68d04adb257a8e28159bbac3ab5ee9860cd60b69424772eed2dec2e4d02c6b3172b8a0480542610bf38c9c727c0ed1632da2cfb8e272291ed5b488ec6174aad287751f3cad
Reciphers for ciphertext: 0
Decipheredtext:           00000000000000000000000000000000
RESULT CIPHER-DECIPHER: -----OK-----


Test: 9
Hash algorithm: 8
Crypto pad: 1
Symmetric key bit length: 256
IV bit length:            128
Plaintext bit length:     128
Symmetric key:            0000000000000000000000000000000000400000000000000000000000000000
IV:                       00000000000000000000000000000000
Plaintext:                00000000000000000000000000000000
Ciphertext:               f472ecdf8debc416313aaf7c8aafb43efe60bd53c46d4fa2e8ff32e58c448930677e0b21fd94e1ecc5f2fd070445d68f21088719b4f4d5a52f1d2c1adc0008e5
Reciphers for ciphertext: 0
Decipheredtext:           00000000000000000000000000000000
RESULT CIPHER-DECIPHER: -----OK-----


Test: 10
Hash algorithm: 12
Crypto pad: 0
Symmetric key bit length: 256
IV bit length:            128
Plaintext bit length:     128
Symmetric key:            0000000000000000000000000000000000200000000000000000000000000000
IV:                       00000000000000000000000000000000
Plaintext:                00000000000000000000000000000000
Ciphertext:               eaa654be38e857941a921c70ac7fc7ce7e9e6ac6f77840837525811470df6602e9e3c34dd6691e5811db574322585c7802dc5c76b513eebe7ef97510bc6c2194
Reciphers for ciphertext: 0
Decipheredtext:           00000000000000000000000000000000
RESULT CIPHER-DECIPHER: -----OK-----


Test: 11
Hash algorithm: 2
Crypto pad: 0
Symmetric key bit length: 256
IV bit length:            128
Plaintext bit length:     128
Symmetric key:            0000000000000000000000000000000000100000000000000000000000000000
IV:                       00000000000000000000000000000000
Plaintext:                00000000000000000000000000000000
Ciphertext:               f2a4e47ae80cdf506b9513c510ea0954905d51f7919088c4553304e99a88c7d39e6b37c7afcd17ec75128dcde42a2af7592bf2e4ffee2b8430012c5c5e05190d8a01472688289a47e78bbffd00ef44cd
Reciphers for ciphertext: 0
Decipheredtext:           00000000000000000000000000000000
RESULT CIPHER-DECIPHER: -----OK-----


Test: 12
Hash algorithm: 8
Crypto pad: 2
Symmetric key bit length: 256
IV bit length:            128
Plaintext bit length:     128
Symmetric key:            0000000000000000000000000000000000080000000000000000000000000000
IV:                       00000000000000000000000000000000
Plaintext:                00000000000000000000000000000000
Ciphertext:               f08ec7ed8fbb99f175a990c3e4decb6b78c413fdb78ec8fa98ad7b5816e65f25a06a815f0a0da5a7692ea1abfe7139f4492e7b043b3c4e66fb02171c9a3ecee4
Reciphers for ciphertext: 0
Decipheredtext:           00000000000000000000000000000000
RESULT CIPHER-DECIPHER: -----OK-----


Test: 13
Hash algorithm: 6
Crypto pad: 0
Symmetric key bit length: 256
IV bit length:            128
Plaintext bit length:     128
Symmetric key:            0000000000000000000000000000000000040000000000000000000000000000
IV:                       00000000000000000000000000000000
Plaintext:                00000000000000000000000000000000
Ciphertext:               5c767bc584ca3653ede27cd8b209a0ad898126acb41a1be4c65560828602eedbfe74c099ae02ab26ebc7da3f8b1a3108730c947812087e1732f22b68207134db7f141eed3d8e7c5f38159f488a0c716c
Reciphers for ciphertext: 0
Decipheredtext:           00000000000000000000000000000000
RESULT CIPHER-DECIPHER: -----OK-----


Test: 14
Hash algorithm: 0
Crypto pad: 1
Symmetric key bit length: 256
IV bit length:            128
Plaintext bit length:     128
Symmetric key:            0000000000000000000000000000000000020000000000000000000000000000
IV:                       00000000000000000000000000000000
Plaintext:                00000000000000000000000000000000
Ciphertext:               aff9a8ba92a40b2bf42fdb4089b1f9ccdd4c9c54603f26f52cd954a5bbd942ca00ab036afcfdc8b48fb74263ceab9726f9dea40e881031ba2340104677d1cfd7
Reciphers for ciphertext: 0
Decipheredtext:           00000000000000000000000000000000
RESULT CIPHER-DECIPHER: -----OK-----


Test: 15
Hash algorithm: 10
Crypto pad: 2
Symmetric key bit length: 256
IV bit length:            128
Plaintext bit length:     128
Symmetric key:            0000000000000000000000000000000000010000000000000000000000000000
IV:                       00000000000000000000000000000000
Plaintext:                00000000000000000000000000000000
Ciphertext:               bfc1e9198bbe22266712eb1ecb17d748fbd9a30918032ba6c964c7b396b7ce1a426592a4944d6568f0f8d906a83ac1fd9ec6af30238162f60e7ce927d635e4a50c32fd8929b3b53c6c51414a02ec97b4
Reciphers for ciphertext: 0
Decipheredtext:           00000000000000000000000000000000
RESULT CIPHER-DECIPHER: -----OK-----


Test: 16
Hash algorithm: 3
Crypto pad: 2
Symmetric key bit length: 256
IV bit length:            128
Plaintext bit length:     128
Symmetric key:            0000000000000000000000000000000000008000000000000000000000000000
IV:                       00000000000000000000000000000000
Plaintext:                00000000000000000000000000000000
Ciphertext:               235184136a29208bd041e60bcb9f746470b51862c2ae2108f2eda42b1fb77269f6210f0c6ff79746c42b1effa4b14dd0b42de193c86c13d7fc9ac5b262bcef638ae324cbe6f8369b2e650fbf76688233ddd71562e9cf54a488697d574e88cb3b
Reciphers for ciphertext: 0
Decipheredtext:           00000000000000000000000000000000
RESULT CIPHER-DECIPHER: -----OK-----


Test: 17
Hash algorithm: 4
Crypto pad: 1
Symmetric key bit length: 256
IV bit length:            128
Plaintext bit length:     128
Symmetric key:            0000000000000000000000000000000000004000000000000000000000000000
IV:                       00000000000000000000000000000000
Plaintext:                00000000000000000000000000000000
Ciphertext:               83dc48f9177c5c94cbc22e83a2b7682936907df9951d42f7672bc32e081b542c067787ab0477b963d9a66e896b2a5fae35bacad566142e94ee96049c18659a19c35c44cf3edea069e8e038fdf6463529a66c730afdf21055afad55048c9d96432ad56eab7ad5bea3e5b5ae52e2dd8511
Reciphers for ciphertext: 0
Decipheredtext:           00000000000000000000000000000000
RESULT CIPHER-DECIPHER: -----OK-----


Test: 18
Hash algorithm: 1
Crypto pad: 1
Symmetric key bit length: 256
IV bit length:            128
Plaintext bit length:     128
Symmetric key:            0000000000000000000000000000000000002000000000000000000000000000
IV:                       00000000000000000000000000000000
Plaintext:                00000000000000000000000000000000
Ciphertext:               72cd31acb7a1a459e4d27c1f26039fa76090e3c681d2cd86b1afde188151a0ba9c0b9e4294fad1734dfc4e1c652813acb7d3dfeb7f8a0d00e05c60b5a5419482
Reciphers for ciphertext: 0
Decipheredtext:           00000000000000000000000000000000
RESULT CIPHER-DECIPHER: -----OK-----


Test: 19
Hash algorithm: 6
Crypto pad: 2
Symmetric key bit length: 256
IV bit length:            128
Plaintext bit length:     128
Symmetric key:            0000000000000000000000000000000000001000000000000000000000000000
IV:                       00000000000000000000000000000000
Plaintext:                00000000000000000000000000000000
Ciphertext:               139ac4734c3136fd9982fcc7a569b9d301b6a2c1d61d322c6906e135eb4de1ed2fcc788d467b18a1eddc8bc626763f786392af340c0b16209b7d30eaca29f44a47611bf622a54e407c14cdc618b7f450
Reciphers for ciphertext: 0
Decipheredtext:           00000000000000000000000000000000
RESULT CIPHER-DECIPHER: -----OK-----


Test: 20
Hash algorithm: 0
Crypto pad: 2
Symmetric key bit length: 256
IV bit length:            128
Plaintext bit length:     128
Symmetric key:            0000000000000000000000000000000000000800000000000000000000000000
IV:                       00000000000000000000000000000000
Plaintext:                00000000000000000000000000000000
Ciphertext:               12ffa3ef4346f4c57a03a36f9938b2517e884d968ecfdbd4547e78a9d7af5d91442c2351c252e15136c986d7e2e700a8ac5f5039a565433a403219865479416b
Reciphers for ciphertext: 0
Decipheredtext:           00000000000000000000000000000000
RESULT CIPHER-DECIPHER: -----OK-----


Test: 21
Hash algorithm: 1
Crypto pad: 0
Symmetric key bit length: 256
IV bit length:            128
Plaintext bit length:     128
Symmetric key:            0000000000000000000000000000000000000400000000000000000000000000
IV:                       00000000000000000000000000000000
Plaintext:                00000000000000000000000000000000
Ciphertext:               43ddb100ce22e5553cf4dcf814bf3cac60c78f308fbe694f610a7fae8590b9f6151a558b96a78b36dde0c5386238108b84d3c32b52613fe09455833c1dbe1303
Reciphers for ciphertext: 0
Decipheredtext:           00000000000000000000000000000000
RESULT CIPHER-DECIPHER: -----OK-----


Test: 22
Hash algorithm: 4
Crypto pad: 0
Symmetric key bit length: 256
IV bit length:            128
Plaintext bit length:     128
Symmetric key:            0000000000000000000000000000000000000200000000000000000000000000
IV:                       00000000000000000000000000000000
Plaintext:                00000000000000000000000000000000
Ciphertext:               abdadf4c948bb61c0a917885ade4c7c58098be0092d37c910b2790348d6dcc7bf70b0accac0615468119734ef776f08cf8f931e47edb486055f199d3f0bcaf648c0e91ab3e461612d6a6e4cb90012f44b4251006e73f68d3cf2dd00f00cecff0d385e3bfcd7073884d235af8090f96eb
Reciphers for ciphertext: 0
Decipheredtext:           00000000000000000000000000000000
RESULT CIPHER-DECIPHER: -----OK-----


Test: 23
Hash algorithm: 11
Crypto pad: 1
Symmetric key bit length: 256
IV bit length:            128
Plaintext bit length:     128
Symmetric key:            0000000000000000000000000000000000000100000000000000000000000000
IV:                       00000000000000000000000000000000
Plaintext:                00000000000000000000000000000000
Ciphertext:               197391e089de173b522ddd8cbeec31187bd875822e3c9024d5f3abfa261f56f812b7d714d2d85512c7bb0114cc9eaf7478c91c2d45dd446ade0904262c6ff230
Reciphers for ciphertext: 0
Decipheredtext:           00000000000000000000000000000000
RESULT CIPHER-DECIPHER: -----OK-----


Test: 24
Hash algorithm: 8
Crypto pad: 0
Symmetric key bit length: 256
IV bit length:            128
Plaintext bit length:     128
Symmetric key:            0000000000000000000000000000000000000080000000000000000000000000
IV:                       00000000000000000000000000000000
Plaintext:                00000000000000000000000000000000
Ciphertext:               43fbe8bf2728c55c9368d01e40c1cf967e523a7204a515b6cc5feb91c3a0484a7a33f2882fab596396bdebcc71c7b812faea1524d903c4cfcf3fd583b5903344
Reciphers for ciphertext: 0
Decipheredtext:           00000000000000000000000000000000
RESULT CIPHER-DECIPHER: -----OK-----


Test: 25
Hash algorithm: 3
Crypto pad: 1
Symmetric key bit length: 256
IV bit length:            128
Plaintext bit length:     128
Symmetric key:            0000000000000000000000000000000000000040000000000000000000000000
IV:                       00000000000000000000000000000000
Plaintext:                00000000000000000000000000000000
Ciphertext:               0f5de5f67ec84f2cb253a0bc48991c710f10d1e404aad83c4809d50a996fe0724da3dd261ac7e50578e3122d01d220e53af55fe565e0b52f0e88dc60d563c49b5a4c388103d0b82eabdf9d0e1e9d693dcc61ace6691d95b31576899746440bb8
Reciphers for ciphertext: 0
Decipheredtext:           00000000000000000000000000000000
RESULT CIPHER-DECIPHER: -----OK-----


Test: 26
Hash algorithm: 3
Crypto pad: 2
Symmetric key bit length: 256
IV bit length:            128
Plaintext bit length:     128
Symmetric key:            0000000000000000000000000000000000000020000000000000000000000000
IV:                       00000000000000000000000000000000
Plaintext:                00000000000000000000000000000000
Ciphertext:               52ba4666b972eae3d2e960d7372d3c484a484903661f7c3a7a3f5c949e01da1cc272765fd5b9854590a76948f339cfe07541052282d3771caeff58435dce5759bf18525cda5ce8f54ef4f172e55b2bb5cf1a9e8e85bb2c86a1d21866dc279e2e
Reciphers for ciphertext: 0
Decipheredtext:           00000000000000000000000000000000
RESULT CIPHER-DECIPHER: -----OK-----


Test: 27
Hash algorithm: 12
Crypto pad: 2
Symmetric key bit length: 256
IV bit length:            128
Plaintext bit length:     128
Symmetric key:            0000000000000000000000000000000000000010000000000000000000000000
IV:                       00000000000000000000000000000000
Plaintext:                00000000000000000000000000000000
Ciphertext:               0735ae765bc079a93b451d873fa93702503572ba95bda0b85f562228de0048ad05b8d6d44dc26541bd8655546a04d5d67cc1dd22102696a7eec93f006ff1da48
Reciphers for ciphertext: 0
Decipheredtext:           00000000000000000000000000000000
RESULT CIPHER-DECIPHER: -----OK-----


Test: 28
Hash algorithm: 2
Crypto pad: 2
Symmetric key bit length: 256
IV bit length:            128
Plaintext bit length:     128
Symmetric key:            0000000000000000000000000000000000000008000000000000000000000000
IV:                       00000000000000000000000000000000
Plaintext:                00000000000000000000000000000000
Ciphertext:               89d988508a4569e2232f72412ae50b6534b24343f535edd27c08c7585f224bf4228093f6d2da8cc604a58863298328b7c8d0bcbbfb4262fcb6387a8dc17295b2182f5eb6bb9f56b88a3edc5459e1f12d
Reciphers for ciphertext: 0
Decipheredtext:           00000000000000000000000000000000
RESULT CIPHER-DECIPHER: -----OK-----


Test: 29
Hash algorithm: 2
Crypto pad: 2
Symmetric key bit length: 256
IV bit length:            128
Plaintext bit length:     128
Symmetric key:            0000000000000000000000000000000000000004000000000000000000000000
IV:                       00000000000000000000000000000000
Plaintext:                00000000000000000000000000000000
Ciphertext:               bcf0ee2403bc9344030c0ff065b6fd88634fd2ff2ada5089ed0e04d8a37557198859763ee18d750c2118d6ec8be773431db5745538ab4a1683d8997c36095c1f53d98233795308044284138eac72dc3e
Reciphers for ciphertext: 0
Decipheredtext:           00000000000000000000000000000000
RESULT CIPHER-DECIPHER: -----OK-----


Test: 30
Hash algorithm: 3
Crypto pad: 0
Symmetric key bit length: 256
IV bit length:            128
Plaintext bit length:     128
Symmetric key:            0000000000000000000000000000000000000002000000000000000000000000
IV:                       00000000000000000000000000000000
Plaintext:                00000000000000000000000000000000
Ciphertext:               25d76d36f3376d6fd835ba012c7dd2e5e0e36268870412e462194033fe602bd80b0db71e734ffd6e2ac1d2caa5f65fb8b9762ec39f10e57a4b1735b6fca843a9568cdff08af6af61896629aff44426b623542545f0a2775dbb8f21975b6caa68
Reciphers for ciphertext: 0
Decipheredtext:           00000000000000000000000000000000
RESULT CIPHER-DECIPHER: -----OK-----


Test: 31
Hash algorithm: 13
Crypto pad: 0
Symmetric key bit length: 256
IV bit length:            128
Plaintext bit length:     128
Symmetric key:            0000000000000000000000000000000000000001000000000000000000000000
IV:                       00000000000000000000000000000000
Plaintext:                00000000000000000000000000000000
Ciphertext:               ef364a31e8551732d4b2098281d4e2c99fdf21a6f59d71b5f48be54f21c9da437f414d96799c0a9379a9cdf7ec501692dd298917d33ec774383d5a17e6dd8d80
Reciphers for ciphertext: 0
Decipheredtext:           00000000000000000000000000000000
RESULT CIPHER-DECIPHER: -----OK-----


Test: 32
Hash algorithm: 7
Crypto pad: 1
Symmetric key bit length: 256
IV bit length:            128
Plaintext bit length:     128
Symmetric key:            0000000000000000000000000000000000000000800000000000000000000000
IV:                       00000000000000000000000000000000
Plaintext:                00000000000000000000000000000000
Ciphertext:               64b1f927c0a7315ea60bc5f2a0dccfe2d43eb3973837786b077229f98f203f4c14b9d2547297be0983aeeab3b3fa284bbb77e6f9d839ae8a0b0b6911fff8aa9a
Reciphers for ciphertext: 0
Decipheredtext:           00000000000000000000000000000000
RESULT CIPHER-DECIPHER: -----OK-----


Test: 33
Hash algorithm: 4
Crypto pad: 1
Symmetric key bit length: 256
IV bit length:            128
Plaintext bit length:     128
Symmetric key:            0000000000000000000000000000000000000000400000000000000000000000
IV:                       00000000000000000000000000000000
Plaintext:                00000000000000000000000000000000
Ciphertext:               ca99e0edfa0e121f27659346bcdcc4432a13db35bbc654f0dcecdb3efffaff57ad7d248b3dcc30336774500e52292e43e69c2831796e4d8b2f54f1fc4878098e787e387cc9e8e15d6c7c80adbe5aead460fd7fe6a707c0ab9a7745af43f1f50e990b2f6b97c99cfece6fb8b6b8dbbf59
Reciphers for ciphertext: 0
Decipheredtext:           00000000000000000000000000000000
RESULT CIPHER-DECIPHER: -----OK-----


Test: 34
Hash algorithm: 11
Crypto pad: 0
Symmetric key bit length: 256
IV bit length:            128
Plaintext bit length:     128
Symmetric key:            0000000000000000000000000000000000000000200000000000000000000000
IV:                       00000000000000000000000000000000
Plaintext:                00000000000000000000000000000000
Ciphertext:               1816d9d23d1069bc6dec195f60994c05796f2757560c24db6736d4a918b8aeda0899dde6100580e1ac04e84bd97f8021904841c5e9da3fe534a78c536bec3b8b
Reciphers for ciphertext: 0
Decipheredtext:           00000000000000000000000000000000
RESULT CIPHER-DECIPHER: -----OK-----


Test: 35
Hash algorithm: 2
Crypto pad: 1
Symmetric key bit length: 256
IV bit length:            128
Plaintext bit length:     128
Symmetric key:            0000000000000000000000000000000000000000100000000000000000000000
IV:                       00000000000000000000000000000000
Plaintext:                00000000000000000000000000000000
Ciphertext:               9819575f6890e093091378aed0612051698461a5d3fd5b655c298de70c924edffc5b11e578678d4d64d67ad31321cfe17ba4b793cee30f2205c8bb264573cac8128c90143896ea9b2767c521130af4fc
Reciphers for ciphertext: 0
Decipheredtext:           00000000000000000000000000000000
RESULT CIPHER-DECIPHER: -----OK-----


Test: 36
Hash algorithm: 8
Crypto pad: 0
Symmetric key bit length: 256
IV bit length:            128
Plaintext bit length:     128
Symmetric key:            0000000000000000000000000000000000000000080000000000000000000000
IV:                       00000000000000000000000000000000
Plaintext:                00000000000000000000000000000000
Ciphertext:               41903de72a486b823842fba2840e265c592cd55e264d86c76be0667a4638accaa4fb96347344e5c04fddd34e297065c27754ec9d516583963ea4a5ab578733e4
Reciphers for ciphertext: 0
Decipheredtext:           00000000000000000000000000000000
RESULT CIPHER-DECIPHER: -----OK-----


Test: 37
Hash algorithm: 9
Crypto pad: 0
Symmetric key bit length: 256
IV bit length:            128
Plaintext bit length:     128
Symmetric key:            0000000000000000000000000000000000000000040000000000000000000000
IV:                       00000000000000000000000000000000
Plaintext:                00000000000000000000000000000000
Ciphertext:               30651d416912a01edec4290d34b4a6057c957fbf4318ee279aa8ad9e00a9f9c38d5071b73d6e4125b975188cd4586987b6363a4b3e0b9c940a1890be6e46aa0cc313d4d34c814b46beca56c6239daa68
Reciphers for ciphertext: 0
Decipheredtext:           00000000000000000000000000000000
RESULT CIPHER-DECIPHER: -----OK-----


Test: 38
Hash algorithm: 0
Crypto pad: 2
Symmetric key bit length: 256
IV bit length:            128
Plaintext bit length:     128
Symmetric key:            0000000000000000000000000000000000000000020000000000000000000000
IV:                       00000000000000000000000000000000
Plaintext:                00000000000000000000000000000000
Ciphertext:               0949ad8ab2e85995686d6d495aba1028c377b05d0f11ac668ba2a9f4fa84b77f5205a281071b4c20d7d23663b0d49a7f2f5f3deaf7bfd4a0569e48ac41af0e0e
Reciphers for ciphertext: 0
Decipheredtext:           00000000000000000000000000000000
RESULT CIPHER-DECIPHER: -----OK-----


Test: 39
Hash algorithm: 10
Crypto pad: 2
Symmetric key bit length: 256
IV bit length:            128
Plaintext bit length:     128
Symmetric key:            0000000000000000000000000000000000000000010000000000000000000000
IV:                       00000000000000000000000000000000
Plaintext:                00000000000000000000000000000000
Ciphertext:               3789c2d08e122be204662fe9a0fdf77af78470479f8918d9113a5dbed82128ae360495a69c6c03ba5c90103bc75b19eb57fd562214d675217b694af4e8c4a60a2ffd425a0ee2d3abe0449fe29daf5ede
Reciphers for ciphertext: 0
Decipheredtext:           00000000000000000000000000000000
RESULT CIPHER-DECIPHER: -----OK-----


Test: 40
Hash algorithm: 2
Crypto pad: 1
Symmetric key bit length: 256
IV bit length:            128
Plaintext bit length:     128
Symmetric key:            0000000000000000000000000000000000000000008000000000000000000000
IV:                       00000000000000000000000000000000
Plaintext:                00000000000000000000000000000000
Ciphertext:               a0c66ee031ff045123475e6f5fa64f570965aa1db758f538bf54ba6fa38d905c0ae792e6c08cf141e7dec0600398b1284af204e486d8b4ef04786371e76730ec33893a44793650ed26cbdda94d6037e2
Reciphers for ciphertext: 0
Decipheredtext:           00000000000000000000000000000000
RESULT CIPHER-DECIPHER: -----OK-----


Test: 41
Hash algorithm: 7
Crypto pad: 0
Symmetric key bit length: 256
IV bit length:            128
Plaintext bit length:     128
Symmetric key:            0000000000000000000000000000000000000000004000000000000000000000
IV:                       00000000000000000000000000000000
Plaintext:                00000000000000000000000000000000
Ciphertext:               1baccdd314af39124709013c94cad1acf910bab5b05c5e3b95f83591470687815b91ec881141fc3388566e239945381dc3bf9e2bd43d3ea727ddb1916c0be218
Reciphers for ciphertext: 0
Decipheredtext:           00000000000000000000000000000000
RESULT CIPHER-DECIPHER: -----OK-----


Test: 42
Hash algorithm: 11
Crypto pad: 2
Symmetric key bit length: 256
IV bit length:            128
Plaintext bit length:     128
Symmetric key:            0000000000000000000000000000000000000000002000000000000000000000
IV:                       00000000000000000000000000000000
Plaintext:                00000000000000000000000000000000
Ciphertext:               2fb5df5527a8e06aed03d683edf14e9abca4eb15c95a82dc6e177d3bf48dddee206fb469be78eadf3749d4b0d6079af3f6990e732eb9ba39c2e4ee599712b54d
Reciphers for ciphertext: 0
Decipheredtext:           00000000000000000000000000000000
RESULT CIPHER-DECIPHER: -----OK-----


Test: 43
Hash algorithm: 12
Crypto pad: 1
Symmetric key bit length: 256
IV bit length:            128
Plaintext bit length:     128
Symmetric key:            0000000000000000000000000000000000000000001000000000000000000000
IV:                       00000000000000000000000000000000
Plaintext:                00000000000000000000000000000000
Ciphertext:               ff2c61ad63cda6207605c18c888b383d1030d2a2c135ccd307795835dc280c00667045ca5a5b1a9f7933cabe8dab4420cf9c1b77fa58cdb480ec939be2b2f1d4
Reciphers for ciphertext: 0
Decipheredtext:           00000000000000000000000000000000
RESULT CIPHER-DECIPHER: -----OK-----


Test: 44
Hash algorithm: 7
Crypto pad: 0
Symmetric key bit length: 256
IV bit length:            128
Plaintext bit length:     128
Symmetric key:            0000000000000000000000000000000000000000000800000000000000000000
IV:                       00000000000000000000000000000000
Plaintext:                00000000000000000000000000000000
Ciphertext:               71ce4a5b48671ab9a6561b7109fb834579da5c630cdadb236dc3af83331f3550a8956fff91b5e5d289efb07747832019609d5828e39f9cbbaa9535f168d2b70e
Reciphers for ciphertext: 0
Decipheredtext:           00000000000000000000000000000000
RESULT CIPHER-DECIPHER: -----OK-----


Test: 45
Hash algorithm: 6
Crypto pad: 0
Symmetric key bit length: 256
IV bit length:            128
Plaintext bit length:     128
Symmetric key:            0000000000000000000000000000000000000000000400000000000000000000
IV:                       00000000000000000000000000000000
Plaintext:                00000000000000000000000000000000
Ciphertext:               37299c12377e9cb8df5fe730dffcb5cafe7285ecfef6b05c88393885101c08811715a32755daf32f314e7ca1145ec6287c5a95f22909c68de91cd006e96e8a4d616d2c0c0e0331d238897c2b01599236
Reciphers for ciphertext: 0
Decipheredtext:           00000000000000000000000000000000
RESULT CIPHER-DECIPHER: -----OK-----


Test: 46
Hash algorithm: 12
Crypto pad: 0
Symmetric key bit length: 256
IV bit length:            128
Plaintext bit length:     128
Symmetric key:            0000000000000000000000000000000000000000000200000000000000000000
IV:                       00000000000000000000000000000000
Plaintext:                00000000000000000000000000000000
Ciphertext:               c5454350a7cb0ec5ca3932a3948f48bcdf519e8200aa3f90d8915b9ebfb35eedc549dd93f593bb365b4c9f1369b8290522f9f4b51cedc784d39aaa470e1aafef
Reciphers for ciphertext: 0
Decipheredtext:           00000000000000000000000000000000
RESULT CIPHER-DECIPHER: -----OK-----


Test: 47
Hash algorithm: 4
Crypto pad: 0
Symmetric key bit length: 256
IV bit length:            128
Plaintext bit length:     128
Symmetric key:            0000000000000000000000000000000000000000000100000000000000000000
IV:                       00000000000000000000000000000000
Plaintext:                00000000000000000000000000000000
Ciphertext:               8ab40d09ffbd0c82e9091fc80d2a63c93b592cf8ae97ae7b4602a9812e736887a18aa1d6382afb14d57d8f0cd9b816cba1c396ec0917382d1ba790274410668c42498ef12c4375203421f134fecfb55e52d2c2a3a684151f8c8cf104654c7313004190464ab043f50d6174881931ddb6
Reciphers for ciphertext: 0
Decipheredtext:           00000000000000000000000000000000
RESULT CIPHER-DECIPHER: -----OK-----


Test: 48
Hash algorithm: 5
Crypto pad: 2
Symmetric key bit length: 256
IV bit length:            128
Plaintext bit length:     128
Symmetric key:            0000000000000000000000000000000000000000000080000000000000000000
IV:                       00000000000000000000000000000000
Plaintext:                00000000000000000000000000000000
Ciphertext:               9cb3fe43eae3dc7ac4f97e609fde9f10e19e70aefcb42913f072e99a321098e007fc8f227459cc2745b9ccb07a7fa44b6d54238a66a8076f91429dbefd1c253e
Reciphers for ciphertext: 0
Decipheredtext:           00000000000000000000000000000000
RESULT CIPHER-DECIPHER: -----OK-----


Test: 49
Hash algorithm: 9
Crypto pad: 1
Symmetric key bit length: 256
IV bit length:            128
Plaintext bit length:     128
Symmetric key:            0000000000000000000000000000000000000000000040000000000000000000
IV:                       00000000000000000000000000000000
Plaintext:                00000000000000000000000000000000
Ciphertext:               51369dc689b25c3ac593b578baea046e5304203e233e4006b36e8a2c1e8db7421a7f054e31253740eeb9d4102243b91a165ad77ffdb2965d71e4462cd025a91ce503577e1b9c1f3995b5453ff09999df
Reciphers for ciphertext: 0
Decipheredtext:           00000000000000000000000000000000
RESULT CIPHER-DECIPHER: -----OK-----


Test: 50
Hash algorithm: 4
Crypto pad: 2
Symmetric key bit length: 256
IV bit length:            128
Plaintext bit length:     128
Symmetric key:            0000000000000000000000000000000000000000000020000000000000000000
IV:                       00000000000000000000000000000000
Plaintext:                00000000000000000000000000000000
Ciphertext:               13d9d885a24ae8b859f239890df438c95b821d1b3668ba7502f498f3168bdb40183c1d99ed786623e1f73329d8ba3c521bfdb372c513380135689a2e5770b45f1baa864565ef31dc3a4ed9ef432dfc3914b511034121a4baef3104e68d247681a8ee34004bd4a3b7c16794ac6be474da
Reciphers for ciphertext: 0
Decipheredtext:           00000000000000000000000000000000
RESULT CIPHER-DECIPHER: -----OK-----


Test: 51
Hash algorithm: 0
Crypto pad: 0
Symmetric key bit length: 256
IV bit length:            128
Plaintext bit length:     128
Symmetric key:            0000000000000000000000000000000000000000000010000000000000000000
IV:                       00000000000000000000000000000000
Plaintext:                00000000000000000000000000000000
Ciphertext:               ceacae376290d5c62d2dae422ca6e5c074699c76087208a6ffa5b6c2daf00ee41e73cc331972273285ac79dba3fb10f9b86485e9ce7dbe815eff177788ee9d39
Reciphers for ciphertext: 0
Decipheredtext:           00000000000000000000000000000000
RESULT CIPHER-DECIPHER: -----OK-----


Test: 52
Hash algorithm: 12
Crypto pad: 2
Symmetric key bit length: 256
IV bit length:            128
Plaintext bit length:     128
Symmetric key:            0000000000000000000000000000000000000000000008000000000000000000
IV:                       00000000000000000000000000000000
Plaintext:                00000000000000000000000000000000
Ciphertext:               6ae17d621f97b62f4571ab165ce0a11fb16cb9644b455072a39ea083900c2b8b4f71d2c52a3bf3d184e190add1e0d42303c095e1e4599480fa84b7ece2f4b5da
Reciphers for ciphertext: 0
Decipheredtext:           00000000000000000000000000000000
RESULT CIPHER-DECIPHER: -----OK-----


Test: 53
Hash algorithm: 9
Crypto pad: 2
Symmetric key bit length: 256
IV bit length:            128
Plaintext bit length:     128
Symmetric key:            0000000000000000000000000000000000000000000004000000000000000000
IV:                       00000000000000000000000000000000
Plaintext:                00000000000000000000000000000000
Ciphertext:               c91318f8fd17e9bc656e639a0d648b3a7b282b82f6ceb44c49c060915c31edeae2804ba167742bcf74907f0b2260f194461b8b0b797b12849d62b525172bd34be180689da8a0c0239645b9f5f75102ac
Reciphers for ciphertext: 0
Decipheredtext:           00000000000000000000000000000000
RESULT CIPHER-DECIPHER: -----OK-----


Test: 54
Hash algorithm: 8
Crypto pad: 1
Symmetric key bit length: 256
IV bit length:            128
Plaintext bit length:     128
Symmetric key:            0000000000000000000000000000000000000000000002000000000000000000
IV:                       00000000000000000000000000000000
Plaintext:                00000000000000000000000000000000
Ciphertext:               bff1bc1c935e40fb0c20ded5985f1910602564221f5ca415097b1348ee9f6052894a3f7ecfa8d602bfc1fac6329cae9b6c27d03491575e2635484feac827d76d
Reciphers for ciphertext: 0
Decipheredtext:           00000000000000000000000000000000
RESULT CIPHER-DECIPHER: -----OK-----


Test: 55
Hash algorithm: 1
Crypto pad: 2
Symmetric key bit length: 256
IV bit length:            128
Plaintext bit length:     128
Symmetric key:            0000000000000000000000000000000000000000000001000000000000000000
IV:                       00000000000000000000000000000000
Plaintext:                00000000000000000000000000000000
Ciphertext:               96f0b387f487bbdd5227b595a506f963dd90dafe470c2b74c3de015a7fbe91ba0038ff24cf98999bf948d1f70b9d7faa970520b5a36313e2ebdfdac1b2d7aa07
Reciphers for ciphertext: 0
Decipheredtext:           00000000000000000000000000000000
RESULT CIPHER-DECIPHER: -----OK-----


Test: 56
Hash algorithm: 5
Crypto pad: 0
Symmetric key bit length: 256
IV bit length:            128
Plaintext bit length:     128
Symmetric key:            0000000000000000000000000000000000000000000000800000000000000000
IV:                       00000000000000000000000000000000
Plaintext:                00000000000000000000000000000000
Ciphertext:               62265b7efb73a77205ecbbfd166b3eaebb47bc59b1aabe3d088d36a028917fbc0cd9486efd6e0915fd6b27cf8cd22193c61b827c04479aa33b539ece55abb6aa
Reciphers for ciphertext: 0
Decipheredtext:           00000000000000000000000000000000
RESULT CIPHER-DECIPHER: -----OK-----


Test: 57
Hash algorithm: 1
Crypto pad: 1
Symmetric key bit length: 256
IV bit length:            128
Plaintext bit length:     128
Symmetric key:            0000000000000000000000000000000000000000000000400000000000000000
IV:                       00000000000000000000000000000000
Plaintext:                00000000000000000000000000000000
Ciphertext:               016e8f3087757e8f576b19a58d356fb6146076d53d3f511e6b51822fdadde6c57f103cc832ae9715de50498efea6a1526f9b533f6620e12a23fb196431728701
Reciphers for ciphertext: 0
Decipheredtext:           00000000000000000000000000000000
RESULT CIPHER-DECIPHER: -----OK-----


Test: 58
Hash algorithm: 4
Crypto pad: 2
Symmetric key bit length: 256
IV bit length:            128
Plaintext bit length:     128
Symmetric key:            0000000000000000000000000000000000000000000000200000000000000000
IV:                       00000000000000000000000000000000
Plaintext:                00000000000000000000000000000000
Ciphertext:               456faf632ea07797cec23dc6553988f90a0490a3162dea4929f4c81385da178296a14efc35573f50b0fb7cd04115dac701c003c42e1d941cc889f15dd85b689ac0fb6b5b8487aa1b706aa5c5f4bfaff9ae2849f642d7b5168055f761b0d49e34145cee37985059d6cc875134be0e33c3
Reciphers for ciphertext: 0
Decipheredtext:           00000000000000000000000000000000
RESULT CIPHER-DECIPHER: -----OK-----


Test: 59
Hash algorithm: 9
Crypto pad: 0
Symmetric key bit length: 256
IV bit length:            128
Plaintext bit length:     128
Symmetric key:            0000000000000000000000000000000000000000000000100000000000000000
IV:                       00000000000000000000000000000000
Plaintext:                00000000000000000000000000000000
Ciphertext:               147694e2231fa00d6b62d3e51cc8201d229c05319dbe855188a86972c4ae259d1b6f7ad7a0bbe659dce27fc4afffe8cdab74faa4ea82c32276b9743fc1a170bd1a4b293ce2d18fa2a8b280edb78bd56d
Reciphers for ciphertext: 0
Decipheredtext:           00000000000000000000000000000000
RESULT CIPHER-DECIPHER: -----OK-----


Test: 60
Hash algorithm: 11
Crypto pad: 0
Symmetric key bit length: 256
IV bit length:            128
Plaintext bit length:     128
Symmetric key:            0000000000000000000000000000000000000000000000080000000000000000
IV:                       00000000000000000000000000000000
Plaintext:                00000000000000000000000000000000
Ciphertext:               2299d31f3d747838c65fe7c6c0c59214f4ebd0ee648c1d0dab158566128ec6f5efbb35dd23bc2a30fe73b45e11aebfceba37845775a4d46a391fa1553c74db42
Reciphers for ciphertext: 0
Decipheredtext:           00000000000000000000000000000000
RESULT CIPHER-DECIPHER: -----OK-----


Test: 61
Hash algorithm: 6
Crypto pad: 1
Symmetric key bit length: 256
IV bit length:            128
Plaintext bit length:     128
Symmetric key:            0000000000000000000000000000000000000000000000040000000000000000
IV:                       00000000000000000000000000000000
Plaintext:                00000000000000000000000000000000
Ciphertext:               c5a669612a23e4f7551d79650071e040d516146bf25ab2259167868e7abc924850a6a9b0e3155bed5807763edc06f8a6c1fd7a087e22fb010ec8f917dadec55b3f9cc6de5b59c65472e6d9183341963a
Reciphers for ciphertext: 0
Decipheredtext:           00000000000000000000000000000000
RESULT CIPHER-DECIPHER: -----OK-----


Test: 62
Hash algorithm: 0
Crypto pad: 1
Symmetric key bit length: 256
IV bit length:            128
Plaintext bit length:     128
Symmetric key:            0000000000000000000000000000000000000000000000020000000000000000
IV:                       00000000000000000000000000000000
Plaintext:                00000000000000000000000000000000
Ciphertext:               f0a32d722edfd2ba628c781dacd5fc505ebee1f0e1038576b2233390387cfcd37e114488503e83c0f5d73c8c97095d19189efec718b0c0265a955d51aabe52c8
Reciphers for ciphertext: 0
Decipheredtext:           00000000000000000000000000000000
RESULT CIPHER-DECIPHER: -----OK-----


Test: 63
Hash algorithm: 0
Crypto pad: 1
Symmetric key bit length: 256
IV bit length:            128
Plaintext bit length:     128
Symmetric key:            0000000000000000000000000000000000000000000000010000000000000000
IV:                       00000000000000000000000000000000
Plaintext:                00000000000000000000000000000000
Ciphertext:               422c8e2a0dff095e40654cb2b7176a9b23ded89e2b7136c639c05a055278029be8cc6aa38030850a81daf7954e6c4e456fd908e15b2867c02c8b85eb5369e693
Reciphers for ciphertext: 0
Decipheredtext:           00000000000000000000000000000000
RESULT CIPHER-DECIPHER: -----OK-----


Test: 64
Hash algorithm: 7
Crypto pad: 1
Symmetric key bit length: 256
IV bit length:            128
Plaintext bit length:     128
Symmetric key:            0000000000000000000000000000000000000000000000008000000000000000
IV:                       00000000000000000000000000000000
Plaintext:                00000000000000000000000000000000
Ciphertext:               99def168961d4ab9e63157e60f76399c3c7af466c226dbb76da74bc03d9141c6be260a31cd0dad7ec9dc23f7289cda0e2c702c514db352758b6ee843c9db471f
Reciphers for ciphertext: 0
Decipheredtext:           00000000000000000000000000000000
RESULT CIPHER-DECIPHER: -----OK-----


Test: 65
Hash algorithm: 0
Crypto pad: 0
Symmetric key bit length: 256
IV bit length:            128
Plaintext bit length:     128
Symmetric key:            0000000000000000000000000000000000000000000000004000000000000000
IV:                       00000000000000000000000000000000
Plaintext:                00000000000000000000000000000000
Ciphertext:               49c92acc622a00bcff7dfdcabf33cb4cf64dd6eb6425e1c10de8348c185fc2e092417d8e70ac9cbc59a5dd92e76249fcdab321bb1f0932ed786f414d1766e5b6
Reciphers for ciphertext: 0
Decipheredtext:           00000000000000000000000000000000
RESULT CIPHER-DECIPHER: -----OK-----


Test: 66
Hash algorithm: 7
Crypto pad: 0
Symmetric key bit length: 256
IV bit length:            128
Plaintext bit length:     128
Symmetric key:            0000000000000000000000000000000000000000000000002000000000000000
IV:                       00000000000000000000000000000000
Plaintext:                00000000000000000000000000000000
Ciphertext:               517117a096b2ee66d4bef2d1ee570ce72bf82f9384673ac26b5e6e68992fefe9c31f7d00a47e0be550454d3a03d1f19faeae736a25ec8df318c4c38f9d71fba7
Reciphers for ciphertext: 0
Decipheredtext:           00000000000000000000000000000000
RESULT CIPHER-DECIPHER: -----OK-----


Test: 67
Hash algorithm: 8
Crypto pad: 1
Symmetric key bit length: 256
IV bit length:            128
Plaintext bit length:     128
Symmetric key:            0000000000000000000000000000000000000000000000001000000000000000
IV:                       00000000000000000000000000000000
Plaintext:                00000000000000000000000000000000
Ciphertext:               9daecc0e82559bc2cdb8a01ab30ba6056e28c13e78b34b38937295b8fae25c1ea1d7d4691a8bd4af41fbe1dd5c2f2e4b7a0f25deff8ad1f933e3e547126526f6
Reciphers for ciphertext: 0
Decipheredtext:           00000000000000000000000000000000
RESULT CIPHER-DECIPHER: -----OK-----


Test: 68
Hash algorithm: 3
Crypto pad: 1
Symmetric key bit length: 256
IV bit length:            128
Plaintext bit length:     128
Symmetric key:            0000000000000000000000000000000000000000000000000800000000000000
IV:                       00000000000000000000000000000000
Plaintext:                00000000000000000000000000000000
Ciphertext:               50b2882928dab54488413aba5743535eece5e5011453d3033c3fca0a040cb3822b2ea4f2944d7023458c640657d4f2ba16f1667341dd77310e9c5e5c9a0e614d730d88459c47e0b49a913d1b8809fba92101c34e14a5fbfd53ec8e7e1f42f18d
Reciphers for ciphertext: 0
Decipheredtext:           00000000000000000000000000000000
RESULT CIPHER-DECIPHER: -----OK-----


Test: 69
Hash algorithm: 11
Crypto pad: 0
Symmetric key bit length: 256
IV bit length:            128
Plaintext bit length:     128
Symmetric key:            0000000000000000000000000000000000000000000000000400000000000000
IV:                       00000000000000000000000000000000
Plaintext:                00000000000000000000000000000000
Ciphertext:               e6725f73ed920f473e1442abec7db722a5e70203f56e0cd0ea7fbf087e7cf357b4a316b8561c4dd3b0460da395f66c54f78aa1ba300ee6bbd2678b619f5ca5e7
Reciphers for ciphertext: 0
Decipheredtext:           00000000000000000000000000000000
RESULT CIPHER-DECIPHER: -----OK-----


Test: 70
Hash algorithm: 13
Crypto pad: 1
Symmetric key bit length: 256
IV bit length:            128
Plaintext bit length:     128
Symmetric key:            0000000000000000000000000000000000000000000000000200000000000000
IV:                       00000000000000000000000000000000
Plaintext:                00000000000000000000000000000000
Ciphertext:               cb4f06002c5864e40c80f97157452575b887efca5e583396ca8c80f59f34831bfb36dc2bc485bfbd1cacc28c071506e6c5bc48e41b27eec11dc876a8065534d4
Reciphers for ciphertext: 0
Decipheredtext:           00000000000000000000000000000000
RESULT CIPHER-DECIPHER: -----OK-----


Test: 71
Hash algorithm: 0
Crypto pad: 0
Symmetric key bit length: 256
IV bit length:            128
Plaintext bit length:     128
Symmetric key:            0000000000000000000000000000000000000000000000000100000000000000
IV:                       00000000000000000000000000000000
Plaintext:                00000000000000000000000000000000
Ciphertext:               8df72d7c8ae547f2aa3e9afaad1d62f0ef9770774625215688b7b0cf02d3ba854da51e1751d8edfb11f133c653cfac26acf85f3c5050591bcfdb8d24959f55d0
Reciphers for ciphertext: 0
Decipheredtext:           00000000000000000000000000000000
RESULT CIPHER-DECIPHER: -----OK-----


Test: 72
Hash algorithm: 13
Crypto pad: 2
Symmetric key bit length: 256
IV bit length:            128
Plaintext bit length:     128
Symmetric key:            0000000000000000000000000000000000000000000000000080000000000000
IV:                       00000000000000000000000000000000
Plaintext:                00000000000000000000000000000000
Ciphertext:               0da429e486f5ed9460b7c54460b0a6993c25908dba5b918a1a8c9d54d67d797d0b5602d1e8a86de757ec248db185db30d247df4c3d7a5de3265e05e98431a05b
Reciphers for ciphertext: 0
Decipheredtext:           00000000000000000000000000000000
RESULT CIPHER-DECIPHER: -----OK-----


Test: 73
Hash algorithm: 9
Crypto pad: 2
Symmetric key bit length: 256
IV bit length:            128
Plaintext bit length:     128
Symmetric key:            0000000000000000000000000000000000000000000000000040000000000000
IV:                       00000000000000000000000000000000
Plaintext:                00000000000000000000000000000000
Ciphertext:               24832db462328d93306c6714e100adab73af3ca4daee49e27ce3346d8bdbb225bdacc696385ded9ae46edb2543ee56a5ee56ed382a5bf0225f083ec8cf93df4af408a085d3a7e2235c40627b3a1f5e8d
Reciphers for ciphertext: 0
Decipheredtext:           00000000000000000000000000000000
RESULT CIPHER-DECIPHER: -----OK-----


Test: 74
Hash algorithm: 12
Crypto pad: 2
Symmetric key bit length: 256
IV bit length:            128
Plaintext bit length:     128
Symmetric key:            0000000000000000000000000000000000000000000000000020000000000000
IV:                       00000000000000000000000000000000
Plaintext:                00000000000000000000000000000000
Ciphertext:               3170d82fec3d2a58c7d2f28bac4c78099934903de6cad1d7be95c0f8344cf7e5ae5fb932dd9237ec909f5ad43a17b5498cd4cdbf23eb996041c68b447cff1dad
Reciphers for ciphertext: 0
Decipheredtext:           00000000000000000000000000000000
RESULT CIPHER-DECIPHER: -----OK-----


Test: 75
Hash algorithm: 10
Crypto pad: 0
Symmetric key bit length: 256
IV bit length:            128
Plaintext bit length:     128
Symmetric key:            0000000000000000000000000000000000000000000000000010000000000000
IV:                       00000000000000000000000000000000
Plaintext:                00000000000000000000000000000000
Ciphertext:               638a46425aea9c808ac752ee69f568222d61af1045df9bd0f69c71979b6e10bdcb0093996afd53a2ebce1e9c96d1feebd30b677b4fe0b7742706a64341bad3be856c1d4bc009702905037c84f38aba61
Reciphers for ciphertext: 0
Decipheredtext:           00000000000000000000000000000000
RESULT CIPHER-DECIPHER: -----OK-----


Test: 76
Hash algorithm: 8
Crypto pad: 2
Symmetric key bit length: 256
IV bit length:            128
Plaintext bit length:     128
Symmetric key:            0000000000000000000000000000000000000000000000000008000000000000
IV:                       00000000000000000000000000000000
Plaintext:                00000000000000000000000000000000
Ciphertext:               f98954d90c5e3db2eec8a86078d7076341e6b13a7cbad21515b872f6ece34a0a60a75912da000d10960359b97f12be4c06e6430cba96f1112550d4c88e0659d7
Reciphers for ciphertext: 0
Decipheredtext:           00000000000000000000000000000000
RESULT CIPHER-DECIPHER: -----OK-----


Test: 77
Hash algorithm: 9
Crypto pad: 1
Symmetric key bit length: 256
IV bit length:            128
Plaintext bit length:     128
Symmetric key:            0000000000000000000000000000000000000000000000000004000000000000
IV:                       00000000000000000000000000000000
Plaintext:                00000000000000000000000000000000
Ciphertext:               8d5868451617fb145b8f7f91712a7aa0ec4c4428570079ee6c8b165d3a5dbea5d682e1823236169655b5faed5e603ebf8d38cc43e4250d20d0d07ff5daecedaefd634160a3de18a495cfce40c4408294
Reciphers for ciphertext: 0
Decipheredtext:           00000000000000000000000000000000
RESULT CIPHER-DECIPHER: -----OK-----


Test: 78
Hash algorithm: 10
Crypto pad: 2
Symmetric key bit length: 256
IV bit length:            128
Plaintext bit length:     128
Symmetric key:            0000000000000000000000000000000000000000000000000002000000000000
IV:                       00000000000000000000000000000000
Plaintext:                00000000000000000000000000000000
Ciphertext:               2292ba337a4f465e0dfb85daac266ae6ded248bf41f0f524367db45dbdd5c5cd34dfdfec9d277ad1f380810376d01c4ccfb4fd8ffd6666a166f9f9646de3e268ce481048a2b3fa3df9410c9cc829fcbc
Reciphers for ciphertext: 0
Decipheredtext:           00000000000000000000000000000000
RESULT CIPHER-DECIPHER: -----OK-----


Test: 79
Hash algorithm: 2
Crypto pad: 0
Symmetric key bit length: 256
IV bit length:            128
Plaintext bit length:     128
Symmetric key:            0000000000000000000000000000000000000000000000000001000000000000
IV:                       00000000000000000000000000000000
Plaintext:                00000000000000000000000000000000
Ciphertext:               f2560d5063a2f928d699005012a0c839f84213949ed3b13ba513d62781f42bf691bf71ac394f58aee3e08b4e79bf19058296317bbe7e63beaf2b1c6fbc80f22f38646769bd300beafaa99f45ae089f53
Reciphers for ciphertext: 0
Decipheredtext:           00000000000000000000000000000000
RESULT CIPHER-DECIPHER: -----OK-----


Test: 80
Hash algorithm: 13
Crypto pad: 2
Symmetric key bit length: 256
IV bit length:            128
Plaintext bit length:     128
Symmetric key:            0000000000000000000000000000000000000000000000000000800000000000
IV:                       00000000000000000000000000000000
Plaintext:                00000000000000000000000000000000
Ciphertext:               44968aeabb2852075f83fb942e05099d208c7d90543c6093f378ccb2c76f933cdeaca3de9bf667ee31848440e6d599f36e08e2af557de978499c4c9a4415bb71
Reciphers for ciphertext: 0
Decipheredtext:           00000000000000000000000000000000
RESULT CIPHER-DECIPHER: -----OK-----


Test: 81
Hash algorithm: 6
Crypto pad: 2
Symmetric key bit length: 256
IV bit length:            128
Plaintext bit length:     128
Symmetric key:            0000000000000000000000000000000000000000000000000000400000000000
IV:                       00000000000000000000000000000000
Plaintext:                00000000000000000000000000000000
Ciphertext:               eb339742ab40b5627a7cb60d4f54dd2ed84154c98b33f3ec680deef566279374b21c15657145f87969710fe8696f27c69c1ed5aa930d936b7eded52e5e205f39841b655a68c03a318bcf775cf16cc785
Reciphers for ciphertext: 0
Decipheredtext:           00000000000000000000000000000000
RESULT CIPHER-DECIPHER: -----OK-----


Test: 82
Hash algorithm: 7
Crypto pad: 0
Symmetric key bit length: 256
IV bit length:            128
Plaintext bit length:     128
Symmetric key:            0000000000000000000000000000000000000000000000000000200000000000
IV:                       00000000000000000000000000000000
Plaintext:                00000000000000000000000000000000
Ciphertext:               9aaa6fc3bbde523e9fcd9d5c0255f912985a224bc8139adec38136d28fd95b7f5778764ac41e3188d05e2ed36d0c4eedd0593c41ee059fcf7fc8b3fa86bb05fe
Reciphers for ciphertext: 0
Decipheredtext:           00000000000000000000000000000000
RESULT CIPHER-DECIPHER: -----OK-----


Test: 83
Hash algorithm: 12
Crypto pad: 1
Symmetric key bit length: 256
IV bit length:            128
Plaintext bit length:     128
Symmetric key:            0000000000000000000000000000000000000000000000000000100000000000
IV:                       00000000000000000000000000000000
Plaintext:                00000000000000000000000000000000
Ciphertext:               e6e25cbaff57f4c6056706fd13e6a2e3b20e79fcffbed553fd0a5d9aa18714ee699d49a62f969bed12477579ea6a129a47abcb386863c52bcf88a12c3e5aaf39
Reciphers for ciphertext: 0
Decipheredtext:           00000000000000000000000000000000
RESULT CIPHER-DECIPHER: -----OK-----


Test: 84
Hash algorithm: 1
Crypto pad: 0
Symmetric key bit length: 256
IV bit length:            128
Plaintext bit length:     128
Symmetric key:            0000000000000000000000000000000000000000000000000000080000000000
IV:                       00000000000000000000000000000000
Plaintext:                00000000000000000000000000000000
Ciphertext:               8a9628166922e8ec6fc28f5e847b9c71adcc0c6d643e0448fd8e1e9fc6a397a7d48391f0f69584a66158d285440a043af23408e118b35f8200d6799496656304
Reciphers for ciphertext: 0
Decipheredtext:           00000000000000000000000000000000
RESULT CIPHER-DECIPHER: -----OK-----


Test: 85
Hash algorithm: 6
Crypto pad: 2
Symmetric key bit length: 256
IV bit length:            128
Plaintext bit length:     128
Symmetric key:            0000000000000000000000000000000000000000000000000000040000000000
IV:                       00000000000000000000000000000000
Plaintext:                00000000000000000000000000000000
Ciphertext:               97cf8ff5d1337da8602f8ab6c0224af7409230f6f7b29ca77b3a817f2489645755a01ab4276b0dc7552be9e8fcbaf4b3e8ce28d1710a082aa494c43a48224bb7261643ad2100c4aa95dc393bf72d071c
Reciphers for ciphertext: 0
Decipheredtext:           00000000000000000000000000000000
RESULT CIPHER-DECIPHER: -----OK-----


Test: 86
Hash algorithm: 11
Crypto pad: 0
Symmetric key bit length: 256
IV bit length:            128
Plaintext bit length:     128
Symmetric key:            0000000000000000000000000000000000000000000000000000020000000000
IV:                       00000000000000000000000000000000
Plaintext:                00000000000000000000000000000000
Ciphertext:               ddbbe09a93364599e9233969adbeba6347a1fa7fab69fcc2c76a70817747744147163a59b70f1a9dc220afd1dcbf39985261ee74a063091bc5927eee8f3bc146
Reciphers for ciphertext: 0
Decipheredtext:           00000000000000000000000000000000
RESULT CIPHER-DECIPHER: -----OK-----


Test: 87
Hash algorithm: 11
Crypto pad: 2
Symmetric key bit length: 256
IV bit length:            128
Plaintext bit length:     128
Symmetric key:            0000000000000000000000000000000000000000000000000000010000000000
IV:                       00000000000000000000000000000000
Plaintext:                00000000000000000000000000000000
Ciphertext:               e772954b9da3da8a005582c4e9e5b6fa8cfe7a6ca242fe7d22872b959cfaebb54ab08165af942713bf0e9558acd2bb5217eb319e8c58c913d52f76134e6f3b8d
Reciphers for ciphertext: 0
Decipheredtext:           00000000000000000000000000000000
RESULT CIPHER-DECIPHER: -----OK-----


Test: 88
Hash algorithm: 0
Crypto pad: 1
Symmetric key bit length: 256
IV bit length:            128
Plaintext bit length:     128
Symmetric key:            0000000000000000000000000000000000000000000000000000008000000000
IV:                       00000000000000000000000000000000
Plaintext:                00000000000000000000000000000000
Ciphertext:               507dfd30f7eef807f994b298d487fde648933581b77b0a79eb516509637bfc4fc7faf84bee659ea2a43f0c5337053c4c1e6852e7016d7a525f4fd1592503b6b9
Reciphers for ciphertext: 0
Decipheredtext:           00000000000000000000000000000000
RESULT CIPHER-DECIPHER: -----OK-----


Test: 89
Hash algorithm: 2
Crypto pad: 0
Symmetric key bit length: 256
IV bit length:            128
Plaintext bit length:     128
Symmetric key:            0000000000000000000000000000000000000000000000000000004000000000
IV:                       00000000000000000000000000000000
Plaintext:                00000000000000000000000000000000
Ciphertext:               6ff09f69aed61f091f92503547a19b6812fe1eb71197bfb14a4c5a8d7d63e9fdca4daa8de3377f3e5f0e28c22f4dd35a344e47876faab7d1e5780ae38e4f5a7bc735fdd5fb2ca776e8955c2a1d8253cf
Reciphers for ciphertext: 0
Decipheredtext:           00000000000000000000000000000000
RESULT CIPHER-DECIPHER: -----OK-----


Test: 90
Hash algorithm: 5
Crypto pad: 1
Symmetric key bit length: 256
IV bit length:            128
Plaintext bit length:     128
Symmetric key:            0000000000000000000000000000000000000000000000000000002000000000
IV:                       00000000000000000000000000000000
Plaintext:                00000000000000000000000000000000
Ciphertext:               1141e6bb725e09640dd6971f4ef1a886215939ac5d754c59bea329bc0a4dd3e7ebaed50056fd85b1a38afcd12b557891f577a2394b926ff4e5146dc6347215be
Reciphers for ciphertext: 0
Decipheredtext:           00000000000000000000000000000000
RESULT CIPHER-DECIPHER: -----OK-----


Test: 91
Hash algorithm: 3
Crypto pad: 0
Symmetric key bit length: 256
IV bit length:            128
Plaintext bit length:     128
Symmetric key:            0000000000000000000000000000000000000000000000000000001000000000
IV:                       00000000000000000000000000000000
Plaintext:                00000000000000000000000000000000
Ciphertext:               9c0e8061ba0361b730d24675ef128705e6667198d85c85d346db1ac1ccd0de09841c1e407a835ade89d65a1a7662bbfe4938bf09fa191e461702cb1aacff57949d8ed20f05a3e352d03b86068fb277797c1ad8c4bc3cbb40b3064592f0f75fbe
Reciphers for ciphertext: 0
Decipheredtext:           00000000000000000000000000000000
RESULT CIPHER-DECIPHER: -----OK-----


Test: 92
Hash algorithm: 5
Crypto pad: 1
Symmetric key bit length: 256
IV bit length:            128
Plaintext bit length:     128
Symmetric key:            0000000000000000000000000000000000000000000000000000000800000000
IV:                       00000000000000000000000000000000
Plaintext:                00000000000000000000000000000000
Ciphertext:               7d0137240d0d3d086198e83bc0cf22d0924c3c658fa6f85fa099b00205f9c76176e8adaa6eeecca5486e2b9b64bcfe2376bb8dc683f99d07344e00c7068ba026
Reciphers for ciphertext: 0
Decipheredtext:           00000000000000000000000000000000
RESULT CIPHER-DECIPHER: -----OK-----


Test: 93
Hash algorithm: 6
Crypto pad: 1
Symmetric key bit length: 256
IV bit length:            128
Plaintext bit length:     128
Symmetric key:            0000000000000000000000000000000000000000000000000000000400000000
IV:                       00000000000000000000000000000000
Plaintext:                00000000000000000000000000000000
Ciphertext:               bc4460ff55ebfaa1171b0ce249830281f57e100f102ebacd103eb6c1c02ddaddb4dc9e5e0b424f2fdecb4d036dc4ce213e7cff0e14c562d2487af7471e38179663b189e20be6bebdd921445bbb8772ec
Reciphers for ciphertext: 0
Decipheredtext:           00000000000000000000000000000000
RESULT CIPHER-DECIPHER: -----OK-----


Test: 94
Hash algorithm: 0
Crypto pad: 0
Symmetric key bit length: 256
IV bit length:            128
Plaintext bit length:     128
Symmetric key:            0000000000000000000000000000000000000000000000000000000200000000
IV:                       00000000000000000000000000000000
Plaintext:                00000000000000000000000000000000
Ciphertext:               cdbe93adcf1867b952fb82c42df60cfd2cc3dbcf02acdd17c0a445628acd8db994b88599bab8c91e72471cfdbecc653646165f0d2b3ad9f0ecf2ac7305bcee84
Reciphers for ciphertext: 0
Decipheredtext:           00000000000000000000000000000000
RESULT CIPHER-DECIPHER: -----OK-----


Test: 95
Hash algorithm: 5
Crypto pad: 2
Symmetric key bit length: 256
IV bit length:            128
Plaintext bit length:     128
Symmetric key:            0000000000000000000000000000000000000000000000000000000100000000
IV:                       00000000000000000000000000000000
Plaintext:                00000000000000000000000000000000
Ciphertext:               007aa375e4402b8a5657c01259af3d49930038bbbb35dbf5ad86fc98362ec59ea49fa31745d67b9e5c9eb678e165ab93677b2f68b51e1db4817e1120efc5d6d7
Reciphers for ciphertext: 0
Decipheredtext:           00000000000000000000000000000000
RESULT CIPHER-DECIPHER: -----OK-----


Test: 96
Hash algorithm: 5
Crypto pad: 0
Symmetric key bit length: 256
IV bit length:            128
Plaintext bit length:     128
Symmetric key:            0000000000000000000000000000000000000000000000000000000080000000
IV:                       00000000000000000000000000000000
Plaintext:                00000000000000000000000000000000
Ciphertext:               f5c2b13998e5687c773017c14eb01fe43fdad0a404d1659ed586d14d33f3c57405f3e3dcbd1dd20e9bde5337f7da275aae307b4bc9fb623d25f9b4b7143b02fd
Reciphers for ciphertext: 0
Decipheredtext:           00000000000000000000000000000000
RESULT CIPHER-DECIPHER: -----OK-----


Test: 97
Hash algorithm: 1
Crypto pad: 1
Symmetric key bit length: 256
IV bit length:            128
Plaintext bit length:     128
Symmetric key:            0000000000000000000000000000000000000000000000000000000040000000
IV:                       00000000000000000000000000000000
Plaintext:                00000000000000000000000000000000
Ciphertext:               0ae71bfdd72fbc4576305e4b0807e17c4a0dca87b8732a27098aadb617552499fb83bdb5696c0fbf136cfa035ee966e7c65b42a6b9d326c65bb70f23b9a14b40
Reciphers for ciphertext: 0
Decipheredtext:           00000000000000000000000000000000
RESULT CIPHER-DECIPHER: -----OK-----


Test: 98
Hash algorithm: 8
Crypto pad: 2
Symmetric key bit length: 256
IV bit length:            128
Plaintext bit length:     128
Symmetric key:            0000000000000000000000000000000000000000000000000000000020000000
IV:                       00000000000000000000000000000000
Plaintext:                00000000000000000000000000000000
Ciphertext:               35fb1ce6cb7449df115d3ac6ba656439553f4a3a2cc7e11e70785ab101ef3b9091b197d687a7227deefcabedb45fe446246863a28d88a82984fb6d972b3f5d61
Reciphers for ciphertext: 0
Decipheredtext:           00000000000000000000000000000000
RESULT CIPHER-DECIPHER: -----OK-----


Test: 99
Hash algorithm: 4
Crypto pad: 2
Symmetric key bit length: 256
IV bit length:            128
Plaintext bit length:     128
Symmetric key:            0000000000000000000000000000000000000000000000000000000010000000
IV:                       00000000000000000000000000000000
Plaintext:                00000000000000000000000000000000
Ciphertext:               6d64cec5d9d74bd40fbc0be69c70b7779973af0c6bef174aa7257f3d972b1ca36adc81459c5a5b6300f576434ac30ef28f40d7453cc1d73dfcc52aa37960f6ac700e4d5c410c707e1a0c3351e46773cb915a59e15e2108769fd6103604f81b2a1e6974ee1ecff4bca136690afc05e465
Reciphers for ciphertext: 0
Decipheredtext:           00000000000000000000000000000000
RESULT CIPHER-DECIPHER: -----OK-----


Test: 100
Hash algorithm: 10
Crypto pad: 1
Symmetric key bit length: 256
IV bit length:            128
Plaintext bit length:     128
Symmetric key:            0000000000000000000000000000000000000000000000000000000008000000
IV:                       00000000000000000000000000000000
Plaintext:                00000000000000000000000000000000
Ciphertext:               7257851acd3e3e3ae50048973c3a2ae8b60d8cebdeb3e58fe7f5dd3cded8deef193b9414754de7c2d01137e50a6941d784d3f8308d8e850258ee206ca512312e38db3e6dc2ca85fc8cc1e71bfec5a2bc
Reciphers for ciphertext: 0
Decipheredtext:           00000000000000000000000000000000
RESULT CIPHER-DECIPHER: -----OK-----


Test: 101
Hash algorithm: 7
Crypto pad: 0
Symmetric key bit length: 256
IV bit length:            128
Plaintext bit length:     128
Symmetric key:            0000000000000000000000000000000000000000000000000000000004000000
IV:                       00000000000000000000000000000000
Plaintext:                00000000000000000000000000000000
Ciphertext:               50852661d5bd7960412b29a86f5496198ab203275d7763fdb5f6ef5c7b33f10acd807c5386c3c13ebd2c812a9f2afb39610dfbc7560e9dbbad49f62de37557e2
Reciphers for ciphertext: 0
Decipheredtext:           00000000000000000000000000000000
RESULT CIPHER-DECIPHER: -----OK-----


Test: 102
Hash algorithm: 6
Crypto pad: 1
Symmetric key bit length: 256
IV bit length:            128
Plaintext bit length:     128
Symmetric key:            0000000000000000000000000000000000000000000000000000000002000000
IV:                       00000000000000000000000000000000
Plaintext:                00000000000000000000000000000000
Ciphertext:               cdf3561d971d40521cd46bae98f5867a9c856611ca2cdcb5e258947950dd81e12ccadd24c3e5395f06f6bbb5844d9b466d9cb1836d8134b8cf87815e817b8c5676e71271d81587d12e43f367317345bf
Reciphers for ciphertext: 0
Decipheredtext:           00000000000000000000000000000000
RESULT CIPHER-DECIPHER: -----OK-----


Test: 103
Hash algorithm: 10
Crypto pad: 1
Symmetric key bit length: 256
IV bit length:            128
Plaintext bit length:     128
Symmetric key:            0000000000000000000000000000000000000000000000000000000001000000
IV:                       00000000000000000000000000000000
Plaintext:                00000000000000000000000000000000
Ciphertext:               fa3c84185b9abf9887dd501b3b0f52d3c565280f15a21b06e413e1e21466d2ea22d5cf5fa30db9a1bf356d9098ec1e5c08d12dfac1bcf570f780177e3dee9f8595e485ad9bf9e8094c7fdd5b6102136e
Reciphers for ciphertext: 0
Decipheredtext:           00000000000000000000000000000000
RESULT CIPHER-DECIPHER: -----OK-----


Test: 104
Hash algorithm: 0
Crypto pad: 2
Symmetric key bit length: 256
IV bit length:            128
Plaintext bit length:     128
Symmetric key:            0000000000000000000000000000000000000000000000000000000000800000
IV:                       00000000000000000000000000000000
Plaintext:                00000000000000000000000000000000
Ciphertext:               40a5b434f81574733d00f25511109e0837ca27c40f62703d30d3077a4cc7c1a2af12d45c17262d8d3c8f4d0890b984b5ffaad78d22f7bc1c9cfd6ae52d3f61c9
Reciphers for ciphertext: 0
Decipheredtext:           00000000000000000000000000000000
RESULT CIPHER-DECIPHER: -----OK-----


Test: 105
Hash algorithm: 5
Crypto pad: 0
Symmetric key bit length: 256
IV bit length:            128
Plaintext bit length:     128
Symmetric key:            0000000000000000000000000000000000000000000000000000000000400000
IV:                       00000000000000000000000000000000
Plaintext:                00000000000000000000000000000000
Ciphertext:               da0d248315c527572f1673bde26a475ec4bb55300fda33cc37734795f88680a83a7b683dfd6fc64219584c9051d2398715c3843df7a4ced70074c1a1fa68d7b0
Reciphers for ciphertext: 0
Decipheredtext:           00000000000000000000000000000000
RESULT CIPHER-DECIPHER: -----OK-----


Test: 106
Hash algorithm: 2
Crypto pad: 0
Symmetric key bit length: 256
IV bit length:            128
Plaintext bit length:     128
Symmetric key:            0000000000000000000000000000000000000000000000000000000000200000
IV:                       00000000000000000000000000000000
Plaintext:                00000000000000000000000000000000
Ciphertext:               0f8366d8efb9ab63b0299f278c55cfb45e6c83dcf46245b650c2b079816b6a2545e271076dbf9b6c4d4065ee4eeedf812d476dc34fe7690cc9680dbe3a0fe42311b1b8a0a070cca96871679f2e4a77a9
Reciphers for ciphertext: 0
Decipheredtext:           00000000000000000000000000000000
RESULT CIPHER-DECIPHER: -----OK-----


Test: 107
Hash algorithm: 4
Crypto pad: 0
Symmetric key bit length: 256
IV bit length:            128
Plaintext bit length:     128
Symmetric key:            0000000000000000000000000000000000000000000000000000000000100000
IV:                       00000000000000000000000000000000
Plaintext:                00000000000000000000000000000000
Ciphertext:               25a089c523cd153ec094862b5923f4921ef1cc9fe88c7304abe4b2d95a3ee74882ff5cba6e1669655be8ef83dc2fd9316b5bf6ebf7e2a5c0ba3a1ee9f891fb8bd750af3bcf4694f9df794574d6b93d548fe506925bc59c6d7347c355dead63689ecb0a75c6f090832dc73e959cf6588c
Reciphers for ciphertext: 0
Decipheredtext:           00000000000000000000000000000000
RESULT CIPHER-DECIPHER: -----OK-----


Test: 108
Hash algorithm: 11
Crypto pad: 2
Symmetric key bit length: 256
IV bit length:            128
Plaintext bit length:     128
Symmetric key:            0000000000000000000000000000000000000000000000000000000000080000
IV:                       00000000000000000000000000000000
Plaintext:                00000000000000000000000000000000
Ciphertext:               7268a4628c6a0be6a8391abe70986176af71d24a46aecf907363c9d754dab8af0c5d462548d77712a9e6b1a13706eb72e8848636a8616fdb3d21e380c78b6b5e
Reciphers for ciphertext: 0
Decipheredtext:           00000000000000000000000000000000
RESULT CIPHER-DECIPHER: -----OK-----


Test: 109
Hash algorithm: 5
Crypto pad: 0
Symmetric key bit length: 256
IV bit length:            128
Plaintext bit length:     128
Symmetric key:            0000000000000000000000000000000000000000000000000000000000040000
IV:                       00000000000000000000000000000000
Plaintext:                00000000000000000000000000000000
Ciphertext:               7c11e6478cc688fe707454df4ab5b6669a3af497ea684020757cd2b8e634014dd0dd27a40c34c55f0ce6a665535b76aecd0421a81026db7a023f0e95e885c1e5
Reciphers for ciphertext: 0
Decipheredtext:           00000000000000000000000000000000
RESULT CIPHER-DECIPHER: -----OK-----


Test: 110
Hash algorithm: 4
Crypto pad: 2
Symmetric key bit length: 256
IV bit length:            128
Plaintext bit length:     128
Symmetric key:            0000000000000000000000000000000000000000000000000000000000020000
IV:                       00000000000000000000000000000000
Plaintext:                00000000000000000000000000000000
Ciphertext:               7601b6ebd5ce578973e949c21bfa8caa5ff75c6951b0fa8fc6ea34f352adb1eb085dcd1003360cb75c67792eee56016597410132964f9ee33dc35b1c41c139fb10647c8e7a0444a90131c70240b71176a63d1582a033b6d3180dd60acdc91e2ed2acaa9913b0503d640b9504ed1ff27e
Reciphers for ciphertext: 0
Decipheredtext:           00000000000000000000000000000000
RESULT CIPHER-DECIPHER: -----OK-----


Test: 111
Hash algorithm: 4
Crypto pad: 1
Symmetric key bit length: 256
IV bit length:            128
Plaintext bit length:     128
Symmetric key:            0000000000000000000000000000000000000000000000000000000000010000
IV:                       00000000000000000000000000000000
Plaintext:                00000000000000000000000000000000
Ciphertext:               0fce9ccdf89f2eb139dbeb09b55375d5d8c4b21f3ec125d8e092fb81ef61879ea052b01a7274fb4ac2fc2f2721d21df427d6748fd44e2ebf4bfad864286cc270f5cfeb5fb446fc11d2604f95e4d1175d0bd5e19156bb384f1ceb998658df9c58915b5f24792cf81c76bfca39e22b91bb
Reciphers for ciphertext: 0
Decipheredtext:           00000000000000000000000000000000
RESULT CIPHER-DECIPHER: -----OK-----


Test: 112
Hash algorithm: 0
Crypto pad: 1
Symmetric key bit length: 256
IV bit length:            128
Plaintext bit length:     128
Symmetric key:            0000000000000000000000000000000000000000000000000000000000008000
IV:                       00000000000000000000000000000000
Plaintext:                00000000000000000000000000000000
Ciphertext:               aaabfdd9e28a3adca1212f3d7f53a269fa286c52b4c6ebb8f9117396379cbedeba8fdd7dbe7649b3607a93b78969be3875ffb3a14964eea8c489b23814525b15
Reciphers for ciphertext: 0
Decipheredtext:           00000000000000000000000000000000
RESULT CIPHER-DECIPHER: -----OK-----


Test: 113
Hash algorithm: 13
Crypto pad: 2
Symmetric key bit length: 256
IV bit length:            128
Plaintext bit length:     128
Symmetric key:            0000000000000000000000000000000000000000000000000000000000004000
IV:                       00000000000000000000000000000000
Plaintext:                00000000000000000000000000000000
Ciphertext:               fc6b4304423917e41677768bd7a8d4020159475c2cef80dc3cdb79fec949369261a13301020bf9dcfa4f3d3be34dd17609952d1bc52954a47f4210bea2a61691
Reciphers for ciphertext: 0
Decipheredtext:           00000000000000000000000000000000
RESULT CIPHER-DECIPHER: -----OK-----


Test: 114
Hash algorithm: 2
Crypto pad: 1
Symmetric key bit length: 256
IV bit length:            128
Plaintext bit length:     128
Symmetric key:            0000000000000000000000000000000000000000000000000000000000002000
IV:                       00000000000000000000000000000000
Plaintext:                00000000000000000000000000000000
Ciphertext:               2aa3239d19adba9a4190e3653875c5896f450dd845879b870bb30dcd3adb0ebbee9a6ceec4dd10c01d6fd30a5ae9602ec6a3d5a8720d91403a2fed4b172fc97293fa3ddc540f21ea9db3e89b5ff569b0
Reciphers for ciphertext: 0
Decipheredtext:           00000000000000000000000000000000
RESULT CIPHER-DECIPHER: -----OK-----


Test: 115
Hash algorithm: 10
Crypto pad: 1
Symmetric key bit length: 256
IV bit length:            128
Plaintext bit length:     128
Symmetric key:            0000000000000000000000000000000000000000000000000000000000001000
IV:                       00000000000000000000000000000000
Plaintext:                00000000000000000000000000000000
Ciphertext:               4f4ab0db2f3d3ea1e5fcbf99651485dc721dd2edad1fc2ec835e61ef5e7d02cc7f085202705de0128a97466955ad13beac70bd1d9cb01ac27c0f8ae5d414dc6687f6d15b885e5024665e499cb768253a
Reciphers for ciphertext: 0
Decipheredtext:           00000000000000000000000000000000
RESULT CIPHER-DECIPHER: -----OK-----


Test: 116
Hash algorithm: 11
Crypto pad: 1
Symmetric key bit length: 256
IV bit length:            128
Plaintext bit length:     128
Symmetric key:            0000000000000000000000000000000000000000000000000000000000000800
IV:                       00000000000000000000000000000000
Plaintext:                00000000000000000000000000000000
Ciphertext:               b542cef08d13e300b282ce6a74c51c96cddacbc00b4ca08856579d6851e3bb82329d2434dd649f9866dfe99aadfdefed919343059eb8b14af03887f3a8be3109
Reciphers for ciphertext: 0
Decipheredtext:           00000000000000000000000000000000
RESULT CIPHER-DECIPHER: -----OK-----


Test: 117
Hash algorithm: 10
Crypto pad: 0
Symmetric key bit length: 256
IV bit length:            128
Plaintext bit length:     128
Symmetric key:            0000000000000000000000000000000000000000000000000000000000000400
IV:                       00000000000000000000000000000000
Plaintext:                00000000000000000000000000000000
Ciphertext:               9955e16433b0d58bfc4b35ee9f44734cd81b8656e11320f5885ce3b7a674e0aa029aaa947699e2813ea5d2a0e4432db55b046640b811310c6886e7509bbcb8fafc063596d519063e5c3499437a1ee523
Reciphers for ciphertext: 0
Decipheredtext:           00000000000000000000000000000000
RESULT CIPHER-DECIPHER: -----OK-----


Test: 118
Hash algorithm: 12
Crypto pad: 2
Symmetric key bit length: 256
IV bit length:            128
Plaintext bit length:     128
Symmetric key:            0000000000000000000000000000000000000000000000000000000000000200
IV:                       00000000000000000000000000000000
Plaintext:                00000000000000000000000000000000
Ciphertext:               5027a7ddc6f99a112e45d3090c7c3465c6389a9ed9a7c186c7181a7c69a9524108893936d4f74b30de299941661421673f5ac1e35aa038122561ac531e67257c
Reciphers for ciphertext: 0
Decipheredtext:           00000000000000000000000000000000
RESULT CIPHER-DECIPHER: -----OK-----


Test: 119
Hash algorithm: 12
Crypto pad: 1
Symmetric key bit length: 256
IV bit length:            128
Plaintext bit length:     128
Symmetric key:            0000000000000000000000000000000000000000000000000000000000000100
IV:                       00000000000000000000000000000000
Plaintext:                00000000000000000000000000000000
Ciphertext:               cb14ebd24fc63194495facffb5c3a07b59d8a25d3abb95f3e0033b1853e4642d0dc34a4a2946590fa90895c23e9b12a880dbb908267122c07d721404414db00b
Reciphers for ciphertext: 0
Decipheredtext:           00000000000000000000000000000000
RESULT CIPHER-DECIPHER: -----OK-----


Test: 120
Hash algorithm: 3
Crypto pad: 0
Symmetric key bit length: 256
IV bit length:            128
Plaintext bit length:     128
Symmetric key:            0000000000000000000000000000000000000000000000000000000000000080
IV:                       00000000000000000000000000000000
Plaintext:                00000000000000000000000000000000
Ciphertext:               2bcbe64545a08f59178242452566b997a33dae9ce7ac561082399cd11f162257e63016014101ded271dd30d93cd2cfa2c95ed77a2337a6841add81e3a72a430f60104afd1bede54aa6fd38d03ad68636482e947c745ee704da14f0611d9fc143
Reciphers for ciphertext: 0
Decipheredtext:           00000000000000000000000000000000
RESULT CIPHER-DECIPHER: -----OK-----


Test: 121
Hash algorithm: 10
Crypto pad: 2
Symmetric key bit length: 256
IV bit length:            128
Plaintext bit length:     128
Symmetric key:            0000000000000000000000000000000000000000000000000000000000000040
IV:                       00000000000000000000000000000000
Plaintext:                00000000000000000000000000000000
Ciphertext:               de428ff12360a0c8fae73e9d8e6a065795318aa578e136ea7f680f0cffc700e1babd5c7c7b015d06c85ce97edd807dc90247a7f7819b84a89ebead24bbe4e7b493ec71490e6295fa9703aa2155282b5f
Reciphers for ciphertext: 0
Decipheredtext:           00000000000000000000000000000000
RESULT CIPHER-DECIPHER: -----OK-----


Test: 122
Hash algorithm: 0
Crypto pad: 2
Symmetric key bit length: 256
IV bit length:            128
Plaintext bit length:     128
Symmetric key:            0000000000000000000000000000000000000000000000000000000000000020
IV:                       00000000000000000000000000000000
Plaintext:                00000000000000000000000000000000
Ciphertext:               6425603fcb0f088d87d3ac7078c7014c1177f6639da5779038b853baf94d73807ffdc3e63c676394ec6d72806d83461f8305da3c76af3d080126f4c04f2e47d7
Reciphers for ciphertext: 0
Decipheredtext:           00000000000000000000000000000000
RESULT CIPHER-DECIPHER: -----OK-----


Test: 123
Hash algorithm: 5
Crypto pad: 0
Symmetric key bit length: 256
IV bit length:            128
Plaintext bit length:     128
Symmetric key:            0000000000000000000000000000000000000000000000000000000000000010
IV:                       00000000000000000000000000000000
Plaintext:                00000000000000000000000000000000
Ciphertext:               a837813c9436f4c48c45b6c85a4eaf8448d621069dd28c2e1077b891894baad5db88426013d8a1b413024d557fd6afa33722d1960451cc2d9949b92c426c50a7
Reciphers for ciphertext: 0
Decipheredtext:           00000000000000000000000000000000
RESULT CIPHER-DECIPHER: -----OK-----


Test: 124
Hash algorithm: 13
Crypto pad: 0
Symmetric key bit length: 256
IV bit length:            128
Plaintext bit length:     128
Symmetric key:            0000000000000000000000000000000000000000000000000000000000000008
IV:                       00000000000000000000000000000000
Plaintext:                00000000000000000000000000000000
Ciphertext:               b95f9010e694ba44b812d6a7a59e027a8abd3e4342928716eca76900356ec3243c456944042d1b3ae7981820a5583922e3087fd9a8559aee38f29d538018118a
Reciphers for ciphertext: 0
Decipheredtext:           00000000000000000000000000000000
RESULT CIPHER-DECIPHER: -----OK-----


Test: 125
Hash algorithm: 1
Crypto pad: 2
Symmetric key bit length: 256
IV bit length:            128
Plaintext bit length:     128
Symmetric key:            0000000000000000000000000000000000000000000000000000000000000004
IV:                       00000000000000000000000000000000
Plaintext:                00000000000000000000000000000000
Ciphertext:               df2746a2d9ed707dcc686bb64b77c9dd1796fc14b56b12fee5a9be10aa1419e55d3a374ef39011ca158aff652710413129494fa5576e5e1e76e1ce3619e0a8ca
Reciphers for ciphertext: 0
Decipheredtext:           00000000000000000000000000000000
RESULT CIPHER-DECIPHER: -----OK-----


Test: 126
Hash algorithm: 5
Crypto pad: 0
Symmetric key bit length: 256
IV bit length:            128
Plaintext bit length:     128
Symmetric key:            0000000000000000000000000000000000000000000000000000000000000002
IV:                       00000000000000000000000000000000
Plaintext:                00000000000000000000000000000000
Ciphertext:               40dd304c3fc8fef5d7d08fd467e018f6ff9441f20f9f4f3a1b0e17cf54651c2155e090c07e9571d3713d333b9e8d34044e97152874568146378fb164dbfa517a
Reciphers for ciphertext: 0
Decipheredtext:           00000000000000000000000000000000
RESULT CIPHER-DECIPHER: -----OK-----


Test: 127
Hash algorithm: 7
Crypto pad: 2
Symmetric key bit length: 256
IV bit length:            128
Plaintext bit length:     128
Symmetric key:            0000000000000000000000000000000000000000000000000000000000000001
IV:                       00000000000000000000000000000000
Plaintext:                00000000000000000000000000000000
Ciphertext:               afcd38b195e0a736304e89b9ae3019d3e84cc1ba3ed8b840d95e337bb7ad91eb9f1d8aa9f311a83a62429181ee0a445b464ddace3f47f61dacb7e5618c134468
Reciphers for ciphertext: 0
Decipheredtext:           00000000000000000000000000000000
RESULT CIPHER-DECIPHER: -----OK-----


 DATA SHA1 (hexadecimal): 36f8059395dbfcf35e316cbb208c5eb35fc4b9df

