
DiceLock 9.0.0.1

 TEST COMPONENTS:
 ----------------
 DiceLock:           DiceLockIVDigested class
 Operation Mode:     CBC_Mode class
 Crypto pads:        0 - ANSI_X_923 class
                     1 - ISO_IEC_9797_1 class
                     2 - PKCS7 class
 Block Cipher:       Twofish192 class
 Hash algorithms:     0 - Sha1 class
                      1 - Sha224 class
                      2 - Sha256 class
                      3 - Sha384 class
                      4 - Sha512 class
                      5 - Sha512_224 class
                      6 - Sha512_256 class
                      7 - Ripemd128 class
                      8 - Ripemd160 class
                      9 - Ripemd256 class
                     10 - Ripemd320 class
                     11 - MD2 class
                     12 - MD4 class
                     13 - MD5 class
 Key Modifier:       IncreaseKeyModifier_6_0_0_1 class
 Random tests:       RandomTestSuite class
                     FrequencyTest class
                     BlockFrequencyTest class
                     CumulativeSumForwardTest class
                     LongestRunOfOnesTest class
                     RunsTest class
 Random alpha:       0.001

 VECTOR TEST: Test vector 2 - Changing plaintext, shifting 1 bit set


##### INDIVIDUAL TESTS #####

Number tests: 128


Test: 0
Hash algorithm: 0
Crypto pad: 1
Symmetric key bit length: 192
IV bit length:            128
Plaintext bit length:     128
Symmetric key:            000000000000000000000000000000000000000000000000
IV:                       00000000000000000000000000000000
Plaintext:                80000000000000000000000000000000
Ciphertext:               62ef193edb7d399aca50ec1cbe5398d8fcbd4c874cf35738bbddfeaddc3673a021964566de092453f1087c7e35b987d06b014c08dd228c44f6c264ab78a17bb0
Reciphers for ciphertext: 0
Decipheredtext:           80000000000000000000000000000000
RESULT CIPHER-DECIPHER: -----OK-----


Test: 1
Hash algorithm: 11
Crypto pad: 0
Symmetric key bit length: 192
IV bit length:            128
Plaintext bit length:     128
Symmetric key:            000000000000000000000000000000000000000000000000
IV:                       00000000000000000000000000000000
Plaintext:                40000000000000000000000000000000
Ciphertext:               e7a58d547688ba8b69da949e38aa6fadad43ab05db23b1d31e205a68f13801519e9058510a68d2e59be76b11cb4f1b67904099d15dac88453ceaf8c996645b46
Reciphers for ciphertext: 0
Decipheredtext:           40000000000000000000000000000000
RESULT CIPHER-DECIPHER: -----OK-----


Test: 2
Hash algorithm: 2
Crypto pad: 0
Symmetric key bit length: 192
IV bit length:            128
Plaintext bit length:     128
Symmetric key:            000000000000000000000000000000000000000000000000
IV:                       00000000000000000000000000000000
Plaintext:                20000000000000000000000000000000
Ciphertext:               71579f70a8edb2ba5c00c513e2d7deeb0e23e134b42fd7bafbaf5149028f5de822bd7a641332042b008e0277df174298c206f44a02c692937d911a69bd0316ef1239602e0950b69752104357591e9968
Reciphers for ciphertext: 0
Decipheredtext:           20000000000000000000000000000000
RESULT CIPHER-DECIPHER: -----OK-----


Test: 3
Hash algorithm: 8
Crypto pad: 1
Symmetric key bit length: 192
IV bit length:            128
Plaintext bit length:     128
Symmetric key:            000000000000000000000000000000000000000000000000
IV:                       00000000000000000000000000000000
Plaintext:                10000000000000000000000000000000
Ciphertext:               c6171ef892f8224dc5fae230af629f522bd687b1727b55f58eccbf4b9676c50cb1561411539428e934496bd6383daf17d2969bd6e4a601fbd01532b7d3b47f43
Reciphers for ciphertext: 0
Decipheredtext:           10000000000000000000000000000000
RESULT CIPHER-DECIPHER: -----OK-----


Test: 4
Hash algorithm: 3
Crypto pad: 0
Symmetric key bit length: 192
IV bit length:            128
Plaintext bit length:     128
Symmetric key:            000000000000000000000000000000000000000000000000
IV:                       00000000000000000000000000000000
Plaintext:                08000000000000000000000000000000
Ciphertext:               c6a61053c48d7ecd7ddd12db0f316ad77075845fa8150cbec9d9e8b2a2ceedabc08a208edde729e25575697eac42847b61407b037d89a4bcf01cc9697136d6ce2e42ab465a784e7a8b5a6165c19f58fe45f58b3b840a0613c6611fa7cd19c767
Reciphers for ciphertext: 0
Decipheredtext:           08000000000000000000000000000000
RESULT CIPHER-DECIPHER: -----OK-----


Test: 5
Hash algorithm: 4
Crypto pad: 0
Symmetric key bit length: 192
IV bit length:            128
Plaintext bit length:     128
Symmetric key:            000000000000000000000000000000000000000000000000
IV:                       00000000000000000000000000000000
Plaintext:                04000000000000000000000000000000
Ciphertext:               ea5833714f1324dab7f53cacc63f784fc74da2ae4ffee2e91079c53b2bcfe2fdb36266c8dc6d73abe7b73a79f010ccf6da9a265f1d791f4c7fd814aacb5093db2d4f56bf87050f6234b5b91c845dae4742d9eeb93ce65ef53c80727fa6c9543d88dc9ce431c93008c5949f72f9bc0db1
Reciphers for ciphertext: 0
Decipheredtext:           04000000000000000000000000000000
RESULT CIPHER-DECIPHER: -----OK-----


Test: 6
Hash algorithm: 11
Crypto pad: 2
Symmetric key bit length: 192
IV bit length:            128
Plaintext bit length:     128
Symmetric key:            000000000000000000000000000000000000000000000000
IV:                       00000000000000000000000000000000
Plaintext:                02000000000000000000000000000000
Ciphertext:               450bcb0c7351cb1cdac5d02e80d13c64d4f9e9aba5069d457ccec1a3418255b9e3355133980fb19423fbde3a4555107f2befd146fa9848f5dc7cb41a23077d9e
Reciphers for ciphertext: 0
Decipheredtext:           02000000000000000000000000000000
RESULT CIPHER-DECIPHER: -----OK-----


Test: 7
Hash algorithm: 7
Crypto pad: 1
Symmetric key bit length: 192
IV bit length:            128
Plaintext bit length:     128
Symmetric key:            000000000000000000000000000000000000000000000000
IV:                       00000000000000000000000000000000
Plaintext:                01000000000000000000000000000000
Ciphertext:               c267d3634f84215fb7b4635afa385e52ea50d632ecee4fafe823fe2a4a9ef0b6a09989020faa5ae622a34edbd4fbfb4f62a51c16ab8786d6687664ba317f91ee
Reciphers for ciphertext: 0
Decipheredtext:           01000000000000000000000000000000
RESULT CIPHER-DECIPHER: -----OK-----


Test: 8
Hash algorithm: 13
Crypto pad: 1
Symmetric key bit length: 192
IV bit length:            128
Plaintext bit length:     128
Symmetric key:            000000000000000000000000000000000000000000000000
IV:                       00000000000000000000000000000000
Plaintext:                00800000000000000000000000000000
Ciphertext:               6db5b1b156da1c36b9ab5ab59b063c29f5a8662899c79c791f3216a9368496382195681a95310de5acb85fd8525aa4db643ec7ab35d7b3bd69cee19d8e1fbb50
Reciphers for ciphertext: 0
Decipheredtext:           00800000000000000000000000000000
RESULT CIPHER-DECIPHER: -----OK-----


Test: 9
Hash algorithm: 11
Crypto pad: 2
Symmetric key bit length: 192
IV bit length:            128
Plaintext bit length:     128
Symmetric key:            000000000000000000000000000000000000000000000000
IV:                       00000000000000000000000000000000
Plaintext:                00400000000000000000000000000000
Ciphertext:               edf2d9b19ff75561e8fa6f411c4a0431919d1d3f7f560c51cc3251903c1f4bcba2f3319b07977457e4f3c42b968c4aa2fd6fddc5df2c2a7528f7896e58c074f6
Reciphers for ciphertext: 0
Decipheredtext:           00400000000000000000000000000000
RESULT CIPHER-DECIPHER: -----OK-----


Test: 10
Hash algorithm: 6
Crypto pad: 0
Symmetric key bit length: 192
IV bit length:            128
Plaintext bit length:     128
Symmetric key:            000000000000000000000000000000000000000000000000
IV:                       00000000000000000000000000000000
Plaintext:                00200000000000000000000000000000
Ciphertext:               a11ae84e6d2c56ded2b9497fec7504a7c706bebf04dc8d681e5495516d54520b407a706c1396372638a1f94524d3ca1c681104574290e284fdbcf0df05b36e57af02df5d50960f0b4d66fc7d0abdefae
Reciphers for ciphertext: 0
Decipheredtext:           00200000000000000000000000000000
RESULT CIPHER-DECIPHER: -----OK-----


Test: 11
Hash algorithm: 3
Crypto pad: 1
Symmetric key bit length: 192
IV bit length:            128
Plaintext bit length:     128
Symmetric key:            000000000000000000000000000000000000000000000000
IV:                       00000000000000000000000000000000
Plaintext:                00100000000000000000000000000000
Ciphertext:               b3a1a1e271bf94da3a5ecff1d4293a563150e3cd6dfa657ee9875e96f62fa5f55a2902c34da32e41269eb4ce76407e7fe23546e046d0b201d06cf216b8eed9e9bf6cfe9d7dfe45cbfc32249f950f9e25d6f555cac40feaabc728e41b92bc9c59
Reciphers for ciphertext: 0
Decipheredtext:           00100000000000000000000000000000
RESULT CIPHER-DECIPHER: -----OK-----


Test: 12
Hash algorithm: 2
Crypto pad: 1
Symmetric key bit length: 192
IV bit length:            128
Plaintext bit length:     128
Symmetric key:            000000000000000000000000000000000000000000000000
IV:                       00000000000000000000000000000000
Plaintext:                00080000000000000000000000000000
Ciphertext:               5577374adcf2f58eeeffc432c42aeb7611ec2732af80cced7d565e4dd7c8a0253bf2fcf00fb042a7783faa63315db96de153c8a120263bdad5ad1784fdba4c5756de2792b5ef8d0efd681b4558f3039c
Reciphers for ciphertext: 0
Decipheredtext:           00080000000000000000000000000000
RESULT CIPHER-DECIPHER: -----OK-----


Test: 13
Hash algorithm: 4
Crypto pad: 1
Symmetric key bit length: 192
IV bit length:            128
Plaintext bit length:     128
Symmetric key:            000000000000000000000000000000000000000000000000
IV:                       00000000000000000000000000000000
Plaintext:                00040000000000000000000000000000
Ciphertext:               cd9d355c3574343bc7fbe645ce7ea7210ea72eba2670f5a64f4caf94790828f73d25dc37b0d839d9fdc89d52e9cc5837d71262d2f3f33f5d8cc9382c6ea8f10fc656805c2acb10352b2ca4f568f584cc52aa928dac14dec72404367808511c39c7a6adf7aa57c47b979c93e7c3e76d3a
Reciphers for ciphertext: 0
Decipheredtext:           00040000000000000000000000000000
RESULT CIPHER-DECIPHER: -----OK-----


Test: 14
Hash algorithm: 9
Crypto pad: 2
Symmetric key bit length: 192
IV bit length:            128
Plaintext bit length:     128
Symmetric key:            000000000000000000000000000000000000000000000000
IV:                       00000000000000000000000000000000
Plaintext:                00020000000000000000000000000000
Ciphertext:               76eb4c046f052ae4ed41060bf60067fbe3ebe772de113bc2c448f4911acd797e30ffb42732dfa75444d006acd6f06c16276af4939400e7200d29237fec10c4c32f5eb068ef983610d99c5c5f04e74f5a
Reciphers for ciphertext: 0
Decipheredtext:           00020000000000000000000000000000
RESULT CIPHER-DECIPHER: -----OK-----


Test: 15
Hash algorithm: 2
Crypto pad: 2
Symmetric key bit length: 192
IV bit length:            128
Plaintext bit length:     128
Symmetric key:            000000000000000000000000000000000000000000000000
IV:                       00000000000000000000000000000000
Plaintext:                00010000000000000000000000000000
Ciphertext:               1273a4bc420bcc9e29619567b1e61762aae0e38e1077253a8afa86fd0158933c08fcc205f48c0003e0688e18b0413b92c8b31db2c92d6700b3719fda1ec919ae839ffb499478526966fe35b22515dd0a
Reciphers for ciphertext: 0
Decipheredtext:           00010000000000000000000000000000
RESULT CIPHER-DECIPHER: -----OK-----


Test: 16
Hash algorithm: 0
Crypto pad: 2
Symmetric key bit length: 192
IV bit length:            128
Plaintext bit length:     128
Symmetric key:            000000000000000000000000000000000000000000000000
IV:                       00000000000000000000000000000000
Plaintext:                00008000000000000000000000000000
Ciphertext:               1f80e1ce3f12c96f2e647bacb6da78d85ff8e4229be8ded5c66fa00922d46b96d9be1b041f50e1f6d6ac1ccbabff2910f476f1d5b80df4f6ce9f3670f526bb1a
Reciphers for ciphertext: 0
Decipheredtext:           00008000000000000000000000000000
RESULT CIPHER-DECIPHER: -----OK-----


Test: 17
Hash algorithm: 8
Crypto pad: 2
Symmetric key bit length: 192
IV bit length:            128
Plaintext bit length:     128
Symmetric key:            000000000000000000000000000000000000000000000000
IV:                       00000000000000000000000000000000
Plaintext:                00004000000000000000000000000000
Ciphertext:               12d34a7875e716b37a7e250d37affdeab2cf8a4a85a7772d8b0de39b4d8d392d0a1ea911e311d960898b50cb464c6c2df83d3e8f2d31199803c00a1102f7657e
Reciphers for ciphertext: 0
Decipheredtext:           00004000000000000000000000000000
RESULT CIPHER-DECIPHER: -----OK-----


Test: 18
Hash algorithm: 12
Crypto pad: 1
Symmetric key bit length: 192
IV bit length:            128
Plaintext bit length:     128
Symmetric key:            000000000000000000000000000000000000000000000000
IV:                       00000000000000000000000000000000
Plaintext:                00002000000000000000000000000000
Ciphertext:               5a54d764eeffc4b64143a58b071514b47d98d869d512a5741b97b0bc19a61067290521b171e61dfc81202afe99f5b479a43ce1e759b94e8d7b2a0e66d23fd130
Reciphers for ciphertext: 0
Decipheredtext:           00002000000000000000000000000000
RESULT CIPHER-DECIPHER: -----OK-----


Test: 19
Hash algorithm: 5
Crypto pad: 0
Symmetric key bit length: 192
IV bit length:            128
Plaintext bit length:     128
Symmetric key:            000000000000000000000000000000000000000000000000
IV:                       00000000000000000000000000000000
Plaintext:                00001000000000000000000000000000
Ciphertext:               f4f1567bdc5b1f938d5a214419090fe02c29dd38231c7ebbb5e58403939e365239e56a52a0943edbfa84802202e325cc428e3f4d3832ecf5029524926904195e
Reciphers for ciphertext: 0
Decipheredtext:           00001000000000000000000000000000
RESULT CIPHER-DECIPHER: -----OK-----


Test: 20
Hash algorithm: 10
Crypto pad: 2
Symmetric key bit length: 192
IV bit length:            128
Plaintext bit length:     128
Symmetric key:            000000000000000000000000000000000000000000000000
IV:                       00000000000000000000000000000000
Plaintext:                00000800000000000000000000000000
Ciphertext:               6cb91b935a0fbf49636cdf64a12955b75fecefff2aa8dd8cb5a197dc6aa302f62e5ed43acb8427d8624cd6a8469f38d2cd6bd6ce0d419db4652b1b2ab3ae061d24357aa32f857e13e5192f68c0b6b057
Reciphers for ciphertext: 0
Decipheredtext:           00000800000000000000000000000000
RESULT CIPHER-DECIPHER: -----OK-----


Test: 21
Hash algorithm: 2
Crypto pad: 1
Symmetric key bit length: 192
IV bit length:            128
Plaintext bit length:     128
Symmetric key:            000000000000000000000000000000000000000000000000
IV:                       00000000000000000000000000000000
Plaintext:                00000400000000000000000000000000
Ciphertext:               c082154a07af64ff6eca811b0e3302e698ca7dd194ece35c53bfa74201d6125ae7abbca640003bdafd719cdda03325bc91e0eb887e97ec02882b800a78483b62788d8150565a509263f81052da27ba31
Reciphers for ciphertext: 0
Decipheredtext:           00000400000000000000000000000000
RESULT CIPHER-DECIPHER: -----OK-----


Test: 22
Hash algorithm: 5
Crypto pad: 1
Symmetric key bit length: 192
IV bit length:            128
Plaintext bit length:     128
Symmetric key:            000000000000000000000000000000000000000000000000
IV:                       00000000000000000000000000000000
Plaintext:                00000200000000000000000000000000
Ciphertext:               49a746cc225c1b6009a93649cdd9edcd30aaeaa9b5eef639280713b4031a740e07ac8be67d48d337739b3ffb62d1f70d950c45158a6bbbad5a36473ae488bb11
Reciphers for ciphertext: 0
Decipheredtext:           00000200000000000000000000000000
RESULT CIPHER-DECIPHER: -----OK-----


Test: 23
Hash algorithm: 4
Crypto pad: 1
Symmetric key bit length: 192
IV bit length:            128
Plaintext bit length:     128
Symmetric key:            000000000000000000000000000000000000000000000000
IV:                       00000000000000000000000000000000
Plaintext:                00000100000000000000000000000000
Ciphertext:               1cad0512e3cc51210b411ee452df62e4f1ea5ca80d32ace346ec2a0b4a48f914e8653c18ada311f681e9d92606ada412f0e84d95f3ed8649c276baf7f21a942ea0a2efa83bd8acc61a2456ba96fcfe7d501a68ed300597af96000625095ab291634dfeb4c85d648700c468d3aa554dad
Reciphers for ciphertext: 0
Decipheredtext:           00000100000000000000000000000000
RESULT CIPHER-DECIPHER: -----OK-----


Test: 24
Hash algorithm: 12
Crypto pad: 2
Symmetric key bit length: 192
IV bit length:            128
Plaintext bit length:     128
Symmetric key:            000000000000000000000000000000000000000000000000
IV:                       00000000000000000000000000000000
Plaintext:                00000080000000000000000000000000
Ciphertext:               4fe9a0cf34bbcfff906d8450197cc9d15756bc944dbca4b59e8acb4811f3407167f193fad4ce916939762b9f3bab0de174e9fa0c4f3b3a0abb8761380f0a480d
Reciphers for ciphertext: 0
Decipheredtext:           00000080000000000000000000000000
RESULT CIPHER-DECIPHER: -----OK-----


Test: 25
Hash algorithm: 7
Crypto pad: 0
Symmetric key bit length: 192
IV bit length:            128
Plaintext bit length:     128
Symmetric key:            000000000000000000000000000000000000000000000000
IV:                       00000000000000000000000000000000
Plaintext:                00000040000000000000000000000000
Ciphertext:               38db8ef6c8993f17bb4d1614b9de15d42678b84942ff8d034a44e1a2839bf0f94e2c411b027cfd0817043ba53e9729d523cdd425c2cbb744626515a40f9f2f20
Reciphers for ciphertext: 0
Decipheredtext:           00000040000000000000000000000000
RESULT CIPHER-DECIPHER: -----OK-----


Test: 26
Hash algorithm: 1
Crypto pad: 0
Symmetric key bit length: 192
IV bit length:            128
Plaintext bit length:     128
Symmetric key:            000000000000000000000000000000000000000000000000
IV:                       00000000000000000000000000000000
Plaintext:                00000020000000000000000000000000
Ciphertext:               08db3f476f551d19d9643a9e139e0553a3daeb10b2c3289b416060e90b8ed8c74320794d8438e8dd34d93ddae62839aa6d879dd2f51b2016919b66c349c2e770
Reciphers for ciphertext: 0
Decipheredtext:           00000020000000000000000000000000
RESULT CIPHER-DECIPHER: -----OK-----


Test: 27
Hash algorithm: 11
Crypto pad: 1
Symmetric key bit length: 192
IV bit length:            128
Plaintext bit length:     128
Symmetric key:            000000000000000000000000000000000000000000000000
IV:                       00000000000000000000000000000000
Plaintext:                00000010000000000000000000000000
Ciphertext:               f0f518f73795ab51bfb6e0aa99a0dac76e5970bc472f784b8da136742075c0c55880cec789f50feebd9e596da275168e7ebe75d1ff386cf20fa338e661fe8e73
Reciphers for ciphertext: 0
Decipheredtext:           00000010000000000000000000000000
RESULT CIPHER-DECIPHER: -----OK-----


Test: 28
Hash algorithm: 13
Crypto pad: 1
Symmetric key bit length: 192
IV bit length:            128
Plaintext bit length:     128
Symmetric key:            000000000000000000000000000000000000000000000000
IV:                       00000000000000000000000000000000
Plaintext:                00000008000000000000000000000000
Ciphertext:               91544d597f679e7dfe6d16d475809851dccdb75f145634ed19459e41c3ae3b148b1f0643f5a97f83803ccd3ea9bad3313b46c035e9d863d998a400cd1509c103
Reciphers for ciphertext: 0
Decipheredtext:           00000008000000000000000000000000
RESULT CIPHER-DECIPHER: -----OK-----


Test: 29
Hash algorithm: 4
Crypto pad: 2
Symmetric key bit length: 192
IV bit length:            128
Plaintext bit length:     128
Symmetric key:            000000000000000000000000000000000000000000000000
IV:                       00000000000000000000000000000000
Plaintext:                00000004000000000000000000000000
Ciphertext:               b1f92601b6d8c6b81176a46ee7341d28e69f86e09ade7d788b95891db5e6c3564f2271ba55a8876fed230acfe44797e82fd3ce31736fc7a1c37865a593666bcfdaeb48b7870c190b6467c7fb1671afcd6a582339d5111e9355e82bd2b433842264854608c524080dba8ad44d8206ad54
Reciphers for ciphertext: 0
Decipheredtext:           00000004000000000000000000000000
RESULT CIPHER-DECIPHER: -----OK-----


Test: 30
Hash algorithm: 9
Crypto pad: 2
Symmetric key bit length: 192
IV bit length:            128
Plaintext bit length:     128
Symmetric key:            000000000000000000000000000000000000000000000000
IV:                       00000000000000000000000000000000
Plaintext:                00000002000000000000000000000000
Ciphertext:               796c3a8cbc6450e51fa6f8765acd0f1028f6dbcdf44ff736b353c235a7ffee6a78be6b4713e80cbf61ebe2a65047d86005c80f9b6805abd2159839b18428d77960db0d7df44649aba35e3a13bd815edd
Reciphers for ciphertext: 0
Decipheredtext:           00000002000000000000000000000000
RESULT CIPHER-DECIPHER: -----OK-----


Test: 31
Hash algorithm: 9
Crypto pad: 2
Symmetric key bit length: 192
IV bit length:            128
Plaintext bit length:     128
Symmetric key:            000000000000000000000000000000000000000000000000
IV:                       00000000000000000000000000000000
Plaintext:                00000001000000000000000000000000
Ciphertext:               5f7bfe71bd2e81599dda3411bc1ca5797e9855eb8323dde5d380eeb7193ed5729df1f92d9790d44aa1305c599dd05b1c980b5eeacb19114fe28dc55e2216d4814c426365d660bfb4ad6eabcca92a4fba
Reciphers for ciphertext: 0
Decipheredtext:           00000001000000000000000000000000
RESULT CIPHER-DECIPHER: -----OK-----


Test: 32
Hash algorithm: 12
Crypto pad: 0
Symmetric key bit length: 192
IV bit length:            128
Plaintext bit length:     128
Symmetric key:            000000000000000000000000000000000000000000000000
IV:                       00000000000000000000000000000000
Plaintext:                00000000800000000000000000000000
Ciphertext:               2df7d576ec6296101cab16012092c12c3fb21307b1f0d4800007c85deb1bbfd1654ece06661f393443e97c48c5579b7169704c4f31346be61add0be62c6eb7fb
Reciphers for ciphertext: 0
Decipheredtext:           00000000800000000000000000000000
RESULT CIPHER-DECIPHER: -----OK-----


Test: 33
Hash algorithm: 1
Crypto pad: 2
Symmetric key bit length: 192
IV bit length:            128
Plaintext bit length:     128
Symmetric key:            000000000000000000000000000000000000000000000000
IV:                       00000000000000000000000000000000
Plaintext:                00000000400000000000000000000000
Ciphertext:               20769de071fbe22ae49e7b3f5d64641853695c66cd5bf711fa2d737491ba572bf83c4fb6535660cf7550b8a617f5f7488ec833ea942d6b11fbaf453514b2d6e7
Reciphers for ciphertext: 0
Decipheredtext:           00000000400000000000000000000000
RESULT CIPHER-DECIPHER: -----OK-----


Test: 34
Hash algorithm: 2
Crypto pad: 2
Symmetric key bit length: 192
IV bit length:            128
Plaintext bit length:     128
Symmetric key:            000000000000000000000000000000000000000000000000
IV:                       00000000000000000000000000000000
Plaintext:                00000000200000000000000000000000
Ciphertext:               b6f5c012e4ba15dc86536f328b137fc0d512faa9e957307681a8414818aa1c1f0894ab5b9841280cc98987832e29375c32cbc6795d9c9a29547e8cbe7384bd6b1a0db85978ea389316ea4648db0fcca3
Reciphers for ciphertext: 0
Decipheredtext:           00000000200000000000000000000000
RESULT CIPHER-DECIPHER: -----OK-----


Test: 35
Hash algorithm: 0
Crypto pad: 0
Symmetric key bit length: 192
IV bit length:            128
Plaintext bit length:     128
Symmetric key:            000000000000000000000000000000000000000000000000
IV:                       00000000000000000000000000000000
Plaintext:                00000000100000000000000000000000
Ciphertext:               1c3031dd05eaa4c278b55ef0e7e4c1f97d9e1e807f5455ae2d8f0160ae3e250d3dca4aecc9e7da9cb6189246e5dcfaecf492381d63410e8b38d1b6bba3730372
Reciphers for ciphertext: 0
Decipheredtext:           00000000100000000000000000000000
RESULT CIPHER-DECIPHER: -----OK-----


Test: 36
Hash algorithm: 10
Crypto pad: 0
Symmetric key bit length: 192
IV bit length:            128
Plaintext bit length:     128
Symmetric key:            000000000000000000000000000000000000000000000000
IV:                       00000000000000000000000000000000
Plaintext:                00000000080000000000000000000000
Ciphertext:               3d72a53bd537d04ac59e0af36d105ed92728658b14ca0115e78a281aac2042c635ea5b72116c86fb32c3b6e2e97f72bed9e5e1c571abbd9460bb16673a1f031b50d565fa3955d0ed669f2cf7eb5c423e
Reciphers for ciphertext: 0
Decipheredtext:           00000000080000000000000000000000
RESULT CIPHER-DECIPHER: -----OK-----


Test: 37
Hash algorithm: 12
Crypto pad: 1
Symmetric key bit length: 192
IV bit length:            128
Plaintext bit length:     128
Symmetric key:            000000000000000000000000000000000000000000000000
IV:                       00000000000000000000000000000000
Plaintext:                00000000040000000000000000000000
Ciphertext:               a6ffe499a2050c38f4e89dbf12b274305878525df4f84be1fb08f7acd3295c16113195057826d768faa96a927311982fc8e8062f539630ad540d412cee565e24
Reciphers for ciphertext: 0
Decipheredtext:           00000000040000000000000000000000
RESULT CIPHER-DECIPHER: -----OK-----


Test: 38
Hash algorithm: 8
Crypto pad: 1
Symmetric key bit length: 192
IV bit length:            128
Plaintext bit length:     128
Symmetric key:            000000000000000000000000000000000000000000000000
IV:                       00000000000000000000000000000000
Plaintext:                00000000020000000000000000000000
Ciphertext:               bfbb2a537b2c1339d6230f35a256f2898d3ede4b39b33bbc198f4bb50f0e6774e99202aad1e02d19d59c23ed345de9175a4c37193379686e404278aaee31935b
Reciphers for ciphertext: 0
Decipheredtext:           00000000020000000000000000000000
RESULT CIPHER-DECIPHER: -----OK-----


Test: 39
Hash algorithm: 3
Crypto pad: 1
Symmetric key bit length: 192
IV bit length:            128
Plaintext bit length:     128
Symmetric key:            000000000000000000000000000000000000000000000000
IV:                       00000000000000000000000000000000
Plaintext:                00000000010000000000000000000000
Ciphertext:               70e79718c97ddb187411436ac072b148616d94adae10f71118dc8c4674f6387a1bace695822a346b39f3f99a7240c4a771fa24da6983fbacd607a108b237676e0ccba1f9e0ada5ad1fc01c49fabe1ea5292234c5272750a161bfb4d9771d0f5d
Reciphers for ciphertext: 0
Decipheredtext:           00000000010000000000000000000000
RESULT CIPHER-DECIPHER: -----OK-----


Test: 40
Hash algorithm: 8
Crypto pad: 2
Symmetric key bit length: 192
IV bit length:            128
Plaintext bit length:     128
Symmetric key:            000000000000000000000000000000000000000000000000
IV:                       00000000000000000000000000000000
Plaintext:                00000000008000000000000000000000
Ciphertext:               13bb56699085842b81dbe8faa8b2626906efd74d67b56cffb0d94fe2763a8f97a28549e480a44b5bb9423f7da8e4ef93a9bacc10cd9ef882b841df08646fe4b3
Reciphers for ciphertext: 0
Decipheredtext:           00000000008000000000000000000000
RESULT CIPHER-DECIPHER: -----OK-----


Test: 41
Hash algorithm: 12
Crypto pad: 2
Symmetric key bit length: 192
IV bit length:            128
Plaintext bit length:     128
Symmetric key:            000000000000000000000000000000000000000000000000
IV:                       00000000000000000000000000000000
Plaintext:                00000000004000000000000000000000
Ciphertext:               3e4db71b9c737c7f8aef632a5adef61d6a937983e4c704ba16081cca0517b1725d0525d1162cc0ef8ed3347ec6dbd0c37e1e79f79acab69199a7ae23a4d87bcd
Reciphers for ciphertext: 0
Decipheredtext:           00000000004000000000000000000000
RESULT CIPHER-DECIPHER: -----OK-----


Test: 42
Hash algorithm: 12
Crypto pad: 1
Symmetric key bit length: 192
IV bit length:            128
Plaintext bit length:     128
Symmetric key:            000000000000000000000000000000000000000000000000
IV:                       00000000000000000000000000000000
Plaintext:                00000000002000000000000000000000
Ciphertext:               d7a254b7341c7677c72f9de729a3bb78cc0992b2bab73fa3a8fd395569f1129cbbeca31291eae289e4fde3a876e1f105fe8785ff351505de9b865742df6255d3
Reciphers for ciphertext: 0
Decipheredtext:           00000000002000000000000000000000
RESULT CIPHER-DECIPHER: -----OK-----


Test: 43
Hash algorithm: 13
Crypto pad: 0
Symmetric key bit length: 192
IV bit length:            128
Plaintext bit length:     128
Symmetric key:            000000000000000000000000000000000000000000000000
IV:                       00000000000000000000000000000000
Plaintext:                00000000001000000000000000000000
Ciphertext:               527d14e58b74224622df7f3fd65932f525b1c6e53d3303117ed27c96ceb26408355dce165bfd3b14acac1c447ae01581e9d62e8c907692ffc3975c03feb67383
Reciphers for ciphertext: 0
Decipheredtext:           00000000001000000000000000000000
RESULT CIPHER-DECIPHER: -----OK-----


Test: 44
Hash algorithm: 7
Crypto pad: 0
Symmetric key bit length: 192
IV bit length:            128
Plaintext bit length:     128
Symmetric key:            000000000000000000000000000000000000000000000000
IV:                       00000000000000000000000000000000
Plaintext:                00000000000800000000000000000000
Ciphertext:               708703993ad1dde5c7f8714686f3af32f8e4a3587b4061877b9bbd3b83e029214c3bda296ead0ce2cf1c3423b5f6062169d8f1bfd099f78af09b58bbc876ecdf
Reciphers for ciphertext: 0
Decipheredtext:           00000000000800000000000000000000
RESULT CIPHER-DECIPHER: -----OK-----


Test: 45
Hash algorithm: 5
Crypto pad: 1
Symmetric key bit length: 192
IV bit length:            128
Plaintext bit length:     128
Symmetric key:            000000000000000000000000000000000000000000000000
IV:                       00000000000000000000000000000000
Plaintext:                00000000000400000000000000000000
Ciphertext:               c57d3ecb71a7da4708de6f338bc13e091c43a0830d420bb1880687cae8e564fa75439d653f1e0161f7c914c25e489b19a6add2d81728f7553a293068bfa640fc
Reciphers for ciphertext: 0
Decipheredtext:           00000000000400000000000000000000
RESULT CIPHER-DECIPHER: -----OK-----


Test: 46
Hash algorithm: 7
Crypto pad: 1
Symmetric key bit length: 192
IV bit length:            128
Plaintext bit length:     128
Symmetric key:            000000000000000000000000000000000000000000000000
IV:                       00000000000000000000000000000000
Plaintext:                00000000000200000000000000000000
Ciphertext:               b31ff60be0fdc17001caf87fc7fc0b2dc14df4facf0dfe7cf46eaef91abd3eb41895b1ab2e40d8e25aa1b2ec10ea1b3957574a137e723d8aa2222631a4f31d3a
Reciphers for ciphertext: 0
Decipheredtext:           00000000000200000000000000000000
RESULT CIPHER-DECIPHER: -----OK-----


Test: 47
Hash algorithm: 12
Crypto pad: 1
Symmetric key bit length: 192
IV bit length:            128
Plaintext bit length:     128
Symmetric key:            000000000000000000000000000000000000000000000000
IV:                       00000000000000000000000000000000
Plaintext:                00000000000100000000000000000000
Ciphertext:               01877ac646a283472da74182fdc1e2b5d46e37ed7ae238d8dba429be55099e3de8484451fe4511ea90c028602c0a6c3e34861cc4d9a3f8294f880d559874d48b
Reciphers for ciphertext: 0
Decipheredtext:           00000000000100000000000000000000
RESULT CIPHER-DECIPHER: -----OK-----


Test: 48
Hash algorithm: 0
Crypto pad: 0
Symmetric key bit length: 192
IV bit length:            128
Plaintext bit length:     128
Symmetric key:            000000000000000000000000000000000000000000000000
IV:                       00000000000000000000000000000000
Plaintext:                00000000000080000000000000000000
Ciphertext:               3c678bada3fb1b872c018dc035ae16e8f4eba06e98fa104ebb47351b0e3ad00a3b8328c4265ee2adcee01907f529bc9fa9e42d8d049f3b940c25ca693caf388d
Reciphers for ciphertext: 0
Decipheredtext:           00000000000080000000000000000000
RESULT CIPHER-DECIPHER: -----OK-----


Test: 49
Hash algorithm: 3
Crypto pad: 1
Symmetric key bit length: 192
IV bit length:            128
Plaintext bit length:     128
Symmetric key:            000000000000000000000000000000000000000000000000
IV:                       00000000000000000000000000000000
Plaintext:                00000000000040000000000000000000
Ciphertext:               a2cb209da6aa40e043e6fb9dd2476100879a6ada9a8774068cf4f215ed017ec222c5021d09f9f238e7fe5dd84b3064704b806505d699f1f189baee5b054b83c32b4d46681d281f3a688348e6c9ef5cd4804d8385f64b153a9aa6e38d940f71ec
Reciphers for ciphertext: 0
Decipheredtext:           00000000000040000000000000000000
RESULT CIPHER-DECIPHER: -----OK-----


Test: 50
Hash algorithm: 0
Crypto pad: 0
Symmetric key bit length: 192
IV bit length:            128
Plaintext bit length:     128
Symmetric key:            000000000000000000000000000000000000000000000000
IV:                       00000000000000000000000000000000
Plaintext:                00000000000020000000000000000000
Ciphertext:               4f9402ff56d04c8fb37dbe1a3109d2de8493637b44e190700bde9e3d338b65fc984527e8fd6361938984b1bcf3a3d205665da5d9b95625f56b7748bbf9dba94d
Reciphers for ciphertext: 0
Decipheredtext:           00000000000020000000000000000000
RESULT CIPHER-DECIPHER: -----OK-----


Test: 51
Hash algorithm: 1
Crypto pad: 2
Symmetric key bit length: 192
IV bit length:            128
Plaintext bit length:     128
Symmetric key:            000000000000000000000000000000000000000000000000
IV:                       00000000000000000000000000000000
Plaintext:                00000000000010000000000000000000
Ciphertext:               342daad90f0f1699048d5cd16fda2ec7e5160eff4498c52d920a95d4c0cc52c5b39ffccf984351586abbdfb13c34a54979cfba94b2284d2af9759356b2e92c3d
Reciphers for ciphertext: 0
Decipheredtext:           00000000000010000000000000000000
RESULT CIPHER-DECIPHER: -----OK-----


Test: 52
Hash algorithm: 7
Crypto pad: 0
Symmetric key bit length: 192
IV bit length:            128
Plaintext bit length:     128
Symmetric key:            000000000000000000000000000000000000000000000000
IV:                       00000000000000000000000000000000
Plaintext:                00000000000008000000000000000000
Ciphertext:               e68cc86ca4d952bc3890aec0a7aaa4b5fc035ed53b788acd2024f4393ee19347e0b926cad88ebf3ba03dd4ae78e4f0f01db94e0e0ca5044454607f43d2aef18e
Reciphers for ciphertext: 0
Decipheredtext:           00000000000008000000000000000000
RESULT CIPHER-DECIPHER: -----OK-----


Test: 53
Hash algorithm: 5
Crypto pad: 2
Symmetric key bit length: 192
IV bit length:            128
Plaintext bit length:     128
Symmetric key:            000000000000000000000000000000000000000000000000
IV:                       00000000000000000000000000000000
Plaintext:                00000000000004000000000000000000
Ciphertext:               02a88364bf94a677124f670a566e3f0d14ef6563e2f41baae5518dc4f69532454835f3fa55fad1070c1ec045f04b923d8579be6c2269f764f364a373ef8438a2
Reciphers for ciphertext: 0
Decipheredtext:           00000000000004000000000000000000
RESULT CIPHER-DECIPHER: -----OK-----


Test: 54
Hash algorithm: 0
Crypto pad: 0
Symmetric key bit length: 192
IV bit length:            128
Plaintext bit length:     128
Symmetric key:            000000000000000000000000000000000000000000000000
IV:                       00000000000000000000000000000000
Plaintext:                00000000000002000000000000000000
Ciphertext:               c961ef325e2a32a4359cc63be1ee2c77708450d7ac6fd92f2346106179c23ea1546e81833b28b276a610d685bee4d9cc90c8190922c38ab7cd952daef5f22039
Reciphers for ciphertext: 0
Decipheredtext:           00000000000002000000000000000000
RESULT CIPHER-DECIPHER: -----OK-----


Test: 55
Hash algorithm: 7
Crypto pad: 1
Symmetric key bit length: 192
IV bit length:            128
Plaintext bit length:     128
Symmetric key:            000000000000000000000000000000000000000000000000
IV:                       00000000000000000000000000000000
Plaintext:                00000000000001000000000000000000
Ciphertext:               03bf43c9083e4d9919d12fe5c0315e67e0e68665276aa8801c9555a8b185f1a59a1a4a5a1130112c59d1c7db6881f9591198c99005c7e133b271a5da11041883
Reciphers for ciphertext: 0
Decipheredtext:           00000000000001000000000000000000
RESULT CIPHER-DECIPHER: -----OK-----


Test: 56
Hash algorithm: 13
Crypto pad: 1
Symmetric key bit length: 192
IV bit length:            128
Plaintext bit length:     128
Symmetric key:            000000000000000000000000000000000000000000000000
IV:                       00000000000000000000000000000000
Plaintext:                00000000000000800000000000000000
Ciphertext:               b27063442470be07dcc2256ec71a4f1a4f3b35b13353fc0ffbfbc5ddf8fb1d5a7aa7872f42a06bbca049b9e5a3850f2dca03bd33e7d8347db7857f89e4e0ff1c
Reciphers for ciphertext: 0
Decipheredtext:           00000000000000800000000000000000
RESULT CIPHER-DECIPHER: -----OK-----


Test: 57
Hash algorithm: 5
Crypto pad: 2
Symmetric key bit length: 192
IV bit length:            128
Plaintext bit length:     128
Symmetric key:            000000000000000000000000000000000000000000000000
IV:                       00000000000000000000000000000000
Plaintext:                00000000000000400000000000000000
Ciphertext:               222cc5a29084a4bdb05d4c2fd95648dfcf93ef47f32a4267f8498994c91cce95e0e3a8d653c622baf893f90af9ad89a119cad66d03052d6743f72fc1b912d6a7
Reciphers for ciphertext: 0
Decipheredtext:           00000000000000400000000000000000
RESULT CIPHER-DECIPHER: -----OK-----


Test: 58
Hash algorithm: 1
Crypto pad: 2
Symmetric key bit length: 192
IV bit length:            128
Plaintext bit length:     128
Symmetric key:            000000000000000000000000000000000000000000000000
IV:                       00000000000000000000000000000000
Plaintext:                00000000000000200000000000000000
Ciphertext:               e08686bfaa936e1890aeec834e3b474ac08ad417a9537f065abfe09a5300b1fb0df7cc6f9836e57362f74a7000db5f536759e62ccc7b269a4680eb862daaa348
Reciphers for ciphertext: 0
Decipheredtext:           00000000000000200000000000000000
RESULT CIPHER-DECIPHER: -----OK-----


Test: 59
Hash algorithm: 9
Crypto pad: 1
Symmetric key bit length: 192
IV bit length:            128
Plaintext bit length:     128
Symmetric key:            000000000000000000000000000000000000000000000000
IV:                       00000000000000000000000000000000
Plaintext:                00000000000000100000000000000000
Ciphertext:               10dc4ffcac5f5a1fb668277e8e75beab9aff8663f7ab47c77df4620e1f0c3b36023caf7799e7d7172ff2c35908449dc8d0a28b4568e05169c62c5c161db1d3e9b79090b588ce6cb837ac9f73183cd73d
Reciphers for ciphertext: 0
Decipheredtext:           00000000000000100000000000000000
RESULT CIPHER-DECIPHER: -----OK-----


Test: 60
Hash algorithm: 9
Crypto pad: 0
Symmetric key bit length: 192
IV bit length:            128
Plaintext bit length:     128
Symmetric key:            000000000000000000000000000000000000000000000000
IV:                       00000000000000000000000000000000
Plaintext:                00000000000000080000000000000000
Ciphertext:               03a9199978f9d652a4c528ff86c39ce9bcf7e0bdfb83c58397a7e914da814f1e65b9112c61cd38586364afb0fa7817e5196e1c17cfe749f03289c96746efca3682cefd1b43da97cb2e81f27690901a5f
Reciphers for ciphertext: 0
Decipheredtext:           00000000000000080000000000000000
RESULT CIPHER-DECIPHER: -----OK-----


Test: 61
Hash algorithm: 0
Crypto pad: 2
Symmetric key bit length: 192
IV bit length:            128
Plaintext bit length:     128
Symmetric key:            000000000000000000000000000000000000000000000000
IV:                       00000000000000000000000000000000
Plaintext:                00000000000000040000000000000000
Ciphertext:               ddf718a1beb37cc1b0905520db7c16118828d80c87a6d80871c13ca8c3c65b0cdfa47fd5383030d31525c37d5fba574682d8b6015fe297c03b829b8c4c8e3cca
Reciphers for ciphertext: 0
Decipheredtext:           00000000000000040000000000000000
RESULT CIPHER-DECIPHER: -----OK-----


Test: 62
Hash algorithm: 3
Crypto pad: 1
Symmetric key bit length: 192
IV bit length:            128
Plaintext bit length:     128
Symmetric key:            000000000000000000000000000000000000000000000000
IV:                       00000000000000000000000000000000
Plaintext:                00000000000000020000000000000000
Ciphertext:               2072191c277ee40fd557ff5f67a2a546b159a33b9fbf5b15b134934dc3011809ab54208f34d62885e05b64de1f1f6c803c55ee9df3ac969bb9bb8c3b94e01cec87af647998a9f3136edd912bd35f67794dc34d7cb3ee54073a6c1fbc6be9a569
Reciphers for ciphertext: 0
Decipheredtext:           00000000000000020000000000000000
RESULT CIPHER-DECIPHER: -----OK-----


Test: 63
Hash algorithm: 6
Crypto pad: 1
Symmetric key bit length: 192
IV bit length:            128
Plaintext bit length:     128
Symmetric key:            000000000000000000000000000000000000000000000000
IV:                       00000000000000000000000000000000
Plaintext:                00000000000000010000000000000000
Ciphertext:               96b3608c06112f619b156105eb082bbe2f91a68cd2b08bbbfa746bd66d670e3079a8cc4e603c273ed930566fcfc440845e53c9b535b73ba5386bcfdfaa91c3e3624b6e04aced62c24a630e2a728e64a5
Reciphers for ciphertext: 0
Decipheredtext:           00000000000000010000000000000000
RESULT CIPHER-DECIPHER: -----OK-----


Test: 64
Hash algorithm: 13
Crypto pad: 0
Symmetric key bit length: 192
IV bit length:            128
Plaintext bit length:     128
Symmetric key:            000000000000000000000000000000000000000000000000
IV:                       00000000000000000000000000000000
Plaintext:                00000000000000008000000000000000
Ciphertext:               b5d919dfd9828c4ff4427e72abfc77b254ad611d73e117126c14650197f3775d88405ede44685384bfa6e5d8e70a0b4c9ef54c31cefd307a3a276990e5ba1a3e
Reciphers for ciphertext: 0
Decipheredtext:           00000000000000008000000000000000
RESULT CIPHER-DECIPHER: -----OK-----


Test: 65
Hash algorithm: 5
Crypto pad: 2
Symmetric key bit length: 192
IV bit length:            128
Plaintext bit length:     128
Symmetric key:            000000000000000000000000000000000000000000000000
IV:                       00000000000000000000000000000000
Plaintext:                00000000000000004000000000000000
Ciphertext:               9570e7a96d4674c800af8dcd01deff64ca04f66b70bab6c11675df894abaa32409be390ffab271c1b1e32f2e79e510e978dbcc5332e6105624784388f25cfae0
Reciphers for ciphertext: 0
Decipheredtext:           00000000000000004000000000000000
RESULT CIPHER-DECIPHER: -----OK-----


Test: 66
Hash algorithm: 6
Crypto pad: 2
Symmetric key bit length: 192
IV bit length:            128
Plaintext bit length:     128
Symmetric key:            000000000000000000000000000000000000000000000000
IV:                       00000000000000000000000000000000
Plaintext:                00000000000000002000000000000000
Ciphertext:               59723db66edb29a9c81175668903777fb3c942f08de24bec53e18823b80a6c491632473da19c810a3919d554d0bba0cc010a91918de413aae2b7487f24fc563c9f1e2e459a7593659d43f7585b71242d
Reciphers for ciphertext: 0
Decipheredtext:           00000000000000002000000000000000
RESULT CIPHER-DECIPHER: -----OK-----


Test: 67
Hash algorithm: 5
Crypto pad: 2
Symmetric key bit length: 192
IV bit length:            128
Plaintext bit length:     128
Symmetric key:            000000000000000000000000000000000000000000000000
IV:                       00000000000000000000000000000000
Plaintext:                00000000000000001000000000000000
Ciphertext:               1779bdfac6db722bcaf4d3a8d9d2e7253870fa162f82a3356f49119c58a217ff1632d9c3e2f7932fc443cbbab55ea403c173f8fb25917b54e755a80d223842eb
Reciphers for ciphertext: 0
Decipheredtext:           00000000000000001000000000000000
RESULT CIPHER-DECIPHER: -----OK-----


Test: 68
Hash algorithm: 6
Crypto pad: 0
Symmetric key bit length: 192
IV bit length:            128
Plaintext bit length:     128
Symmetric key:            000000000000000000000000000000000000000000000000
IV:                       00000000000000000000000000000000
Plaintext:                00000000000000000800000000000000
Ciphertext:               5107b50a150998c6ea01c14697fc0e5356c446ec72a2aa2da306f54378e6b2a938ec65ae7221f2100ec462fe450ae996ae24f6978cf6e2fb31f7c7fcc3000726f41d2aa6b61b2256430eb7acb08ee7ee
Reciphers for ciphertext: 0
Decipheredtext:           00000000000000000800000000000000
RESULT CIPHER-DECIPHER: -----OK-----


Test: 69
Hash algorithm: 6
Crypto pad: 1
Symmetric key bit length: 192
IV bit length:            128
Plaintext bit length:     128
Symmetric key:            000000000000000000000000000000000000000000000000
IV:                       00000000000000000000000000000000
Plaintext:                00000000000000000400000000000000
Ciphertext:               36a6caa08bd5d2b332e9323f7c2e76caf120c69b0f75963b2d3cfa866dce966ee24eb91cd1184570624747fc8ed8dbd544339d405031583b0722aabc6976eeb6b719ccceec2065d7d7d349d173d091dc
Reciphers for ciphertext: 0
Decipheredtext:           00000000000000000400000000000000
RESULT CIPHER-DECIPHER: -----OK-----


Test: 70
Hash algorithm: 8
Crypto pad: 0
Symmetric key bit length: 192
IV bit length:            128
Plaintext bit length:     128
Symmetric key:            000000000000000000000000000000000000000000000000
IV:                       00000000000000000000000000000000
Plaintext:                00000000000000000200000000000000
Ciphertext:               d1cf37451667edb8d2e9934d39a27a925d3ed6a83bc34d88255c950c0dfb62d608264fe03c5d239766e4399bbb41fb90d2bbe36e716b3ed8143750f05ef2f974
Reciphers for ciphertext: 0
Decipheredtext:           00000000000000000200000000000000
RESULT CIPHER-DECIPHER: -----OK-----


Test: 71
Hash algorithm: 1
Crypto pad: 0
Symmetric key bit length: 192
IV bit length:            128
Plaintext bit length:     128
Symmetric key:            000000000000000000000000000000000000000000000000
IV:                       00000000000000000000000000000000
Plaintext:                00000000000000000100000000000000
Ciphertext:               4e96227b0a018755fbe8ad5bf0e421b06cfd03620f4f6990bf34d455560bba21c58189285e17acda8110ff4252c83f05e4a26c6f0bae4876c9ab52f29b6ba8c9
Reciphers for ciphertext: 0
Decipheredtext:           00000000000000000100000000000000
RESULT CIPHER-DECIPHER: -----OK-----


Test: 72
Hash algorithm: 1
Crypto pad: 1
Symmetric key bit length: 192
IV bit length:            128
Plaintext bit length:     128
Symmetric key:            000000000000000000000000000000000000000000000000
IV:                       00000000000000000000000000000000
Plaintext:                00000000000000000080000000000000
Ciphertext:               3221b3d3a24745b483bbf99509b330a078971414874cdd5c1fbd1d033ee115536ac55a5dac5bfb03624c710e467e6b640359ab5cb059b2e58d36ec72ae66689d
Reciphers for ciphertext: 0
Decipheredtext:           00000000000000000080000000000000
RESULT CIPHER-DECIPHER: -----OK-----


Test: 73
Hash algorithm: 0
Crypto pad: 0
Symmetric key bit length: 192
IV bit length:            128
Plaintext bit length:     128
Symmetric key:            000000000000000000000000000000000000000000000000
IV:                       00000000000000000000000000000000
Plaintext:                00000000000000000040000000000000
Ciphertext:               98a4ab39b84d21d36a5ddc2660bd68c5e2e48416dd87d9730bddc50d585e936bccadfd5dadbd069af24be2a61075228ae5b166edd2551d9ef5a1bafaa437810b
Reciphers for ciphertext: 0
Decipheredtext:           00000000000000000040000000000000
RESULT CIPHER-DECIPHER: -----OK-----


Test: 74
Hash algorithm: 4
Crypto pad: 1
Symmetric key bit length: 192
IV bit length:            128
Plaintext bit length:     128
Symmetric key:            000000000000000000000000000000000000000000000000
IV:                       00000000000000000000000000000000
Plaintext:                00000000000000000020000000000000
Ciphertext:               e5c351e1783465edba5ce0592bc77e8ed41e720ff79222587abd2a66baa88dbed2f4fd08366e557e587c34d34ec39c630ce3c7e11dfeec548d8ba2a0ea3fe8c2d0d1e7813f95a3d0a9aec25c97d0ab392237cfddb20999fe6d6860cc7ba71e197dabcc191930613ea3557adfe8467dd0
Reciphers for ciphertext: 0
Decipheredtext:           00000000000000000020000000000000
RESULT CIPHER-DECIPHER: -----OK-----


Test: 75
Hash algorithm: 2
Crypto pad: 0
Symmetric key bit length: 192
IV bit length:            128
Plaintext bit length:     128
Symmetric key:            000000000000000000000000000000000000000000000000
IV:                       00000000000000000000000000000000
Plaintext:                00000000000000000010000000000000
Ciphertext:               35489488ee33d0344c1bdb6263d2828685ee965d19f79bede3c747716b129c63c605ef4bf4e527a164d1c39e5006acecdf9694ee80e331afe61ffe7f8e9de19bd91db76a20472eeaaa4756309a7317c8
Reciphers for ciphertext: 0
Decipheredtext:           00000000000000000010000000000000
RESULT CIPHER-DECIPHER: -----OK-----


Test: 76
Hash algorithm: 11
Crypto pad: 2
Symmetric key bit length: 192
IV bit length:            128
Plaintext bit length:     128
Symmetric key:            000000000000000000000000000000000000000000000000
IV:                       00000000000000000000000000000000
Plaintext:                00000000000000000008000000000000
Ciphertext:               97ea899f53c60536dafeb18123fd6c5bf0660248f6b05208646d6a8d72a3689282d660ec9eaeb941d554d04654b3b23aa66b8099b00717811ccac5b2a36b10f5
Reciphers for ciphertext: 0
Decipheredtext:           00000000000000000008000000000000
RESULT CIPHER-DECIPHER: -----OK-----


Test: 77
Hash algorithm: 7
Crypto pad: 0
Symmetric key bit length: 192
IV bit length:            128
Plaintext bit length:     128
Symmetric key:            000000000000000000000000000000000000000000000000
IV:                       00000000000000000000000000000000
Plaintext:                00000000000000000004000000000000
Ciphertext:               8511b11c7d2d8fbf63702a7e3aaca08a50026fb561dd3265d5c3600d0aee51af8db3fe0e0f98127fdfd27f42cd71900063ef3f1da7ab219c4b4ac52d631c4288
Reciphers for ciphertext: 0
Decipheredtext:           00000000000000000004000000000000
RESULT CIPHER-DECIPHER: -----OK-----


Test: 78
Hash algorithm: 0
Crypto pad: 2
Symmetric key bit length: 192
IV bit length:            128
Plaintext bit length:     128
Symmetric key:            000000000000000000000000000000000000000000000000
IV:                       00000000000000000000000000000000
Plaintext:                00000000000000000002000000000000
Ciphertext:               fe0c90596e4f47fd8a9927d83f4dca527a2aaf26f2aedd5d708eb815058da7c925dcfb0921a65099ae089d1bc8ccddefb32a460e78e6ba3acd4a77eac3755a7d
Reciphers for ciphertext: 0
Decipheredtext:           00000000000000000002000000000000
RESULT CIPHER-DECIPHER: -----OK-----


Test: 79
Hash algorithm: 5
Crypto pad: 0
Symmetric key bit length: 192
IV bit length:            128
Plaintext bit length:     128
Symmetric key:            000000000000000000000000000000000000000000000000
IV:                       00000000000000000000000000000000
Plaintext:                00000000000000000001000000000000
Ciphertext:               186fe000683cc19f621bc6c2da300b7146c18c6801fd88d0047b91d4f05f1d53dd9e96b6c8de2f883dc62b260f6c289af5692c5002117da86fcdfd5095a35f77
Reciphers for ciphertext: 0
Decipheredtext:           00000000000000000001000000000000
RESULT CIPHER-DECIPHER: -----OK-----


Test: 80
Hash algorithm: 4
Crypto pad: 1
Symmetric key bit length: 192
IV bit length:            128
Plaintext bit length:     128
Symmetric key:            000000000000000000000000000000000000000000000000
IV:                       00000000000000000000000000000000
Plaintext:                00000000000000000000800000000000
Ciphertext:               8291f94edf578e8a70cd0cf8f3fb35584adfd1df6cef3d106fe11357370b810c0cdb29a3ee252ee78b6e456689eeec958c4a0537c4a74970ba106a3dc440d8b9b8b6b810d018bcd0cc783b2fd3a5eee276c01d66a31a73334a66bbb2755a10feadfb316fee9c26c90d58172951adeecb
Reciphers for ciphertext: 0
Decipheredtext:           00000000000000000000800000000000
RESULT CIPHER-DECIPHER: -----OK-----


Test: 81
Hash algorithm: 6
Crypto pad: 0
Symmetric key bit length: 192
IV bit length:            128
Plaintext bit length:     128
Symmetric key:            000000000000000000000000000000000000000000000000
IV:                       00000000000000000000000000000000
Plaintext:                00000000000000000000400000000000
Ciphertext:               2891c81846949c917e757ebae20d34ee7c1e60244762a5b6ccde4f361b6595854e3b20bee6bd4807f38112b9317fc0689c680a4055e1aea5d5d0b342e5a9f77833f25a90921837ab46af6a441cae9a13
Reciphers for ciphertext: 0
Decipheredtext:           00000000000000000000400000000000
RESULT CIPHER-DECIPHER: -----OK-----


Test: 82
Hash algorithm: 8
Crypto pad: 0
Symmetric key bit length: 192
IV bit length:            128
Plaintext bit length:     128
Symmetric key:            000000000000000000000000000000000000000000000000
IV:                       00000000000000000000000000000000
Plaintext:                00000000000000000000200000000000
Ciphertext:               762d85a32daf0c9f3cfb3388e808fec2e4dfe25924be9508b66ef338d2086f6bcaed216397aff58926defbd747ad891ad1f44d3affbbaba2facc9964277b20b0
Reciphers for ciphertext: 0
Decipheredtext:           00000000000000000000200000000000
RESULT CIPHER-DECIPHER: -----OK-----


Test: 83
Hash algorithm: 11
Crypto pad: 1
Symmetric key bit length: 192
IV bit length:            128
Plaintext bit length:     128
Symmetric key:            000000000000000000000000000000000000000000000000
IV:                       00000000000000000000000000000000
Plaintext:                00000000000000000000100000000000
Ciphertext:               cc6807d209b728c559c32336fd8fb71d159191dd7e99d25d288583f97937173444a5f4ee55022d9ef94f30adcdda477e3ab4da18fe08b1ba9d770c43e84c0d55
Reciphers for ciphertext: 0
Decipheredtext:           00000000000000000000100000000000
RESULT CIPHER-DECIPHER: -----OK-----


Test: 84
Hash algorithm: 3
Crypto pad: 1
Symmetric key bit length: 192
IV bit length:            128
Plaintext bit length:     128
Symmetric key:            000000000000000000000000000000000000000000000000
IV:                       00000000000000000000000000000000
Plaintext:                00000000000000000000080000000000
Ciphertext:               fcd07057ef4820154075a0ddcbfc0bbd8ad81d9aed2e525d8f22c4d59cdf50b85e1fab1b9dda2945d3fa5cd7b7a9a4f7a06e0a6ccdfdd6e9e68e7985f7b4127db85662324bba7f016977d583eaf59e4c3ef09fc717287626a2ae09ac879a8d56
Reciphers for ciphertext: 0
Decipheredtext:           00000000000000000000080000000000
RESULT CIPHER-DECIPHER: -----OK-----


Test: 85
Hash algorithm: 2
Crypto pad: 1
Symmetric key bit length: 192
IV bit length:            128
Plaintext bit length:     128
Symmetric key:            000000000000000000000000000000000000000000000000
IV:                       00000000000000000000000000000000
Plaintext:                00000000000000000000040000000000
Ciphertext:               fdbfe2c3ffc82792d338388a1fc6d22e879914c8b74dc457fa178bc5ec029b5784be543a1da932425c0b9856d3743c3690478fa6445e87fc8783282467671a6062d94721cc4c0a29c09d1f97e3504459
Reciphers for ciphertext: 0
Decipheredtext:           00000000000000000000040000000000
RESULT CIPHER-DECIPHER: -----OK-----


Test: 86
Hash algorithm: 5
Crypto pad: 2
Symmetric key bit length: 192
IV bit length:            128
Plaintext bit length:     128
Symmetric key:            000000000000000000000000000000000000000000000000
IV:                       00000000000000000000000000000000
Plaintext:                00000000000000000000020000000000
Ciphertext:               04d5f7cd68fc2352bddbc82cfe35da80a0f9e4e4a06bda14ba66403907b8b864024b3c79e55d3d3326ac3dbe32726355c5977b56d40de49e64cd16883c1e0198
Reciphers for ciphertext: 0
Decipheredtext:           00000000000000000000020000000000
RESULT CIPHER-DECIPHER: -----OK-----


Test: 87
Hash algorithm: 8
Crypto pad: 0
Symmetric key bit length: 192
IV bit length:            128
Plaintext bit length:     128
Symmetric key:            000000000000000000000000000000000000000000000000
IV:                       00000000000000000000000000000000
Plaintext:                00000000000000000000010000000000
Ciphertext:               b1784a7bf395fb525471ee3dc8972fed8230f24c3a1f3f155f707033ccd9bbe8667d07c71d14e390b2cac5aee94cb9b9264c7b36d85257fb95ef2fda22ce30d0
Reciphers for ciphertext: 0
Decipheredtext:           00000000000000000000010000000000
RESULT CIPHER-DECIPHER: -----OK-----


Test: 88
Hash algorithm: 4
Crypto pad: 1
Symmetric key bit length: 192
IV bit length:            128
Plaintext bit length:     128
Symmetric key:            000000000000000000000000000000000000000000000000
IV:                       00000000000000000000000000000000
Plaintext:                00000000000000000000008000000000
Ciphertext:               cb5d8a62d16220123ef0005876e35b19831d50b64bd74ed236fa0cf42d75952424826ceb75626429d14d1ccf926dc3175981060a30115e7b4e54514f064a820798b12970d00a61ad03675e55a157d44031eda44c4c63ad12081073044fe5c631e9cdba76d592bd67f0b741c30d164b5b
Reciphers for ciphertext: 0
Decipheredtext:           00000000000000000000008000000000
RESULT CIPHER-DECIPHER: -----OK-----


Test: 89
Hash algorithm: 2
Crypto pad: 1
Symmetric key bit length: 192
IV bit length:            128
Plaintext bit length:     128
Symmetric key:            000000000000000000000000000000000000000000000000
IV:                       00000000000000000000000000000000
Plaintext:                00000000000000000000004000000000
Ciphertext:               311292ede1f30e9f22f1eef8fd19bd80258907d89efbd019a430cb032bec0b908a405bfa01a94b21093ec49427b41720530494e642322673ce236124155bd88d2abec215987a12cdf0b356ce38693f8b
Reciphers for ciphertext: 0
Decipheredtext:           00000000000000000000004000000000
RESULT CIPHER-DECIPHER: -----OK-----


Test: 90
Hash algorithm: 0
Crypto pad: 2
Symmetric key bit length: 192
IV bit length:            128
Plaintext bit length:     128
Symmetric key:            000000000000000000000000000000000000000000000000
IV:                       00000000000000000000000000000000
Plaintext:                00000000000000000000002000000000
Ciphertext:               382bc583ec9b6e16e3df2188cf0bf1e84b92f1eee1b1057bd5407b2c03d766ff77e75a73cfc3f1d22c98362c599f71c6ad81cbdb8fcb10730aec873f870f3d7c
Reciphers for ciphertext: 0
Decipheredtext:           00000000000000000000002000000000
RESULT CIPHER-DECIPHER: -----OK-----


Test: 91
Hash algorithm: 12
Crypto pad: 0
Symmetric key bit length: 192
IV bit length:            128
Plaintext bit length:     128
Symmetric key:            000000000000000000000000000000000000000000000000
IV:                       00000000000000000000000000000000
Plaintext:                00000000000000000000001000000000
Ciphertext:               632c9ad674bd1b8a15827a789bd133a7404cc62fdc072437013fe75223f2bddefdb8de6aceb73a00ebf9fcab032e796e740f5b541756a37f1dd97b303582fc38
Reciphers for ciphertext: 0
Decipheredtext:           00000000000000000000001000000000
RESULT CIPHER-DECIPHER: -----OK-----


Test: 92
Hash algorithm: 10
Crypto pad: 2
Symmetric key bit length: 192
IV bit length:            128
Plaintext bit length:     128
Symmetric key:            000000000000000000000000000000000000000000000000
IV:                       00000000000000000000000000000000
Plaintext:                00000000000000000000000800000000
Ciphertext:               0ee175df45b889ced6974e9c2b8f8a78d95b224ac6d7e542ad0a1cee8a58c0663d1692de1e1c93af75899be99c709f760cd391566809c0b4ba2ab88550a5c1a259fff0c3dd581338d60face6b7034255
Reciphers for ciphertext: 0
Decipheredtext:           00000000000000000000000800000000
RESULT CIPHER-DECIPHER: -----OK-----


Test: 93
Hash algorithm: 7
Crypto pad: 2
Symmetric key bit length: 192
IV bit length:            128
Plaintext bit length:     128
Symmetric key:            000000000000000000000000000000000000000000000000
IV:                       00000000000000000000000000000000
Plaintext:                00000000000000000000000400000000
Ciphertext:               6131a1a18f00cfda5b4af4fbe5487445a6fb8346e79a7190ed8371dc637411b21d06ce8cd8a5e2f6c130c2a9af96b2e8f712707b056e4738fc73d0be2f9b1ce9
Reciphers for ciphertext: 0
Decipheredtext:           00000000000000000000000400000000
RESULT CIPHER-DECIPHER: -----OK-----


Test: 94
Hash algorithm: 4
Crypto pad: 1
Symmetric key bit length: 192
IV bit length:            128
Plaintext bit length:     128
Symmetric key:            000000000000000000000000000000000000000000000000
IV:                       00000000000000000000000000000000
Plaintext:                00000000000000000000000200000000
Ciphertext:               0c8746747460a540e2304b55c12ea6723b8c8d26ffe3308a68ddb2663ee3d854a05a72ae39376dcc9e2c8b13dfbc478b4b1687a08511c4725824408df313797e8f0a4fbe85b3460471d6d041e3744f7480a0d9e71c2b615eb5f162b141ba367462b9f45de7bd10fb6a85b7b4222870bc
Reciphers for ciphertext: 0
Decipheredtext:           00000000000000000000000200000000
RESULT CIPHER-DECIPHER: -----OK-----


Test: 95
Hash algorithm: 0
Crypto pad: 2
Symmetric key bit length: 192
IV bit length:            128
Plaintext bit length:     128
Symmetric key:            000000000000000000000000000000000000000000000000
IV:                       00000000000000000000000000000000
Plaintext:                00000000000000000000000100000000
Ciphertext:               dd6d4d2aa3eb702c597e4e2de59bf4c9313ba0467746c55c101502505d4854899c3b5a203c9add6c6d7e6bf28aabe8db02c24013efd6ec64a52663a8a544dfee
Reciphers for ciphertext: 0
Decipheredtext:           00000000000000000000000100000000
RESULT CIPHER-DECIPHER: -----OK-----


Test: 96
Hash algorithm: 7
Crypto pad: 1
Symmetric key bit length: 192
IV bit length:            128
Plaintext bit length:     128
Symmetric key:            000000000000000000000000000000000000000000000000
IV:                       00000000000000000000000000000000
Plaintext:                00000000000000000000000080000000
Ciphertext:               774edf219459a4744aa1ccde7d969a60bb8fef482b986460b081c5c97e9b25c819d5ed3f81cddf8ed89b5767065c88c6cd7b26de3ec6947b55c4ceffee0f5677
Reciphers for ciphertext: 0
Decipheredtext:           00000000000000000000000080000000
RESULT CIPHER-DECIPHER: -----OK-----


Test: 97
Hash algorithm: 7
Crypto pad: 2
Symmetric key bit length: 192
IV bit length:            128
Plaintext bit length:     128
Symmetric key:            000000000000000000000000000000000000000000000000
IV:                       00000000000000000000000000000000
Plaintext:                00000000000000000000000040000000
Ciphertext:               1d7b340c4ce68ac97369fff0ff9980c88ba193f04b8e40629fce263adef2494906e5ee08e2bbbf2ee0846d8b2018fce4fa59b3805deeb0334f86c57c43d71b58
Reciphers for ciphertext: 0
Decipheredtext:           00000000000000000000000040000000
RESULT CIPHER-DECIPHER: -----OK-----


Test: 98
Hash algorithm: 2
Crypto pad: 0
Symmetric key bit length: 192
IV bit length:            128
Plaintext bit length:     128
Symmetric key:            000000000000000000000000000000000000000000000000
IV:                       00000000000000000000000000000000
Plaintext:                00000000000000000000000020000000
Ciphertext:               d18104617258ab02aae02eccf552a891c9cdd29cbc8d0fc7e9fb7524f06b02a536fb30a75be9cf3f0647105e15097ba3682b6d57d7448c430b5e1b941f8436f2c800d4bd14ca3f6ebc153295c97a9a28
Reciphers for ciphertext: 0
Decipheredtext:           00000000000000000000000020000000
RESULT CIPHER-DECIPHER: -----OK-----


Test: 99
Hash algorithm: 4
Crypto pad: 1
Symmetric key bit length: 192
IV bit length:            128
Plaintext bit length:     128
Symmetric key:            000000000000000000000000000000000000000000000000
IV:                       00000000000000000000000000000000
Plaintext:                00000000000000000000000010000000
Ciphertext:               8dc66f1d7648eb62f1dcbeb3cd2379852199ce58833f80bd1ba32463f5ecd8de9e2bc5958848b1159b6ad187886cd899e9ec9bf7d7a0c798e654dab0c8a10e039ecdb999fa2a5802563fa30071ac60cf29c1fc1324f27f70eb8688dfb867519700e707b0f6c04eca4c3c1449233739a5
Reciphers for ciphertext: 0
Decipheredtext:           00000000000000000000000010000000
RESULT CIPHER-DECIPHER: -----OK-----


Test: 100
Hash algorithm: 12
Crypto pad: 2
Symmetric key bit length: 192
IV bit length:            128
Plaintext bit length:     128
Symmetric key:            000000000000000000000000000000000000000000000000
IV:                       00000000000000000000000000000000
Plaintext:                00000000000000000000000008000000
Ciphertext:               abf090054abe052ece0b07be6b6cc6dbbe24245fc861abaaf63402aeb60f7e264cf79abf77248333d4bd3926f1935cdcd790a18c729efc6df26ebce00eb75451
Reciphers for ciphertext: 0
Decipheredtext:           00000000000000000000000008000000
RESULT CIPHER-DECIPHER: -----OK-----


Test: 101
Hash algorithm: 2
Crypto pad: 2
Symmetric key bit length: 192
IV bit length:            128
Plaintext bit length:     128
Symmetric key:            000000000000000000000000000000000000000000000000
IV:                       00000000000000000000000000000000
Plaintext:                00000000000000000000000004000000
Ciphertext:               89239aafe9ba86e5ec794397e0180111f77ba035eba38646e7311d41f94a8092cd304110910d6cc11054841940a643ec1bc09f9e76d1af3e14870c50ab7651b8a2a641bd76f3cf3b7023663707b5b0a5
Reciphers for ciphertext: 0
Decipheredtext:           00000000000000000000000004000000
RESULT CIPHER-DECIPHER: -----OK-----


Test: 102
Hash algorithm: 1
Crypto pad: 2
Symmetric key bit length: 192
IV bit length:            128
Plaintext bit length:     128
Symmetric key:            000000000000000000000000000000000000000000000000
IV:                       00000000000000000000000000000000
Plaintext:                00000000000000000000000002000000
Ciphertext:               6e1cdc049333211b4d7533e21504d200a35f2b6688c1ba1675171aaa61b064a443d4932e2fec18b50dc5069e3da8dd21f92041fa56d3190f51515627c67b3d3a
Reciphers for ciphertext: 0
Decipheredtext:           00000000000000000000000002000000
RESULT CIPHER-DECIPHER: -----OK-----


Test: 103
Hash algorithm: 0
Crypto pad: 1
Symmetric key bit length: 192
IV bit length:            128
Plaintext bit length:     128
Symmetric key:            000000000000000000000000000000000000000000000000
IV:                       00000000000000000000000000000000
Plaintext:                00000000000000000000000001000000
Ciphertext:               efe662af24d9997fae45cad4f92f30911d88f8176bc17b1360c677dd329b5af597cc98066a5011b7e17d82d0f76dd26d2e74ff7945a5bfd9dceb95e7f308b669
Reciphers for ciphertext: 0
Decipheredtext:           00000000000000000000000001000000
RESULT CIPHER-DECIPHER: -----OK-----


Test: 104
Hash algorithm: 6
Crypto pad: 2
Symmetric key bit length: 192
IV bit length:            128
Plaintext bit length:     128
Symmetric key:            000000000000000000000000000000000000000000000000
IV:                       00000000000000000000000000000000
Plaintext:                00000000000000000000000000800000
Ciphertext:               16f53f3a6cc3b4f86dda1b8792244901dc61baf6e61b8020fd31a158b6b1746cd31445496e6eb02c3aa413698d1c257fb62a54c2204095c9a011b48a8475f33b12e47b5f0eb34d3182e7adcad25804f2
Reciphers for ciphertext: 0
Decipheredtext:           00000000000000000000000000800000
RESULT CIPHER-DECIPHER: -----OK-----


Test: 105
Hash algorithm: 7
Crypto pad: 2
Symmetric key bit length: 192
IV bit length:            128
Plaintext bit length:     128
Symmetric key:            000000000000000000000000000000000000000000000000
IV:                       00000000000000000000000000000000
Plaintext:                00000000000000000000000000400000
Ciphertext:               047cbacdc5ea84771a61fe1204813d465b6761486f39bef1526e5514c9da03d7a116fe0e2475f216be63fc6a17fa6e39428b6694e890165142be2aabffa7bccb
Reciphers for ciphertext: 0
Decipheredtext:           00000000000000000000000000400000
RESULT CIPHER-DECIPHER: -----OK-----


Test: 106
Hash algorithm: 1
Crypto pad: 2
Symmetric key bit length: 192
IV bit length:            128
Plaintext bit length:     128
Symmetric key:            000000000000000000000000000000000000000000000000
IV:                       00000000000000000000000000000000
Plaintext:                00000000000000000000000000200000
Ciphertext:               b442ff3318822ea7f60e2a8a082a043a640336732a33d3a2f53a5ba75af9ea39002702a3553825dd0839daa3212557a46a1684ed11a794f7c1189f7d47e4b0d7
Reciphers for ciphertext: 0
Decipheredtext:           00000000000000000000000000200000
RESULT CIPHER-DECIPHER: -----OK-----


Test: 107
Hash algorithm: 3
Crypto pad: 2
Symmetric key bit length: 192
IV bit length:            128
Plaintext bit length:     128
Symmetric key:            000000000000000000000000000000000000000000000000
IV:                       00000000000000000000000000000000
Plaintext:                00000000000000000000000000100000
Ciphertext:               971d07aeedbca5b7bdcd033f708c97dba47458e9bf006e82ee78986376ce45dd887500a1f3f5fc571cd2949feca5f42cc4e9bcf828f177208d96238aa627da4748d63168cd10d729f18e4247a6060dfe2a4dca65449b4ede28873e7f354fe82a
Reciphers for ciphertext: 0
Decipheredtext:           00000000000000000000000000100000
RESULT CIPHER-DECIPHER: -----OK-----


Test: 108
Hash algorithm: 5
Crypto pad: 2
Symmetric key bit length: 192
IV bit length:            128
Plaintext bit length:     128
Symmetric key:            000000000000000000000000000000000000000000000000
IV:                       00000000000000000000000000000000
Plaintext:                00000000000000000000000000080000
Ciphertext:               d307263273e250c0b9e08ff23003b0d1589818738c2bb94d041a65aa6157cc8cc339b395f1192bdd8c9664984c72b173c6d3f526e5884bde22c3e73a3ea41a6c
Reciphers for ciphertext: 0
Decipheredtext:           00000000000000000000000000080000
RESULT CIPHER-DECIPHER: -----OK-----


Test: 109
Hash algorithm: 3
Crypto pad: 0
Symmetric key bit length: 192
IV bit length:            128
Plaintext bit length:     128
Symmetric key:            000000000000000000000000000000000000000000000000
IV:                       00000000000000000000000000000000
Plaintext:                00000000000000000000000000040000
Ciphertext:               75f7005ca9c6ee5a1f9a4897fa67c661905ef72b255b4e852707413d7149c3699f9f3714f632be47a21e856b59469d668acd396c6c77134831e265fec3393dcec449eee94aba048640b98ced9063069118f1f8922679951bbadf604c3eb3cf02
Reciphers for ciphertext: 0
Decipheredtext:           00000000000000000000000000040000
RESULT CIPHER-DECIPHER: -----OK-----


Test: 110
Hash algorithm: 5
Crypto pad: 2
Symmetric key bit length: 192
IV bit length:            128
Plaintext bit length:     128
Symmetric key:            000000000000000000000000000000000000000000000000
IV:                       00000000000000000000000000000000
Plaintext:                00000000000000000000000000020000
Ciphertext:               9b421c68873d49f07e3b9025ad6097871d9a86a1d2fc7f659ac7bb358bbee93e3a7e0ac78a945386541a46427a4d27b7691878e04c90afe3eff4f1ac6b2c9e3e
Reciphers for ciphertext: 0
Decipheredtext:           00000000000000000000000000020000
RESULT CIPHER-DECIPHER: -----OK-----


Test: 111
Hash algorithm: 8
Crypto pad: 0
Symmetric key bit length: 192
IV bit length:            128
Plaintext bit length:     128
Symmetric key:            000000000000000000000000000000000000000000000000
IV:                       00000000000000000000000000000000
Plaintext:                00000000000000000000000000010000
Ciphertext:               5b182593b47dc674d8b1942cb97224b2cbd5c0c21f4667019a0f90d6f0e1d19be10b0afaf3ee92f41e306b8c43901216bff51a0b9910782e37192b29cd613867
Reciphers for ciphertext: 0
Decipheredtext:           00000000000000000000000000010000
RESULT CIPHER-DECIPHER: -----OK-----


Test: 112
Hash algorithm: 2
Crypto pad: 0
Symmetric key bit length: 192
IV bit length:            128
Plaintext bit length:     128
Symmetric key:            000000000000000000000000000000000000000000000000
IV:                       00000000000000000000000000000000
Plaintext:                00000000000000000000000000008000
Ciphertext:               a896871a3157ccd1f5a788e253a6b0fdd57198b599c5f95929dc93365c9ebcf13fb3529b7e7f15ee5609aceaca4a73906898b4dbe68f76cd9b0f48bc052fd3d4e787c3e6ec08c8c1c8865af0495c6e1c
Reciphers for ciphertext: 0
Decipheredtext:           00000000000000000000000000008000
RESULT CIPHER-DECIPHER: -----OK-----


Test: 113
Hash algorithm: 3
Crypto pad: 2
Symmetric key bit length: 192
IV bit length:            128
Plaintext bit length:     128
Symmetric key:            000000000000000000000000000000000000000000000000
IV:                       00000000000000000000000000000000
Plaintext:                00000000000000000000000000004000
Ciphertext:               789a3d2b2a70181efcce5529f200dc44a7ae3534c7c7376162088965401add5871e181cfaaafe13737662b6e57efd89ac85c51257ee04648dad0b42350776af5df3ee6c2bf27b22eaa6b83bb127683a3db10431764be3b3c5209ce3b42d8f8ed
Reciphers for ciphertext: 0
Decipheredtext:           00000000000000000000000000004000
RESULT CIPHER-DECIPHER: -----OK-----


Test: 114
Hash algorithm: 3
Crypto pad: 2
Symmetric key bit length: 192
IV bit length:            128
Plaintext bit length:     128
Symmetric key:            000000000000000000000000000000000000000000000000
IV:                       00000000000000000000000000000000
Plaintext:                00000000000000000000000000002000
Ciphertext:               7f9462d23db6e99ad0a54ea84dbd94e2ad0ac4fed78385c620822ba29aee595f37aa3341556d24d08037fa1e0f2f7bb899bcb72e4670283617548401f0948d810749dd5efba6831f843d548a1b35c6f8679cdf198b16e222c462d528b72030ca
Reciphers for ciphertext: 0
Decipheredtext:           00000000000000000000000000002000
RESULT CIPHER-DECIPHER: -----OK-----


Test: 115
Hash algorithm: 10
Crypto pad: 2
Symmetric key bit length: 192
IV bit length:            128
Plaintext bit length:     128
Symmetric key:            000000000000000000000000000000000000000000000000
IV:                       00000000000000000000000000000000
Plaintext:                00000000000000000000000000001000
Ciphertext:               23eafe1f7cce96b6bfe2484e1dfc4ab90962643ebcb777ba708d8b69fdd3cfed8cab69e994d8c66e4737cbf1c9c5f1242ecbc2a7b7e4f0aaf5e7556653415e99ef707315c66912867a69d7198084814a
Reciphers for ciphertext: 0
Decipheredtext:           00000000000000000000000000001000
RESULT CIPHER-DECIPHER: -----OK-----


Test: 116
Hash algorithm: 1
Crypto pad: 1
Symmetric key bit length: 192
IV bit length:            128
Plaintext bit length:     128
Symmetric key:            000000000000000000000000000000000000000000000000
IV:                       00000000000000000000000000000000
Plaintext:                00000000000000000000000000000800
Ciphertext:               a76c323805f9c252c8b86c83294b9987a1202a56a1d59b5f7aaebbdc582c5a260c68942261a4f9fd4cec97c98eedd2e37dcabc72542b61fb27c47cdc712170d3
Reciphers for ciphertext: 0
Decipheredtext:           00000000000000000000000000000800
RESULT CIPHER-DECIPHER: -----OK-----


Test: 117
Hash algorithm: 4
Crypto pad: 2
Symmetric key bit length: 192
IV bit length:            128
Plaintext bit length:     128
Symmetric key:            000000000000000000000000000000000000000000000000
IV:                       00000000000000000000000000000000
Plaintext:                00000000000000000000000000000400
Ciphertext:               d8ca1075b7a3f2cf2dac0980b1b66cc12da273a939b9e4d4ccc8b4c466d3655ce93a25ce65f15179ad67a0f5a7522112eeecdfa5c53618539865eda3e14734d702b3b9b204401d928d3017f14cd20b6b015887e3d774a16a268c6e658ea0092ce29363b4fd2dcde53970ec728b3b3ed0
Reciphers for ciphertext: 0
Decipheredtext:           00000000000000000000000000000400
RESULT CIPHER-DECIPHER: -----OK-----


Test: 118
Hash algorithm: 2
Crypto pad: 1
Symmetric key bit length: 192
IV bit length:            128
Plaintext bit length:     128
Symmetric key:            000000000000000000000000000000000000000000000000
IV:                       00000000000000000000000000000000
Plaintext:                00000000000000000000000000000200
Ciphertext:               8206d89f2a07ba6403647fb85a2f4d7dbd022902df7cd3521604eb40d8bdb5965e0389f710b402977bf1e1509d2ec30a0de7969afa38bd05c6c49379fd0e6b8ac4606ebf3de3db592c803166822a7dfc
Reciphers for ciphertext: 0
Decipheredtext:           00000000000000000000000000000200
RESULT CIPHER-DECIPHER: -----OK-----


Test: 119
Hash algorithm: 12
Crypto pad: 0
Symmetric key bit length: 192
IV bit length:            128
Plaintext bit length:     128
Symmetric key:            000000000000000000000000000000000000000000000000
IV:                       00000000000000000000000000000000
Plaintext:                00000000000000000000000000000100
Ciphertext:               3de7573cd46d85488364472b038869f98ebb9730798e6815ffec189279cdbac2629295f3675b9f794b7035b52119302e39c13bc774e84093af85892f468fb7ef
Reciphers for ciphertext: 0
Decipheredtext:           00000000000000000000000000000100
RESULT CIPHER-DECIPHER: -----OK-----


Test: 120
Hash algorithm: 11
Crypto pad: 0
Symmetric key bit length: 192
IV bit length:            128
Plaintext bit length:     128
Symmetric key:            000000000000000000000000000000000000000000000000
IV:                       00000000000000000000000000000000
Plaintext:                00000000000000000000000000000080
Ciphertext:               31c62401d6e9e4995c0913747bfe7c7e964cebae8c0c5e8259a7d1532dfbd84e7fb762283df8055b269e4d772d1b9771e290e5a405e54067dcd452bbf6c80850
Reciphers for ciphertext: 0
Decipheredtext:           00000000000000000000000000000080
RESULT CIPHER-DECIPHER: -----OK-----


Test: 121
Hash algorithm: 10
Crypto pad: 2
Symmetric key bit length: 192
IV bit length:            128
Plaintext bit length:     128
Symmetric key:            000000000000000000000000000000000000000000000000
IV:                       00000000000000000000000000000000
Plaintext:                00000000000000000000000000000040
Ciphertext:               c464728025916b4e8d56e4a9f98c1a257d448a089eda6552e56eb4054404fa28a23e17ef0218f0b1a8360de7135316de50fa1669c0bb4655d4e5525bf8628e5cd140a0a8d12538d2970fabc1ab1fa736
Reciphers for ciphertext: 0
Decipheredtext:           00000000000000000000000000000040
RESULT CIPHER-DECIPHER: -----OK-----


Test: 122
Hash algorithm: 8
Crypto pad: 0
Symmetric key bit length: 192
IV bit length:            128
Plaintext bit length:     128
Symmetric key:            000000000000000000000000000000000000000000000000
IV:                       00000000000000000000000000000000
Plaintext:                00000000000000000000000000000020
Ciphertext:               0d4643ee09abd6d6062187789ae9a77da28439f93153232133e1525bf4476550c374f7517fc1786d85edf5a9bbd3c99348ecbccb2c65d77e80d44e46110e76a9
Reciphers for ciphertext: 0
Decipheredtext:           00000000000000000000000000000020
RESULT CIPHER-DECIPHER: -----OK-----


Test: 123
Hash algorithm: 10
Crypto pad: 2
Symmetric key bit length: 192
IV bit length:            128
Plaintext bit length:     128
Symmetric key:            000000000000000000000000000000000000000000000000
IV:                       00000000000000000000000000000000
Plaintext:                00000000000000000000000000000010
Ciphertext:               0c06eac3043abe6554c2da42f21e7b0510f362507a22b27e378df510d8e8a38feb74e79f434d3a21d124d01754feef4193d5b1c3302f5b200aafaa663545368a399959f2fcdda098ea376425c5072bc6
Reciphers for ciphertext: 0
Decipheredtext:           00000000000000000000000000000010
RESULT CIPHER-DECIPHER: -----OK-----


Test: 124
Hash algorithm: 6
Crypto pad: 0
Symmetric key bit length: 192
IV bit length:            128
Plaintext bit length:     128
Symmetric key:            000000000000000000000000000000000000000000000000
IV:                       00000000000000000000000000000000
Plaintext:                00000000000000000000000000000008
Ciphertext:               e26c6b2cbe2130729a5bf96e7cd29912e1aac71d9fc421ba941e6e854a9674d77918064a0d50082b5fba95d50e9f9f641156b64464fd66ec014e94b0bf8e8dbf9761501b55d191369ddc59cc2013da15
Reciphers for ciphertext: 0
Decipheredtext:           00000000000000000000000000000008
RESULT CIPHER-DECIPHER: -----OK-----


Test: 125
Hash algorithm: 8
Crypto pad: 0
Symmetric key bit length: 192
IV bit length:            128
Plaintext bit length:     128
Symmetric key:            000000000000000000000000000000000000000000000000
IV:                       00000000000000000000000000000000
Plaintext:                00000000000000000000000000000004
Ciphertext:               4de2b8fff3588a5d4e62cadb720e5bccbf1db00dc06f73171a03fe26280d3f5a425b53da596d58f9d6767322a35db55773d397281ccdf60ab3907d9e5b545b9f
Reciphers for ciphertext: 0
Decipheredtext:           00000000000000000000000000000004
RESULT CIPHER-DECIPHER: -----OK-----


Test: 126
Hash algorithm: 3
Crypto pad: 2
Symmetric key bit length: 192
IV bit length:            128
Plaintext bit length:     128
Symmetric key:            000000000000000000000000000000000000000000000000
IV:                       00000000000000000000000000000000
Plaintext:                00000000000000000000000000000002
Ciphertext:               b96dd46c6a286bff721693a98491f529dca0469254bd9e3ae1c7e1575d590ffd16d154b492e9e458f2402c9e7e4d64a3c045332fd00717c12e9cee7d2c21190a5f3b250c681149188454ffc0eeab1918d80828018a0c1a25b979f5d466c07fb0
Reciphers for ciphertext: 0
Decipheredtext:           00000000000000000000000000000002
RESULT CIPHER-DECIPHER: -----OK-----


Test: 127
Hash algorithm: 10
Crypto pad: 0
Symmetric key bit length: 192
IV bit length:            128
Plaintext bit length:     128
Symmetric key:            000000000000000000000000000000000000000000000000
IV:                       00000000000000000000000000000000
Plaintext:                00000000000000000000000000000001
Ciphertext:               64f1dbd3c79ee69ac9e0ed5f554f4ab6702bb588d17b230c0c278bc3aebc7863a6ea62fd675948325d38765f13febc908006e577122d99ab2d3569fb8f37d4dd8eb8f2ba7e6f3d970283742025a30589
Reciphers for ciphertext: 0
Decipheredtext:           00000000000000000000000000000001
RESULT CIPHER-DECIPHER: -----OK-----


 DATA SHA1 (hexadecimal): 0b541b2434be6233e09d3ed307117695d201ccac

