
DiceLock 9.0.0.1

 TEST COMPONENTS:
 ----------------
 DiceLock:           DiceLockIVIndexed class
 Operation Mode:     OFB_Mode class
 Block Cipher:       Twofish192 class
 Key Modifier:       DecreaseBase0IndexModifier_6_0_0_1 class
   Index bit length: 192
 Random tests:       RandomTestSuite class
                     FrequencyTest class
                     BlockFrequencyTest class
                     CumulativeSumForwardTest class
                     LongestRunOfOnesTest class
                     RunsTest class
 Random alpha:       0.001

 VECTOR TEST: Test vector 1 - Changing IV, shifting 1 bit set


##### INDIVIDUAL TESTS #####

Number tests: 128


Test: 0
Symmetric key bit length: 192
IV bit length:            128
Plaintext bit length:     128
Symmetric key:            000000000000000000000000000000000000000000000000
IV:                       80000000000000000000000000000000
Plaintext:                00000000000000000000000000000000
Ciphertext:               62ef193edb7d399aca50ec1cbe5398d8d9f12b15e8d3149462ef193edb7d399aca50ec1cbe5398d8
Reciphers for ciphertext: 0
Decipheredtext:           00000000000000000000000000000000
RESULT CIPHER-DECIPHER: -----OK-----


Test: 1
Symmetric key bit length: 192
IV bit length:            128
Plaintext bit length:     128
Symmetric key:            000000000000000000000000000000000000000000000000
IV:                       40000000000000000000000000000000
Plaintext:                00000000000000000000000000000000
Ciphertext:               e7a58d547688ba8b69da949e38aa6fad315e10b7b278be56e7a58d547688ba8b69da949e38aa6fad
Reciphers for ciphertext: 0
Decipheredtext:           00000000000000000000000000000000
RESULT CIPHER-DECIPHER: -----OK-----


Test: 2
Symmetric key bit length: 192
IV bit length:            128
Plaintext bit length:     128
Symmetric key:            000000000000000000000000000000000000000000000000
IV:                       20000000000000000000000000000000
Plaintext:                00000000000000000000000000000000
Ciphertext:               71579f70a8edb2ba5c00c513e2d7deeb8bfa2686ad7d60e071579f70a8edb2ba5c00c513e2d7deeb
Reciphers for ciphertext: 0
Decipheredtext:           00000000000000000000000000000000
RESULT CIPHER-DECIPHER: -----OK-----


Test: 3
Symmetric key bit length: 192
IV bit length:            128
Plaintext bit length:     128
Symmetric key:            000000000000000000000000000000000000000000000000
IV:                       10000000000000000000000000000000
Plaintext:                00000000000000000000000000000000
Ciphertext:               c6171ef892f8224dc5fae230af629f521f8f90c8c8688ab9c6171ef892f8224dc5fae230af629f52
Reciphers for ciphertext: 0
Decipheredtext:           00000000000000000000000000000000
RESULT CIPHER-DECIPHER: -----OK-----


Test: 4
Symmetric key bit length: 192
IV bit length:            128
Plaintext bit length:     128
Symmetric key:            000000000000000000000000000000000000000000000000
IV:                       08000000000000000000000000000000
Plaintext:                00000000000000000000000000000000
Ciphertext:               c6a61053c48d7ecd7ddd12db0f316ad70f00ce7249c9876ac6a61053c48d7ecd7ddd12db0f316ad7
Reciphers for ciphertext: 0
Decipheredtext:           00000000000000000000000000000000
RESULT CIPHER-DECIPHER: -----OK-----


Test: 5
Symmetric key bit length: 192
IV bit length:            128
Plaintext bit length:     128
Symmetric key:            000000000000000000000000000000000000000000000000
IV:                       04000000000000000000000000000000
Plaintext:                00000000000000000000000000000000
Ciphertext:               ea5833714f1324dab7f53cacc63f784f6da6cd02562d6863ea5833714f1324dab7f53cacc63f784f
Reciphers for ciphertext: 0
Decipheredtext:           00000000000000000000000000000000
RESULT CIPHER-DECIPHER: -----OK-----


Test: 6
Symmetric key bit length: 192
IV bit length:            128
Plaintext bit length:     128
Symmetric key:            000000000000000000000000000000000000000000000000
IV:                       02000000000000000000000000000000
Plaintext:                00000000000000000000000000000000
Ciphertext:               450bcb0c7351cb1cdac5d02e80d13c64c9419e11be0dd8a8450bcb0c7351cb1cdac5d02e80d13c64
Reciphers for ciphertext: 0
Decipheredtext:           00000000000000000000000000000000
RESULT CIPHER-DECIPHER: -----OK-----


Test: 7
Symmetric key bit length: 192
IV bit length:            128
Plaintext bit length:     128
Symmetric key:            000000000000000000000000000000000000000000000000
IV:                       01000000000000000000000000000000
Plaintext:                00000000000000000000000000000000
Ciphertext:               c267d3634f84215fb7b4635afa385e520f7b2436a0df89f5c267d3634f84215fb7b4635afa385e52
Reciphers for ciphertext: 0
Decipheredtext:           00000000000000000000000000000000
RESULT CIPHER-DECIPHER: -----OK-----


Test: 8
Symmetric key bit length: 192
IV bit length:            128
Plaintext bit length:     128
Symmetric key:            000000000000000000000000000000000000000000000000
IV:                       00800000000000000000000000000000
Plaintext:                00000000000000000000000000000000
Ciphertext:               924a4e4ea925e3c94654a54a64f9c3d6e7f5bb6c7363d1d2d2814b317a4979eb581a730c46a7d7f1
Reciphers for ciphertext: 1
Decipheredtext:           00000000000000000000000000000000
RESULT CIPHER-DECIPHER: -----OK-----


Test: 9
Symmetric key bit length: 192
IV bit length:            128
Plaintext bit length:     128
Symmetric key:            000000000000000000000000000000000000000000000000
IV:                       00400000000000000000000000000000
Plaintext:                00000000000000000000000000000000
Ciphertext:               edf2d9b19ff75561e8fa6f411c4a04310f1e9abffbc6e30dedf2d9b19ff75561e8fa6f411c4a0431
Reciphers for ciphertext: 0
Decipheredtext:           00000000000000000000000000000000
RESULT CIPHER-DECIPHER: -----OK-----


Test: 10
Symmetric key bit length: 192
IV bit length:            128
Plaintext bit length:     128
Symmetric key:            000000000000000000000000000000000000000000000000
IV:                       00200000000000000000000000000000
Plaintext:                00000000000000000000000000000000
Ciphertext:               a11ae84e6d2c56ded2b9497fec7504a79897fd19b72a8862a11ae84e6d2c56ded2b9497fec7504a7
Reciphers for ciphertext: 0
Decipheredtext:           00000000000000000000000000000000
RESULT CIPHER-DECIPHER: -----OK-----


Test: 11
Symmetric key bit length: 192
IV bit length:            128
Plaintext bit length:     128
Symmetric key:            000000000000000000000000000000000000000000000000
IV:                       00100000000000000000000000000000
Plaintext:                00000000000000000000000000000000
Ciphertext:               b3a1a1e271bf94da3a5ecff1d4293a56f96183d6b7f7f16fb3a1a1e271bf94da3a5ecff1d4293a56
Reciphers for ciphertext: 0
Decipheredtext:           00000000000000000000000000000000
RESULT CIPHER-DECIPHER: -----OK-----


Test: 12
Symmetric key bit length: 192
IV bit length:            128
Plaintext bit length:     128
Symmetric key:            000000000000000000000000000000000000000000000000
IV:                       00080000000000000000000000000000
Plaintext:                00000000000000000000000000000000
Ciphertext:               5577374adcf2f58eeeffc432c42aeb76b59370db7267327f5577374adcf2f58eeeffc432c42aeb76
Reciphers for ciphertext: 0
Decipheredtext:           00000000000000000000000000000000
RESULT CIPHER-DECIPHER: -----OK-----


Test: 13
Symmetric key bit length: 192
IV bit length:            128
Plaintext bit length:     128
Symmetric key:            000000000000000000000000000000000000000000000000
IV:                       00040000000000000000000000000000
Plaintext:                00000000000000000000000000000000
Ciphertext:               cd9d355c3574343bc7fbe645ce7ea7217aeaab358e7b94d4cd9d355c3574343bc7fbe645ce7ea721
Reciphers for ciphertext: 0
Decipheredtext:           00000000000000000000000000000000
RESULT CIPHER-DECIPHER: -----OK-----


Test: 14
Symmetric key bit length: 192
IV bit length:            128
Plaintext bit length:     128
Symmetric key:            000000000000000000000000000000000000000000000000
IV:                       00020000000000000000000000000000
Plaintext:                00000000000000000000000000000000
Ciphertext:               76eb4c046f052ae4ed41060bf60067fb6873feecb0ff8b7b76eb4c046f052ae4ed41060bf60067fb
Reciphers for ciphertext: 0
Decipheredtext:           00000000000000000000000000000000
RESULT CIPHER-DECIPHER: -----OK-----


Test: 15
Symmetric key bit length: 192
IV bit length:            128
Plaintext bit length:     128
Symmetric key:            000000000000000000000000000000000000000000000000
IV:                       00010000000000000000000000000000
Plaintext:                00000000000000000000000000000000
Ciphertext:               1273a4bc420bcc9e29619567b1e617622956359f994314bf1273a4bc420bcc9e29619567b1e61762
Reciphers for ciphertext: 0
Decipheredtext:           00000000000000000000000000000000
RESULT CIPHER-DECIPHER: -----OK-----


Test: 16
Symmetric key bit length: 192
IV bit length:            128
Plaintext bit length:     128
Symmetric key:            000000000000000000000000000000000000000000000000
IV:                       00008000000000000000000000000000
Plaintext:                00000000000000000000000000000000
Ciphertext:               1f80e1ce3f12c96f2e647bacb6da78d8985f82bc9c8225661f80e1ce3f12c96f2e647bacb6da78d8
Reciphers for ciphertext: 0
Decipheredtext:           00000000000000000000000000000000
RESULT CIPHER-DECIPHER: -----OK-----


Test: 17
Symmetric key bit length: 192
IV bit length:            128
Plaintext bit length:     128
Symmetric key:            000000000000000000000000000000000000000000000000
IV:                       00004000000000000000000000000000
Plaintext:                00000000000000000000000000000000
Ciphertext:               12d34a7875e716b37a7e250d37affdea5b284b4f535d1f1b12d34a7875e716b37a7e250d37affdea
Reciphers for ciphertext: 0
Decipheredtext:           00000000000000000000000000000000
RESULT CIPHER-DECIPHER: -----OK-----


Test: 18
Symmetric key bit length: 192
IV bit length:            128
Plaintext bit length:     128
Symmetric key:            000000000000000000000000000000000000000000000000
IV:                       00002000000000000000000000000000
Plaintext:                00000000000000000000000000000000
Ciphertext:               5a54d764eeffc4b64143a58b071514b43cfa0fada4d5686b5a54d764eeffc4b64143a58b071514b4
Reciphers for ciphertext: 0
Decipheredtext:           00000000000000000000000000000000
RESULT CIPHER-DECIPHER: -----OK-----


Test: 19
Symmetric key bit length: 192
IV bit length:            128
Plaintext bit length:     128
Symmetric key:            000000000000000000000000000000000000000000000000
IV:                       00001000000000000000000000000000
Plaintext:                00000000000000000000000000000000
Ciphertext:               f4f1567bdc5b1f938d5a214419090fe0ad065841eac1b55af4f1567bdc5b1f938d5a214419090fe0
Reciphers for ciphertext: 0
Decipheredtext:           00000000000000000000000000000000
RESULT CIPHER-DECIPHER: -----OK-----


Test: 20
Symmetric key bit length: 192
IV bit length:            128
Plaintext bit length:     128
Symmetric key:            000000000000000000000000000000000000000000000000
IV:                       00000800000000000000000000000000
Plaintext:                00000000000000000000000000000000
Ciphertext:               6cb91b935a0fbf49636cdf64a12955b7a5735fef3f77a7ef6cb91b935a0fbf49636cdf64a12955b7
Reciphers for ciphertext: 0
Decipheredtext:           00000000000000000000000000000000
RESULT CIPHER-DECIPHER: -----OK-----


Test: 21
Symmetric key bit length: 192
IV bit length:            128
Plaintext bit length:     128
Symmetric key:            000000000000000000000000000000000000000000000000
IV:                       00000400000000000000000000000000
Plaintext:                00000000000000000000000000000000
Ciphertext:               c082154a07af64ff6eca811b0e3302e6c5cab7c0a3341e61c082154a07af64ff6eca811b0e3302e6
Reciphers for ciphertext: 0
Decipheredtext:           00000000000000000000000000000000
RESULT CIPHER-DECIPHER: -----OK-----


Test: 22
Symmetric key bit length: 192
IV bit length:            128
Plaintext bit length:     128
Symmetric key:            000000000000000000000000000000000000000000000000
IV:                       00000200000000000000000000000000
Plaintext:                00000000000000000000000000000000
Ciphertext:               49a746cc225c1b6009a93649cdd9edcd38371ee1524fa0d449a746cc225c1b6009a93649cdd9edcd
Reciphers for ciphertext: 0
Decipheredtext:           00000000000000000000000000000000
RESULT CIPHER-DECIPHER: -----OK-----


Test: 23
Symmetric key bit length: 192
IV bit length:            128
Plaintext bit length:     128
Symmetric key:            000000000000000000000000000000000000000000000000
IV:                       00000100000000000000000000000000
Plaintext:                00000000000000000000000000000000
Ciphertext:               1cad0512e3cc51210b411ee452df62e42a975cccc8bf554f1cad0512e3cc51210b411ee452df62e4
Reciphers for ciphertext: 0
Decipheredtext:           00000000000000000000000000000000
RESULT CIPHER-DECIPHER: -----OK-----


Test: 24
Symmetric key bit length: 192
IV bit length:            128
Plaintext bit length:     128
Symmetric key:            000000000000000000000000000000000000000000000000
IV:                       00000080000000000000000000000000
Plaintext:                00000000000000000000000000000000
Ciphertext:               4fe9a0cf34bbcfff906d8450197cc9d1bf64f486e16cd8e04fe9a0cf34bbcfff906d8450197cc9d1
Reciphers for ciphertext: 0
Decipheredtext:           00000000000000000000000000000000
RESULT CIPHER-DECIPHER: -----OK-----


Test: 25
Symmetric key bit length: 192
IV bit length:            128
Plaintext bit length:     128
Symmetric key:            000000000000000000000000000000000000000000000000
IV:                       00000040000000000000000000000000
Plaintext:                00000000000000000000000000000000
Ciphertext:               38db8ef6c8993f17bb4d1614b9de15d450be0fccd2e7fcf838db8ef6c8993f17bb4d1614b9de15d4
Reciphers for ciphertext: 0
Decipheredtext:           00000000000000000000000000000000
RESULT CIPHER-DECIPHER: -----OK-----


Test: 26
Symmetric key bit length: 192
IV bit length:            128
Plaintext bit length:     128
Symmetric key:            000000000000000000000000000000000000000000000000
IV:                       00000020000000000000000000000000
Plaintext:                00000000000000000000000000000000
Ciphertext:               08db3f476f551d19d9643a9e139e0553285d4425046563cf08db3f476f551d19d9643a9e139e0553
Reciphers for ciphertext: 0
Decipheredtext:           00000000000000000000000000000000
RESULT CIPHER-DECIPHER: -----OK-----


Test: 27
Symmetric key bit length: 192
IV bit length:            128
Plaintext bit length:     128
Symmetric key:            000000000000000000000000000000000000000000000000
IV:                       00000010000000000000000000000000
Plaintext:                00000000000000000000000000000000
Ciphertext:               f0f518f73795ab51bfb6e0aa99a0dac77bccbf3d4005c781f0f518f73795ab51bfb6e0aa99a0dac7
Reciphers for ciphertext: 0
Decipheredtext:           00000000000000000000000000000000
RESULT CIPHER-DECIPHER: -----OK-----


Test: 28
Symmetric key bit length: 192
IV bit length:            128
Plaintext bit length:     128
Symmetric key:            000000000000000000000000000000000000000000000000
IV:                       00000008000000000000000000000000
Plaintext:                00000000000000000000000000000000
Ciphertext:               91544d597f679e7dfe6d16d4758098518dcdbf4c711d78b791544d597f679e7dfe6d16d475809851
Reciphers for ciphertext: 0
Decipheredtext:           00000000000000000000000000000000
RESULT CIPHER-DECIPHER: -----OK-----


Test: 29
Symmetric key bit length: 192
IV bit length:            128
Plaintext bit length:     128
Symmetric key:            000000000000000000000000000000000000000000000000
IV:                       00000004000000000000000000000000
Plaintext:                00000000000000000000000000000000
Ciphertext:               b1f92601b6d8c6b81176a46ee7341d28a046be5c3655626bb1f92601b6d8c6b81176a46ee7341d28
Reciphers for ciphertext: 0
Decipheredtext:           00000000000000000000000000000000
RESULT CIPHER-DECIPHER: -----OK-----


Test: 30
Symmetric key bit length: 192
IV bit length:            128
Plaintext bit length:     128
Symmetric key:            000000000000000000000000000000000000000000000000
IV:                       00000002000000000000000000000000
Plaintext:                00000000000000000000000000000000
Ciphertext:               796c3a8cbc6450e51fa6f8765acd0f1034a5425324e46673796c3a8cbc6450e51fa6f8765acd0f10
Reciphers for ciphertext: 0
Decipheredtext:           00000000000000000000000000000000
RESULT CIPHER-DECIPHER: -----OK-----


Test: 31
Symmetric key bit length: 192
IV bit length:            128
Plaintext bit length:     128
Symmetric key:            000000000000000000000000000000000000000000000000
IV:                       00000001000000000000000000000000
Plaintext:                00000000000000000000000000000000
Ciphertext:               a084018e42d17ea66225cbee43e35a8636e0d02288601401623045535eff14eeb10272c5b2e5cfaa
Reciphers for ciphertext: 1
Decipheredtext:           00000000000000000000000000000000
RESULT CIPHER-DECIPHER: -----OK-----


Test: 32
Symmetric key bit length: 192
IV bit length:            128
Plaintext bit length:     128
Symmetric key:            000000000000000000000000000000000000000000000000
IV:                       00000000800000000000000000000000
Plaintext:                00000000000000000000000000000000
Ciphertext:               2df7d576ec6296101cab16012092c12c76a67143d53a33a42df7d576ec6296101cab16012092c12c
Reciphers for ciphertext: 0
Decipheredtext:           00000000000000000000000000000000
RESULT CIPHER-DECIPHER: -----OK-----


Test: 33
Symmetric key bit length: 192
IV bit length:            128
Plaintext bit length:     128
Symmetric key:            000000000000000000000000000000000000000000000000
IV:                       00000000400000000000000000000000
Plaintext:                00000000000000000000000000000000
Ciphertext:               20769de071fbe22ae49e7b3f5d6464182097605ac90fbc3120769de071fbe22ae49e7b3f5d646418
Reciphers for ciphertext: 0
Decipheredtext:           00000000000000000000000000000000
RESULT CIPHER-DECIPHER: -----OK-----


Test: 34
Symmetric key bit length: 192
IV bit length:            128
Plaintext bit length:     128
Symmetric key:            000000000000000000000000000000000000000000000000
IV:                       00000000200000000000000000000000
Plaintext:                00000000000000000000000000000000
Ciphertext:               b6f5c012e4ba15dc86536f328b137fc00f76b689df45f223b6f5c012e4ba15dc86536f328b137fc0
Reciphers for ciphertext: 0
Decipheredtext:           00000000000000000000000000000000
RESULT CIPHER-DECIPHER: -----OK-----


Test: 35
Symmetric key bit length: 192
IV bit length:            128
Plaintext bit length:     128
Symmetric key:            000000000000000000000000000000000000000000000000
IV:                       00000000100000000000000000000000
Plaintext:                00000000000000000000000000000000
Ciphertext:               1c3031dd05eaa4c278b55ef0e7e4c1f93b9cf7a8fa0f58b71c3031dd05eaa4c278b55ef0e7e4c1f9
Reciphers for ciphertext: 0
Decipheredtext:           00000000000000000000000000000000
RESULT CIPHER-DECIPHER: -----OK-----


Test: 36
Symmetric key bit length: 192
IV bit length:            128
Plaintext bit length:     128
Symmetric key:            000000000000000000000000000000000000000000000000
IV:                       00000000080000000000000000000000
Plaintext:                00000000000000000000000000000000
Ciphertext:               3d72a53bd537d04ac59e0af36d105ed9eb7bfb89cef79f493d72a53bd537d04ac59e0af36d105ed9
Reciphers for ciphertext: 0
Decipheredtext:           00000000000000000000000000000000
RESULT CIPHER-DECIPHER: -----OK-----


Test: 37
Symmetric key bit length: 192
IV bit length:            128
Plaintext bit length:     128
Symmetric key:            000000000000000000000000000000000000000000000000
IV:                       00000000040000000000000000000000
Plaintext:                00000000000000000000000000000000
Ciphertext:               a6ffe499a2050c38f4e89dbf12b27430e0f3ee28c7568910a6ffe499a2050c38f4e89dbf12b27430
Reciphers for ciphertext: 0
Decipheredtext:           00000000000000000000000000000000
RESULT CIPHER-DECIPHER: -----OK-----


Test: 38
Symmetric key bit length: 192
IV bit length:            128
Plaintext bit length:     128
Symmetric key:            000000000000000000000000000000000000000000000000
IV:                       00000000020000000000000000000000
Plaintext:                00000000000000000000000000000000
Ciphertext:               bfbb2a537b2c1339d6230f35a256f28960e1aa044a60e596bfbb2a537b2c1339d6230f35a256f289
Reciphers for ciphertext: 0
Decipheredtext:           00000000000000000000000000000000
RESULT CIPHER-DECIPHER: -----OK-----


Test: 39
Symmetric key bit length: 192
IV bit length:            128
Plaintext bit length:     128
Symmetric key:            000000000000000000000000000000000000000000000000
IV:                       00000000010000000000000000000000
Plaintext:                00000000000000000000000000000000
Ciphertext:               70e79718c97ddb187411436ac072b148b84d2f9c6d4a9f0a70e79718c97ddb187411436ac072b148
Reciphers for ciphertext: 0
Decipheredtext:           00000000000000000000000000000000
RESULT CIPHER-DECIPHER: -----OK-----


Test: 40
Symmetric key bit length: 192
IV bit length:            128
Plaintext bit length:     128
Symmetric key:            000000000000000000000000000000000000000000000000
IV:                       00000000008000000000000000000000
Plaintext:                00000000000000000000000000000000
Ciphertext:               13bb56699085842b81dbe8faa8b26269ef805447d1d9b21813bb56699085842b81dbe8faa8b26269
Reciphers for ciphertext: 0
Decipheredtext:           00000000000000000000000000000000
RESULT CIPHER-DECIPHER: -----OK-----


Test: 41
Symmetric key bit length: 192
IV bit length:            128
Plaintext bit length:     128
Symmetric key:            000000000000000000000000000000000000000000000000
IV:                       00000000004000000000000000000000
Plaintext:                00000000000000000000000000000000
Ciphertext:               c1b248e4638c838075109cd5a52109e24c1fd37920c088855ff531f205d492ae9f485ef938735f3e
Reciphers for ciphertext: 1
Decipheredtext:           00000000000000000000000000000000
RESULT CIPHER-DECIPHER: -----OK-----


Test: 42
Symmetric key bit length: 192
IV bit length:            128
Plaintext bit length:     128
Symmetric key:            000000000000000000000000000000000000000000000000
IV:                       00000000002000000000000000000000
Plaintext:                00000000000000000000000000000000
Ciphertext:               285dab48cbe3898838d06218d65c4487498585d7208db00c21a45f42fc3c07f98a6563b22dfb0d42
Reciphers for ciphertext: 1
Decipheredtext:           00000000000000000000000000000000
RESULT CIPHER-DECIPHER: -----OK-----


Test: 43
Symmetric key bit length: 192
IV bit length:            128
Plaintext bit length:     128
Symmetric key:            000000000000000000000000000000000000000000000000
IV:                       00000000001000000000000000000000
Plaintext:                00000000000000000000000000000000
Ciphertext:               527d14e58b74224622df7f3fd65932f5701a3fbffcb9136c527d14e58b74224622df7f3fd65932f5
Reciphers for ciphertext: 0
Decipheredtext:           00000000000000000000000000000000
RESULT CIPHER-DECIPHER: -----OK-----


Test: 44
Symmetric key bit length: 192
IV bit length:            128
Plaintext bit length:     128
Symmetric key:            000000000000000000000000000000000000000000000000
IV:                       00000000000800000000000000000000
Plaintext:                00000000000000000000000000000000
Ciphertext:               708703993ad1dde5c7f8714686f3af326c9e4f1ad8a35dfb708703993ad1dde5c7f8714686f3af32
Reciphers for ciphertext: 0
Decipheredtext:           00000000000000000000000000000000
RESULT CIPHER-DECIPHER: -----OK-----


Test: 45
Symmetric key bit length: 192
IV bit length:            128
Plaintext bit length:     128
Symmetric key:            000000000000000000000000000000000000000000000000
IV:                       00000000000400000000000000000000
Plaintext:                00000000000000000000000000000000
Ciphertext:               c57d3ecb71a7da4708de6f338bc13e093df7a8d7aeca591bc57d3ecb71a7da4708de6f338bc13e09
Reciphers for ciphertext: 0
Decipheredtext:           00000000000000000000000000000000
RESULT CIPHER-DECIPHER: -----OK-----


Test: 46
Symmetric key bit length: 192
IV bit length:            128
Plaintext bit length:     128
Symmetric key:            000000000000000000000000000000000000000000000000
IV:                       00000000000200000000000000000000
Plaintext:                00000000000000000000000000000000
Ciphertext:               4ce009f41f023e8ffe3507803803f4d2f8b579e4214d001915347093b40453f82ba469df60e03b03
Reciphers for ciphertext: 1
Decipheredtext:           00000000000000000000000000000000
RESULT CIPHER-DECIPHER: -----OK-----


Test: 47
Symmetric key bit length: 192
IV bit length:            128
Plaintext bit length:     128
Symmetric key:            000000000000000000000000000000000000000000000000
IV:                       00000000000100000000000000000000
Plaintext:                00000000000000000000000000000000
Ciphertext:               01877ac646a283472da74182fdc1e2b584f100ce4bdcef6701877ac646a283472da74182fdc1e2b5
Reciphers for ciphertext: 0
Decipheredtext:           00000000000000000000000000000000
RESULT CIPHER-DECIPHER: -----OK-----


Test: 48
Symmetric key bit length: 192
IV bit length:            128
Plaintext bit length:     128
Symmetric key:            000000000000000000000000000000000000000000000000
IV:                       00000000000080000000000000000000
Plaintext:                00000000000000000000000000000000
Ciphertext:               3c678bada3fb1b872c018dc035ae16e8977cf6cd557891313c678bada3fb1b872c018dc035ae16e8
Reciphers for ciphertext: 0
Decipheredtext:           00000000000000000000000000000000
RESULT CIPHER-DECIPHER: -----OK-----


Test: 49
Symmetric key bit length: 192
IV bit length:            128
Plaintext bit length:     128
Symmetric key:            000000000000000000000000000000000000000000000000
IV:                       00000000000040000000000000000000
Plaintext:                00000000000000000000000000000000
Ciphertext:               a2cb209da6aa40e043e6fb9dd2476100a57df452b52e6d1ca2cb209da6aa40e043e6fb9dd2476100
Reciphers for ciphertext: 0
Decipheredtext:           00000000000000000000000000000000
RESULT CIPHER-DECIPHER: -----OK-----


Test: 50
Symmetric key bit length: 192
IV bit length:            128
Plaintext bit length:     128
Symmetric key:            000000000000000000000000000000000000000000000000
IV:                       00000000000020000000000000000000
Plaintext:                00000000000000000000000000000000
Ciphertext:               b06bfd00a92fb3704c8241e5cef62d213c4352b03fc386e7c5fbffef36d594bcde35f7b01e103b8d
Reciphers for ciphertext: 1
Decipheredtext:           00000000000000000000000000000000
RESULT CIPHER-DECIPHER: -----OK-----


Test: 51
Symmetric key bit length: 192
IV bit length:            128
Plaintext bit length:     128
Symmetric key:            000000000000000000000000000000000000000000000000
IV:                       00000000000010000000000000000000
Plaintext:                00000000000000000000000000000000
Ciphertext:               342daad90f0f1699048d5cd16fda2ec757a524e5b23f30c9342daad90f0f1699048d5cd16fda2ec7
Reciphers for ciphertext: 0
Decipheredtext:           00000000000000000000000000000000
RESULT CIPHER-DECIPHER: -----OK-----


Test: 52
Symmetric key bit length: 192
IV bit length:            128
Plaintext bit length:     128
Symmetric key:            000000000000000000000000000000000000000000000000
IV:                       00000000000008000000000000000000
Plaintext:                00000000000000000000000000000000
Ciphertext:               e68cc86ca4d952bc3890aec0a7aaa4b5b4b14144f4ae3d67e68cc86ca4d952bc3890aec0a7aaa4b5
Reciphers for ciphertext: 0
Decipheredtext:           00000000000000000000000000000000
RESULT CIPHER-DECIPHER: -----OK-----


Test: 53
Symmetric key bit length: 192
IV bit length:            128
Plaintext bit length:     128
Symmetric key:            000000000000000000000000000000000000000000000000
IV:                       00000000000004000000000000000000
Plaintext:                00000000000000000000000000000000
Ciphertext:               02a88364bf94a677124f670a566e3f0dafcec9b5022719c402a88364bf94a677124f670a566e3f0d
Reciphers for ciphertext: 0
Decipheredtext:           00000000000000000000000000000000
RESULT CIPHER-DECIPHER: -----OK-----


Test: 54
Symmetric key bit length: 192
IV bit length:            128
Plaintext bit length:     128
Symmetric key:            000000000000000000000000000000000000000000000000
IV:                       00000000000002000000000000000000
Plaintext:                00000000000000000000000000000000
Ciphertext:               c961ef325e2a32a4359cc63be1ee2c77710c8be1eb39269ec961ef325e2a32a4359cc63be1ee2c77
Reciphers for ciphertext: 0
Decipheredtext:           00000000000000000000000000000000
RESULT CIPHER-DECIPHER: -----OK-----


Test: 55
Symmetric key bit length: 192
IV bit length:            128
Plaintext bit length:     128
Symmetric key:            000000000000000000000000000000000000000000000000
IV:                       00000000000001000000000000000000
Plaintext:                00000000000000000000000000000000
Ciphertext:               03bf43c9083e4d9919d12fe5c0315e672deb2f5004c8400b03bf43c9083e4d9919d12fe5c0315e67
Reciphers for ciphertext: 0
Decipheredtext:           00000000000000000000000000000000
RESULT CIPHER-DECIPHER: -----OK-----


Test: 56
Symmetric key bit length: 192
IV bit length:            128
Plaintext bit length:     128
Symmetric key:            000000000000000000000000000000000000000000000000
IV:                       00000000000000800000000000000000
Plaintext:                00000000000000000000000000000000
Ciphertext:               b27063442470be07dcc2256ec71a4f1a4053da3fa3a20eb2b27063442470be07dcc2256ec71a4f1a
Reciphers for ciphertext: 0
Decipheredtext:           00000000000000000000000000000000
RESULT CIPHER-DECIPHER: -----OK-----


Test: 57
Symmetric key bit length: 192
IV bit length:            128
Plaintext bit length:     128
Symmetric key:            000000000000000000000000000000000000000000000000
IV:                       00000000000000400000000000000000
Plaintext:                00000000000000000000000000000000
Ciphertext:               222cc5a29084a4bdb05d4c2fd95648dfebc1f7d806807bcc222cc5a29084a4bdb05d4c2fd95648df
Reciphers for ciphertext: 0
Decipheredtext:           00000000000000000000000000000000
RESULT CIPHER-DECIPHER: -----OK-----


Test: 58
Symmetric key bit length: 192
IV bit length:            128
Plaintext bit length:     128
Symmetric key:            000000000000000000000000000000000000000000000000
IV:                       00000000000000200000000000000000
Plaintext:                00000000000000000000000000000000
Ciphertext:               e08686bfaa936e1890aeec834e3b474a49f56f135254a2e8e08686bfaa936e1890aeec834e3b474a
Reciphers for ciphertext: 0
Decipheredtext:           00000000000000000000000000000000
RESULT CIPHER-DECIPHER: -----OK-----


Test: 59
Symmetric key bit length: 192
IV bit length:            128
Plaintext bit length:     128
Symmetric key:            000000000000000000000000000000000000000000000000
IV:                       00000000000000100000000000000000
Plaintext:                00000000000000000000000000000000
Ciphertext:               10dc4ffcac5f5a1fb668277e8e75beab725e33e13faaab4410dc4ffcac5f5a1fb668277e8e75beab
Reciphers for ciphertext: 0
Decipheredtext:           00000000000000000000000000000000
RESULT CIPHER-DECIPHER: -----OK-----


Test: 60
Symmetric key bit length: 192
IV bit length:            128
Plaintext bit length:     128
Symmetric key:            000000000000000000000000000000000000000000000000
IV:                       00000000000000080000000000000000
Plaintext:                00000000000000000000000000000000
Ciphertext:               03a9199978f9d652a4c528ff86c39ce98c53e57112bafbfd03a9199978f9d652a4c528ff86c39ce9
Reciphers for ciphertext: 0
Decipheredtext:           00000000000000000000000000000000
RESULT CIPHER-DECIPHER: -----OK-----


Test: 61
Symmetric key bit length: 192
IV bit length:            128
Plaintext bit length:     128
Symmetric key:            000000000000000000000000000000000000000000000000
IV:                       00000000000000040000000000000000
Plaintext:                00000000000000000000000000000000
Ciphertext:               ddf718a1beb37cc1b0905520db7c16114d8a0d9be36183b2ddf718a1beb37cc1b0905520db7c1611
Reciphers for ciphertext: 0
Decipheredtext:           00000000000000000000000000000000
RESULT CIPHER-DECIPHER: -----OK-----


Test: 62
Symmetric key bit length: 192
IV bit length:            128
Plaintext bit length:     128
Symmetric key:            000000000000000000000000000000000000000000000000
IV:                       00000000000000020000000000000000
Plaintext:                00000000000000000000000000000000
Ciphertext:               2072191c277ee40fd557ff5f67a2a546e85a3f350ee3eb532072191c277ee40fd557ff5f67a2a546
Reciphers for ciphertext: 0
Decipheredtext:           00000000000000000000000000000000
RESULT CIPHER-DECIPHER: -----OK-----


Test: 63
Symmetric key bit length: 192
IV bit length:            128
Plaintext bit length:     128
Symmetric key:            000000000000000000000000000000000000000000000000
IV:                       00000000000000010000000000000000
Plaintext:                00000000000000000000000000000000
Ciphertext:               96b3608c06112f619b156105eb082bbec9a0ce48ad99d2bc96b3608c06112f619b156105eb082bbe
Reciphers for ciphertext: 0
Decipheredtext:           00000000000000000000000000000000
RESULT CIPHER-DECIPHER: -----OK-----


Test: 64
Symmetric key bit length: 192
IV bit length:            128
Plaintext bit length:     128
Symmetric key:            000000000000000000000000000000000000000000000000
IV:                       00000000000000008000000000000000
Plaintext:                00000000000000000000000000000000
Ciphertext:               b5d919dfd9828c4ff4427e72abfc77b25bb6162fe091370ab5d919dfd9828c4ff4427e72abfc77b2
Reciphers for ciphertext: 0
Decipheredtext:           00000000000000000000000000000000
RESULT CIPHER-DECIPHER: -----OK-----


Test: 65
Symmetric key bit length: 192
IV bit length:            128
Plaintext bit length:     128
Symmetric key:            000000000000000000000000000000000000000000000000
IV:                       00000000000000004000000000000000
Plaintext:                00000000000000000000000000000000
Ciphertext:               9570e7a96d4674c800af8dcd01deff64998228c3e3da77cf9570e7a96d4674c800af8dcd01deff64
Reciphers for ciphertext: 0
Decipheredtext:           00000000000000000000000000000000
RESULT CIPHER-DECIPHER: -----OK-----


Test: 66
Symmetric key bit length: 192
IV bit length:            128
Plaintext bit length:     128
Symmetric key:            000000000000000000000000000000000000000000000000
IV:                       00000000000000002000000000000000
Plaintext:                00000000000000000000000000000000
Ciphertext:               59723db66edb29a9c81175668903777f46bafe973ca309a459723db66edb29a9c81175668903777f
Reciphers for ciphertext: 0
Decipheredtext:           00000000000000000000000000000000
RESULT CIPHER-DECIPHER: -----OK-----


Test: 67
Symmetric key bit length: 192
IV bit length:            128
Plaintext bit length:     128
Symmetric key:            000000000000000000000000000000000000000000000000
IV:                       00000000000000001000000000000000
Plaintext:                00000000000000000000000000000000
Ciphertext:               1779bdfac6db722bcaf4d3a8d9d2e725954451720a1742bd1779bdfac6db722bcaf4d3a8d9d2e725
Reciphers for ciphertext: 0
Decipheredtext:           00000000000000000000000000000000
RESULT CIPHER-DECIPHER: -----OK-----


Test: 68
Symmetric key bit length: 192
IV bit length:            128
Plaintext bit length:     128
Symmetric key:            000000000000000000000000000000000000000000000000
IV:                       00000000000000000800000000000000
Plaintext:                00000000000000000000000000000000
Ciphertext:               5107b50a150998c6ea01c14697fc0e53f3458e47bbff6e355107b50a150998c6ea01c14697fc0e53
Reciphers for ciphertext: 0
Decipheredtext:           00000000000000000000000000000000
RESULT CIPHER-DECIPHER: -----OK-----


Test: 69
Symmetric key bit length: 192
IV bit length:            128
Plaintext bit length:     128
Symmetric key:            000000000000000000000000000000000000000000000000
IV:                       00000000000000000400000000000000
Plaintext:                00000000000000000000000000000000
Ciphertext:               36a6caa08bd5d2b332e9323f7c2e76ca6e6ed40c65dd882736a6caa08bd5d2b332e9323f7c2e76ca
Reciphers for ciphertext: 0
Decipheredtext:           00000000000000000000000000000000
RESULT CIPHER-DECIPHER: -----OK-----


Test: 70
Symmetric key bit length: 192
IV bit length:            128
Plaintext bit length:     128
Symmetric key:            000000000000000000000000000000000000000000000000
IV:                       00000000000000000200000000000000
Plaintext:                00000000000000000000000000000000
Ciphertext:               d1cf37451667edb8d2e9934d39a27a923eb1f881e5da4790d1cf37451667edb8d2e9934d39a27a92
Reciphers for ciphertext: 0
Decipheredtext:           00000000000000000000000000000000
RESULT CIPHER-DECIPHER: -----OK-----


Test: 71
Symmetric key bit length: 192
IV bit length:            128
Plaintext bit length:     128
Symmetric key:            000000000000000000000000000000000000000000000000
IV:                       00000000000000000100000000000000
Plaintext:                00000000000000000000000000000000
Ciphertext:               4e96227b0a018755fbe8ad5bf0e421b092b86f3a81f9081e4e96227b0a018755fbe8ad5bf0e421b0
Reciphers for ciphertext: 0
Decipheredtext:           00000000000000000000000000000000
RESULT CIPHER-DECIPHER: -----OK-----


Test: 72
Symmetric key bit length: 192
IV bit length:            128
Plaintext bit length:     128
Symmetric key:            000000000000000000000000000000000000000000000000
IV:                       00000000000000000080000000000000
Plaintext:                00000000000000000000000000000000
Ciphertext:               3221b3d3a24745b483bbf99509b330a065c7103493efdbc63221b3d3a24745b483bbf99509b330a0
Reciphers for ciphertext: 0
Decipheredtext:           00000000000000000000000000000000
RESULT CIPHER-DECIPHER: -----OK-----


Test: 73
Symmetric key bit length: 192
IV bit length:            128
Plaintext bit length:     128
Symmetric key:            000000000000000000000000000000000000000000000000
IV:                       00000000000000000040000000000000
Plaintext:                00000000000000000000000000000000
Ciphertext:               98a4ab39b84d21d36a5ddc2660bd68c55270ed3c411e889098a4ab39b84d21d36a5ddc2660bd68c5
Reciphers for ciphertext: 0
Decipheredtext:           00000000000000000000000000000000
RESULT CIPHER-DECIPHER: -----OK-----


Test: 74
Symmetric key bit length: 192
IV bit length:            128
Plaintext bit length:     128
Symmetric key:            000000000000000000000000000000000000000000000000
IV:                       00000000000000000020000000000000
Plaintext:                00000000000000000000000000000000
Ciphertext:               e5c351e1783465edba5ce0592bc77e8edcb7a0c7fd36fb43e5c351e1783465edba5ce0592bc77e8e
Reciphers for ciphertext: 0
Decipheredtext:           00000000000000000000000000000000
RESULT CIPHER-DECIPHER: -----OK-----


Test: 75
Symmetric key bit length: 192
IV bit length:            128
Plaintext bit length:     128
Symmetric key:            000000000000000000000000000000000000000000000000
IV:                       00000000000000000010000000000000
Plaintext:                00000000000000000000000000000000
Ciphertext:               cab76b7711cc2fcbb3e4249d9c2d7d790c5dac3c7452109e53319dab0ba8a0c7956c6782c662f265
Reciphers for ciphertext: 1
Decipheredtext:           00000000000000000000000000000000
RESULT CIPHER-DECIPHER: -----OK-----


Test: 76
Symmetric key bit length: 192
IV bit length:            128
Plaintext bit length:     128
Symmetric key:            000000000000000000000000000000000000000000000000
IV:                       00000000000000000008000000000000
Plaintext:                00000000000000000000000000000000
Ciphertext:               97ea899f53c60536dafeb18123fd6c5b7d5de218ed56c43197ea899f53c60536dafeb18123fd6c5b
Reciphers for ciphertext: 0
Decipheredtext:           00000000000000000000000000000000
RESULT CIPHER-DECIPHER: -----OK-----


Test: 77
Symmetric key bit length: 192
IV bit length:            128
Plaintext bit length:     128
Symmetric key:            000000000000000000000000000000000000000000000000
IV:                       00000000000000000004000000000000
Plaintext:                00000000000000000000000000000000
Ciphertext:               8511b11c7d2d8fbf63702a7e3aaca08a0f6d0af101b44f4f8511b11c7d2d8fbf63702a7e3aaca08a
Reciphers for ciphertext: 0
Decipheredtext:           00000000000000000000000000000000
RESULT CIPHER-DECIPHER: -----OK-----


Test: 78
Symmetric key bit length: 192
IV bit length:            128
Plaintext bit length:     128
Symmetric key:            000000000000000000000000000000000000000000000000
IV:                       00000000000000000002000000000000
Plaintext:                00000000000000000000000000000000
Ciphertext:               fe0c90596e4f47fd8a9927d83f4dca52d130e76da7fbf9defe0c90596e4f47fd8a9927d83f4dca52
Reciphers for ciphertext: 0
Decipheredtext:           00000000000000000000000000000000
RESULT CIPHER-DECIPHER: -----OK-----


Test: 79
Symmetric key bit length: 192
IV bit length:            128
Plaintext bit length:     128
Symmetric key:            000000000000000000000000000000000000000000000000
IV:                       00000000000000000001000000000000
Plaintext:                00000000000000000000000000000000
Ciphertext:               186fe000683cc19f621bc6c2da300b718d76c715306bd40c186fe000683cc19f621bc6c2da300b71
Reciphers for ciphertext: 0
Decipheredtext:           00000000000000000000000000000000
RESULT CIPHER-DECIPHER: -----OK-----


Test: 80
Symmetric key bit length: 192
IV bit length:            128
Plaintext bit length:     128
Symmetric key:            000000000000000000000000000000000000000000000000
IV:                       00000000000000000000800000000000
Plaintext:                00000000000000000000000000000000
Ciphertext:               8291f94edf578e8a70cd0cf8f3fb355815b70c1548b73f6a8291f94edf578e8a70cd0cf8f3fb3558
Reciphers for ciphertext: 0
Decipheredtext:           00000000000000000000000000000000
RESULT CIPHER-DECIPHER: -----OK-----


Test: 81
Symmetric key bit length: 192
IV bit length:            128
Plaintext bit length:     128
Symmetric key:            000000000000000000000000000000000000000000000000
IV:                       00000000000000000000400000000000
Plaintext:                00000000000000000000000000000000
Ciphertext:               2891c81846949c917e757ebae20d34ee2921cb4b72aa0cee2891c81846949c917e757ebae20d34ee
Reciphers for ciphertext: 0
Decipheredtext:           00000000000000000000000000000000
RESULT CIPHER-DECIPHER: -----OK-----


Test: 82
Symmetric key bit length: 192
IV bit length:            128
Plaintext bit length:     128
Symmetric key:            000000000000000000000000000000000000000000000000
IV:                       00000000000000000000200000000000
Plaintext:                00000000000000000000000000000000
Ciphertext:               762d85a32daf0c9f3cfb3388e808fec2f63ca1cd8e7d2226762d85a32daf0c9f3cfb3388e808fec2
Reciphers for ciphertext: 0
Decipheredtext:           00000000000000000000000000000000
RESULT CIPHER-DECIPHER: -----OK-----


Test: 83
Symmetric key bit length: 192
IV bit length:            128
Plaintext bit length:     128
Symmetric key:            000000000000000000000000000000000000000000000000
IV:                       00000000000000000000100000000000
Plaintext:                00000000000000000000000000000000
Ciphertext:               cc6807d209b728c559c32336fd8fb71daf43b12712409a1acc6807d209b728c559c32336fd8fb71d
Reciphers for ciphertext: 0
Decipheredtext:           00000000000000000000000000000000
RESULT CIPHER-DECIPHER: -----OK-----


Test: 84
Symmetric key bit length: 192
IV bit length:            128
Plaintext bit length:     128
Symmetric key:            000000000000000000000000000000000000000000000000
IV:                       00000000000000000000080000000000
Plaintext:                00000000000000000000000000000000
Ciphertext:               fcd07057ef4820154075a0ddcbfc0bbde80b74d2ddfe2b71fcd07057ef4820154075a0ddcbfc0bbd
Reciphers for ciphertext: 0
Decipheredtext:           00000000000000000000000000000000
RESULT CIPHER-DECIPHER: -----OK-----


Test: 85
Symmetric key bit length: 192
IV bit length:            128
Plaintext bit length:     128
Symmetric key:            000000000000000000000000000000000000000000000000
IV:                       00000000000000000000040000000000
Plaintext:                00000000000000000000000000000000
Ciphertext:               fdbfe2c3ffc82792d338388a1fc6d22e5bf741fdd97f0e33fdbfe2c3ffc82792d338388a1fc6d22e
Reciphers for ciphertext: 0
Decipheredtext:           00000000000000000000000000000000
RESULT CIPHER-DECIPHER: -----OK-----


Test: 86
Symmetric key bit length: 192
IV bit length:            128
Plaintext bit length:     128
Symmetric key:            000000000000000000000000000000000000000000000000
IV:                       00000000000000000000020000000000
Plaintext:                00000000000000000000000000000000
Ciphertext:               04d5f7cd68fc2352bddbc82cfe35da803da04f90ee17f23e04d5f7cd68fc2352bddbc82cfe35da80
Reciphers for ciphertext: 0
Decipheredtext:           00000000000000000000000000000000
RESULT CIPHER-DECIPHER: -----OK-----


Test: 87
Symmetric key bit length: 192
IV bit length:            128
Plaintext bit length:     128
Symmetric key:            000000000000000000000000000000000000000000000000
IV:                       00000000000000000000010000000000
Plaintext:                00000000000000000000000000000000
Ciphertext:               b1784a7bf395fb525471ee3dc8972fed56d8ba787f2b33acb1784a7bf395fb525471ee3dc8972fed
Reciphers for ciphertext: 0
Decipheredtext:           00000000000000000000000000000000
RESULT CIPHER-DECIPHER: -----OK-----


Test: 88
Symmetric key bit length: 192
IV bit length:            128
Plaintext bit length:     128
Symmetric key:            000000000000000000000000000000000000000000000000
IV:                       00000000000000000000008000000000
Plaintext:                00000000000000000000000000000000
Ciphertext:               cb5d8a62d16220123ef0005876e35b19d90985d6e622818fcb5d8a62d16220123ef0005876e35b19
Reciphers for ciphertext: 0
Decipheredtext:           00000000000000000000000000000000
RESULT CIPHER-DECIPHER: -----OK-----


Test: 89
Symmetric key bit length: 192
IV bit length:            128
Plaintext bit length:     128
Symmetric key:            000000000000000000000000000000000000000000000000
IV:                       00000000000000000000004000000000
Plaintext:                00000000000000000000000000000000
Ciphertext:               311292ede1f30e9f22f1eef8fd19bd80a8a618f85563354d311292ede1f30e9f22f1eef8fd19bd80
Reciphers for ciphertext: 0
Decipheredtext:           00000000000000000000000000000000
RESULT CIPHER-DECIPHER: -----OK-----


Test: 90
Symmetric key bit length: 192
IV bit length:            128
Plaintext bit length:     128
Symmetric key:            000000000000000000000000000000000000000000000000
IV:                       00000000000000000000002000000000
Plaintext:                00000000000000000000000000000000
Ciphertext:               382bc583ec9b6e16e3df2188cf0bf1e887712a81b12023e3382bc583ec9b6e16e3df2188cf0bf1e8
Reciphers for ciphertext: 0
Decipheredtext:           00000000000000000000000000000000
RESULT CIPHER-DECIPHER: -----OK-----


Test: 91
Symmetric key bit length: 192
IV bit length:            128
Plaintext bit length:     128
Symmetric key:            000000000000000000000000000000000000000000000000
IV:                       00000000000000000000001000000000
Plaintext:                00000000000000000000000000000000
Ciphertext:               632c9ad674bd1b8a15827a789bd133a702c2b5c3046e0c9e632c9ad674bd1b8a15827a789bd133a7
Reciphers for ciphertext: 0
Decipheredtext:           00000000000000000000000000000000
RESULT CIPHER-DECIPHER: -----OK-----


Test: 92
Symmetric key bit length: 192
IV bit length:            128
Plaintext bit length:     128
Symmetric key:            000000000000000000000000000000000000000000000000
IV:                       00000000000000000000000800000000
Plaintext:                00000000000000000000000000000000
Ciphertext:               0ee175df45b889ced6974e9c2b8f8a789ae833aef6b760660ee175df45b889ced6974e9c2b8f8a78
Reciphers for ciphertext: 0
Decipheredtext:           00000000000000000000000000000000
RESULT CIPHER-DECIPHER: -----OK-----


Test: 93
Symmetric key bit length: 192
IV bit length:            128
Plaintext bit length:     128
Symmetric key:            000000000000000000000000000000000000000000000000
IV:                       00000000000000000000000400000000
Plaintext:                00000000000000000000000000000000
Ciphertext:               6131a1a18f00cfda5b4af4fbe5487445bef7f360289486066131a1a18f00cfda5b4af4fbe5487445
Reciphers for ciphertext: 0
Decipheredtext:           00000000000000000000000000000000
RESULT CIPHER-DECIPHER: -----OK-----


Test: 94
Symmetric key bit length: 192
IV bit length:            128
Plaintext bit length:     128
Symmetric key:            000000000000000000000000000000000000000000000000
IV:                       00000000000000000000000200000000
Plaintext:                00000000000000000000000000000000
Ciphertext:               0c8746747460a540e2304b55c12ea6720c52ea6a40dfe72e0c8746747460a540e2304b55c12ea672
Reciphers for ciphertext: 0
Decipheredtext:           00000000000000000000000000000000
RESULT CIPHER-DECIPHER: -----OK-----


Test: 95
Symmetric key bit length: 192
IV bit length:            128
Plaintext bit length:     128
Symmetric key:            000000000000000000000000000000000000000000000000
IV:                       00000000000000000000000100000000
Plaintext:                00000000000000000000000000000000
Ciphertext:               dd6d4d2aa3eb702c597e4e2de59bf4c9d50d76862922e101dd6d4d2aa3eb702c597e4e2de59bf4c9
Reciphers for ciphertext: 0
Decipheredtext:           00000000000000000000000000000000
RESULT CIPHER-DECIPHER: -----OK-----


Test: 96
Symmetric key bit length: 192
IV bit length:            128
Plaintext bit length:     128
Symmetric key:            000000000000000000000000000000000000000000000000
IV:                       00000000000000000000000080000000
Plaintext:                00000000000000000000000000000000
Ciphertext:               774edf219459a4744aa1ccde7d969a60a00202d03745ec36774edf219459a4744aa1ccde7d969a60
Reciphers for ciphertext: 0
Decipheredtext:           00000000000000000000000000000000
RESULT CIPHER-DECIPHER: -----OK-----


Test: 97
Symmetric key bit length: 192
IV bit length:            128
Plaintext bit length:     128
Symmetric key:            000000000000000000000000000000000000000000000000
IV:                       00000000000000000000000040000000
Plaintext:                00000000000000000000000000000000
Ciphertext:               1d7b340c4ce68ac97369fff0ff9980c866ed30222235f5371d7b340c4ce68ac97369fff0ff9980c8
Reciphers for ciphertext: 0
Decipheredtext:           00000000000000000000000000000000
RESULT CIPHER-DECIPHER: -----OK-----


Test: 98
Symmetric key bit length: 192
IV bit length:            128
Plaintext bit length:     128
Symmetric key:            000000000000000000000000000000000000000000000000
IV:                       00000000000000000000000020000000
Plaintext:                00000000000000000000000000000000
Ciphertext:               d18104617258ab02aae02eccf552a8915e844fb45e296489d18104617258ab02aae02eccf552a891
Reciphers for ciphertext: 0
Decipheredtext:           00000000000000000000000000000000
RESULT CIPHER-DECIPHER: -----OK-----


Test: 99
Symmetric key bit length: 192
IV bit length:            128
Plaintext bit length:     128
Symmetric key:            000000000000000000000000000000000000000000000000
IV:                       00000000000000000000000010000000
Plaintext:                00000000000000000000000000000000
Ciphertext:               8dc66f1d7648eb62f1dcbeb3cd2379855caa02beb851884a8dc66f1d7648eb62f1dcbeb3cd237985
Reciphers for ciphertext: 0
Decipheredtext:           00000000000000000000000000000000
RESULT CIPHER-DECIPHER: -----OK-----


Test: 100
Symmetric key bit length: 192
IV bit length:            128
Plaintext bit length:     128
Symmetric key:            000000000000000000000000000000000000000000000000
IV:                       00000000000000000000000008000000
Plaintext:                00000000000000000000000000000000
Ciphertext:               abf090054abe052ece0b07be6b6cc6db542b61e143d6c5a1abf090054abe052ece0b07be6b6cc6db
Reciphers for ciphertext: 0
Decipheredtext:           00000000000000000000000000000000
RESULT CIPHER-DECIPHER: -----OK-----


Test: 101
Symmetric key bit length: 192
IV bit length:            128
Plaintext bit length:     128
Symmetric key:            000000000000000000000000000000000000000000000000
IV:                       00000000000000000000000004000000
Plaintext:                00000000000000000000000000000000
Ciphertext:               89239aafe9ba86e5ec794397e01801116cac44de3e00148789239aafe9ba86e5ec794397e0180111
Reciphers for ciphertext: 0
Decipheredtext:           00000000000000000000000000000000
RESULT CIPHER-DECIPHER: -----OK-----


Test: 102
Symmetric key bit length: 192
IV bit length:            128
Plaintext bit length:     128
Symmetric key:            000000000000000000000000000000000000000000000000
IV:                       00000000000000000000000002000000
Plaintext:                00000000000000000000000000000000
Ciphertext:               6e1cdc049333211b4d7533e21504d20015d4a91e077aa39f6e1cdc049333211b4d7533e21504d200
Reciphers for ciphertext: 0
Decipheredtext:           00000000000000000000000000000000
RESULT CIPHER-DECIPHER: -----OK-----


Test: 103
Symmetric key bit length: 192
IV bit length:            128
Plaintext bit length:     128
Symmetric key:            000000000000000000000000000000000000000000000000
IV:                       00000000000000000000000001000000
Plaintext:                00000000000000000000000000000000
Ciphertext:               efe662af24d9997fae45cad4f92f3091425efce86c056c94efe662af24d9997fae45cad4f92f3091
Reciphers for ciphertext: 0
Decipheredtext:           00000000000000000000000000000000
RESULT CIPHER-DECIPHER: -----OK-----


Test: 104
Symmetric key bit length: 192
IV bit length:            128
Plaintext bit length:     128
Symmetric key:            000000000000000000000000000000000000000000000000
IV:                       00000000000000000000000000800000
Plaintext:                00000000000000000000000000000000
Ciphertext:               16f53f3a6cc3b4f86dda1b87922449018d26c6c539f75b7b16f53f3a6cc3b4f86dda1b8792244901
Reciphers for ciphertext: 0
Decipheredtext:           00000000000000000000000000000000
RESULT CIPHER-DECIPHER: -----OK-----


Test: 105
Symmetric key bit length: 192
IV bit length:            128
Plaintext bit length:     128
Symmetric key:            000000000000000000000000000000000000000000000000
IV:                       00000000000000000000000000400000
Plaintext:                00000000000000000000000000000000
Ciphertext:               047cbacdc5ea84771a61fe1204813d4697149e40ebb0e8d4047cbacdc5ea84771a61fe1204813d46
Reciphers for ciphertext: 0
Decipheredtext:           00000000000000000000000000000000
RESULT CIPHER-DECIPHER: -----OK-----


Test: 106
Symmetric key bit length: 192
IV bit length:            128
Plaintext bit length:     128
Symmetric key:            000000000000000000000000000000000000000000000000
IV:                       00000000000000000000000000200000
Plaintext:                00000000000000000000000000000000
Ciphertext:               b442ff3318822ea7f60e2a8a082a043a707ccdfffe46ffebb442ff3318822ea7f60e2a8a082a043a
Reciphers for ciphertext: 0
Decipheredtext:           00000000000000000000000000000000
RESULT CIPHER-DECIPHER: -----OK-----


Test: 107
Symmetric key bit length: 192
IV bit length:            128
Plaintext bit length:     128
Symmetric key:            000000000000000000000000000000000000000000000000
IV:                       00000000000000000000000000100000
Plaintext:                00000000000000000000000000000000
Ciphertext:               68e2f85112435a484232fcc08f7368249b7111e1a2c83671357344b86c75be2d6d2715827939b0ee
Reciphers for ciphertext: 1
Decipheredtext:           00000000000000000000000000000000
RESULT CIPHER-DECIPHER: -----OK-----


Test: 108
Symmetric key bit length: 192
IV bit length:            128
Plaintext bit length:     128
Symmetric key:            000000000000000000000000000000000000000000000000
IV:                       00000000000000000000000000080000
Plaintext:                00000000000000000000000000000000
Ciphertext:               d307263273e250c0b9e08ff23003b0d13221bc09e0578035d307263273e250c0b9e08ff23003b0d1
Reciphers for ciphertext: 0
Decipheredtext:           00000000000000000000000000000000
RESULT CIPHER-DECIPHER: -----OK-----


Test: 109
Symmetric key bit length: 192
IV bit length:            128
Plaintext bit length:     128
Symmetric key:            000000000000000000000000000000000000000000000000
IV:                       00000000000000000000000000040000
Plaintext:                00000000000000000000000000000000
Ciphertext:               75f7005ca9c6ee5a1f9a4897fa67c6612518dba5ff9ce60375f7005ca9c6ee5a1f9a4897fa67c661
Reciphers for ciphertext: 0
Decipheredtext:           00000000000000000000000000000000
RESULT CIPHER-DECIPHER: -----OK-----


Test: 110
Symmetric key bit length: 192
IV bit length:            128
Plaintext bit length:     128
Symmetric key:            000000000000000000000000000000000000000000000000
IV:                       00000000000000000000000000020000
Plaintext:                00000000000000000000000000000000
Ciphertext:               9b421c68873d49f07e3b9025ad6097875066a775b0382c369b421c68873d49f07e3b9025ad609787
Reciphers for ciphertext: 0
Decipheredtext:           00000000000000000000000000000000
RESULT CIPHER-DECIPHER: -----OK-----


Test: 111
Symmetric key bit length: 192
IV bit length:            128
Plaintext bit length:     128
Symmetric key:            000000000000000000000000000000000000000000000000
IV:                       00000000000000000000000000010000
Plaintext:                00000000000000000000000000000000
Ciphertext:               5b182593b47dc674d8b1942cb97224b27ddcd468eb944e765b182593b47dc674d8b1942cb97224b2
Reciphers for ciphertext: 0
Decipheredtext:           00000000000000000000000000000000
RESULT CIPHER-DECIPHER: -----OK-----


Test: 112
Symmetric key bit length: 192
IV bit length:            128
Plaintext bit length:     128
Symmetric key:            000000000000000000000000000000000000000000000000
IV:                       00000000000000000000000000008000
Plaintext:                00000000000000000000000000000000
Ciphertext:               a896871a3157ccd1f5a788e253a6b0fd41176d21d1027ee6a896871a3157ccd1f5a788e253a6b0fd
Reciphers for ciphertext: 0
Decipheredtext:           00000000000000000000000000000000
RESULT CIPHER-DECIPHER: -----OK-----


Test: 113
Symmetric key bit length: 192
IV bit length:            128
Plaintext bit length:     128
Symmetric key:            000000000000000000000000000000000000000000000000
IV:                       00000000000000000000000000004000
Plaintext:                00000000000000000000000000000000
Ciphertext:               789a3d2b2a70181efcce5529f200dc440fa48ce216f4f690789a3d2b2a70181efcce5529f200dc44
Reciphers for ciphertext: 0
Decipheredtext:           00000000000000000000000000000000
RESULT CIPHER-DECIPHER: -----OK-----


Test: 114
Symmetric key bit length: 192
IV bit length:            128
Plaintext bit length:     128
Symmetric key:            000000000000000000000000000000000000000000000000
IV:                       00000000000000000000000000002000
Plaintext:                00000000000000000000000000000000
Ciphertext:               7f9462d23db6e99ad0a54ea84dbd94e2008b26fd7abd3e007f9462d23db6e99ad0a54ea84dbd94e2
Reciphers for ciphertext: 0
Decipheredtext:           00000000000000000000000000000000
RESULT CIPHER-DECIPHER: -----OK-----


Test: 115
Symmetric key bit length: 192
IV bit length:            128
Plaintext bit length:     128
Symmetric key:            000000000000000000000000000000000000000000000000
IV:                       00000000000000000000000000001000
Plaintext:                00000000000000000000000000000000
Ciphertext:               23eafe1f7cce96b6bfe2484e1dfc4ab9861a87fa6fe3cae723eafe1f7cce96b6bfe2484e1dfc4ab9
Reciphers for ciphertext: 0
Decipheredtext:           00000000000000000000000000000000
RESULT CIPHER-DECIPHER: -----OK-----


Test: 116
Symmetric key bit length: 192
IV bit length:            128
Plaintext bit length:     128
Symmetric key:            000000000000000000000000000000000000000000000000
IV:                       00000000000000000000000000000800
Plaintext:                00000000000000000000000000000000
Ciphertext:               a76c323805f9c252c8b86c83294b99875189162a274f582ea76c323805f9c252c8b86c83294b9987
Reciphers for ciphertext: 0
Decipheredtext:           00000000000000000000000000000000
RESULT CIPHER-DECIPHER: -----OK-----


Test: 117
Symmetric key bit length: 192
IV bit length:            128
Plaintext bit length:     128
Symmetric key:            000000000000000000000000000000000000000000000000
IV:                       00000000000000000000000000000400
Plaintext:                00000000000000000000000000000000
Ciphertext:               d8ca1075b7a3f2cf2dac0980b1b66cc11e24aa248b0c0e12d8ca1075b7a3f2cf2dac0980b1b66cc1
Reciphers for ciphertext: 0
Decipheredtext:           00000000000000000000000000000000
RESULT CIPHER-DECIPHER: -----OK-----


Test: 118
Symmetric key bit length: 192
IV bit length:            128
Plaintext bit length:     128
Symmetric key:            000000000000000000000000000000000000000000000000
IV:                       00000000000000000000000000000200
Plaintext:                00000000000000000000000000000000
Ciphertext:               8206d89f2a07ba6403647fb85a2f4d7d4b04035a7e971a3d8206d89f2a07ba6403647fb85a2f4d7d
Reciphers for ciphertext: 0
Decipheredtext:           00000000000000000000000000000000
RESULT CIPHER-DECIPHER: -----OK-----


Test: 119
Symmetric key bit length: 192
IV bit length:            128
Plaintext bit length:     128
Symmetric key:            000000000000000000000000000000000000000000000000
IV:                       00000000000000000000000000000100
Plaintext:                00000000000000000000000000000000
Ciphertext:               3de7573cd46d85488364472b038869f9145ad08f16cdd2683de7573cd46d85488364472b038869f9
Reciphers for ciphertext: 0
Decipheredtext:           00000000000000000000000000000000
RESULT CIPHER-DECIPHER: -----OK-----


Test: 120
Symmetric key bit length: 192
IV bit length:            128
Plaintext bit length:     128
Symmetric key:            000000000000000000000000000000000000000000000000
IV:                       00000000000000000000000000000080
Plaintext:                00000000000000000000000000000000
Ciphertext:               31c62401d6e9e4995c0913747bfe7c7e01aaccd0b17ed42d31c62401d6e9e4995c0913747bfe7c7e
Reciphers for ciphertext: 0
Decipheredtext:           00000000000000000000000000000000
RESULT CIPHER-DECIPHER: -----OK-----


Test: 121
Symmetric key bit length: 192
IV bit length:            128
Plaintext bit length:     128
Symmetric key:            000000000000000000000000000000000000000000000000
IV:                       00000000000000000000000000000040
Plaintext:                00000000000000000000000000000000
Ciphertext:               c464728025916b4e8d56e4a9f98c1a25a2add4224651b190c464728025916b4e8d56e4a9f98c1a25
Reciphers for ciphertext: 0
Decipheredtext:           00000000000000000000000000000000
RESULT CIPHER-DECIPHER: -----OK-----


Test: 122
Symmetric key bit length: 192
IV bit length:            128
Plaintext bit length:     128
Symmetric key:            000000000000000000000000000000000000000000000000
IV:                       00000000000000000000000000000020
Plaintext:                00000000000000000000000000000000
Ciphertext:               0d4643ee09abd6d6062187789ae9a77dd9a9fa3086373f480d4643ee09abd6d6062187789ae9a77d
Reciphers for ciphertext: 0
Decipheredtext:           00000000000000000000000000000000
RESULT CIPHER-DECIPHER: -----OK-----


Test: 123
Symmetric key bit length: 192
IV bit length:            128
Plaintext bit length:     128
Symmetric key:            000000000000000000000000000000000000000000000000
IV:                       00000000000000000000000000000010
Plaintext:                00000000000000000000000000000000
Ciphertext:               0c06eac3043abe6554c2da42f21e7b058af9afe2b39720cd0c06eac3043abe6554c2da42f21e7b05
Reciphers for ciphertext: 0
Decipheredtext:           00000000000000000000000000000000
RESULT CIPHER-DECIPHER: -----OK-----


Test: 124
Symmetric key bit length: 192
IV bit length:            128
Plaintext bit length:     128
Symmetric key:            000000000000000000000000000000000000000000000000
IV:                       00000000000000000000000000000008
Plaintext:                00000000000000000000000000000000
Ciphertext:               e26c6b2cbe2130729a5bf96e7cd29912703069cb92e2893ce26c6b2cbe2130729a5bf96e7cd29912
Reciphers for ciphertext: 0
Decipheredtext:           00000000000000000000000000000000
RESULT CIPHER-DECIPHER: -----OK-----


Test: 125
Symmetric key bit length: 192
IV bit length:            128
Plaintext bit length:     128
Symmetric key:            000000000000000000000000000000000000000000000000
IV:                       00000000000000000000000000000004
Plaintext:                00000000000000000000000000000000
Ciphertext:               4de2b8fff3588a5d4e62cadb720e5bcc0c28cfd8ac3109514de2b8fff3588a5d4e62cadb720e5bcc
Reciphers for ciphertext: 0
Decipheredtext:           00000000000000000000000000000000
RESULT CIPHER-DECIPHER: -----OK-----


Test: 126
Symmetric key bit length: 192
IV bit length:            128
Plaintext bit length:     128
Symmetric key:            000000000000000000000000000000000000000000000000
IV:                       00000000000000000000000000000002
Plaintext:                00000000000000000000000000000000
Ciphertext:               b96dd46c6a286bff721693a98491f529b840e87e1a197d48b96dd46c6a286bff721693a98491f529
Reciphers for ciphertext: 0
Decipheredtext:           00000000000000000000000000000000
RESULT CIPHER-DECIPHER: -----OK-----


Test: 127
Symmetric key bit length: 192
IV bit length:            128
Plaintext bit length:     128
Symmetric key:            000000000000000000000000000000000000000000000000
IV:                       00000000000000000000000000000001
Plaintext:                00000000000000000000000000000000
Ciphertext:               64f1dbd3c79ee69ac9e0ed5f554f4ab6253556a489480a7164f1dbd3c79ee69ac9e0ed5f554f4ab6
Reciphers for ciphertext: 0
Decipheredtext:           00000000000000000000000000000000
RESULT CIPHER-DECIPHER: -----OK-----


 DATA SHA1 (hexadecimal): fbbaa0c4ee5b5dac51e0262a48d1a72b2e054e60

