
DiceLock 9.0.0.1

 TEST COMPONENTS:
 ----------------
 DiceLock:           DiceLockIVIndexed class
 Operation Mode:     OFB_Mode class
 Block Cipher:       Camellia128 class
 Key Modifier:       DecreaseBase0IndexModifier_6_0_0_1 class
   Index bit length: 128
 Random tests:       RandomTestSuite class
                     FrequencyTest class
                     BlockFrequencyTest class
                     CumulativeSumForwardTest class
                     LongestRunOfOnesTest class
                     RunsTest class
 Random alpha:       0.001

 VECTOR TEST: Test vector 3 - Changing symmetric key, IV and plaintext, shifting 1 bit set


##### INDIVIDUAL TESTS #####

Number tests: 128


Test: 0
Symmetric key bit length: 128
IV bit length:            128
Plaintext bit length:     128
Symmetric key:            80000000000000000000000000000000
IV:                       80000000000000000000000000000000
Plaintext:                80000000000000000000000000000000
Ciphertext:               5111a383a01688e712940c898c6da60530b7059b08604d84aab74f2337fc8739
Reciphers for ciphertext: 2
Decipheredtext:           80000000000000000000000000000000
RESULT CIPHER-DECIPHER: -----OK-----


Test: 1
Symmetric key bit length: 128
IV bit length:            128
Plaintext bit length:     128
Symmetric key:            40000000000000000000000000000000
IV:                       40000000000000000000000000000000
Plaintext:                40000000000000000000000000000000
Ciphertext:               d68bf1b5816408668b98280027b8ddeb968bf1b5816408668b98280027b8ddeb
Reciphers for ciphertext: 0
Decipheredtext:           40000000000000000000000000000000
RESULT CIPHER-DECIPHER: -----OK-----


Test: 2
Symmetric key bit length: 128
IV bit length:            128
Plaintext bit length:     128
Symmetric key:            20000000000000000000000000000000
IV:                       20000000000000000000000000000000
Plaintext:                20000000000000000000000000000000
Ciphertext:               d7b5ea9879f8fef47e1976a3177654df084a15678607010b81e6895ce889ab20
Reciphers for ciphertext: 1
Decipheredtext:           20000000000000000000000000000000
RESULT CIPHER-DECIPHER: -----OK-----


Test: 3
Symmetric key bit length: 128
IV bit length:            128
Plaintext bit length:     128
Symmetric key:            10000000000000000000000000000000
IV:                       10000000000000000000000000000000
Plaintext:                10000000000000000000000000000000
Ciphertext:               2ec5164436b1735e33fa66385ccd3fac3ec5164436b1735e33fa66385ccd3fac
Reciphers for ciphertext: 0
Decipheredtext:           10000000000000000000000000000000
RESULT CIPHER-DECIPHER: -----OK-----


Test: 4
Symmetric key bit length: 128
IV bit length:            128
Plaintext bit length:     128
Symmetric key:            08000000000000000000000000000000
IV:                       08000000000000000000000000000000
Plaintext:                08000000000000000000000000000000
Ciphertext:               34c08b3e1dd5ae6cc2140c02334784563cc08b3e1dd5ae6cc2140c0233478456
Reciphers for ciphertext: 0
Decipheredtext:           08000000000000000000000000000000
RESULT CIPHER-DECIPHER: -----OK-----


Test: 5
Symmetric key bit length: 128
IV bit length:            128
Plaintext bit length:     128
Symmetric key:            04000000000000000000000000000000
IV:                       04000000000000000000000000000000
Plaintext:                04000000000000000000000000000000
Ciphertext:               49237a3ee0ef7ddb8490f929e07d002a4d237a3ee0ef7ddb8490f929e07d002a
Reciphers for ciphertext: 0
Decipheredtext:           04000000000000000000000000000000
RESULT CIPHER-DECIPHER: -----OK-----


Test: 6
Symmetric key bit length: 128
IV bit length:            128
Plaintext bit length:     128
Symmetric key:            02000000000000000000000000000000
IV:                       02000000000000000000000000000000
Plaintext:                02000000000000000000000000000000
Ciphertext:               bf9560bd765912bd66f4489bf99fbff7426a9f4289a6ed42990bb76406604008
Reciphers for ciphertext: 1
Decipheredtext:           02000000000000000000000000000000
RESULT CIPHER-DECIPHER: -----OK-----


Test: 7
Symmetric key bit length: 128
IV bit length:            128
Plaintext bit length:     128
Symmetric key:            01000000000000000000000000000000
IV:                       01000000000000000000000000000000
Plaintext:                01000000000000000000000000000000
Ciphertext:               b90f5c47706000d69be4f3c0bee2b1aeb80f5c47706000d69be4f3c0bee2b1ae
Reciphers for ciphertext: 0
Decipheredtext:           01000000000000000000000000000000
RESULT CIPHER-DECIPHER: -----OK-----


Test: 8
Symmetric key bit length: 128
IV bit length:            128
Plaintext bit length:     128
Symmetric key:            00800000000000000000000000000000
IV:                       00800000000000000000000000000000
Plaintext:                00800000000000000000000000000000
Ciphertext:               e21bb35c7fd752cfedce4e677d9dba0d583487228ee9e906aaaade4b039c78eb
Reciphers for ciphertext: 2
Decipheredtext:           00800000000000000000000000000000
RESULT CIPHER-DECIPHER: -----OK-----


Test: 9
Symmetric key bit length: 128
IV bit length:            128
Plaintext bit length:     128
Symmetric key:            00400000000000000000000000000000
IV:                       00400000000000000000000000000000
Plaintext:                00400000000000000000000000000000
Ciphertext:               7f9ce4f84199e3a833d6bba2b53af8977fdce4f84199e3a833d6bba2b53af897
Reciphers for ciphertext: 0
Decipheredtext:           00400000000000000000000000000000
RESULT CIPHER-DECIPHER: -----OK-----


Test: 10
Symmetric key bit length: 128
IV bit length:            128
Plaintext bit length:     128
Symmetric key:            00200000000000000000000000000000
IV:                       00200000000000000000000000000000
Plaintext:                00200000000000000000000000000000
Ciphertext:               9c0dada5663da448851ba2648e5326c69c2dada5663da448851ba2648e5326c6
Reciphers for ciphertext: 0
Decipheredtext:           00200000000000000000000000000000
RESULT CIPHER-DECIPHER: -----OK-----


Test: 11
Symmetric key bit length: 128
IV bit length:            128
Plaintext bit length:     128
Symmetric key:            00100000000000000000000000000000
IV:                       00100000000000000000000000000000
Plaintext:                00100000000000000000000000000000
Ciphertext:               19888e5b70b847daa600518099c542cb19988e5b70b847daa600518099c542cb
Reciphers for ciphertext: 0
Decipheredtext:           00100000000000000000000000000000
RESULT CIPHER-DECIPHER: -----OK-----


Test: 12
Symmetric key bit length: 128
IV bit length:            128
Plaintext bit length:     128
Symmetric key:            00080000000000000000000000000000
IV:                       00080000000000000000000000000000
Plaintext:                00080000000000000000000000000000
Ciphertext:               90d10df1ce705aa3629f7ce1e921499990d90df1ce705aa3629f7ce1e9214999
Reciphers for ciphertext: 0
Decipheredtext:           00080000000000000000000000000000
RESULT CIPHER-DECIPHER: -----OK-----


Test: 13
Symmetric key bit length: 128
IV bit length:            128
Plaintext bit length:     128
Symmetric key:            00040000000000000000000000000000
IV:                       00040000000000000000000000000000
Plaintext:                00040000000000000000000000000000
Ciphertext:               d9a5b43e6bd79af8ba4ddbda885b8119d9a1b43e6bd79af8ba4ddbda885b8119
Reciphers for ciphertext: 0
Decipheredtext:           00040000000000000000000000000000
RESULT CIPHER-DECIPHER: -----OK-----


Test: 14
Symmetric key bit length: 128
IV bit length:            128
Plaintext bit length:     128
Symmetric key:            00020000000000000000000000000000
IV:                       00020000000000000000000000000000
Plaintext:                00020000000000000000000000000000
Ciphertext:               7e77f261f356cf337e0da846a403b0d87e75f261f356cf337e0da846a403b0d8
Reciphers for ciphertext: 0
Decipheredtext:           00020000000000000000000000000000
RESULT CIPHER-DECIPHER: -----OK-----


Test: 15
Symmetric key bit length: 128
IV bit length:            128
Plaintext bit length:     128
Symmetric key:            00010000000000000000000000000000
IV:                       00010000000000000000000000000000
Plaintext:                00010000000000000000000000000000
Ciphertext:               9a3abfc8132a3cb251932332ee17684a9a3bbfc8132a3cb251932332ee17684a
Reciphers for ciphertext: 0
Decipheredtext:           00010000000000000000000000000000
RESULT CIPHER-DECIPHER: -----OK-----


Test: 16
Symmetric key bit length: 128
IV bit length:            128
Plaintext bit length:     128
Symmetric key:            00008000000000000000000000000000
IV:                       00008000000000000000000000000000
Plaintext:                00008000000000000000000000000000
Ciphertext:               0c93bcf69d760b4fce3d6ffbd751d66d0c933cf69d760b4fce3d6ffbd751d66d
Reciphers for ciphertext: 0
Decipheredtext:           00008000000000000000000000000000
RESULT CIPHER-DECIPHER: -----OK-----


Test: 17
Symmetric key bit length: 128
IV bit length:            128
Plaintext bit length:     128
Symmetric key:            00004000000000000000000000000000
IV:                       00004000000000000000000000000000
Plaintext:                00004000000000000000000000000000
Ciphertext:               d7dc78da7195bfd8a92ca1ce593f1ea3d7dc38da7195bfd8a92ca1ce593f1ea3
Reciphers for ciphertext: 0
Decipheredtext:           00004000000000000000000000000000
RESULT CIPHER-DECIPHER: -----OK-----


Test: 18
Symmetric key bit length: 128
IV bit length:            128
Plaintext bit length:     128
Symmetric key:            00002000000000000000000000000000
IV:                       00002000000000000000000000000000
Plaintext:                00002000000000000000000000000000
Ciphertext:               e22aba562bf11622c96d3b5db21a6fc0e22a9a562bf11622c96d3b5db21a6fc0
Reciphers for ciphertext: 0
Decipheredtext:           00002000000000000000000000000000
RESULT CIPHER-DECIPHER: -----OK-----


Test: 19
Symmetric key bit length: 128
IV bit length:            128
Plaintext bit length:     128
Symmetric key:            00001000000000000000000000000000
IV:                       00001000000000000000000000000000
Plaintext:                00001000000000000000000000000000
Ciphertext:               04b03ab2923ccebf939c593eb02bf361fb4fd54d6dc331406c63a6c14fd40c9e
Reciphers for ciphertext: 1
Decipheredtext:           00001000000000000000000000000000
RESULT CIPHER-DECIPHER: -----OK-----


Test: 20
Symmetric key bit length: 128
IV bit length:            128
Plaintext bit length:     128
Symmetric key:            00000800000000000000000000000000
IV:                       00000800000000000000000000000000
Plaintext:                00000800000000000000000000000000
Ciphertext:               c2c2679880fd5a5779c1f1d995e5bc89c2c26f9880fd5a5779c1f1d995e5bc89
Reciphers for ciphertext: 0
Decipheredtext:           00000800000000000000000000000000
RESULT CIPHER-DECIPHER: -----OK-----


Test: 21
Symmetric key bit length: 128
IV bit length:            128
Plaintext bit length:     128
Symmetric key:            00000400000000000000000000000000
IV:                       00000400000000000000000000000000
Plaintext:                00000400000000000000000000000000
Ciphertext:               5beab771917a495206cbb8bf271edf255beab371917a495206cbb8bf271edf25
Reciphers for ciphertext: 0
Decipheredtext:           00000400000000000000000000000000
RESULT CIPHER-DECIPHER: -----OK-----


Test: 22
Symmetric key bit length: 128
IV bit length:            128
Plaintext bit length:     128
Symmetric key:            00000200000000000000000000000000
IV:                       00000200000000000000000000000000
Plaintext:                00000200000000000000000000000000
Ciphertext:               b6cb8a40a7caa3cc13acf2921d1c42d0b6cb8840a7caa3cc13acf2921d1c42d0
Reciphers for ciphertext: 0
Decipheredtext:           00000200000000000000000000000000
RESULT CIPHER-DECIPHER: -----OK-----


Test: 23
Symmetric key bit length: 128
IV bit length:            128
Plaintext bit length:     128
Symmetric key:            00000100000000000000000000000000
IV:                       00000100000000000000000000000000
Plaintext:                00000100000000000000000000000000
Ciphertext:               109bede0c85ee26af6fc9653af87680a109bece0c85ee26af6fc9653af87680a
Reciphers for ciphertext: 0
Decipheredtext:           00000100000000000000000000000000
RESULT CIPHER-DECIPHER: -----OK-----


Test: 24
Symmetric key bit length: 128
IV bit length:            128
Plaintext bit length:     128
Symmetric key:            00000080000000000000000000000000
IV:                       00000080000000000000000000000000
Plaintext:                00000080000000000000000000000000
Ciphertext:               87d138f74832e6950b98c00d1f31cdbb87d138774832e6950b98c00d1f31cdbb
Reciphers for ciphertext: 0
Decipheredtext:           00000080000000000000000000000000
RESULT CIPHER-DECIPHER: -----OK-----


Test: 25
Symmetric key bit length: 128
IV bit length:            128
Plaintext bit length:     128
Symmetric key:            00000040000000000000000000000000
IV:                       00000040000000000000000000000000
Plaintext:                00000040000000000000000000000000
Ciphertext:               04c26cd0cc40fe23961afc29efbdbdaa04c26c90cc40fe23961afc29efbdbdaa
Reciphers for ciphertext: 0
Decipheredtext:           00000040000000000000000000000000
RESULT CIPHER-DECIPHER: -----OK-----


Test: 26
Symmetric key bit length: 128
IV bit length:            128
Plaintext bit length:     128
Symmetric key:            00000020000000000000000000000000
IV:                       00000020000000000000000000000000
Plaintext:                00000020000000000000000000000000
Ciphertext:               a7649be002d67c33418bced43f19f518a7649bc002d67c33418bced43f19f518
Reciphers for ciphertext: 0
Decipheredtext:           00000020000000000000000000000000
RESULT CIPHER-DECIPHER: -----OK-----


Test: 27
Symmetric key bit length: 128
IV bit length:            128
Plaintext bit length:     128
Symmetric key:            00000010000000000000000000000000
IV:                       00000010000000000000000000000000
Plaintext:                00000010000000000000000000000000
Ciphertext:               6cf87185efc329215427d3f3c569fcef6cf87195efc329215427d3f3c569fcef
Reciphers for ciphertext: 0
Decipheredtext:           00000010000000000000000000000000
RESULT CIPHER-DECIPHER: -----OK-----


Test: 28
Symmetric key bit length: 128
IV bit length:            128
Plaintext bit length:     128
Symmetric key:            00000008000000000000000000000000
IV:                       00000008000000000000000000000000
Plaintext:                00000008000000000000000000000000
Ciphertext:               279bacaa553b247290964238aff8eac3279baca2553b247290964238aff8eac3
Reciphers for ciphertext: 0
Decipheredtext:           00000008000000000000000000000000
RESULT CIPHER-DECIPHER: -----OK-----


Test: 29
Symmetric key bit length: 128
IV bit length:            128
Plaintext bit length:     128
Symmetric key:            00000004000000000000000000000000
IV:                       00000004000000000000000000000000
Plaintext:                00000004000000000000000000000000
Ciphertext:               eba46cc73b1d0c7922a73cadf8de2948eba46cc33b1d0c7922a73cadf8de2948
Reciphers for ciphertext: 0
Decipheredtext:           00000004000000000000000000000000
RESULT CIPHER-DECIPHER: -----OK-----


Test: 30
Symmetric key bit length: 128
IV bit length:            128
Plaintext bit length:     128
Symmetric key:            00000002000000000000000000000000
IV:                       00000002000000000000000000000000
Plaintext:                00000002000000000000000000000000
Ciphertext:               b4e123738cd359492177a3d697ba62f5b4e123718cd359492177a3d697ba62f5
Reciphers for ciphertext: 0
Decipheredtext:           00000002000000000000000000000000
RESULT CIPHER-DECIPHER: -----OK-----


Test: 31
Symmetric key bit length: 128
IV bit length:            128
Plaintext bit length:     128
Symmetric key:            00000001000000000000000000000000
IV:                       00000001000000000000000000000000
Plaintext:                00000001000000000000000000000000
Ciphertext:               ce690f07b8b704f4246f2f84955a137ace690f06b8b704f4246f2f84955a137a
Reciphers for ciphertext: 0
Decipheredtext:           00000001000000000000000000000000
RESULT CIPHER-DECIPHER: -----OK-----


Test: 32
Symmetric key bit length: 128
IV bit length:            128
Plaintext bit length:     128
Symmetric key:            00000000800000000000000000000000
IV:                       00000000800000000000000000000000
Plaintext:                00000000800000000000000000000000
Ciphertext:               c7f18653f02de19c0bd946e7957a8699c7f18653702de19c0bd946e7957a8699
Reciphers for ciphertext: 0
Decipheredtext:           00000000800000000000000000000000
RESULT CIPHER-DECIPHER: -----OK-----


Test: 33
Symmetric key bit length: 128
IV bit length:            128
Plaintext bit length:     128
Symmetric key:            00000000400000000000000000000000
IV:                       00000000400000000000000000000000
Plaintext:                00000000400000000000000000000000
Ciphertext:               43a319d12297ed6e0f5a0f0cc84ad6b443a319d16297ed6e0f5a0f0cc84ad6b4
Reciphers for ciphertext: 0
Decipheredtext:           00000000400000000000000000000000
RESULT CIPHER-DECIPHER: -----OK-----


Test: 34
Symmetric key bit length: 128
IV bit length:            128
Plaintext bit length:     128
Symmetric key:            00000000200000000000000000000000
IV:                       00000000200000000000000000000000
Plaintext:                00000000200000000000000000000000
Ciphertext:               95120db0fc055903a37293f22db4605095120db0dc055903a37293f22db46050
Reciphers for ciphertext: 0
Decipheredtext:           00000000200000000000000000000000
RESULT CIPHER-DECIPHER: -----OK-----


Test: 35
Symmetric key bit length: 128
IV bit length:            128
Plaintext bit length:     128
Symmetric key:            00000000100000000000000000000000
IV:                       00000000100000000000000000000000
Plaintext:                00000000100000000000000000000000
Ciphertext:               ea8ab8a11e9017ed938ad5f5b55b313fea8ab8a10e9017ed938ad5f5b55b313f
Reciphers for ciphertext: 0
Decipheredtext:           00000000100000000000000000000000
RESULT CIPHER-DECIPHER: -----OK-----


Test: 36
Symmetric key bit length: 128
IV bit length:            128
Plaintext bit length:     128
Symmetric key:            00000000080000000000000000000000
IV:                       00000000080000000000000000000000
Plaintext:                00000000080000000000000000000000
Ciphertext:               229b2434b2b0c1b58d799a4e4ca62040229b2434bab0c1b58d799a4e4ca62040
Reciphers for ciphertext: 0
Decipheredtext:           00000000080000000000000000000000
RESULT CIPHER-DECIPHER: -----OK-----


Test: 37
Symmetric key bit length: 128
IV bit length:            128
Plaintext bit length:     128
Symmetric key:            00000000040000000000000000000000
IV:                       00000000040000000000000000000000
Plaintext:                00000000040000000000000000000000
Ciphertext:               1a42983937ad6c5190a07da89cad9e2b1a42983933ad6c5190a07da89cad9e2b
Reciphers for ciphertext: 0
Decipheredtext:           00000000040000000000000000000000
RESULT CIPHER-DECIPHER: -----OK-----


Test: 38
Symmetric key bit length: 128
IV bit length:            128
Plaintext bit length:     128
Symmetric key:            00000000020000000000000000000000
IV:                       00000000020000000000000000000000
Plaintext:                00000000020000000000000000000000
Ciphertext:               7793191839c557a0488214706affec7c779319183bc557a0488214706affec7c
Reciphers for ciphertext: 0
Decipheredtext:           00000000020000000000000000000000
RESULT CIPHER-DECIPHER: -----OK-----


Test: 39
Symmetric key bit length: 128
IV bit length:            128
Plaintext bit length:     128
Symmetric key:            00000000010000000000000000000000
IV:                       00000000010000000000000000000000
Plaintext:                00000000010000000000000000000000
Ciphertext:               020a23d20ea5d474c3da40cac9c78300020a23d20fa5d474c3da40cac9c78300
Reciphers for ciphertext: 0
Decipheredtext:           00000000010000000000000000000000
RESULT CIPHER-DECIPHER: -----OK-----


Test: 40
Symmetric key bit length: 128
IV bit length:            128
Plaintext bit length:     128
Symmetric key:            00000000008000000000000000000000
IV:                       00000000008000000000000000000000
Plaintext:                00000000008000000000000000000000
Ciphertext:               95310fde4d60e868610fc12453c062a095310fde4de0e868610fc12453c062a0
Reciphers for ciphertext: 0
Decipheredtext:           00000000008000000000000000000000
RESULT CIPHER-DECIPHER: -----OK-----


Test: 41
Symmetric key bit length: 128
IV bit length:            128
Plaintext bit length:     128
Symmetric key:            00000000004000000000000000000000
IV:                       00000000004000000000000000000000
Plaintext:                00000000004000000000000000000000
Ciphertext:               6c661d38f5dac6ed13eb3db2fb26ed5a6c661d38f59ac6ed13eb3db2fb26ed5a
Reciphers for ciphertext: 0
Decipheredtext:           00000000004000000000000000000000
RESULT CIPHER-DECIPHER: -----OK-----


Test: 42
Symmetric key bit length: 128
IV bit length:            128
Plaintext bit length:     128
Symmetric key:            00000000002000000000000000000000
IV:                       00000000002000000000000000000000
Plaintext:                00000000002000000000000000000000
Ciphertext:               959855ab4d2d9b3abc21e3f6b9b84640959855ab4d0d9b3abc21e3f6b9b84640
Reciphers for ciphertext: 0
Decipheredtext:           00000000002000000000000000000000
RESULT CIPHER-DECIPHER: -----OK-----


Test: 43
Symmetric key bit length: 128
IV bit length:            128
Plaintext bit length:     128
Symmetric key:            00000000001000000000000000000000
IV:                       00000000001000000000000000000000
Plaintext:                00000000001000000000000000000000
Ciphertext:               11ec401c185e720b0797c9c46b9b0ea511ec401c184e720b0797c9c46b9b0ea5
Reciphers for ciphertext: 0
Decipheredtext:           00000000001000000000000000000000
RESULT CIPHER-DECIPHER: -----OK-----


Test: 44
Symmetric key bit length: 128
IV bit length:            128
Plaintext bit length:     128
Symmetric key:            00000000000800000000000000000000
IV:                       00000000000800000000000000000000
Plaintext:                00000000000800000000000000000000
Ciphertext:               ae8312c3fa1d662d9f1831074d8c2110ae8312c3fa15662d9f1831074d8c2110
Reciphers for ciphertext: 0
Decipheredtext:           00000000000800000000000000000000
RESULT CIPHER-DECIPHER: -----OK-----


Test: 45
Symmetric key bit length: 128
IV bit length:            128
Plaintext bit length:     128
Symmetric key:            00000000000400000000000000000000
IV:                       00000000000400000000000000000000
Plaintext:                00000000000400000000000000000000
Ciphertext:               14868df282aaa0efe8875cb783721cba14868df282aea0efe8875cb783721cba
Reciphers for ciphertext: 0
Decipheredtext:           00000000000400000000000000000000
RESULT CIPHER-DECIPHER: -----OK-----


Test: 46
Symmetric key bit length: 128
IV bit length:            128
Plaintext bit length:     128
Symmetric key:            00000000000200000000000000000000
IV:                       00000000000200000000000000000000
Plaintext:                00000000000200000000000000000000
Ciphertext:               87d797b586e8b40e22637f99ff2457a387d797b586eab40e22637f99ff2457a3
Reciphers for ciphertext: 0
Decipheredtext:           00000000000200000000000000000000
RESULT CIPHER-DECIPHER: -----OK-----


Test: 47
Symmetric key bit length: 128
IV bit length:            128
Plaintext bit length:     128
Symmetric key:            00000000000100000000000000000000
IV:                       00000000000100000000000000000000
Plaintext:                00000000000100000000000000000000
Ciphertext:               093496d0c375566e4b8e577c6f3c6ced093496d0c374566e4b8e577c6f3c6ced
Reciphers for ciphertext: 0
Decipheredtext:           00000000000100000000000000000000
RESULT CIPHER-DECIPHER: -----OK-----


Test: 48
Symmetric key bit length: 128
IV bit length:            128
Plaintext bit length:     128
Symmetric key:            00000000000080000000000000000000
IV:                       00000000000080000000000000000000
Plaintext:                00000000000080000000000000000000
Ciphertext:               b673f0d5726f1fc2b488133ff28e0051b673f0d5726f9fc2b488133ff28e0051
Reciphers for ciphertext: 0
Decipheredtext:           00000000000080000000000000000000
RESULT CIPHER-DECIPHER: -----OK-----


Test: 49
Symmetric key bit length: 128
IV bit length:            128
Plaintext bit length:     128
Symmetric key:            00000000000040000000000000000000
IV:                       00000000000040000000000000000000
Plaintext:                00000000000040000000000000000000
Ciphertext:               dec347bdf9cd787f39da3e82d9f3669d213cb8420632c780c625c17d260c9962
Reciphers for ciphertext: 1
Decipheredtext:           00000000000040000000000000000000
RESULT CIPHER-DECIPHER: -----OK-----


Test: 50
Symmetric key bit length: 128
IV bit length:            128
Plaintext bit length:     128
Symmetric key:            00000000000020000000000000000000
IV:                       00000000000020000000000000000000
Plaintext:                00000000000020000000000000000000
Ciphertext:               442332960cf44f0b92cfa9c365030a08442332960cf46f0b92cfa9c365030a08
Reciphers for ciphertext: 0
Decipheredtext:           00000000000020000000000000000000
RESULT CIPHER-DECIPHER: -----OK-----


Test: 51
Symmetric key bit length: 128
IV bit length:            128
Plaintext bit length:     128
Symmetric key:            00000000000010000000000000000000
IV:                       00000000000010000000000000000000
Plaintext:                00000000000010000000000000000000
Ciphertext:               719f415ba7583a26dd020dbe88cd2cd7719f415ba7582a26dd020dbe88cd2cd7
Reciphers for ciphertext: 0
Decipheredtext:           00000000000010000000000000000000
RESULT CIPHER-DECIPHER: -----OK-----


Test: 52
Symmetric key bit length: 128
IV bit length:            128
Plaintext bit length:     128
Symmetric key:            00000000000008000000000000000000
IV:                       00000000000008000000000000000000
Plaintext:                00000000000008000000000000000000
Ciphertext:               ea6e16168a4c2afa6dacd76e5a15e9cb1591e9e975b3dd0592532891a5ea1634
Reciphers for ciphertext: 1
Decipheredtext:           00000000000008000000000000000000
RESULT CIPHER-DECIPHER: -----OK-----


Test: 53
Symmetric key bit length: 128
IV bit length:            128
Plaintext bit length:     128
Symmetric key:            00000000000004000000000000000000
IV:                       00000000000004000000000000000000
Plaintext:                00000000000004000000000000000000
Ciphertext:               48b6f7fa3090de74b1d1bd2f74a2b4d348b6f7fa3090da74b1d1bd2f74a2b4d3
Reciphers for ciphertext: 0
Decipheredtext:           00000000000004000000000000000000
RESULT CIPHER-DECIPHER: -----OK-----


Test: 54
Symmetric key bit length: 128
IV bit length:            128
Plaintext bit length:     128
Symmetric key:            00000000000002000000000000000000
IV:                       00000000000002000000000000000000
Plaintext:                00000000000002000000000000000000
Ciphertext:               7becff5f426e02d8a6bbe6d01454aa227becff5f426e00d8a6bbe6d01454aa22
Reciphers for ciphertext: 0
Decipheredtext:           00000000000002000000000000000000
RESULT CIPHER-DECIPHER: -----OK-----


Test: 55
Symmetric key bit length: 128
IV bit length:            128
Plaintext bit length:     128
Symmetric key:            00000000000001000000000000000000
IV:                       00000000000001000000000000000000
Plaintext:                00000000000001000000000000000000
Ciphertext:               d5f8e743e10ded7495eddd84ecc157c4d5f8e743e10dec7495eddd84ecc157c4
Reciphers for ciphertext: 0
Decipheredtext:           00000000000001000000000000000000
RESULT CIPHER-DECIPHER: -----OK-----


Test: 56
Symmetric key bit length: 128
IV bit length:            128
Plaintext bit length:     128
Symmetric key:            00000000000000800000000000000000
IV:                       00000000000000800000000000000000
Plaintext:                00000000000000800000000000000000
Ciphertext:               718d590e43acc4705d5cedc9494c1741718d590e43acc4f05d5cedc9494c1741
Reciphers for ciphertext: 0
Decipheredtext:           00000000000000800000000000000000
RESULT CIPHER-DECIPHER: -----OK-----


Test: 57
Symmetric key bit length: 128
IV bit length:            128
Plaintext bit length:     128
Symmetric key:            00000000000000400000000000000000
IV:                       00000000000000400000000000000000
Plaintext:                00000000000000400000000000000000
Ciphertext:               7bb16a651847c39e0ad1d92b939ff14e7bb16a651847c3de0ad1d92b939ff14e
Reciphers for ciphertext: 0
Decipheredtext:           00000000000000400000000000000000
RESULT CIPHER-DECIPHER: -----OK-----


Test: 58
Symmetric key bit length: 128
IV bit length:            128
Plaintext bit length:     128
Symmetric key:            00000000000000200000000000000000
IV:                       00000000000000200000000000000000
Plaintext:                00000000000000200000000000000000
Ciphertext:               fe0519ba154a2307924eedef23c437c8fe0519ba154a2327924eedef23c437c8
Reciphers for ciphertext: 0
Decipheredtext:           00000000000000200000000000000000
RESULT CIPHER-DECIPHER: -----OK-----


Test: 59
Symmetric key bit length: 128
IV bit length:            128
Plaintext bit length:     128
Symmetric key:            00000000000000100000000000000000
IV:                       00000000000000100000000000000000
Plaintext:                00000000000000100000000000000000
Ciphertext:               c7cf45e5fac6cbb194bb139c216b9f57c7cf45e5fac6cba194bb139c216b9f57
Reciphers for ciphertext: 0
Decipheredtext:           00000000000000100000000000000000
RESULT CIPHER-DECIPHER: -----OK-----


Test: 60
Symmetric key bit length: 128
IV bit length:            128
Plaintext bit length:     128
Symmetric key:            00000000000000080000000000000000
IV:                       00000000000000080000000000000000
Plaintext:                00000000000000080000000000000000
Ciphertext:               82573d05f3f83237de8366a541d608be82573d05f3f8323fde8366a541d608be
Reciphers for ciphertext: 0
Decipheredtext:           00000000000000080000000000000000
RESULT CIPHER-DECIPHER: -----OK-----


Test: 61
Symmetric key bit length: 128
IV bit length:            128
Plaintext bit length:     128
Symmetric key:            00000000000000040000000000000000
IV:                       00000000000000040000000000000000
Plaintext:                00000000000000040000000000000000
Ciphertext:               0de31192b6e2c08071cdaadb23d8e5c40de31192b6e2c08471cdaadb23d8e5c4
Reciphers for ciphertext: 0
Decipheredtext:           00000000000000040000000000000000
RESULT CIPHER-DECIPHER: -----OK-----


Test: 62
Symmetric key bit length: 128
IV bit length:            128
Plaintext bit length:     128
Symmetric key:            00000000000000020000000000000000
IV:                       00000000000000020000000000000000
Plaintext:                00000000000000020000000000000000
Ciphertext:               6dcedf4a49add882eea75a9aa7558b3d923120b5b652277f1158a56558aa74c2
Reciphers for ciphertext: 1
Decipheredtext:           00000000000000020000000000000000
RESULT CIPHER-DECIPHER: -----OK-----


Test: 63
Symmetric key bit length: 128
IV bit length:            128
Plaintext bit length:     128
Symmetric key:            00000000000000010000000000000000
IV:                       00000000000000010000000000000000
Plaintext:                00000000000000010000000000000000
Ciphertext:               9f30e58e43fe08f30def1423240b0ea49f30e58e43fe08f20def1423240b0ea4
Reciphers for ciphertext: 0
Decipheredtext:           00000000000000010000000000000000
RESULT CIPHER-DECIPHER: -----OK-----


Test: 64
Symmetric key bit length: 128
IV bit length:            128
Plaintext bit length:     128
Symmetric key:            00000000000000008000000000000000
IV:                       00000000000000008000000000000000
Plaintext:                00000000000000008000000000000000
Ciphertext:               8b0189e639eb1c82c058caec833d356b8b0189e639eb1c824058caec833d356b
Reciphers for ciphertext: 0
Decipheredtext:           00000000000000008000000000000000
RESULT CIPHER-DECIPHER: -----OK-----


Test: 65
Symmetric key bit length: 128
IV bit length:            128
Plaintext bit length:     128
Symmetric key:            00000000000000004000000000000000
IV:                       00000000000000004000000000000000
Plaintext:                00000000000000004000000000000000
Ciphertext:               f7515264ab6bc024a18be858a516870af7515264ab6bc024e18be858a516870a
Reciphers for ciphertext: 0
Decipheredtext:           00000000000000004000000000000000
RESULT CIPHER-DECIPHER: -----OK-----


Test: 66
Symmetric key bit length: 128
IV bit length:            128
Plaintext bit length:     128
Symmetric key:            00000000000000002000000000000000
IV:                       00000000000000002000000000000000
Plaintext:                00000000000000002000000000000000
Ciphertext:               7c4d78d7ccb864f034649e961d6570567c4d78d7ccb864f014649e961d657056
Reciphers for ciphertext: 0
Decipheredtext:           00000000000000002000000000000000
RESULT CIPHER-DECIPHER: -----OK-----


Test: 67
Symmetric key bit length: 128
IV bit length:            128
Plaintext bit length:     128
Symmetric key:            00000000000000001000000000000000
IV:                       00000000000000001000000000000000
Plaintext:                00000000000000001000000000000000
Ciphertext:               5fe318ddab6417ea092e9530d27d2e225fe318ddab6417ea192e9530d27d2e22
Reciphers for ciphertext: 0
Decipheredtext:           00000000000000001000000000000000
RESULT CIPHER-DECIPHER: -----OK-----


Test: 68
Symmetric key bit length: 128
IV bit length:            128
Plaintext bit length:     128
Symmetric key:            00000000000000000800000000000000
IV:                       00000000000000000800000000000000
Plaintext:                00000000000000000800000000000000
Ciphertext:               c5c1e262c481d3b7b821b76281b80feec5c1e262c481d3b7b021b76281b80fee
Reciphers for ciphertext: 0
Decipheredtext:           00000000000000000800000000000000
RESULT CIPHER-DECIPHER: -----OK-----


Test: 69
Symmetric key bit length: 128
IV bit length:            128
Plaintext bit length:     128
Symmetric key:            00000000000000000400000000000000
IV:                       00000000000000000400000000000000
Plaintext:                00000000000000000400000000000000
Ciphertext:               6db9870d82ca7111e5c5e53f1e032a586db9870d82ca7111e1c5e53f1e032a58
Reciphers for ciphertext: 0
Decipheredtext:           00000000000000000400000000000000
RESULT CIPHER-DECIPHER: -----OK-----


Test: 70
Symmetric key bit length: 128
IV bit length:            128
Plaintext bit length:     128
Symmetric key:            00000000000000000200000000000000
IV:                       00000000000000000200000000000000
Plaintext:                00000000000000000200000000000000
Ciphertext:               b9969816ea813da8e43ceb9a5ac812c5b9969816ea813da8e63ceb9a5ac812c5
Reciphers for ciphertext: 0
Decipheredtext:           00000000000000000200000000000000
RESULT CIPHER-DECIPHER: -----OK-----


Test: 71
Symmetric key bit length: 128
IV bit length:            128
Plaintext bit length:     128
Symmetric key:            00000000000000000100000000000000
IV:                       00000000000000000100000000000000
Plaintext:                00000000000000000100000000000000
Ciphertext:               c03392473feef9519268133c30531ab9c03392473feef9519368133c30531ab9
Reciphers for ciphertext: 0
Decipheredtext:           00000000000000000100000000000000
RESULT CIPHER-DECIPHER: -----OK-----


Test: 72
Symmetric key bit length: 128
IV bit length:            128
Plaintext bit length:     128
Symmetric key:            00000000000000000080000000000000
IV:                       00000000000000000080000000000000
Plaintext:                00000000000000000080000000000000
Ciphertext:               2248bd92909b8c183efed8488106751c2248bd92909b8c183e7ed8488106751c
Reciphers for ciphertext: 0
Decipheredtext:           00000000000000000080000000000000
RESULT CIPHER-DECIPHER: -----OK-----


Test: 73
Symmetric key bit length: 128
IV bit length:            128
Plaintext bit length:     128
Symmetric key:            00000000000000000040000000000000
IV:                       00000000000000000040000000000000
Plaintext:                00000000000000000040000000000000
Ciphertext:               fa84428e16795e4a52998242a61867c3fa84428e16795e4a52d98242a61867c3
Reciphers for ciphertext: 0
Decipheredtext:           00000000000000000040000000000000
RESULT CIPHER-DECIPHER: -----OK-----


Test: 74
Symmetric key bit length: 128
IV bit length:            128
Plaintext bit length:     128
Symmetric key:            00000000000000000020000000000000
IV:                       00000000000000000020000000000000
Plaintext:                00000000000000000020000000000000
Ciphertext:               61f092d7c75cf61c9e5e97c48a0fc93161f092d7c75cf61c9e7e97c48a0fc931
Reciphers for ciphertext: 0
Decipheredtext:           00000000000000000020000000000000
RESULT CIPHER-DECIPHER: -----OK-----


Test: 75
Symmetric key bit length: 128
IV bit length:            128
Plaintext bit length:     128
Symmetric key:            00000000000000000010000000000000
IV:                       00000000000000000010000000000000
Plaintext:                00000000000000000010000000000000
Ciphertext:               562d1ed721cdb76c97abe04f2b98803f562d1ed721cdb76c97bbe04f2b98803f
Reciphers for ciphertext: 0
Decipheredtext:           00000000000000000010000000000000
RESULT CIPHER-DECIPHER: -----OK-----


Test: 76
Symmetric key bit length: 128
IV bit length:            128
Plaintext bit length:     128
Symmetric key:            00000000000000000008000000000000
IV:                       00000000000000000008000000000000
Plaintext:                00000000000000000008000000000000
Ciphertext:               c578677a6da6bcc74ce44a3907ff7349c578677a6da6bcc74cec4a3907ff7349
Reciphers for ciphertext: 0
Decipheredtext:           00000000000000000008000000000000
RESULT CIPHER-DECIPHER: -----OK-----


Test: 77
Symmetric key bit length: 128
IV bit length:            128
Plaintext bit length:     128
Symmetric key:            00000000000000000004000000000000
IV:                       00000000000000000004000000000000
Plaintext:                00000000000000000004000000000000
Ciphertext:               0a371547b15905e339e4da304737601f0a371547b15905e339e0da304737601f
Reciphers for ciphertext: 0
Decipheredtext:           00000000000000000004000000000000
RESULT CIPHER-DECIPHER: -----OK-----


Test: 78
Symmetric key bit length: 128
IV bit length:            128
Plaintext bit length:     128
Symmetric key:            00000000000000000002000000000000
IV:                       00000000000000000002000000000000
Plaintext:                00000000000000000002000000000000
Ciphertext:               2d940e1f38b2c6de7dca4a5864b588152d940e1f38b2c6de7dc84a5864b58815
Reciphers for ciphertext: 0
Decipheredtext:           00000000000000000002000000000000
RESULT CIPHER-DECIPHER: -----OK-----


Test: 79
Symmetric key bit length: 128
IV bit length:            128
Plaintext bit length:     128
Symmetric key:            00000000000000000001000000000000
IV:                       00000000000000000001000000000000
Plaintext:                00000000000000000001000000000000
Ciphertext:               95f76e06498446160bc3cb51f9810fe995f76e06498446160bc2cb51f9810fe9
Reciphers for ciphertext: 0
Decipheredtext:           00000000000000000001000000000000
RESULT CIPHER-DECIPHER: -----OK-----


Test: 80
Symmetric key bit length: 128
IV bit length:            128
Plaintext bit length:     128
Symmetric key:            00000000000000000000800000000000
IV:                       00000000000000000000800000000000
Plaintext:                00000000000000000000800000000000
Ciphertext:               2ae7827c77cb69e9b9b94a4b4524f5732ae7827c77cb69e9b9b9ca4b4524f573
Reciphers for ciphertext: 0
Decipheredtext:           00000000000000000000800000000000
RESULT CIPHER-DECIPHER: -----OK-----


Test: 81
Symmetric key bit length: 128
IV bit length:            128
Plaintext bit length:     128
Symmetric key:            00000000000000000000400000000000
IV:                       00000000000000000000400000000000
Plaintext:                00000000000000000000400000000000
Ciphertext:               a0b94693481b5f6cbf1e98154dc85b45a0b94693481b5f6cbf1ed8154dc85b45
Reciphers for ciphertext: 0
Decipheredtext:           00000000000000000000400000000000
RESULT CIPHER-DECIPHER: -----OK-----


Test: 82
Symmetric key bit length: 128
IV bit length:            128
Plaintext bit length:     128
Symmetric key:            00000000000000000000200000000000
IV:                       00000000000000000000200000000000
Plaintext:                00000000000000000000200000000000
Ciphertext:               ac5ff3d60830be34444ab9bd4db28cf7ac5ff3d60830be34444a99bd4db28cf7
Reciphers for ciphertext: 0
Decipheredtext:           00000000000000000000200000000000
RESULT CIPHER-DECIPHER: -----OK-----


Test: 83
Symmetric key bit length: 128
IV bit length:            128
Plaintext bit length:     128
Symmetric key:            00000000000000000000100000000000
IV:                       00000000000000000000100000000000
Plaintext:                00000000000000000000100000000000
Ciphertext:               19fad42508efa19ade0231d5558899a719fad42508efa19ade0221d5558899a7
Reciphers for ciphertext: 0
Decipheredtext:           00000000000000000000100000000000
RESULT CIPHER-DECIPHER: -----OK-----


Test: 84
Symmetric key bit length: 128
IV bit length:            128
Plaintext bit length:     128
Symmetric key:            00000000000000000000080000000000
IV:                       00000000000000000000080000000000
Plaintext:                00000000000000000000080000000000
Ciphertext:               873f954660ef45b04453261bff80511b873f954660ef45b044532e1bff80511b
Reciphers for ciphertext: 0
Decipheredtext:           00000000000000000000080000000000
RESULT CIPHER-DECIPHER: -----OK-----


Test: 85
Symmetric key bit length: 128
IV bit length:            128
Plaintext bit length:     128
Symmetric key:            00000000000000000000040000000000
IV:                       00000000000000000000040000000000
Plaintext:                00000000000000000000040000000000
Ciphertext:               5d12d1ebb6ee8a4f393369fbe2a07e9e5d12d1ebb6ee8a4f39336dfbe2a07e9e
Reciphers for ciphertext: 0
Decipheredtext:           00000000000000000000040000000000
RESULT CIPHER-DECIPHER: -----OK-----


Test: 86
Symmetric key bit length: 128
IV bit length:            128
Plaintext bit length:     128
Symmetric key:            00000000000000000000020000000000
IV:                       00000000000000000000020000000000
Plaintext:                00000000000000000000020000000000
Ciphertext:               ce3b3c9eb4b3db3475f04174aba353ecce3b3c9eb4b3db3475f04374aba353ec
Reciphers for ciphertext: 0
Decipheredtext:           00000000000000000000020000000000
RESULT CIPHER-DECIPHER: -----OK-----


Test: 87
Symmetric key bit length: 128
IV bit length:            128
Plaintext bit length:     128
Symmetric key:            00000000000000000000010000000000
IV:                       00000000000000000000010000000000
Plaintext:                00000000000000000000010000000000
Ciphertext:               d717c2909658166e354a38d9e67e996ad717c2909658166e354a39d9e67e996a
Reciphers for ciphertext: 0
Decipheredtext:           00000000000000000000010000000000
RESULT CIPHER-DECIPHER: -----OK-----


Test: 88
Symmetric key bit length: 128
IV bit length:            128
Plaintext bit length:     128
Symmetric key:            00000000000000000000008000000000
IV:                       00000000000000000000008000000000
Plaintext:                00000000000000000000008000000000
Ciphertext:               e22864d01fd11ca8cd97c9871178540de22864d01fd11ca8cd97c9071178540d
Reciphers for ciphertext: 0
Decipheredtext:           00000000000000000000008000000000
RESULT CIPHER-DECIPHER: -----OK-----


Test: 89
Symmetric key bit length: 128
IV bit length:            128
Plaintext bit length:     128
Symmetric key:            00000000000000000000004000000000
IV:                       00000000000000000000004000000000
Plaintext:                00000000000000000000004000000000
Ciphertext:               8a1bfd4882d7988995231371205307138a1bfd4882d798899523133120530713
Reciphers for ciphertext: 0
Decipheredtext:           00000000000000000000004000000000
RESULT CIPHER-DECIPHER: -----OK-----


Test: 90
Symmetric key bit length: 128
IV bit length:            128
Plaintext bit length:     128
Symmetric key:            00000000000000000000002000000000
IV:                       00000000000000000000002000000000
Plaintext:                00000000000000000000002000000000
Ciphertext:               143d73a53601f4f53ff9f5c3e31ad9d6143d73a53601f4f53ff9f5e3e31ad9d6
Reciphers for ciphertext: 0
Decipheredtext:           00000000000000000000002000000000
RESULT CIPHER-DECIPHER: -----OK-----


Test: 91
Symmetric key bit length: 128
IV bit length:            128
Plaintext bit length:     128
Symmetric key:            00000000000000000000001000000000
IV:                       00000000000000000000001000000000
Plaintext:                00000000000000000000001000000000
Ciphertext:               98f3f50e40f7651e69eb96b4df87e6a898f3f50e40f7651e69eb96a4df87e6a8
Reciphers for ciphertext: 0
Decipheredtext:           00000000000000000000001000000000
RESULT CIPHER-DECIPHER: -----OK-----


Test: 92
Symmetric key bit length: 128
IV bit length:            128
Plaintext bit length:     128
Symmetric key:            00000000000000000000000800000000
IV:                       00000000000000000000000800000000
Plaintext:                00000000000000000000000800000000
Ciphertext:               ce89252f42810591d32c42a92db2eb9fce89252f42810591d32c42a12db2eb9f
Reciphers for ciphertext: 0
Decipheredtext:           00000000000000000000000800000000
RESULT CIPHER-DECIPHER: -----OK-----


Test: 93
Symmetric key bit length: 128
IV bit length:            128
Plaintext bit length:     128
Symmetric key:            00000000000000000000000400000000
IV:                       00000000000000000000000400000000
Plaintext:                00000000000000000000000400000000
Ciphertext:               957154aeb3834ab47a249d2a9c7bf0f7957154aeb3834ab47a249d2e9c7bf0f7
Reciphers for ciphertext: 0
Decipheredtext:           00000000000000000000000400000000
RESULT CIPHER-DECIPHER: -----OK-----


Test: 94
Symmetric key bit length: 128
IV bit length:            128
Plaintext bit length:     128
Symmetric key:            00000000000000000000000200000000
IV:                       00000000000000000000000200000000
Plaintext:                00000000000000000000000200000000
Ciphertext:               46669966cc4adafd9f1c0cba270954ac46669966cc4adafd9f1c0cb8270954ac
Reciphers for ciphertext: 0
Decipheredtext:           00000000000000000000000200000000
RESULT CIPHER-DECIPHER: -----OK-----


Test: 95
Symmetric key bit length: 128
IV bit length:            128
Plaintext bit length:     128
Symmetric key:            00000000000000000000000100000000
IV:                       00000000000000000000000100000000
Plaintext:                00000000000000000000000100000000
Ciphertext:               6f94553cad3c60938574fbbb1b49caf36f94553cad3c60938574fbba1b49caf3
Reciphers for ciphertext: 0
Decipheredtext:           00000000000000000000000100000000
RESULT CIPHER-DECIPHER: -----OK-----


Test: 96
Symmetric key bit length: 128
IV bit length:            128
Plaintext bit length:     128
Symmetric key:            00000000000000000000000080000000
IV:                       00000000000000000000000080000000
Plaintext:                00000000000000000000000080000000
Ciphertext:               ec4437bbd05ebe5ed8056250b72e57b9ec4437bbd05ebe5ed8056250372e57b9
Reciphers for ciphertext: 0
Decipheredtext:           00000000000000000000000080000000
RESULT CIPHER-DECIPHER: -----OK-----


Test: 97
Symmetric key bit length: 128
IV bit length:            128
Plaintext bit length:     128
Symmetric key:            00000000000000000000000040000000
IV:                       00000000000000000000000040000000
Plaintext:                00000000000000000000000040000000
Ciphertext:               d366f0883ffef85acfb53b23dff0816bd366f0883ffef85acfb53b239ff0816b
Reciphers for ciphertext: 0
Decipheredtext:           00000000000000000000000040000000
RESULT CIPHER-DECIPHER: -----OK-----


Test: 98
Symmetric key bit length: 128
IV bit length:            128
Plaintext bit length:     128
Symmetric key:            00000000000000000000000020000000
IV:                       00000000000000000000000020000000
Plaintext:                00000000000000000000000020000000
Ciphertext:               f0f7a2648c66832d12b644481153334df0f7a2648c66832d12b644483153334d
Reciphers for ciphertext: 0
Decipheredtext:           00000000000000000000000020000000
RESULT CIPHER-DECIPHER: -----OK-----


Test: 99
Symmetric key bit length: 128
IV bit length:            128
Plaintext bit length:     128
Symmetric key:            00000000000000000000000010000000
IV:                       00000000000000000000000010000000
Plaintext:                00000000000000000000000010000000
Ciphertext:               8ad81751e3755eff0285f721af69ac8c8ad81751e3755eff0285f721bf69ac8c
Reciphers for ciphertext: 0
Decipheredtext:           00000000000000000000000010000000
RESULT CIPHER-DECIPHER: -----OK-----


Test: 100
Symmetric key bit length: 128
IV bit length:            128
Plaintext bit length:     128
Symmetric key:            00000000000000000000000008000000
IV:                       00000000000000000000000008000000
Plaintext:                00000000000000000000000008000000
Ciphertext:               744700aef967de21f16bf238fa7aa339744700aef967de21f16bf238f27aa339
Reciphers for ciphertext: 0
Decipheredtext:           00000000000000000000000008000000
RESULT CIPHER-DECIPHER: -----OK-----


Test: 101
Symmetric key bit length: 128
IV bit length:            128
Plaintext bit length:     128
Symmetric key:            00000000000000000000000004000000
IV:                       00000000000000000000000004000000
Plaintext:                00000000000000000000000004000000
Ciphertext:               5a169a62da21a24a26f0a469f5dfe0885a169a62da21a24a26f0a469f1dfe088
Reciphers for ciphertext: 0
Decipheredtext:           00000000000000000000000004000000
RESULT CIPHER-DECIPHER: -----OK-----


Test: 102
Symmetric key bit length: 128
IV bit length:            128
Plaintext bit length:     128
Symmetric key:            00000000000000000000000002000000
IV:                       00000000000000000000000002000000
Plaintext:                00000000000000000000000002000000
Ciphertext:               91c21147491801cd66d12be3a7fb1ddd91c21147491801cd66d12be3a5fb1ddd
Reciphers for ciphertext: 0
Decipheredtext:           00000000000000000000000002000000
RESULT CIPHER-DECIPHER: -----OK-----


Test: 103
Symmetric key bit length: 128
IV bit length:            128
Plaintext bit length:     128
Symmetric key:            00000000000000000000000001000000
IV:                       00000000000000000000000001000000
Plaintext:                00000000000000000000000001000000
Ciphertext:               2fe19df250af15c742448e58b56636522fe19df250af15c742448e58b4663652
Reciphers for ciphertext: 0
Decipheredtext:           00000000000000000000000001000000
RESULT CIPHER-DECIPHER: -----OK-----


Test: 104
Symmetric key bit length: 128
IV bit length:            128
Plaintext bit length:     128
Symmetric key:            00000000000000000000000000800000
IV:                       00000000000000000000000000800000
Plaintext:                00000000000000000000000000800000
Ciphertext:               065328752462d0476a56f2d1c1286974065328752462d0476a56f2d1c1a86974
Reciphers for ciphertext: 0
Decipheredtext:           00000000000000000000000000800000
RESULT CIPHER-DECIPHER: -----OK-----


Test: 105
Symmetric key bit length: 128
IV bit length:            128
Plaintext bit length:     128
Symmetric key:            00000000000000000000000000400000
IV:                       00000000000000000000000000400000
Plaintext:                00000000000000000000000000400000
Ciphertext:               b28f27c62144721d9104cb463a260df8b28f27c62144721d9104cb463a660df8
Reciphers for ciphertext: 0
Decipheredtext:           00000000000000000000000000400000
RESULT CIPHER-DECIPHER: -----OK-----


Test: 106
Symmetric key bit length: 128
IV bit length:            128
Plaintext bit length:     128
Symmetric key:            00000000000000000000000000200000
IV:                       00000000000000000000000000200000
Plaintext:                00000000000000000000000000200000
Ciphertext:               14f1ca37256f9b7fcb1b75b34e75a68514f1ca37256f9b7fcb1b75b34e55a685
Reciphers for ciphertext: 0
Decipheredtext:           00000000000000000000000000200000
RESULT CIPHER-DECIPHER: -----OK-----


Test: 107
Symmetric key bit length: 128
IV bit length:            128
Plaintext bit length:     128
Symmetric key:            00000000000000000000000000100000
IV:                       00000000000000000000000000100000
Plaintext:                00000000000000000000000000100000
Ciphertext:               de5b51bc98857a52833c07efbfa873fade5b51bc98857a52833c07efbfb873fa
Reciphers for ciphertext: 0
Decipheredtext:           00000000000000000000000000100000
RESULT CIPHER-DECIPHER: -----OK-----


Test: 108
Symmetric key bit length: 128
IV bit length:            128
Plaintext bit length:     128
Symmetric key:            00000000000000000000000000080000
IV:                       00000000000000000000000000080000
Plaintext:                00000000000000000000000000080000
Ciphertext:               21a284f503d6e39a992060413783069e21a284f503d6e39a99206041378b069e
Reciphers for ciphertext: 0
Decipheredtext:           00000000000000000000000000080000
RESULT CIPHER-DECIPHER: -----OK-----


Test: 109
Symmetric key bit length: 128
IV bit length:            128
Plaintext bit length:     128
Symmetric key:            00000000000000000000000000040000
IV:                       00000000000000000000000000040000
Plaintext:                00000000000000000000000000040000
Ciphertext:               2f752cc736c8a0bfb00934838a0a322e2f752cc736c8a0bfb00934838a0e322e
Reciphers for ciphertext: 0
Decipheredtext:           00000000000000000000000000040000
RESULT CIPHER-DECIPHER: -----OK-----


Test: 110
Symmetric key bit length: 128
IV bit length:            128
Plaintext bit length:     128
Symmetric key:            00000000000000000000000000020000
IV:                       00000000000000000000000000020000
Plaintext:                00000000000000000000000000020000
Ciphertext:               9edc3e54c743dbb9523a587aa89de6ba9edc3e54c743dbb9523a587aa89fe6ba
Reciphers for ciphertext: 0
Decipheredtext:           00000000000000000000000000020000
RESULT CIPHER-DECIPHER: -----OK-----


Test: 111
Symmetric key bit length: 128
IV bit length:            128
Plaintext bit length:     128
Symmetric key:            00000000000000000000000000010000
IV:                       00000000000000000000000000010000
Plaintext:                00000000000000000000000000010000
Ciphertext:               204158ee6adecc5977fb0d1400046fefdfbea711952133a68804f2ebfffa9010
Reciphers for ciphertext: 1
Decipheredtext:           00000000000000000000000000010000
RESULT CIPHER-DECIPHER: -----OK-----


Test: 112
Symmetric key bit length: 128
IV bit length:            128
Plaintext bit length:     128
Symmetric key:            00000000000000000000000000008000
IV:                       00000000000000000000000000008000
Plaintext:                00000000000000000000000000008000
Ciphertext:               7639800b95a884f85b92deb21fee8e4d7639800b95a884f85b92deb21fee0e4d
Reciphers for ciphertext: 0
Decipheredtext:           00000000000000000000000000008000
RESULT CIPHER-DECIPHER: -----OK-----


Test: 113
Symmetric key bit length: 128
IV bit length:            128
Plaintext bit length:     128
Symmetric key:            00000000000000000000000000004000
IV:                       00000000000000000000000000004000
Plaintext:                00000000000000000000000000004000
Ciphertext:               c6d2dba11df07625ccfedf5eefad91cac6d2dba11df07625ccfedf5eefadd1ca
Reciphers for ciphertext: 0
Decipheredtext:           00000000000000000000000000004000
RESULT CIPHER-DECIPHER: -----OK-----


Test: 114
Symmetric key bit length: 128
IV bit length:            128
Plaintext bit length:     128
Symmetric key:            00000000000000000000000000002000
IV:                       00000000000000000000000000002000
Plaintext:                00000000000000000000000000002000
Ciphertext:               7c9fb8938d44fd14d4a2b78d2210ea837c9fb8938d44fd14d4a2b78d2210ca83
Reciphers for ciphertext: 0
Decipheredtext:           00000000000000000000000000002000
RESULT CIPHER-DECIPHER: -----OK-----


Test: 115
Symmetric key bit length: 128
IV bit length:            128
Plaintext bit length:     128
Symmetric key:            00000000000000000000000000001000
IV:                       00000000000000000000000000001000
Plaintext:                00000000000000000000000000001000
Ciphertext:               913fcd4ff66f813916fa8fb051170a6c913fcd4ff66f813916fa8fb051171a6c
Reciphers for ciphertext: 0
Decipheredtext:           00000000000000000000000000001000
RESULT CIPHER-DECIPHER: -----OK-----


Test: 116
Symmetric key bit length: 128
IV bit length:            128
Plaintext bit length:     128
Symmetric key:            00000000000000000000000000000800
IV:                       00000000000000000000000000000800
Plaintext:                00000000000000000000000000000800
Ciphertext:               492a1c7ad832928abb2b8064b6e7e69e492a1c7ad832928abb2b8064b6e7ee9e
Reciphers for ciphertext: 0
Decipheredtext:           00000000000000000000000000000800
RESULT CIPHER-DECIPHER: -----OK-----


Test: 117
Symmetric key bit length: 128
IV bit length:            128
Plaintext bit length:     128
Symmetric key:            00000000000000000000000000000400
IV:                       00000000000000000000000000000400
Plaintext:                00000000000000000000000000000400
Ciphertext:               5fed2fb76e517bb5902be9ee7fffaf42e57075a0bcf0eb90a1f419677437bb78
Reciphers for ciphertext: 2
Decipheredtext:           00000000000000000000000000000400
RESULT CIPHER-DECIPHER: -----OK-----


Test: 118
Symmetric key bit length: 128
IV bit length:            128
Plaintext bit length:     128
Symmetric key:            00000000000000000000000000000200
IV:                       00000000000000000000000000000200
Plaintext:                00000000000000000000000000000200
Ciphertext:               0be4642d79143ea9bed76e80f0cdc8680be4642d79143ea9bed76e80f0cdca68
Reciphers for ciphertext: 0
Decipheredtext:           00000000000000000000000000000200
RESULT CIPHER-DECIPHER: -----OK-----


Test: 119
Symmetric key bit length: 128
IV bit length:            128
Plaintext bit length:     128
Symmetric key:            00000000000000000000000000000100
IV:                       00000000000000000000000000000100
Plaintext:                00000000000000000000000000000100
Ciphertext:               9cce2931e6ce2e77e54c7dc2373131de9cce2931e6ce2e77e54c7dc2373130de
Reciphers for ciphertext: 0
Decipheredtext:           00000000000000000000000000000100
RESULT CIPHER-DECIPHER: -----OK-----


Test: 120
Symmetric key bit length: 128
IV bit length:            128
Plaintext bit length:     128
Symmetric key:            00000000000000000000000000000080
IV:                       00000000000000000000000000000080
Plaintext:                00000000000000000000000000000080
Ciphertext:               163bc21902706c4b30ce6f6fd4a275d1163bc21902706c4b30ce6f6fd4a27551
Reciphers for ciphertext: 0
Decipheredtext:           00000000000000000000000000000080
RESULT CIPHER-DECIPHER: -----OK-----


Test: 121
Symmetric key bit length: 128
IV bit length:            128
Plaintext bit length:     128
Symmetric key:            00000000000000000000000000000040
IV:                       00000000000000000000000000000040
Plaintext:                00000000000000000000000000000040
Ciphertext:               c34622546ed2314cd5e809c01f828dc4c34622546ed2314cd5e809c01f828d84
Reciphers for ciphertext: 0
Decipheredtext:           00000000000000000000000000000040
RESULT CIPHER-DECIPHER: -----OK-----


Test: 122
Symmetric key bit length: 128
IV bit length:            128
Plaintext bit length:     128
Symmetric key:            00000000000000000000000000000020
IV:                       00000000000000000000000000000020
Plaintext:                00000000000000000000000000000020
Ciphertext:               daf2a24ecb7ffec21fa22e7ebee146f6daf2a24ecb7ffec21fa22e7ebee146d6
Reciphers for ciphertext: 0
Decipheredtext:           00000000000000000000000000000020
RESULT CIPHER-DECIPHER: -----OK-----


Test: 123
Symmetric key bit length: 128
IV bit length:            128
Plaintext bit length:     128
Symmetric key:            00000000000000000000000000000010
IV:                       00000000000000000000000000000010
Plaintext:                00000000000000000000000000000010
Ciphertext:               cc1f4a644c6137d08f5796031ee08ddccc1f4a644c6137d08f5796031ee08dcc
Reciphers for ciphertext: 0
Decipheredtext:           00000000000000000000000000000010
RESULT CIPHER-DECIPHER: -----OK-----


Test: 124
Symmetric key bit length: 128
IV bit length:            128
Plaintext bit length:     128
Symmetric key:            00000000000000000000000000000008
IV:                       00000000000000000000000000000008
Plaintext:                00000000000000000000000000000008
Ciphertext:               74ea038c72c6659119fc02fd4dcf3edf74ea038c72c6659119fc02fd4dcf3ed7
Reciphers for ciphertext: 0
Decipheredtext:           00000000000000000000000000000008
RESULT CIPHER-DECIPHER: -----OK-----


Test: 125
Symmetric key bit length: 128
IV bit length:            128
Plaintext bit length:     128
Symmetric key:            00000000000000000000000000000004
IV:                       00000000000000000000000000000004
Plaintext:                00000000000000000000000000000004
Ciphertext:               29a4ab13d8d75b5a1ccb3439b13830a929a4ab13d8d75b5a1ccb3439b13830ad
Reciphers for ciphertext: 0
Decipheredtext:           00000000000000000000000000000004
RESULT CIPHER-DECIPHER: -----OK-----


Test: 126
Symmetric key bit length: 128
IV bit length:            128
Plaintext bit length:     128
Symmetric key:            00000000000000000000000000000002
IV:                       00000000000000000000000000000002
Plaintext:                00000000000000000000000000000002
Ciphertext:               ec493ce72ae69b4030fc6430dcb5ca54ec493ce72ae69b4030fc6430dcb5ca56
Reciphers for ciphertext: 0
Decipheredtext:           00000000000000000000000000000002
RESULT CIPHER-DECIPHER: -----OK-----


Test: 127
Symmetric key bit length: 128
IV bit length:            128
Plaintext bit length:     128
Symmetric key:            00000000000000000000000000000001
IV:                       00000000000000000000000000000001
Plaintext:                00000000000000000000000000000001
Ciphertext:               b89ada41790360778037a210af3d9958b89ada41790360778037a210af3d9959
Reciphers for ciphertext: 0
Decipheredtext:           00000000000000000000000000000001
RESULT CIPHER-DECIPHER: -----OK-----


 DATA SHA1 (hexadecimal): ff0be4ea5fda9b1f8d4b0b708305335cd86ea1a4

