
DiceLock 9.0.0.1

 TEST COMPONENTS:
 ----------------
 DiceLock:           DiceLockIVIndexed class
 Operation Mode:     OFB_Mode class
 Block Cipher:       Serpent192 class
 Key Modifier:       DecreaseBase0IndexModifier_6_0_0_1 class
   Index bit length: 192
 Random tests:       RandomTestSuite class
                     FrequencyTest class
                     BlockFrequencyTest class
                     CumulativeSumForwardTest class
                     LongestRunOfOnesTest class
                     RunsTest class
 Random alpha:       0.001

 VECTOR TEST: Test vector 4 - Symmetric key all byte value 0xXX


##### INDIVIDUAL TESTS #####

Number tests: 128


Test: 0
Symmetric key bit length: 192
IV bit length:            128
Plaintext bit length:     128
Symmetric key:            000000000000000000000000000000000000000000000000
IV:                       00000000000000000000000000000000
Plaintext:                00000000000000000000000000000000
Ciphertext:               42046b25c85dbd6b402b296a97ef83a5662df218af25bc0942046b25c85dbd6b402b296a97ef83a5
Reciphers for ciphertext: 0
Decipheredtext:           00000000000000000000000000000000
RESULT CIPHER-DECIPHER: -----OK-----


Test: 1
Symmetric key bit length: 192
IV bit length:            128
Plaintext bit length:     128
Symmetric key:            010101010101010101010101010101010101010101010101
IV:                       00000000000000000000000000000000
Plaintext:                00000000000000000000000000000000
Ciphertext:               b6efde342bc7664c2b4b751dbd0a4a905298e625c0471e65b6efde342bc7664c2b4b751dbd0a4a90
Reciphers for ciphertext: 0
Decipheredtext:           00000000000000000000000000000000
RESULT CIPHER-DECIPHER: -----OK-----


Test: 2
Symmetric key bit length: 192
IV bit length:            128
Plaintext bit length:     128
Symmetric key:            020202020202020202020202020202020202020202020202
IV:                       00000000000000000000000000000000
Plaintext:                00000000000000000000000000000000
Ciphertext:               60171cf7c7e6ce187c11729e01cf80907898d4c034fc5b5de6d7912d56356655989f7ae0ce74344b
Reciphers for ciphertext: 2
Decipheredtext:           00000000000000000000000000000000
RESULT CIPHER-DECIPHER: -----OK-----


Test: 3
Symmetric key bit length: 192
IV bit length:            128
Plaintext bit length:     128
Symmetric key:            030303030303030303030303030303030303030303030303
IV:                       00000000000000000000000000000000
Plaintext:                00000000000000000000000000000000
Ciphertext:               f9ea1d3d9c8e328b811ca2276b792ee7001e9fbf0e2ab295f9ea1d3d9c8e328b811ca2276b792ee7
Reciphers for ciphertext: 0
Decipheredtext:           00000000000000000000000000000000
RESULT CIPHER-DECIPHER: -----OK-----


Test: 4
Symmetric key bit length: 192
IV bit length:            128
Plaintext bit length:     128
Symmetric key:            040404040404040404040404040404040404040404040404
IV:                       00000000000000000000000000000000
Plaintext:                00000000000000000000000000000000
Ciphertext:               892f14c1fb523c3b91f22f345f8d6c4cdc4884622b020155892f14c1fb523c3b91f22f345f8d6c4c
Reciphers for ciphertext: 0
Decipheredtext:           00000000000000000000000000000000
RESULT CIPHER-DECIPHER: -----OK-----


Test: 5
Symmetric key bit length: 192
IV bit length:            128
Plaintext bit length:     128
Symmetric key:            050505050505050505050505050505050505050505050505
IV:                       00000000000000000000000000000000
Plaintext:                00000000000000000000000000000000
Ciphertext:               282627f7ea83e8a0abbbc599df5d3e4f168e656d6b4e4793282627f7ea83e8a0abbbc599df5d3e4f
Reciphers for ciphertext: 0
Decipheredtext:           00000000000000000000000000000000
RESULT CIPHER-DECIPHER: -----OK-----


Test: 6
Symmetric key bit length: 192
IV bit length:            128
Plaintext bit length:     128
Symmetric key:            060606060606060606060606060606060606060606060606
IV:                       00000000000000000000000000000000
Plaintext:                00000000000000000000000000000000
Ciphertext:               e1d58fa2cf7a1dfa91f4c3dc7fb07cef9968a5fccb59c99de1d58fa2cf7a1dfa91f4c3dc7fb07cef
Reciphers for ciphertext: 0
Decipheredtext:           00000000000000000000000000000000
RESULT CIPHER-DECIPHER: -----OK-----


Test: 7
Symmetric key bit length: 192
IV bit length:            128
Plaintext bit length:     128
Symmetric key:            070707070707070707070707070707070707070707070707
IV:                       00000000000000000000000000000000
Plaintext:                00000000000000000000000000000000
Ciphertext:               53982e82e623e2e1c6ebf1829eb8621a80a435e65b29dccc53982e82e623e2e1c6ebf1829eb8621a
Reciphers for ciphertext: 0
Decipheredtext:           00000000000000000000000000000000
RESULT CIPHER-DECIPHER: -----OK-----


Test: 8
Symmetric key bit length: 192
IV bit length:            128
Plaintext bit length:     128
Symmetric key:            080808080808080808080808080808080808080808080808
IV:                       00000000000000000000000000000000
Plaintext:                00000000000000000000000000000000
Ciphertext:               88b622ecd24f0fe766ab04a52edec0c3ea34dea6db5f563b88b622ecd24f0fe766ab04a52edec0c3
Reciphers for ciphertext: 0
Decipheredtext:           00000000000000000000000000000000
RESULT CIPHER-DECIPHER: -----OK-----


Test: 9
Symmetric key bit length: 192
IV bit length:            128
Plaintext bit length:     128
Symmetric key:            090909090909090909090909090909090909090909090909
IV:                       00000000000000000000000000000000
Plaintext:                00000000000000000000000000000000
Ciphertext:               04e0bd81aff1ac17ec97a3acbce6cfc3f39579346246a8af04e0bd81aff1ac17ec97a3acbce6cfc3
Reciphers for ciphertext: 0
Decipheredtext:           00000000000000000000000000000000
RESULT CIPHER-DECIPHER: -----OK-----


Test: 10
Symmetric key bit length: 192
IV bit length:            128
Plaintext bit length:     128
Symmetric key:            0a0a0a0a0a0a0a0a0a0a0a0a0a0a0a0a0a0a0a0a0a0a0a0a
IV:                       00000000000000000000000000000000
Plaintext:                00000000000000000000000000000000
Ciphertext:               5137f263f06b818e24a341424680eea92afad2d831a23d2a5137f263f06b818e24a341424680eea9
Reciphers for ciphertext: 0
Decipheredtext:           00000000000000000000000000000000
RESULT CIPHER-DECIPHER: -----OK-----


Test: 11
Symmetric key bit length: 192
IV bit length:            128
Plaintext bit length:     128
Symmetric key:            0b0b0b0b0b0b0b0b0b0b0b0b0b0b0b0b0b0b0b0b0b0b0b0b
IV:                       00000000000000000000000000000000
Plaintext:                00000000000000000000000000000000
Ciphertext:               6b04fd3cfb316726a21200832f54d813def9eb5f3a4075aa6b04fd3cfb316726a21200832f54d813
Reciphers for ciphertext: 0
Decipheredtext:           00000000000000000000000000000000
RESULT CIPHER-DECIPHER: -----OK-----


Test: 12
Symmetric key bit length: 192
IV bit length:            128
Plaintext bit length:     128
Symmetric key:            0c0c0c0c0c0c0c0c0c0c0c0c0c0c0c0c0c0c0c0c0c0c0c0c
IV:                       00000000000000000000000000000000
Plaintext:                00000000000000000000000000000000
Ciphertext:               267cd7917674ca8cc65ca361d70727c4ed9b2045237f2b98267cd7917674ca8cc65ca361d70727c4
Reciphers for ciphertext: 0
Decipheredtext:           00000000000000000000000000000000
RESULT CIPHER-DECIPHER: -----OK-----


Test: 13
Symmetric key bit length: 192
IV bit length:            128
Plaintext bit length:     128
Symmetric key:            0d0d0d0d0d0d0d0d0d0d0d0d0d0d0d0d0d0d0d0d0d0d0d0d
IV:                       00000000000000000000000000000000
Plaintext:                00000000000000000000000000000000
Ciphertext:               39f8b29db22b893dec97f4cd1a2b0624f290554aacdfc5bc39f8b29db22b893dec97f4cd1a2b0624
Reciphers for ciphertext: 0
Decipheredtext:           00000000000000000000000000000000
RESULT CIPHER-DECIPHER: -----OK-----


Test: 14
Symmetric key bit length: 192
IV bit length:            128
Plaintext bit length:     128
Symmetric key:            0e0e0e0e0e0e0e0e0e0e0e0e0e0e0e0e0e0e0e0e0e0e0e0e
IV:                       00000000000000000000000000000000
Plaintext:                00000000000000000000000000000000
Ciphertext:               ae749fcb5892b6de899e01d70b6c980106396ca204ef0cffae749fcb5892b6de899e01d70b6c9801
Reciphers for ciphertext: 0
Decipheredtext:           00000000000000000000000000000000
RESULT CIPHER-DECIPHER: -----OK-----


Test: 15
Symmetric key bit length: 192
IV bit length:            128
Plaintext bit length:     128
Symmetric key:            0f0f0f0f0f0f0f0f0f0f0f0f0f0f0f0f0f0f0f0f0f0f0f0f
IV:                       00000000000000000000000000000000
Plaintext:                00000000000000000000000000000000
Ciphertext:               69aaa56aef01b157d96dca55190b7034abf6bfad5e298a6396555a9510fe4ea8269235aae6f48fcb
Reciphers for ciphertext: 1
Decipheredtext:           00000000000000000000000000000000
RESULT CIPHER-DECIPHER: -----OK-----


Test: 16
Symmetric key bit length: 192
IV bit length:            128
Plaintext bit length:     128
Symmetric key:            101010101010101010101010101010101010101010101010
IV:                       00000000000000000000000000000000
Plaintext:                00000000000000000000000000000000
Ciphertext:               ebb38718e3382b40280ab9baad695d4bfeb67feaaece8ab2ebb38718e3382b40280ab9baad695d4b
Reciphers for ciphertext: 0
Decipheredtext:           00000000000000000000000000000000
RESULT CIPHER-DECIPHER: -----OK-----


Test: 17
Symmetric key bit length: 192
IV bit length:            128
Plaintext bit length:     128
Symmetric key:            111111111111111111111111111111111111111111111111
IV:                       00000000000000000000000000000000
Plaintext:                00000000000000000000000000000000
Ciphertext:               f8d052967608c83b35d552bad4c5748a052b6ad6af907043f8d052967608c83b35d552bad4c5748a
Reciphers for ciphertext: 0
Decipheredtext:           00000000000000000000000000000000
RESULT CIPHER-DECIPHER: -----OK-----


Test: 18
Symmetric key bit length: 192
IV bit length:            128
Plaintext bit length:     128
Symmetric key:            121212121212121212121212121212121212121212121212
IV:                       00000000000000000000000000000000
Plaintext:                00000000000000000000000000000000
Ciphertext:               c352149b98afef0c70df30778dc44909bb749e707b635105c352149b98afef0c70df30778dc44909
Reciphers for ciphertext: 0
Decipheredtext:           00000000000000000000000000000000
RESULT CIPHER-DECIPHER: -----OK-----


Test: 19
Symmetric key bit length: 192
IV bit length:            128
Plaintext bit length:     128
Symmetric key:            131313131313131313131313131313131313131313131313
IV:                       00000000000000000000000000000000
Plaintext:                00000000000000000000000000000000
Ciphertext:               96aac78814d640da038b9a0da22c761e02cf4a351e70e96d96aac78814d640da038b9a0da22c761e
Reciphers for ciphertext: 0
Decipheredtext:           00000000000000000000000000000000
RESULT CIPHER-DECIPHER: -----OK-----


Test: 20
Symmetric key bit length: 192
IV bit length:            128
Plaintext bit length:     128
Symmetric key:            141414141414141414141414141414141414141414141414
IV:                       00000000000000000000000000000000
Plaintext:                00000000000000000000000000000000
Ciphertext:               1737c7abe8d013610fc4c0696387caf6dfbc2d7591455c191737c7abe8d013610fc4c0696387caf6
Reciphers for ciphertext: 0
Decipheredtext:           00000000000000000000000000000000
RESULT CIPHER-DECIPHER: -----OK-----


Test: 21
Symmetric key bit length: 192
IV bit length:            128
Plaintext bit length:     128
Symmetric key:            151515151515151515151515151515151515151515151515
IV:                       00000000000000000000000000000000
Plaintext:                00000000000000000000000000000000
Ciphertext:               e6d1f0201933cfbefc55a0bb8247c5593e5965c9b7c0619ae6d1f0201933cfbefc55a0bb8247c559
Reciphers for ciphertext: 0
Decipheredtext:           00000000000000000000000000000000
RESULT CIPHER-DECIPHER: -----OK-----


Test: 22
Symmetric key bit length: 192
IV bit length:            128
Plaintext bit length:     128
Symmetric key:            161616161616161616161616161616161616161616161616
IV:                       00000000000000000000000000000000
Plaintext:                00000000000000000000000000000000
Ciphertext:               da3b1f5e2495363f0dc9d310bd83f974c75c3669fbc609fbda3b1f5e2495363f0dc9d310bd83f974
Reciphers for ciphertext: 0
Decipheredtext:           00000000000000000000000000000000
RESULT CIPHER-DECIPHER: -----OK-----


Test: 23
Symmetric key bit length: 192
IV bit length:            128
Plaintext bit length:     128
Symmetric key:            171717171717171717171717171717171717171717171717
IV:                       00000000000000000000000000000000
Plaintext:                00000000000000000000000000000000
Ciphertext:               9abf28609060c6a3e5a7ec5c3981d21e91e496aa17678df39abf28609060c6a3e5a7ec5c3981d21e
Reciphers for ciphertext: 0
Decipheredtext:           00000000000000000000000000000000
RESULT CIPHER-DECIPHER: -----OK-----


Test: 24
Symmetric key bit length: 192
IV bit length:            128
Plaintext bit length:     128
Symmetric key:            181818181818181818181818181818181818181818181818
IV:                       00000000000000000000000000000000
Plaintext:                00000000000000000000000000000000
Ciphertext:               55c4e0b5015fdf428ff16386bfe969ae5d59d2c05556bc3a55c4e0b5015fdf428ff16386bfe969ae
Reciphers for ciphertext: 0
Decipheredtext:           00000000000000000000000000000000
RESULT CIPHER-DECIPHER: -----OK-----


Test: 25
Symmetric key bit length: 192
IV bit length:            128
Plaintext bit length:     128
Symmetric key:            191919191919191919191919191919191919191919191919
IV:                       00000000000000000000000000000000
Plaintext:                00000000000000000000000000000000
Ciphertext:               eaf2eba1268cc0395253eb87a4c785a19b19989ca862adf5eaf2eba1268cc0395253eb87a4c785a1
Reciphers for ciphertext: 0
Decipheredtext:           00000000000000000000000000000000
RESULT CIPHER-DECIPHER: -----OK-----


Test: 26
Symmetric key bit length: 192
IV bit length:            128
Plaintext bit length:     128
Symmetric key:            1a1a1a1a1a1a1a1a1a1a1a1a1a1a1a1a1a1a1a1a1a1a1a1a
IV:                       00000000000000000000000000000000
Plaintext:                00000000000000000000000000000000
Ciphertext:               19644443a59eff304416fb116f85c0d19528fa0a0e745c0619644443a59eff304416fb116f85c0d1
Reciphers for ciphertext: 0
Decipheredtext:           00000000000000000000000000000000
RESULT CIPHER-DECIPHER: -----OK-----


Test: 27
Symmetric key bit length: 192
IV bit length:            128
Plaintext bit length:     128
Symmetric key:            1b1b1b1b1b1b1b1b1b1b1b1b1b1b1b1b1b1b1b1b1b1b1b1b
IV:                       00000000000000000000000000000000
Plaintext:                00000000000000000000000000000000
Ciphertext:               e06e8e0b7788c3254c62d655b4de5d61288c3addd14d8792e06e8e0b7788c3254c62d655b4de5d61
Reciphers for ciphertext: 0
Decipheredtext:           00000000000000000000000000000000
RESULT CIPHER-DECIPHER: -----OK-----


Test: 28
Symmetric key bit length: 192
IV bit length:            128
Plaintext bit length:     128
Symmetric key:            1c1c1c1c1c1c1c1c1c1c1c1c1c1c1c1c1c1c1c1c1c1c1c1c
IV:                       00000000000000000000000000000000
Plaintext:                00000000000000000000000000000000
Ciphertext:               88b99caa84fa7b11add281a389de6dcfaafb3968d0e887cd88b99caa84fa7b11add281a389de6dcf
Reciphers for ciphertext: 0
Decipheredtext:           00000000000000000000000000000000
RESULT CIPHER-DECIPHER: -----OK-----


Test: 29
Symmetric key bit length: 192
IV bit length:            128
Plaintext bit length:     128
Symmetric key:            1d1d1d1d1d1d1d1d1d1d1d1d1d1d1d1d1d1d1d1d1d1d1d1d
IV:                       00000000000000000000000000000000
Plaintext:                00000000000000000000000000000000
Ciphertext:               cc3500a73bc6c04cca9b4828eba99f83e88f9f1edccf4c8fcc3500a73bc6c04cca9b4828eba99f83
Reciphers for ciphertext: 0
Decipheredtext:           00000000000000000000000000000000
RESULT CIPHER-DECIPHER: -----OK-----


Test: 30
Symmetric key bit length: 192
IV bit length:            128
Plaintext bit length:     128
Symmetric key:            1e1e1e1e1e1e1e1e1e1e1e1e1e1e1e1e1e1e1e1e1e1e1e1e
IV:                       00000000000000000000000000000000
Plaintext:                00000000000000000000000000000000
Ciphertext:               478ef0dbd78b0e98e7b74a509823e6d5f003166d06bd835e478ef0dbd78b0e98e7b74a509823e6d5
Reciphers for ciphertext: 0
Decipheredtext:           00000000000000000000000000000000
RESULT CIPHER-DECIPHER: -----OK-----


Test: 31
Symmetric key bit length: 192
IV bit length:            128
Plaintext bit length:     128
Symmetric key:            1f1f1f1f1f1f1f1f1f1f1f1f1f1f1f1f1f1f1f1f1f1f1f1f
IV:                       00000000000000000000000000000000
Plaintext:                00000000000000000000000000000000
Ciphertext:               66749b755528f36036a7accedd73c819931ffc6ddaf98cde66749b755528f36036a7accedd73c819
Reciphers for ciphertext: 0
Decipheredtext:           00000000000000000000000000000000
RESULT CIPHER-DECIPHER: -----OK-----


Test: 32
Symmetric key bit length: 192
IV bit length:            128
Plaintext bit length:     128
Symmetric key:            202020202020202020202020202020202020202020202020
IV:                       00000000000000000000000000000000
Plaintext:                00000000000000000000000000000000
Ciphertext:               3ac1c93cae7cbe26f4ba66cf03c99f87e55eb330c0b7cf9f3ac1c93cae7cbe26f4ba66cf03c99f87
Reciphers for ciphertext: 0
Decipheredtext:           00000000000000000000000000000000
RESULT CIPHER-DECIPHER: -----OK-----


Test: 33
Symmetric key bit length: 192
IV bit length:            128
Plaintext bit length:     128
Symmetric key:            212121212121212121212121212121212121212121212121
IV:                       00000000000000000000000000000000
Plaintext:                00000000000000000000000000000000
Ciphertext:               366e8956232dd60d290a4632b812c83f84e914d898806ebc366e8956232dd60d290a4632b812c83f
Reciphers for ciphertext: 0
Decipheredtext:           00000000000000000000000000000000
RESULT CIPHER-DECIPHER: -----OK-----


Test: 34
Symmetric key bit length: 192
IV bit length:            128
Plaintext bit length:     128
Symmetric key:            222222222222222222222222222222222222222222222222
IV:                       00000000000000000000000000000000
Plaintext:                00000000000000000000000000000000
Ciphertext:               c50e56e2a9804874df3c1fb58db96d612e5806a39256b14ec50e56e2a9804874df3c1fb58db96d61
Reciphers for ciphertext: 0
Decipheredtext:           00000000000000000000000000000000
RESULT CIPHER-DECIPHER: -----OK-----


Test: 35
Symmetric key bit length: 192
IV bit length:            128
Plaintext bit length:     128
Symmetric key:            232323232323232323232323232323232323232323232323
IV:                       00000000000000000000000000000000
Plaintext:                00000000000000000000000000000000
Ciphertext:               2b85107ac54d06905ad7aba12066c1be105388974090b345d47aef853ab2f96fa528545edf993e41
Reciphers for ciphertext: 1
Decipheredtext:           00000000000000000000000000000000
RESULT CIPHER-DECIPHER: -----OK-----


Test: 36
Symmetric key bit length: 192
IV bit length:            128
Plaintext bit length:     128
Symmetric key:            242424242424242424242424242424242424242424242424
IV:                       00000000000000000000000000000000
Plaintext:                00000000000000000000000000000000
Ciphertext:               ce54b519204d34e58569c20e759e3e1b90412bea1e5ab5cece54b519204d34e58569c20e759e3e1b
Reciphers for ciphertext: 0
Decipheredtext:           00000000000000000000000000000000
RESULT CIPHER-DECIPHER: -----OK-----


Test: 37
Symmetric key bit length: 192
IV bit length:            128
Plaintext bit length:     128
Symmetric key:            252525252525252525252525252525252525252525252525
IV:                       00000000000000000000000000000000
Plaintext:                00000000000000000000000000000000
Ciphertext:               3c9640ef1a00d2af3636851d9c10bc70e532b9acd832ce403c9640ef1a00d2af3636851d9c10bc70
Reciphers for ciphertext: 0
Decipheredtext:           00000000000000000000000000000000
RESULT CIPHER-DECIPHER: -----OK-----


Test: 38
Symmetric key bit length: 192
IV bit length:            128
Plaintext bit length:     128
Symmetric key:            262626262626262626262626262626262626262626262626
IV:                       00000000000000000000000000000000
Plaintext:                00000000000000000000000000000000
Ciphertext:               2f99a611de3f11dc313f427d6d0b43957cccb6d2655fba542f99a611de3f11dc313f427d6d0b4395
Reciphers for ciphertext: 0
Decipheredtext:           00000000000000000000000000000000
RESULT CIPHER-DECIPHER: -----OK-----


Test: 39
Symmetric key bit length: 192
IV bit length:            128
Plaintext bit length:     128
Symmetric key:            272727272727272727272727272727272727272727272727
IV:                       00000000000000000000000000000000
Plaintext:                00000000000000000000000000000000
Ciphertext:               bdce71001a300f8cf69b590b424849e57c424f841964fc6fbdce71001a300f8cf69b590b424849e5
Reciphers for ciphertext: 0
Decipheredtext:           00000000000000000000000000000000
RESULT CIPHER-DECIPHER: -----OK-----


Test: 40
Symmetric key bit length: 192
IV bit length:            128
Plaintext bit length:     128
Symmetric key:            282828282828282828282828282828282828282828282828
IV:                       00000000000000000000000000000000
Plaintext:                00000000000000000000000000000000
Ciphertext:               6e2925bb9791ad620594ca597daf2ff79d1bc3f9a214a5fc6e2925bb9791ad620594ca597daf2ff7
Reciphers for ciphertext: 0
Decipheredtext:           00000000000000000000000000000000
RESULT CIPHER-DECIPHER: -----OK-----


Test: 41
Symmetric key bit length: 192
IV bit length:            128
Plaintext bit length:     128
Symmetric key:            292929292929292929292929292929292929292929292929
IV:                       00000000000000000000000000000000
Plaintext:                00000000000000000000000000000000
Ciphertext:               9654621a57d20bb9ef2b9bb7315a37298f327567fb16f9679654621a57d20bb9ef2b9bb7315a3729
Reciphers for ciphertext: 0
Decipheredtext:           00000000000000000000000000000000
RESULT CIPHER-DECIPHER: -----OK-----


Test: 42
Symmetric key bit length: 192
IV bit length:            128
Plaintext bit length:     128
Symmetric key:            2a2a2a2a2a2a2a2a2a2a2a2a2a2a2a2a2a2a2a2a2a2a2a2a
IV:                       00000000000000000000000000000000
Plaintext:                00000000000000000000000000000000
Ciphertext:               7b89a2e63b2c366c0b9e73fdecf4fed3b0a34f52b6323e6b7b89a2e63b2c366c0b9e73fdecf4fed3
Reciphers for ciphertext: 0
Decipheredtext:           00000000000000000000000000000000
RESULT CIPHER-DECIPHER: -----OK-----


Test: 43
Symmetric key bit length: 192
IV bit length:            128
Plaintext bit length:     128
Symmetric key:            2b2b2b2b2b2b2b2b2b2b2b2b2b2b2b2b2b2b2b2b2b2b2b2b
IV:                       00000000000000000000000000000000
Plaintext:                00000000000000000000000000000000
Ciphertext:               8b6139bd09287ac2aa942cef4151ee42a43cd7c16843e73e8b6139bd09287ac2aa942cef4151ee42
Reciphers for ciphertext: 0
Decipheredtext:           00000000000000000000000000000000
RESULT CIPHER-DECIPHER: -----OK-----


Test: 44
Symmetric key bit length: 192
IV bit length:            128
Plaintext bit length:     128
Symmetric key:            2c2c2c2c2c2c2c2c2c2c2c2c2c2c2c2c2c2c2c2c2c2c2c2c
IV:                       00000000000000000000000000000000
Plaintext:                00000000000000000000000000000000
Ciphertext:               13f5c4ba4255b75d6fec2dbe8d61bab0759a96fd3850b4bfec0a3b45bdaa48a29013d241729e454f
Reciphers for ciphertext: 1
Decipheredtext:           00000000000000000000000000000000
RESULT CIPHER-DECIPHER: -----OK-----


Test: 45
Symmetric key bit length: 192
IV bit length:            128
Plaintext bit length:     128
Symmetric key:            2d2d2d2d2d2d2d2d2d2d2d2d2d2d2d2d2d2d2d2d2d2d2d2d
IV:                       00000000000000000000000000000000
Plaintext:                00000000000000000000000000000000
Ciphertext:               44495f29f6e53fc0f2d88ad0d9ac7833f6c61d6aefc5615744495f29f6e53fc0f2d88ad0d9ac7833
Reciphers for ciphertext: 0
Decipheredtext:           00000000000000000000000000000000
RESULT CIPHER-DECIPHER: -----OK-----


Test: 46
Symmetric key bit length: 192
IV bit length:            128
Plaintext bit length:     128
Symmetric key:            2e2e2e2e2e2e2e2e2e2e2e2e2e2e2e2e2e2e2e2e2e2e2e2e
IV:                       00000000000000000000000000000000
Plaintext:                00000000000000000000000000000000
Ciphertext:               6ab2cd4979bb9e39f3d9a6e153cf13d26011511081991b846ab2cd4979bb9e39f3d9a6e153cf13d2
Reciphers for ciphertext: 0
Decipheredtext:           00000000000000000000000000000000
RESULT CIPHER-DECIPHER: -----OK-----


Test: 47
Symmetric key bit length: 192
IV bit length:            128
Plaintext bit length:     128
Symmetric key:            2f2f2f2f2f2f2f2f2f2f2f2f2f2f2f2f2f2f2f2f2f2f2f2f
IV:                       00000000000000000000000000000000
Plaintext:                00000000000000000000000000000000
Ciphertext:               4b7719186841302fbe48296cbea054e0a6b6102843faae924b7719186841302fbe48296cbea054e0
Reciphers for ciphertext: 0
Decipheredtext:           00000000000000000000000000000000
RESULT CIPHER-DECIPHER: -----OK-----


Test: 48
Symmetric key bit length: 192
IV bit length:            128
Plaintext bit length:     128
Symmetric key:            303030303030303030303030303030303030303030303030
IV:                       00000000000000000000000000000000
Plaintext:                00000000000000000000000000000000
Ciphertext:               d79fe27179cfc3efbf61245cd912a0e85f18ce37d327f1d0d79fe27179cfc3efbf61245cd912a0e8
Reciphers for ciphertext: 0
Decipheredtext:           00000000000000000000000000000000
RESULT CIPHER-DECIPHER: -----OK-----


Test: 49
Symmetric key bit length: 192
IV bit length:            128
Plaintext bit length:     128
Symmetric key:            313131313131313131313131313131313131313131313131
IV:                       00000000000000000000000000000000
Plaintext:                00000000000000000000000000000000
Ciphertext:               d650fcc9172a25c391d37d44a817bdfeffb55f60244881c8d650fcc9172a25c391d37d44a817bdfe
Reciphers for ciphertext: 0
Decipheredtext:           00000000000000000000000000000000
RESULT CIPHER-DECIPHER: -----OK-----


Test: 50
Symmetric key bit length: 192
IV bit length:            128
Plaintext bit length:     128
Symmetric key:            323232323232323232323232323232323232323232323232
IV:                       00000000000000000000000000000000
Plaintext:                00000000000000000000000000000000
Ciphertext:               ef5c66b60dbc1ecc17f8f088eaadb999397d8a5665e8d9aaef5c66b60dbc1ecc17f8f088eaadb999
Reciphers for ciphertext: 0
Decipheredtext:           00000000000000000000000000000000
RESULT CIPHER-DECIPHER: -----OK-----


Test: 51
Symmetric key bit length: 192
IV bit length:            128
Plaintext bit length:     128
Symmetric key:            333333333333333333333333333333333333333333333333
IV:                       00000000000000000000000000000000
Plaintext:                00000000000000000000000000000000
Ciphertext:               e88437ba533b02ee0f587d317075fc69cd5ed990ae7e2df1e88437ba533b02ee0f587d317075fc69
Reciphers for ciphertext: 0
Decipheredtext:           00000000000000000000000000000000
RESULT CIPHER-DECIPHER: -----OK-----


Test: 52
Symmetric key bit length: 192
IV bit length:            128
Plaintext bit length:     128
Symmetric key:            343434343434343434343434343434343434343434343434
IV:                       00000000000000000000000000000000
Plaintext:                00000000000000000000000000000000
Ciphertext:               5259da15d03fc4ef0ad57b8dfb66df0d1b3bbb318f077ed55259da15d03fc4ef0ad57b8dfb66df0d
Reciphers for ciphertext: 0
Decipheredtext:           00000000000000000000000000000000
RESULT CIPHER-DECIPHER: -----OK-----


Test: 53
Symmetric key bit length: 192
IV bit length:            128
Plaintext bit length:     128
Symmetric key:            353535353535353535353535353535353535353535353535
IV:                       00000000000000000000000000000000
Plaintext:                00000000000000000000000000000000
Ciphertext:               87c66228d8c937264739e363ae190b2248196ac0e878a56287c66228d8c937264739e363ae190b22
Reciphers for ciphertext: 0
Decipheredtext:           00000000000000000000000000000000
RESULT CIPHER-DECIPHER: -----OK-----


Test: 54
Symmetric key bit length: 192
IV bit length:            128
Plaintext bit length:     128
Symmetric key:            363636363636363636363636363636363636363636363636
IV:                       00000000000000000000000000000000
Plaintext:                00000000000000000000000000000000
Ciphertext:               fa47ea28dffa56e1adffbaaf6af14114608961d5bff76cd505b815d72005a91e52004550950ebeeb
Reciphers for ciphertext: 1
Decipheredtext:           00000000000000000000000000000000
RESULT CIPHER-DECIPHER: -----OK-----


Test: 55
Symmetric key bit length: 192
IV bit length:            128
Plaintext bit length:     128
Symmetric key:            373737373737373737373737373737373737373737373737
IV:                       00000000000000000000000000000000
Plaintext:                00000000000000000000000000000000
Ciphertext:               2b1fcf3832c5b83a978d4c9faacda1167229d8a8b41989d32b1fcf3832c5b83a978d4c9faacda116
Reciphers for ciphertext: 0
Decipheredtext:           00000000000000000000000000000000
RESULT CIPHER-DECIPHER: -----OK-----


Test: 56
Symmetric key bit length: 192
IV bit length:            128
Plaintext bit length:     128
Symmetric key:            383838383838383838383838383838383838383838383838
IV:                       00000000000000000000000000000000
Plaintext:                00000000000000000000000000000000
Ciphertext:               600ef80aa45772987a09b8eba830f952cb9f73fd9d9d8071600ef80aa45772987a09b8eba830f952
Reciphers for ciphertext: 0
Decipheredtext:           00000000000000000000000000000000
RESULT CIPHER-DECIPHER: -----OK-----


Test: 57
Symmetric key bit length: 192
IV bit length:            128
Plaintext bit length:     128
Symmetric key:            393939393939393939393939393939393939393939393939
IV:                       00000000000000000000000000000000
Plaintext:                00000000000000000000000000000000
Ciphertext:               d60f6ba6e575cf7178827d7b1fd1df6a43ff6b8077af00bdd60f6ba6e575cf7178827d7b1fd1df6a
Reciphers for ciphertext: 0
Decipheredtext:           00000000000000000000000000000000
RESULT CIPHER-DECIPHER: -----OK-----


Test: 58
Symmetric key bit length: 192
IV bit length:            128
Plaintext bit length:     128
Symmetric key:            3a3a3a3a3a3a3a3a3a3a3a3a3a3a3a3a3a3a3a3a3a3a3a3a
IV:                       00000000000000000000000000000000
Plaintext:                00000000000000000000000000000000
Ciphertext:               42191667561efea7e94168fb04c842774aabc7ba04374fcc42191667561efea7e94168fb04c84277
Reciphers for ciphertext: 0
Decipheredtext:           00000000000000000000000000000000
RESULT CIPHER-DECIPHER: -----OK-----


Test: 59
Symmetric key bit length: 192
IV bit length:            128
Plaintext bit length:     128
Symmetric key:            3b3b3b3b3b3b3b3b3b3b3b3b3b3b3b3b3b3b3b3b3b3b3b3b
IV:                       00000000000000000000000000000000
Plaintext:                00000000000000000000000000000000
Ciphertext:               24da63e895e3e7866d8bd2aa7e0b1b035ed9891e066f199724da63e895e3e7866d8bd2aa7e0b1b03
Reciphers for ciphertext: 0
Decipheredtext:           00000000000000000000000000000000
RESULT CIPHER-DECIPHER: -----OK-----


Test: 60
Symmetric key bit length: 192
IV bit length:            128
Plaintext bit length:     128
Symmetric key:            3c3c3c3c3c3c3c3c3c3c3c3c3c3c3c3c3c3c3c3c3c3c3c3c
IV:                       00000000000000000000000000000000
Plaintext:                00000000000000000000000000000000
Ciphertext:               a8849859ee543498e870db123ab490c54a6eda24c77f0d08a8849859ee543498e870db123ab490c5
Reciphers for ciphertext: 0
Decipheredtext:           00000000000000000000000000000000
RESULT CIPHER-DECIPHER: -----OK-----


Test: 61
Symmetric key bit length: 192
IV bit length:            128
Plaintext bit length:     128
Symmetric key:            3d3d3d3d3d3d3d3d3d3d3d3d3d3d3d3d3d3d3d3d3d3d3d3d
IV:                       00000000000000000000000000000000
Plaintext:                00000000000000000000000000000000
Ciphertext:               29c0276148b7b9b6e20cd29fc9f706159f4a1c0cfe48806f29c0276148b7b9b6e20cd29fc9f70615
Reciphers for ciphertext: 0
Decipheredtext:           00000000000000000000000000000000
RESULT CIPHER-DECIPHER: -----OK-----


Test: 62
Symmetric key bit length: 192
IV bit length:            128
Plaintext bit length:     128
Symmetric key:            3e3e3e3e3e3e3e3e3e3e3e3e3e3e3e3e3e3e3e3e3e3e3e3e
IV:                       00000000000000000000000000000000
Plaintext:                00000000000000000000000000000000
Ciphertext:               3cbe513d8a29bc1ac132b768ca4d34eb6e7f74d85f3edb463cbe513d8a29bc1ac132b768ca4d34eb
Reciphers for ciphertext: 0
Decipheredtext:           00000000000000000000000000000000
RESULT CIPHER-DECIPHER: -----OK-----


Test: 63
Symmetric key bit length: 192
IV bit length:            128
Plaintext bit length:     128
Symmetric key:            3f3f3f3f3f3f3f3f3f3f3f3f3f3f3f3f3f3f3f3f3f3f3f3f
IV:                       00000000000000000000000000000000
Plaintext:                00000000000000000000000000000000
Ciphertext:               a6f9c1c65082c4712f71bf0d89f2b274f81148fef050b7c9a6f9c1c65082c4712f71bf0d89f2b274
Reciphers for ciphertext: 0
Decipheredtext:           00000000000000000000000000000000
RESULT CIPHER-DECIPHER: -----OK-----


Test: 64
Symmetric key bit length: 192
IV bit length:            128
Plaintext bit length:     128
Symmetric key:            404040404040404040404040404040404040404040404040
IV:                       00000000000000000000000000000000
Plaintext:                00000000000000000000000000000000
Ciphertext:               d8a82a53eafa46529124d6b6116ef2307273f5e902157741d8a82a53eafa46529124d6b6116ef230
Reciphers for ciphertext: 0
Decipheredtext:           00000000000000000000000000000000
RESULT CIPHER-DECIPHER: -----OK-----


Test: 65
Symmetric key bit length: 192
IV bit length:            128
Plaintext bit length:     128
Symmetric key:            414141414141414141414141414141414141414141414141
IV:                       00000000000000000000000000000000
Plaintext:                00000000000000000000000000000000
Ciphertext:               25d63437bec2627742b9c232857724c05c785c77437c6a2f25d63437bec2627742b9c232857724c0
Reciphers for ciphertext: 0
Decipheredtext:           00000000000000000000000000000000
RESULT CIPHER-DECIPHER: -----OK-----


Test: 66
Symmetric key bit length: 192
IV bit length:            128
Plaintext bit length:     128
Symmetric key:            424242424242424242424242424242424242424242424242
IV:                       00000000000000000000000000000000
Plaintext:                00000000000000000000000000000000
Ciphertext:               2434dc30bf6b9882b17f4cbea84b8548b1643376cefca0a32434dc30bf6b9882b17f4cbea84b8548
Reciphers for ciphertext: 0
Decipheredtext:           00000000000000000000000000000000
RESULT CIPHER-DECIPHER: -----OK-----


Test: 67
Symmetric key bit length: 192
IV bit length:            128
Plaintext bit length:     128
Symmetric key:            434343434343434343434343434343434343434343434343
IV:                       00000000000000000000000000000000
Plaintext:                00000000000000000000000000000000
Ciphertext:               ffd195c08668b48502f26ca7d3dff6f8f5b618b02bdc9295ffd195c08668b48502f26ca7d3dff6f8
Reciphers for ciphertext: 0
Decipheredtext:           00000000000000000000000000000000
RESULT CIPHER-DECIPHER: -----OK-----


Test: 68
Symmetric key bit length: 192
IV bit length:            128
Plaintext bit length:     128
Symmetric key:            444444444444444444444444444444444444444444444444
IV:                       00000000000000000000000000000000
Plaintext:                00000000000000000000000000000000
Ciphertext:               a2239bb0aecb653dca3ec277df0f54796f183055955fd9bea2239bb0aecb653dca3ec277df0f5479
Reciphers for ciphertext: 0
Decipheredtext:           00000000000000000000000000000000
RESULT CIPHER-DECIPHER: -----OK-----


Test: 69
Symmetric key bit length: 192
IV bit length:            128
Plaintext bit length:     128
Symmetric key:            454545454545454545454545454545454545454545454545
IV:                       00000000000000000000000000000000
Plaintext:                00000000000000000000000000000000
Ciphertext:               351d2f350866706b6af9fdb3e4301c48362d4567704dc813351d2f350866706b6af9fdb3e4301c48
Reciphers for ciphertext: 0
Decipheredtext:           00000000000000000000000000000000
RESULT CIPHER-DECIPHER: -----OK-----


Test: 70
Symmetric key bit length: 192
IV bit length:            128
Plaintext bit length:     128
Symmetric key:            464646464646464646464646464646464646464646464646
IV:                       00000000000000000000000000000000
Plaintext:                00000000000000000000000000000000
Ciphertext:               1b2dd0343010a23c13c5d4ab8f83b016003a9b6e0980bb151b2dd0343010a23c13c5d4ab8f83b016
Reciphers for ciphertext: 0
Decipheredtext:           00000000000000000000000000000000
RESULT CIPHER-DECIPHER: -----OK-----


Test: 71
Symmetric key bit length: 192
IV bit length:            128
Plaintext bit length:     128
Symmetric key:            474747474747474747474747474747474747474747474747
IV:                       00000000000000000000000000000000
Plaintext:                00000000000000000000000000000000
Ciphertext:               54a4062ea7fc625e1bca644ad77f649583f4a30ed541450954a4062ea7fc625e1bca644ad77f6495
Reciphers for ciphertext: 0
Decipheredtext:           00000000000000000000000000000000
RESULT CIPHER-DECIPHER: -----OK-----


Test: 72
Symmetric key bit length: 192
IV bit length:            128
Plaintext bit length:     128
Symmetric key:            484848484848484848484848484848484848484848484848
IV:                       00000000000000000000000000000000
Plaintext:                00000000000000000000000000000000
Ciphertext:               6a375f2bbfb7fb60f9262a76b351212d609f436b78b3ce626a375f2bbfb7fb60f9262a76b351212d
Reciphers for ciphertext: 0
Decipheredtext:           00000000000000000000000000000000
RESULT CIPHER-DECIPHER: -----OK-----


Test: 73
Symmetric key bit length: 192
IV bit length:            128
Plaintext bit length:     128
Symmetric key:            494949494949494949494949494949494949494949494949
IV:                       00000000000000000000000000000000
Plaintext:                00000000000000000000000000000000
Ciphertext:               7c1b763673cf8903b2312aab2226559a825fd6b92bfa2e9f7c1b763673cf8903b2312aab2226559a
Reciphers for ciphertext: 0
Decipheredtext:           00000000000000000000000000000000
RESULT CIPHER-DECIPHER: -----OK-----


Test: 74
Symmetric key bit length: 192
IV bit length:            128
Plaintext bit length:     128
Symmetric key:            4a4a4a4a4a4a4a4a4a4a4a4a4a4a4a4a4a4a4a4a4a4a4a4a
IV:                       00000000000000000000000000000000
Plaintext:                00000000000000000000000000000000
Ciphertext:               b24256b16bc10626669897f7846fae14ff7e9a5615a00040b24256b16bc10626669897f7846fae14
Reciphers for ciphertext: 0
Decipheredtext:           00000000000000000000000000000000
RESULT CIPHER-DECIPHER: -----OK-----


Test: 75
Symmetric key bit length: 192
IV bit length:            128
Plaintext bit length:     128
Symmetric key:            4b4b4b4b4b4b4b4b4b4b4b4b4b4b4b4b4b4b4b4b4b4b4b4b
IV:                       00000000000000000000000000000000
Plaintext:                00000000000000000000000000000000
Ciphertext:               8757f222226dfe374541cbdaee84c235d4768fef6d89a2318757f222226dfe374541cbdaee84c235
Reciphers for ciphertext: 0
Decipheredtext:           00000000000000000000000000000000
RESULT CIPHER-DECIPHER: -----OK-----


Test: 76
Symmetric key bit length: 192
IV bit length:            128
Plaintext bit length:     128
Symmetric key:            4c4c4c4c4c4c4c4c4c4c4c4c4c4c4c4c4c4c4c4c4c4c4c4c
IV:                       00000000000000000000000000000000
Plaintext:                00000000000000000000000000000000
Ciphertext:               976e83ee37be5afe60abc78f040b7e34780944be5f675410976e83ee37be5afe60abc78f040b7e34
Reciphers for ciphertext: 0
Decipheredtext:           00000000000000000000000000000000
RESULT CIPHER-DECIPHER: -----OK-----


Test: 77
Symmetric key bit length: 192
IV bit length:            128
Plaintext bit length:     128
Symmetric key:            4d4d4d4d4d4d4d4d4d4d4d4d4d4d4d4d4d4d4d4d4d4d4d4d
IV:                       00000000000000000000000000000000
Plaintext:                00000000000000000000000000000000
Ciphertext:               eb4d6be26744c46757568c4af33eb8831732389e04d9335ceb4d6be26744c46757568c4af33eb883
Reciphers for ciphertext: 0
Decipheredtext:           00000000000000000000000000000000
RESULT CIPHER-DECIPHER: -----OK-----


Test: 78
Symmetric key bit length: 192
IV bit length:            128
Plaintext bit length:     128
Symmetric key:            4e4e4e4e4e4e4e4e4e4e4e4e4e4e4e4e4e4e4e4e4e4e4e4e
IV:                       00000000000000000000000000000000
Plaintext:                00000000000000000000000000000000
Ciphertext:               4dee50335a01a5426dbe7c1754c178c823d40539a8b6b5404dee50335a01a5426dbe7c1754c178c8
Reciphers for ciphertext: 0
Decipheredtext:           00000000000000000000000000000000
RESULT CIPHER-DECIPHER: -----OK-----


Test: 79
Symmetric key bit length: 192
IV bit length:            128
Plaintext bit length:     128
Symmetric key:            4f4f4f4f4f4f4f4f4f4f4f4f4f4f4f4f4f4f4f4f4f4f4f4f
IV:                       00000000000000000000000000000000
Plaintext:                00000000000000000000000000000000
Ciphertext:               1e2f2859d94f62c88be3abc3c1dd21d47f7bd205e96604631e2f2859d94f62c88be3abc3c1dd21d4
Reciphers for ciphertext: 0
Decipheredtext:           00000000000000000000000000000000
RESULT CIPHER-DECIPHER: -----OK-----


Test: 80
Symmetric key bit length: 192
IV bit length:            128
Plaintext bit length:     128
Symmetric key:            505050505050505050505050505050505050505050505050
IV:                       00000000000000000000000000000000
Plaintext:                00000000000000000000000000000000
Ciphertext:               d609f7854b1970e586d87683b3b625e04a7ea0e8c868284cd609f7854b1970e586d87683b3b625e0
Reciphers for ciphertext: 0
Decipheredtext:           00000000000000000000000000000000
RESULT CIPHER-DECIPHER: -----OK-----


Test: 81
Symmetric key bit length: 192
IV bit length:            128
Plaintext bit length:     128
Symmetric key:            515151515151515151515151515151515151515151515151
IV:                       00000000000000000000000000000000
Plaintext:                00000000000000000000000000000000
Ciphertext:               fe920a8fcceed3f395e39071cb27ce844779f8640de9834dfe920a8fcceed3f395e39071cb27ce84
Reciphers for ciphertext: 0
Decipheredtext:           00000000000000000000000000000000
RESULT CIPHER-DECIPHER: -----OK-----


Test: 82
Symmetric key bit length: 192
IV bit length:            128
Plaintext bit length:     128
Symmetric key:            525252525252525252525252525252525252525252525252
IV:                       00000000000000000000000000000000
Plaintext:                00000000000000000000000000000000
Ciphertext:               ef6d2325a405dd76c8b8b06f1ae51adb4837eb098c096b8fef6d2325a405dd76c8b8b06f1ae51adb
Reciphers for ciphertext: 0
Decipheredtext:           00000000000000000000000000000000
RESULT CIPHER-DECIPHER: -----OK-----


Test: 83
Symmetric key bit length: 192
IV bit length:            128
Plaintext bit length:     128
Symmetric key:            535353535353535353535353535353535353535353535353
IV:                       00000000000000000000000000000000
Plaintext:                00000000000000000000000000000000
Ciphertext:               02f9ce697e354407be3c9d3cdccfae50963aa5669aa383be02f9ce697e354407be3c9d3cdccfae50
Reciphers for ciphertext: 0
Decipheredtext:           00000000000000000000000000000000
RESULT CIPHER-DECIPHER: -----OK-----


Test: 84
Symmetric key bit length: 192
IV bit length:            128
Plaintext bit length:     128
Symmetric key:            545454545454545454545454545454545454545454545454
IV:                       00000000000000000000000000000000
Plaintext:                00000000000000000000000000000000
Ciphertext:               5da56465c6ddde147668df69470e175a62fc0fcc87c0ead85da56465c6ddde147668df69470e175a
Reciphers for ciphertext: 0
Decipheredtext:           00000000000000000000000000000000
RESULT CIPHER-DECIPHER: -----OK-----


Test: 85
Symmetric key bit length: 192
IV bit length:            128
Plaintext bit length:     128
Symmetric key:            555555555555555555555555555555555555555555555555
IV:                       00000000000000000000000000000000
Plaintext:                00000000000000000000000000000000
Ciphertext:               eea5fd79780317a49ca84c9a194d2879ed1e8d4be785ed28eea5fd79780317a49ca84c9a194d2879
Reciphers for ciphertext: 0
Decipheredtext:           00000000000000000000000000000000
RESULT CIPHER-DECIPHER: -----OK-----


Test: 86
Symmetric key bit length: 192
IV bit length:            128
Plaintext bit length:     128
Symmetric key:            565656565656565656565656565656565656565656565656
IV:                       00000000000000000000000000000000
Plaintext:                00000000000000000000000000000000
Ciphertext:               66076c42e369528e5f2f4a3c9651c08c0b09e2c5749da9ab66076c42e369528e5f2f4a3c9651c08c
Reciphers for ciphertext: 0
Decipheredtext:           00000000000000000000000000000000
RESULT CIPHER-DECIPHER: -----OK-----


Test: 87
Symmetric key bit length: 192
IV bit length:            128
Plaintext bit length:     128
Symmetric key:            575757575757575757575757575757575757575757575757
IV:                       00000000000000000000000000000000
Plaintext:                00000000000000000000000000000000
Ciphertext:               9803714610ef04437f51ed0d2b3e012d92f105c86d62e2739803714610ef04437f51ed0d2b3e012d
Reciphers for ciphertext: 0
Decipheredtext:           00000000000000000000000000000000
RESULT CIPHER-DECIPHER: -----OK-----


Test: 88
Symmetric key bit length: 192
IV bit length:            128
Plaintext bit length:     128
Symmetric key:            585858585858585858585858585858585858585858585858
IV:                       00000000000000000000000000000000
Plaintext:                00000000000000000000000000000000
Ciphertext:               1b23fcbb497c976ff7cde9abec0fd7ca1f931fb076dd08091b23fcbb497c976ff7cde9abec0fd7ca
Reciphers for ciphertext: 0
Decipheredtext:           00000000000000000000000000000000
RESULT CIPHER-DECIPHER: -----OK-----


Test: 89
Symmetric key bit length: 192
IV bit length:            128
Plaintext bit length:     128
Symmetric key:            595959595959595959595959595959595959595959595959
IV:                       00000000000000000000000000000000
Plaintext:                00000000000000000000000000000000
Ciphertext:               83e7af0c08e8d63ca032d735112a86e421c1a229c0bbaec983e7af0c08e8d63ca032d735112a86e4
Reciphers for ciphertext: 0
Decipheredtext:           00000000000000000000000000000000
RESULT CIPHER-DECIPHER: -----OK-----


Test: 90
Symmetric key bit length: 192
IV bit length:            128
Plaintext bit length:     128
Symmetric key:            5a5a5a5a5a5a5a5a5a5a5a5a5a5a5a5a5a5a5a5a5a5a5a5a
IV:                       00000000000000000000000000000000
Plaintext:                00000000000000000000000000000000
Ciphertext:               0510c17eeeed1d02ce77d6ba01f6ae1d413f032e7633b3a5faef3e811112e2fd31882945fe0951e2
Reciphers for ciphertext: 1
Decipheredtext:           00000000000000000000000000000000
RESULT CIPHER-DECIPHER: -----OK-----


Test: 91
Symmetric key bit length: 192
IV bit length:            128
Plaintext bit length:     128
Symmetric key:            5b5b5b5b5b5b5b5b5b5b5b5b5b5b5b5b5b5b5b5b5b5b5b5b
IV:                       00000000000000000000000000000000
Plaintext:                00000000000000000000000000000000
Ciphertext:               12c9c24397f0389c5e1c3d436324acc157134b0c4d72bc6312c9c24397f0389c5e1c3d436324acc1
Reciphers for ciphertext: 0
Decipheredtext:           00000000000000000000000000000000
RESULT CIPHER-DECIPHER: -----OK-----


Test: 92
Symmetric key bit length: 192
IV bit length:            128
Plaintext bit length:     128
Symmetric key:            5c5c5c5c5c5c5c5c5c5c5c5c5c5c5c5c5c5c5c5c5c5c5c5c
IV:                       00000000000000000000000000000000
Plaintext:                00000000000000000000000000000000
Ciphertext:               021b0fb9922fb34ea28ba906398a989eedcb6111c3d79bb3021b0fb9922fb34ea28ba906398a989e
Reciphers for ciphertext: 0
Decipheredtext:           00000000000000000000000000000000
RESULT CIPHER-DECIPHER: -----OK-----


Test: 93
Symmetric key bit length: 192
IV bit length:            128
Plaintext bit length:     128
Symmetric key:            5d5d5d5d5d5d5d5d5d5d5d5d5d5d5d5d5d5d5d5d5d5d5d5d
IV:                       00000000000000000000000000000000
Plaintext:                00000000000000000000000000000000
Ciphertext:               c9b15828205c0531a0e2b06ec12c5e02e3ba7519af416d1cc9b15828205c0531a0e2b06ec12c5e02
Reciphers for ciphertext: 0
Decipheredtext:           00000000000000000000000000000000
RESULT CIPHER-DECIPHER: -----OK-----


Test: 94
Symmetric key bit length: 192
IV bit length:            128
Plaintext bit length:     128
Symmetric key:            5e5e5e5e5e5e5e5e5e5e5e5e5e5e5e5e5e5e5e5e5e5e5e5e
IV:                       00000000000000000000000000000000
Plaintext:                00000000000000000000000000000000
Ciphertext:               e858fc3968be1bd48946d39f13d69da73c36d6e01a21bd57e858fc3968be1bd48946d39f13d69da7
Reciphers for ciphertext: 0
Decipheredtext:           00000000000000000000000000000000
RESULT CIPHER-DECIPHER: -----OK-----


Test: 95
Symmetric key bit length: 192
IV bit length:            128
Plaintext bit length:     128
Symmetric key:            5f5f5f5f5f5f5f5f5f5f5f5f5f5f5f5f5f5f5f5f5f5f5f5f
IV:                       00000000000000000000000000000000
Plaintext:                00000000000000000000000000000000
Ciphertext:               e232aeba2861dcd3ab706d3728013c614a3bbbae26f95874e232aeba2861dcd3ab706d3728013c61
Reciphers for ciphertext: 0
Decipheredtext:           00000000000000000000000000000000
RESULT CIPHER-DECIPHER: -----OK-----


Test: 96
Symmetric key bit length: 192
IV bit length:            128
Plaintext bit length:     128
Symmetric key:            606060606060606060606060606060606060606060606060
IV:                       00000000000000000000000000000000
Plaintext:                00000000000000000000000000000000
Ciphertext:               7174a4db8a7ea5b03bd85448cb73cc6095021a5c6d3a508f7174a4db8a7ea5b03bd85448cb73cc60
Reciphers for ciphertext: 0
Decipheredtext:           00000000000000000000000000000000
RESULT CIPHER-DECIPHER: -----OK-----


Test: 97
Symmetric key bit length: 192
IV bit length:            128
Plaintext bit length:     128
Symmetric key:            616161616161616161616161616161616161616161616161
IV:                       00000000000000000000000000000000
Plaintext:                00000000000000000000000000000000
Ciphertext:               07002f05faecd9301a1d5459a8463cade88f99407f28357b07002f05faecd9301a1d5459a8463cad
Reciphers for ciphertext: 0
Decipheredtext:           00000000000000000000000000000000
RESULT CIPHER-DECIPHER: -----OK-----


Test: 98
Symmetric key bit length: 192
IV bit length:            128
Plaintext bit length:     128
Symmetric key:            626262626262626262626262626262626262626262626262
IV:                       00000000000000000000000000000000
Plaintext:                00000000000000000000000000000000
Ciphertext:               42f9db2a8e7014c586145552b5b3faf550ca47212002138742f9db2a8e7014c586145552b5b3faf5
Reciphers for ciphertext: 0
Decipheredtext:           00000000000000000000000000000000
RESULT CIPHER-DECIPHER: -----OK-----


Test: 99
Symmetric key bit length: 192
IV bit length:            128
Plaintext bit length:     128
Symmetric key:            636363636363636363636363636363636363636363636363
IV:                       00000000000000000000000000000000
Plaintext:                00000000000000000000000000000000
Ciphertext:               b400a56f8ec6c0460224244d90b7ad5bb5aad09b94a16e9ab400a56f8ec6c0460224244d90b7ad5b
Reciphers for ciphertext: 0
Decipheredtext:           00000000000000000000000000000000
RESULT CIPHER-DECIPHER: -----OK-----


Test: 100
Symmetric key bit length: 192
IV bit length:            128
Plaintext bit length:     128
Symmetric key:            646464646464646464646464646464646464646464646464
IV:                       00000000000000000000000000000000
Plaintext:                00000000000000000000000000000000
Ciphertext:               3310851bdcf986e80140aba315350c922560ee202da169953310851bdcf986e80140aba315350c92
Reciphers for ciphertext: 0
Decipheredtext:           00000000000000000000000000000000
RESULT CIPHER-DECIPHER: -----OK-----


Test: 101
Symmetric key bit length: 192
IV bit length:            128
Plaintext bit length:     128
Symmetric key:            656565656565656565656565656565656565656565656565
IV:                       00000000000000000000000000000000
Plaintext:                00000000000000000000000000000000
Ciphertext:               3cb6e48b309df4d52b8c779d49a2135465dd97bf234c33a23cb6e48b309df4d52b8c779d49a21354
Reciphers for ciphertext: 0
Decipheredtext:           00000000000000000000000000000000
RESULT CIPHER-DECIPHER: -----OK-----


Test: 102
Symmetric key bit length: 192
IV bit length:            128
Plaintext bit length:     128
Symmetric key:            666666666666666666666666666666666666666666666666
IV:                       00000000000000000000000000000000
Plaintext:                00000000000000000000000000000000
Ciphertext:               7065aefb6ce1b42439b8c6fdc5118a8064e68a7882c6fa377065aefb6ce1b42439b8c6fdc5118a80
Reciphers for ciphertext: 0
Decipheredtext:           00000000000000000000000000000000
RESULT CIPHER-DECIPHER: -----OK-----


Test: 103
Symmetric key bit length: 192
IV bit length:            128
Plaintext bit length:     128
Symmetric key:            676767676767676767676767676767676767676767676767
IV:                       00000000000000000000000000000000
Plaintext:                00000000000000000000000000000000
Ciphertext:               847e98b3334011829d50895dda9eb19ec7f6d5513f8075a2847e98b3334011829d50895dda9eb19e
Reciphers for ciphertext: 0
Decipheredtext:           00000000000000000000000000000000
RESULT CIPHER-DECIPHER: -----OK-----


Test: 104
Symmetric key bit length: 192
IV bit length:            128
Plaintext bit length:     128
Symmetric key:            686868686868686868686868686868686868686868686868
IV:                       00000000000000000000000000000000
Plaintext:                00000000000000000000000000000000
Ciphertext:               7be28ddd755bdce9788be2da7001b34b6bf508594894c8687be28ddd755bdce9788be2da7001b34b
Reciphers for ciphertext: 0
Decipheredtext:           00000000000000000000000000000000
RESULT CIPHER-DECIPHER: -----OK-----


Test: 105
Symmetric key bit length: 192
IV bit length:            128
Plaintext bit length:     128
Symmetric key:            696969696969696969696969696969696969696969696969
IV:                       00000000000000000000000000000000
Plaintext:                00000000000000000000000000000000
Ciphertext:               a6791bcf3bd363d481bf6b5094dd054bc7f5136f21b4a86ea6791bcf3bd363d481bf6b5094dd054b
Reciphers for ciphertext: 0
Decipheredtext:           00000000000000000000000000000000
RESULT CIPHER-DECIPHER: -----OK-----


Test: 106
Symmetric key bit length: 192
IV bit length:            128
Plaintext bit length:     128
Symmetric key:            6a6a6a6a6a6a6a6a6a6a6a6a6a6a6a6a6a6a6a6a6a6a6a6a
IV:                       00000000000000000000000000000000
Plaintext:                00000000000000000000000000000000
Ciphertext:               cb5d313411dae2d9284e407260dc3b91964e268635dd119ccb5d313411dae2d9284e407260dc3b91
Reciphers for ciphertext: 0
Decipheredtext:           00000000000000000000000000000000
RESULT CIPHER-DECIPHER: -----OK-----


Test: 107
Symmetric key bit length: 192
IV bit length:            128
Plaintext bit length:     128
Symmetric key:            6b6b6b6b6b6b6b6b6b6b6b6b6b6b6b6b6b6b6b6b6b6b6b6b
IV:                       00000000000000000000000000000000
Plaintext:                00000000000000000000000000000000
Ciphertext:               a8dc317f1d8336ce93c8575019f2a4827d703723057e89b5a8dc317f1d8336ce93c8575019f2a482
Reciphers for ciphertext: 0
Decipheredtext:           00000000000000000000000000000000
RESULT CIPHER-DECIPHER: -----OK-----


Test: 108
Symmetric key bit length: 192
IV bit length:            128
Plaintext bit length:     128
Symmetric key:            6c6c6c6c6c6c6c6c6c6c6c6c6c6c6c6c6c6c6c6c6c6c6c6c
IV:                       00000000000000000000000000000000
Plaintext:                00000000000000000000000000000000
Ciphertext:               e72a350e0373fc61e732eecb1ecfa54a9cd40b7a5bc2160de72a350e0373fc61e732eecb1ecfa54a
Reciphers for ciphertext: 0
Decipheredtext:           00000000000000000000000000000000
RESULT CIPHER-DECIPHER: -----OK-----


Test: 109
Symmetric key bit length: 192
IV bit length:            128
Plaintext bit length:     128
Symmetric key:            6d6d6d6d6d6d6d6d6d6d6d6d6d6d6d6d6d6d6d6d6d6d6d6d
IV:                       00000000000000000000000000000000
Plaintext:                00000000000000000000000000000000
Ciphertext:               081e63176b85211c3090ae0d1bac2865e254f1bf51d58647081e63176b85211c3090ae0d1bac2865
Reciphers for ciphertext: 0
Decipheredtext:           00000000000000000000000000000000
RESULT CIPHER-DECIPHER: -----OK-----


Test: 110
Symmetric key bit length: 192
IV bit length:            128
Plaintext bit length:     128
Symmetric key:            6e6e6e6e6e6e6e6e6e6e6e6e6e6e6e6e6e6e6e6e6e6e6e6e
IV:                       00000000000000000000000000000000
Plaintext:                00000000000000000000000000000000
Ciphertext:               2bf827830079b359e2fcac0e791b4804267aea91c83ea1052bf827830079b359e2fcac0e791b4804
Reciphers for ciphertext: 0
Decipheredtext:           00000000000000000000000000000000
RESULT CIPHER-DECIPHER: -----OK-----


Test: 111
Symmetric key bit length: 192
IV bit length:            128
Plaintext bit length:     128
Symmetric key:            6f6f6f6f6f6f6f6f6f6f6f6f6f6f6f6f6f6f6f6f6f6f6f6f
IV:                       00000000000000000000000000000000
Plaintext:                00000000000000000000000000000000
Ciphertext:               21a4189673224537006a2cf2adb4ffe40d3cdf1ddfbcf41e21a4189673224537006a2cf2adb4ffe4
Reciphers for ciphertext: 0
Decipheredtext:           00000000000000000000000000000000
RESULT CIPHER-DECIPHER: -----OK-----


Test: 112
Symmetric key bit length: 192
IV bit length:            128
Plaintext bit length:     128
Symmetric key:            707070707070707070707070707070707070707070707070
IV:                       00000000000000000000000000000000
Plaintext:                00000000000000000000000000000000
Ciphertext:               2b3d865e34d0b1cd9d54bb5dd6f6456c91dba6c2257426192b3d865e34d0b1cd9d54bb5dd6f6456c
Reciphers for ciphertext: 0
Decipheredtext:           00000000000000000000000000000000
RESULT CIPHER-DECIPHER: -----OK-----


Test: 113
Symmetric key bit length: 192
IV bit length:            128
Plaintext bit length:     128
Symmetric key:            717171717171717171717171717171717171717171717171
IV:                       00000000000000000000000000000000
Plaintext:                00000000000000000000000000000000
Ciphertext:               bc0dcde24294bdca3ca21925ce179a96ef16a22f7de7eeadbc0dcde24294bdca3ca21925ce179a96
Reciphers for ciphertext: 0
Decipheredtext:           00000000000000000000000000000000
RESULT CIPHER-DECIPHER: -----OK-----


Test: 114
Symmetric key bit length: 192
IV bit length:            128
Plaintext bit length:     128
Symmetric key:            727272727272727272727272727272727272727272727272
IV:                       00000000000000000000000000000000
Plaintext:                00000000000000000000000000000000
Ciphertext:               fb57187cd04a3d9b8c66e05a5d93b97f1d428e8c1383b6d4fb57187cd04a3d9b8c66e05a5d93b97f
Reciphers for ciphertext: 0
Decipheredtext:           00000000000000000000000000000000
RESULT CIPHER-DECIPHER: -----OK-----


Test: 115
Symmetric key bit length: 192
IV bit length:            128
Plaintext bit length:     128
Symmetric key:            737373737373737373737373737373737373737373737373
IV:                       00000000000000000000000000000000
Plaintext:                00000000000000000000000000000000
Ciphertext:               95779d946198fce708ae08cb3adc912d86bae4bdb484a27895779d946198fce708ae08cb3adc912d
Reciphers for ciphertext: 0
Decipheredtext:           00000000000000000000000000000000
RESULT CIPHER-DECIPHER: -----OK-----


Test: 116
Symmetric key bit length: 192
IV bit length:            128
Plaintext bit length:     128
Symmetric key:            747474747474747474747474747474747474747474747474
IV:                       00000000000000000000000000000000
Plaintext:                00000000000000000000000000000000
Ciphertext:               b575f2947b87a357a404af9d7e27cfbaf82ac1380c51ba2eb575f2947b87a357a404af9d7e27cfba
Reciphers for ciphertext: 0
Decipheredtext:           00000000000000000000000000000000
RESULT CIPHER-DECIPHER: -----OK-----


Test: 117
Symmetric key bit length: 192
IV bit length:            128
Plaintext bit length:     128
Symmetric key:            757575757575757575757575757575757575757575757575
IV:                       00000000000000000000000000000000
Plaintext:                00000000000000000000000000000000
Ciphertext:               261d41b60139234768fcb0474cd586e4349aa5f37688cc78261d41b60139234768fcb0474cd586e4
Reciphers for ciphertext: 0
Decipheredtext:           00000000000000000000000000000000
RESULT CIPHER-DECIPHER: -----OK-----


Test: 118
Symmetric key bit length: 192
IV bit length:            128
Plaintext bit length:     128
Symmetric key:            767676767676767676767676767676767676767676767676
IV:                       00000000000000000000000000000000
Plaintext:                00000000000000000000000000000000
Ciphertext:               09cc18a55691aad931feab6afcea9d53a394c405dedb91ec09cc18a55691aad931feab6afcea9d53
Reciphers for ciphertext: 0
Decipheredtext:           00000000000000000000000000000000
RESULT CIPHER-DECIPHER: -----OK-----


Test: 119
Symmetric key bit length: 192
IV bit length:            128
Plaintext bit length:     128
Symmetric key:            777777777777777777777777777777777777777777777777
IV:                       00000000000000000000000000000000
Plaintext:                00000000000000000000000000000000
Ciphertext:               ea6bc4729c2b1381ab09d70699dc4471fc1d2058250a12a0ea6bc4729c2b1381ab09d70699dc4471
Reciphers for ciphertext: 0
Decipheredtext:           00000000000000000000000000000000
RESULT CIPHER-DECIPHER: -----OK-----


Test: 120
Symmetric key bit length: 192
IV bit length:            128
Plaintext bit length:     128
Symmetric key:            787878787878787878787878787878787878787878787878
IV:                       00000000000000000000000000000000
Plaintext:                00000000000000000000000000000000
Ciphertext:               795e9a5cefdf85bb87d5eedbf60c223835fbcb62e7d779f386a165a310207a44782a112409f3ddc7
Reciphers for ciphertext: 1
Decipheredtext:           00000000000000000000000000000000
RESULT CIPHER-DECIPHER: -----OK-----


Test: 121
Symmetric key bit length: 192
IV bit length:            128
Plaintext bit length:     128
Symmetric key:            797979797979797979797979797979797979797979797979
IV:                       00000000000000000000000000000000
Plaintext:                00000000000000000000000000000000
Ciphertext:               6bcd0421d821ec2eeaebfab3cbef3b78605ee477b8c8ddd66bcd0421d821ec2eeaebfab3cbef3b78
Reciphers for ciphertext: 0
Decipheredtext:           00000000000000000000000000000000
RESULT CIPHER-DECIPHER: -----OK-----


Test: 122
Symmetric key bit length: 192
IV bit length:            128
Plaintext bit length:     128
Symmetric key:            7a7a7a7a7a7a7a7a7a7a7a7a7a7a7a7a7a7a7a7a7a7a7a7a
IV:                       00000000000000000000000000000000
Plaintext:                00000000000000000000000000000000
Ciphertext:               87caa23afc23e15405282d32964d69ec1243c3db4505281787caa23afc23e15405282d32964d69ec
Reciphers for ciphertext: 0
Decipheredtext:           00000000000000000000000000000000
RESULT CIPHER-DECIPHER: -----OK-----


Test: 123
Symmetric key bit length: 192
IV bit length:            128
Plaintext bit length:     128
Symmetric key:            7b7b7b7b7b7b7b7b7b7b7b7b7b7b7b7b7b7b7b7b7b7b7b7b
IV:                       00000000000000000000000000000000
Plaintext:                00000000000000000000000000000000
Ciphertext:               e0c23ff5c334f11915da78281b6dbd5a9affa597383ab776e0c23ff5c334f11915da78281b6dbd5a
Reciphers for ciphertext: 0
Decipheredtext:           00000000000000000000000000000000
RESULT CIPHER-DECIPHER: -----OK-----


Test: 124
Symmetric key bit length: 192
IV bit length:            128
Plaintext bit length:     128
Symmetric key:            7c7c7c7c7c7c7c7c7c7c7c7c7c7c7c7c7c7c7c7c7c7c7c7c
IV:                       00000000000000000000000000000000
Plaintext:                00000000000000000000000000000000
Ciphertext:               284a125f8d3f8d99679ace2be765d53d9a3414ac5ffe38d1284a125f8d3f8d99679ace2be765d53d
Reciphers for ciphertext: 0
Decipheredtext:           00000000000000000000000000000000
RESULT CIPHER-DECIPHER: -----OK-----


Test: 125
Symmetric key bit length: 192
IV bit length:            128
Plaintext bit length:     128
Symmetric key:            7d7d7d7d7d7d7d7d7d7d7d7d7d7d7d7d7d7d7d7d7d7d7d7d
IV:                       00000000000000000000000000000000
Plaintext:                00000000000000000000000000000000
Ciphertext:               0534bf4984d3b7d2ecd9ac0bb41a199bb12f89a9f80caa1f0534bf4984d3b7d2ecd9ac0bb41a199b
Reciphers for ciphertext: 0
Decipheredtext:           00000000000000000000000000000000
RESULT CIPHER-DECIPHER: -----OK-----


Test: 126
Symmetric key bit length: 192
IV bit length:            128
Plaintext bit length:     128
Symmetric key:            7e7e7e7e7e7e7e7e7e7e7e7e7e7e7e7e7e7e7e7e7e7e7e7e
IV:                       00000000000000000000000000000000
Plaintext:                00000000000000000000000000000000
Ciphertext:               c8792d580a223c3583db33cafe8530b9f670fe9995e41054c8792d580a223c3583db33cafe8530b9
Reciphers for ciphertext: 0
Decipheredtext:           00000000000000000000000000000000
RESULT CIPHER-DECIPHER: -----OK-----


Test: 127
Symmetric key bit length: 192
IV bit length:            128
Plaintext bit length:     128
Symmetric key:            7f7f7f7f7f7f7f7f7f7f7f7f7f7f7f7f7f7f7f7f7f7f7f7f
IV:                       00000000000000000000000000000000
Plaintext:                00000000000000000000000000000000
Ciphertext:               46c041d4ecd356a099b352ef6011e5f6bd8324f55b2d52a446c041d4ecd356a099b352ef6011e5f6
Reciphers for ciphertext: 0
Decipheredtext:           00000000000000000000000000000000
RESULT CIPHER-DECIPHER: -----OK-----


 DATA SHA1 (hexadecimal): 7a0ba761eff9ba5e81679ab18a41c551ff518e1a

